what,kind,bundleId,bundleVersion,description,time
error,log,,,"Failed to load properties file for project 'MediaPlayer'",1422975176587
error,log,,,"Failed to load properties file for project 'MediaPlayer'",1422975176838
error,log,,,"Failed to load properties file for project 'MyDemo'",1422975176886
error,log,,,"Failed to load properties file for project 'MyDemo'",1422975177357
error,log,,,"Failed to load properties file for project 'NumberJump'",1422975177406
error,log,,,"Failed to load properties file for project 'NumberJump'",1422975178080
error,log,,,"Failed to load properties file for project 'ParanormalActivity'",1422975178127
error,log,,,"Failed to load properties file for project 'ParanormalActivity'",1422975178266
error,log,,,"Failed to load properties file for project 'PulmonaryDemo'",1422975178313
error,log,,,"Failed to load properties file for project 'PulmonaryDemo'",1422975179516
error,log,,,"Failed to load properties file for project 'SMS'",1422975179567
error,log,,,"Failed to load properties file for project 'SMS'",1422975179997
error,log,,,"Failed to load properties file for project 'SQLiteDatabase'",1422975180045
error,log,,,"Failed to load properties file for project 'SQLiteDatabase'",1422975180637
error,log,,,"Failed to load properties file for project 'SensorList'",1422975180689
error,log,,,"Failed to load properties file for project 'SensorList'",1422975181233
error,log,,,"Failed to load properties file for project 'SensorListYM'",1422975181288
error,log,,,"Failed to load properties file for project 'SensorListYM'",1422975181837
error,log,,,"Failed to load properties file for project 'Shudu'",1422975181887
error,log,,,"Failed to load properties file for project 'Shudu'",1422975182174
error,log,,,"Failed to load properties file for project 'SoundMeter'",1422975182628
error,log,,,"Failed to load properties file for project 'SoundMeter'",1422975184326
error,log,,,"Failed to load properties file for project 'Test'",1422975184382
error,log,,,"Failed to load properties file for project 'Test'",1422975184551
error,log,,,"Failed to load properties file for project 'YoumiNormalAdsDemo'",1422975184600
