what,kind,bundleId,bundleVersion,description,time
locale,sysinfo,,,"zh_CN",1422975069533
processors,sysinfo,,,"4",1422975069533
java.runtime.name,sysinfo,,,"Java(TM) SE Runtime Environment",1422975069533
java.runtime.version,sysinfo,,,"1.6.0_03-b05",1422975069533
java.specification.name,sysinfo,,,"Java Platform API Specification",1422975069533
java.specification.vendor,sysinfo,,,"Sun Microsystems Inc.",1422975069533
java.specification.version,sysinfo,,,"1.6",1422975069533
java.vendor,sysinfo,,,"Sun Microsystems Inc.",1422975069533
java.version,sysinfo,,,"1.6.0_03",1422975069533
java.vm.info,sysinfo,,,"mixed mode",1422975069533
java.vm.name,sysinfo,,,"Java HotSpot(TM) Client VM",1422975069533
java.vm.specification.name,sysinfo,,,"Java Virtual Machine Specification",1422975069533
java.vm.specification.vendor,sysinfo,,,"Sun Microsystems Inc.",1422975069533
java.vm.specification.version,sysinfo,,,"1.0",1422975069533
java.vm.vendor,sysinfo,,,"Sun Microsystems Inc.",1422975069533
java.vm.version,sysinfo,,,"1.6.0_03-b05",1422975069533
started,bundle,org.eclipse.epp.usagedata.ui,1.1.0.R200906100410,"org.eclipse.epp.usagedata.ui",1422975073491
deactivated,workbench,org.eclipse.ui.workbench,3.5.1.M20090826-0800a,"",1422975077888
activated,workbench,org.eclipse.ui.workbench,3.5.1.M20090826-0800a,"",1422975083320
started,bundle,org.eclipse.mylyn.monitor.ui,3.2.2.v20090912-0400-e3x,"org.eclipse.mylyn.monitor.ui",1422975084660
activated,view,org.eclipse.ui.console,3.4.0.v20090513,"org.eclipse.ui.console.ConsoleView",1422975086311
activated,view,org.eclipse.ui.navigator.resources,3.4.1.M20090826-0800,"org.eclipse.ui.navigator.ProjectExplorer",1422975088822
started,bundle,org.eclipse.jst.servlet.ui,1.1.301.v200908101600,"org.eclipse.jst.servlet.ui",1422975099580
started,bundle,org.eclipse.compare.core,3.5.0.I20090430-0408,"org.eclipse.compare.core",1422975120258
opened,editor,org.eclipse.jdt.ui,3.5.1.r351_v20090821-0800,"org.eclipse.jdt.ui.CompilationUnitEditor",1422975121363
