what,kind,bundleId,bundleVersion,description,time
executed,command,org.eclipse.ui,3.5.1.M20090902-1000,"org.eclipse.ui.edit.paste",1414650754115
activated,editor,com.android.ide.eclipse.adt,12.0.0.v201106281929-138431,"com.android.ide.eclipse.editors.layout.LayoutEditor",1414650756143
executed,command,org.eclipse.ui,3.5.1.M20090902-1000,"org.eclipse.ui.edit.copy",1414650760574
activated,editor,com.android.ide.eclipse.adt,12.0.0.v201106281929-138431,"com.android.ide.eclipse.editors.resources.ResourcesEditor",1414650761692
executed,command,org.eclipse.ui,3.5.1.M20090902-1000,"org.eclipse.ui.edit.paste",1414650763157
executed,command,org.eclipse.ui,3.5.1.M20090902-1000,"org.eclipse.ui.file.save",1414650764746
executed,command,org.eclipse.ui,3.5.1.M20090902-1000,"org.eclipse.ui.file.save",1414650787344
activated,editor,com.android.ide.eclipse.adt,12.0.0.v201106281929-138431,"com.android.ide.eclipse.editors.layout.LayoutEditor",1414650788665
executed,command,org.eclipse.ui,3.5.1.M20090902-1000,"org.eclipse.ui.edit.text.contentAssist.proposals",1414650877367
executed,command,org.eclipse.ui,3.5.1.M20090902-1000,"org.eclipse.ui.edit.text.contentAssist.proposals",1414650878548
executed,command,org.eclipse.ui,3.5.1.M20090902-1000,"org.eclipse.ui.edit.text.contentAssist.proposals",1414650880328
deactivated,workbench,org.eclipse.ui.workbench,3.5.1.M20090826-0800a,"",1414650887682
activated,workbench,org.eclipse.ui.workbench,3.5.1.M20090826-0800a,"",1414650903262
deactivated,workbench,org.eclipse.ui.workbench,3.5.1.M20090826-0800a,"",1414650954565
activated,workbench,org.eclipse.ui.workbench,3.5.1.M20090826-0800a,"",1414650960483
executed,command,org.eclipse.ui,3.5.1.M20090902-1000,"org.eclipse.ui.file.save",1414651000058
executed,command,org.eclipse.ui,3.5.1.M20090902-1000,"org.eclipse.ui.edit.text.contentAssist.proposals",1414651007430
executed,command,org.eclipse.ui,3.5.1.M20090902-1000,"org.eclipse.ui.file.save",1414651009885
executed,command,org.eclipse.ui,3.5.1.M20090902-1000,"org.eclipse.ui.edit.text.contentAssist.proposals",1414651063168
deactivated,workbench,org.eclipse.ui.workbench,3.5.1.M20090826-0800a,"",1414651094979
activated,workbench,org.eclipse.ui.workbench,3.5.1.M20090826-0800a,"",1414651115052
deactivated,workbench,org.eclipse.ui.workbench,3.5.1.M20090826-0800a,"",1414651119114
activated,workbench,org.eclipse.ui.workbench,3.5.1.M20090826-0800a,"",1414651123899
deactivated,workbench,org.eclipse.ui.workbench,3.5.1.M20090826-0800a,"",1414651144555
activated,workbench,org.eclipse.ui.workbench,3.5.1.M20090826-0800a,"",1414651150228
