what,kind,bundleId,bundleVersion,description,time
activated,workbench,org.eclipse.ui.workbench,3.5.1.M20090826-0800a,"",1414652541561
deactivated,workbench,org.eclipse.ui.workbench,3.5.1.M20090826-0800a,"",1414652541883
activated,workbench,org.eclipse.ui.workbench,3.5.1.M20090826-0800a,"",1414652554733
activated,editor,com.android.ide.eclipse.adt,12.0.0.v201106281929-138431,"com.android.ide.eclipse.editors.layout.LayoutEditor",1414652554794
executed,command,org.eclipse.ui,3.5.1.M20090902-1000,"org.eclipse.ui.edit.undo",1414652556977
executed,command,org.eclipse.ui,3.5.1.M20090902-1000,"org.eclipse.ui.file.save",1414652559013
activated,editor,com.android.ide.eclipse.adt,12.0.0.v201106281929-138431,"com.android.ide.eclipse.editors.layout.LayoutEditor",1414652562345
activated,editor,com.android.ide.eclipse.adt,12.0.0.v201106281929-138431,"com.android.ide.eclipse.editors.layout.LayoutEditor",1414652565403
closed,editor,com.android.ide.eclipse.adt,12.0.0.v201106281929-138431,"com.android.ide.eclipse.editors.layout.LayoutEditor",1414652565403
activated,editor,org.eclipse.jdt.ui,3.5.1.r351_v20090821-0800,"org.eclipse.jdt.ui.CompilationUnitEditor",1414652566338
activated,editor,org.eclipse.jdt.ui,3.5.1.r351_v20090821-0800,"org.eclipse.jdt.ui.CompilationUnitEditor",1414652568803
deactivated,workbench,org.eclipse.ui.workbench,3.5.1.M20090826-0800a,"",1414652608943
activated,workbench,org.eclipse.ui.workbench,3.5.1.M20090826-0800a,"",1414652609067
activated,editor,com.android.ide.eclipse.adt,12.0.0.v201106281929-138431,"com.android.ide.eclipse.editors.layout.LayoutEditor",1414652617755
activated,editor,org.eclipse.jdt.ui,3.5.1.r351_v20090821-0800,"org.eclipse.jdt.ui.CompilationUnitEditor",1414652629054
deactivated,workbench,org.eclipse.ui.workbench,3.5.1.M20090826-0800a,"",1414652674914
activated,workbench,org.eclipse.ui.workbench,3.5.1.M20090826-0800a,"",1414652676118
deactivated,workbench,org.eclipse.ui.workbench,3.5.1.M20090826-0800a,"",1414652687339
activated,workbench,org.eclipse.ui.workbench,3.5.1.M20090826-0800a,"",1414652688076
deactivated,workbench,org.eclipse.ui.workbench,3.5.1.M20090826-0800a,"",1414652689008
activated,workbench,org.eclipse.ui.workbench,3.5.1.M20090826-0800a,"",1414652692081
deactivated,workbench,org.eclipse.ui.workbench,3.5.1.M20090826-0800a,"",1414652717188
activated,workbench,org.eclipse.ui.workbench,3.5.1.M20090826-0800a,"",1414652717314
executed,command,org.eclipse.ui,3.5.1.M20090902-1000,"org.eclipse.ui.file.save",1414652720415
activated,editor,com.android.ide.eclipse.adt,12.0.0.v201106281929-138431,"com.android.ide.eclipse.editors.layout.LayoutEditor",1414652721527
