what,kind,bundleId,bundleVersion,description,time
opened,editor,org.eclipse.jdt.ui,3.5.1.r351_v20090821-0800,"org.eclipse.jdt.ui.CompilationUnitEditor",1415172706244
activated,editor,org.eclipse.jdt.ui,3.5.1.r351_v20090821-0800,"org.eclipse.jdt.ui.CompilationUnitEditor",1415172706287
activated,view,org.eclipse.jdt.ui,3.5.1.r351_v20090821-0800,"org.eclipse.jdt.ui.PackageExplorer",1415172707105
opened,editor,org.eclipse.jdt.ui,3.5.1.r351_v20090821-0800,"org.eclipse.jdt.ui.CompilationUnitEditor",1415172707359
activated,editor,org.eclipse.jdt.ui,3.5.1.r351_v20090821-0800,"org.eclipse.jdt.ui.CompilationUnitEditor",1415172707399
activated,editor,org.eclipse.jdt.ui,3.5.1.r351_v20090821-0800,"org.eclipse.jdt.ui.CompilationUnitEditor",1415172712645
closed,editor,org.eclipse.jdt.ui,3.5.1.r351_v20090821-0800,"org.eclipse.jdt.ui.CompilationUnitEditor",1415172712647
activated,editor,org.eclipse.jdt.ui,3.5.1.r351_v20090821-0800,"org.eclipse.jdt.ui.CompilationUnitEditor",1415172713410
closed,editor,org.eclipse.jdt.ui,3.5.1.r351_v20090821-0800,"org.eclipse.jdt.ui.CompilationUnitEditor",1415172713411
activated,view,org.eclipse.jdt.ui,3.5.1.r351_v20090821-0800,"org.eclipse.jdt.ui.PackageExplorer",1415172715263
deactivated,workbench,org.eclipse.ui.workbench,3.5.1.M20090826-0800a,"",1415172721717
activated,workbench,org.eclipse.ui.workbench,3.5.1.M20090826-0800a,"",1415173669437
activated,editor,org.eclipse.jdt.ui,3.5.1.r351_v20090821-0800,"org.eclipse.jdt.ui.CompilationUnitEditor",1415173672311
executed,command,org.eclipse.ui,3.5.1.M20090902-1000,"org.eclipse.ui.file.save",1415173711591
executed,command,org.eclipse.ui,3.5.1.M20090902-1000,"org.eclipse.ui.file.save",1415173775577
executed,command,org.eclipse.ui,3.5.1.M20090902-1000,"org.eclipse.ui.file.save",1415173786869
deactivated,workbench,org.eclipse.ui.workbench,3.5.1.M20090826-0800a,"",1415173810190
activated,workbench,org.eclipse.ui.workbench,3.5.1.M20090826-0800a,"",1415173829541
executed,command,org.eclipse.ui,3.5.1.M20090902-1000,"org.eclipse.ui.edit.text.contentAssist.proposals",1415173859785
deactivated,workbench,org.eclipse.ui.workbench,3.5.1.M20090826-0800a,"",1415173867449
activated,workbench,org.eclipse.ui.workbench,3.5.1.M20090826-0800a,"",1415173867590
deactivated,workbench,org.eclipse.ui.workbench,3.5.1.M20090826-0800a,"",1415173871141
activated,workbench,org.eclipse.ui.workbench,3.5.1.M20090826-0800a,"",1415173871952
executed,command,org.eclipse.ui,3.5.1.M20090902-1000,"org.eclipse.ui.file.save",1415173874306
started,bundle,org.eclipse.mylyn.java.tasks,3.2.2.v20090912-0400-e3x,"org.eclipse.mylyn.java.tasks",1415173874511
