what,kind,bundleId,bundleVersion,description,time
activated,view,org.eclipse.jdt.ui,3.5.1.r351_v20090821-0800,"org.eclipse.jdt.ui.PackageExplorer",1414488329262
executed,command,,,"com.android.ide.eclipse.adt.debug.launching.LaunchShortcut.run",1414488331221
activated,view,com.android.ide.eclipse.ddms,12.0.0.v201106281929-138431,"com.android.ide.eclipse.ddms.views.LogCatView",1414488334008
deactivated,workbench,org.eclipse.ui.workbench,3.5.1.M20090826-0800a,"",1414488336469
activated,workbench,org.eclipse.ui.workbench,3.5.1.M20090826-0800a,"",1414488349402
activated,editor,org.eclipse.jdt.ui,3.5.1.r351_v20090821-0800,"org.eclipse.jdt.ui.CompilationUnitEditor",1414488349690
deactivated,workbench,org.eclipse.ui.workbench,3.5.1.M20090826-0800a,"",1414488366183
activated,workbench,org.eclipse.ui.workbench,3.5.1.M20090826-0800a,"",1414488366975
deactivated,workbench,org.eclipse.ui.workbench,3.5.1.M20090826-0800a,"",1414488367956
activated,workbench,org.eclipse.ui.workbench,3.5.1.M20090826-0800a,"",1414488370280
closed,workbench,org.eclipse.ui.workbench,3.5.1.M20090826-0800a,"",1414488370791
started,bundle,org.eclipse.mylyn.wikitext.core,1.1.2.v20090912-0400-e3x,"org.eclipse.mylyn.wikitext.core",1414488371636
stopped,bundle,org.eclipse.jst.ws.axis.creation.ui,1.0.406.v200903031852,"org.eclipse.jst.ws.axis.creation.ui",1414488372993
