what,kind,bundleId,bundleVersion,description,time
started,bundle,org.eclipse.wst.sse.core,1.1.401.v200909172215,"org.eclipse.wst.sse.core",1416206352258
started,bundle,org.eclipse.wst.validation,1.2.102.v200905201610,"org.eclipse.wst.validation",1416206352411
started,bundle,org.eclipse.wst.web,1.1.301.v200909021400,"org.eclipse.wst.web",1416206352481
started,bundle,org.eclipse.wst.ws.service.policy.ui,1.0.102.v200903070248,"org.eclipse.wst.ws.service.policy.ui",1416206352540
started,bundle,org.eclipse.wst.xml.core,1.1.401.v200908242115,"org.eclipse.wst.xml.core",1416206352657
started,bundle,org.eclipse.cdt.core,5.1.2.201002161416,"org.eclipse.cdt.core",1416206352700
started,bundle,org.eclipse.cdt.core.tests,5.1.2.201002161416,"org.eclipse.cdt.core.tests",1416206352767
started,bundle,org.eclipse.cdt.make.ui,6.0.1.201002161416,"org.eclipse.cdt.make.ui",1416206352806
started,bundle,org.eclipse.cdt.ui,5.1.2.201002161416,"org.eclipse.cdt.ui",1416206352882
started,bundle,org.eclipse.cdt.ui.tests,5.1.0.201002161416,"org.eclipse.cdt.ui.tests",1416206352921
started,bundle,com.android.ide.eclipse.adt,12.0.0.v201106281929-138431,"com.android.ide.eclipse.adt",1416206352921
started,bundle,com.android.ide.eclipse.ddms,12.0.0.v201106281929-138431,"com.android.ide.eclipse.ddms",1416206352999
started,bundle,com.android.ide.eclipse.traceview,12.0.0.v201106281929-138431,"com.android.ide.eclipse.traceview",1416206353000
os,sysinfo,,,"win32",1416206353006
arch,sysinfo,,,"x86",1416206353006
ws,sysinfo,,,"win32",1416206353006
locale,sysinfo,,,"zh_CN",1416206353006
processors,sysinfo,,,"4",1416206353006
java.runtime.name,sysinfo,,,"Java(TM) SE Runtime Environment",1416206353006
java.runtime.version,sysinfo,,,"1.6.0_03-b05",1416206353006
java.specification.name,sysinfo,,,"Java Platform API Specification",1416206353006
java.specification.vendor,sysinfo,,,"Sun Microsystems Inc.",1416206353006
java.specification.version,sysinfo,,,"1.6",1416206353006
java.vendor,sysinfo,,,"Sun Microsystems Inc.",1416206353006
java.version,sysinfo,,,"1.6.0_03",1416206353006
