what,kind,bundleId,bundleVersion,description,time
started,bundle,org.eclipse.search,3.5.1.r351_v20090708-0800,"org.eclipse.search",1413182202532
opened,view,org.eclipse.mylyn.tasks.ui,3.2.2.v20090912-0400-e3x,"org.eclipse.mylyn.tasks.ui.views.tasks",1413182202760
activated,view,org.eclipse.mylyn.tasks.ui,3.2.2.v20090912-0400-e3x,"org.eclipse.mylyn.tasks.ui.views.tasks",1413182202868
activated,view,org.eclipse.ant.ui,3.4.1.v20090901_r351,"org.eclipse.ant.ui.views.AntView",1413182205798
deactivated,workbench,org.eclipse.ui.workbench,3.5.1.M20090826-0800a,"",1413182220844
activated,workbench,org.eclipse.ui.workbench,3.5.1.M20090826-0800a,"",1413182227520
opened,view,com.android.ide.eclipse.ddms,12.0.0.v201106281929-138431,"com.android.ide.eclipse.ddms.views.LogCatView",1413182227652
activated,view,com.android.ide.eclipse.ddms,12.0.0.v201106281929-138431,"com.android.ide.eclipse.ddms.views.LogCatView",1413182227698
executed,command,org.eclipse.ui,3.5.1.M20090902-1000,"org.eclipse.ui.views.showView",1413182227698
executed,command,org.eclipse.ui,3.5.1.M20090902-1000,"org.eclipse.ui.views.showView",1413182227698
activated,view,org.eclipse.ant.ui,3.4.1.v20090901_r351,"org.eclipse.ant.ui.views.AntView",1413182230076
activated,view,com.android.ide.eclipse.ddms,12.0.0.v201106281929-138431,"com.android.ide.eclipse.ddms.views.LogCatView",1413182231263
activated,view,org.eclipse.ant.ui,3.4.1.v20090901_r351,"org.eclipse.ant.ui.views.AntView",1413182232505
activated,view,com.android.ide.eclipse.ddms,12.0.0.v201106281929-138431,"com.android.ide.eclipse.ddms.views.LogCatView",1413182233260
closed,view,org.eclipse.ant.ui,3.4.1.v20090901_r351,"org.eclipse.ant.ui.views.AntView",1413182233264
activated,view,org.eclipse.ui.views.log,1.0.100.v20090731,"org.eclipse.pde.runtime.LogView",1413182236905
activated,view,com.android.ide.eclipse.ddms,12.0.0.v201106281929-138431,"com.android.ide.eclipse.ddms.views.LogCatView",1413182238123
activated,view,org.eclipse.ui.views.log,1.0.100.v20090731,"org.eclipse.pde.runtime.LogView",1413182241143
activated,view,com.android.ide.eclipse.ddms,12.0.0.v201106281929-138431,"com.android.ide.eclipse.ddms.views.LogCatView",1413182241822
closed,view,org.eclipse.ui.views.log,1.0.100.v20090731,"org.eclipse.pde.runtime.LogView",1413182241823
deactivated,workbench,org.eclipse.ui.workbench,3.5.1.M20090826-0800a,"",1413182252799
activated,workbench,org.eclipse.ui.workbench,3.5.1.M20090826-0800a,"",1413182253324
deactivated,workbench,org.eclipse.ui.workbench,3.5.1.M20090826-0800a,"",1413182253719
activated,workbench,org.eclipse.ui.workbench,3.5.1.M20090826-0800a,"",1413182254307
activated,view,org.eclipse.jdt.ui,3.5.1.r351_v20090821-0800,"org.eclipse.jdt.ui.PackageExplorer",1413182257363
