what,kind,bundleId,bundleVersion,description,time
activated,view,org.eclipse.jdt.ui,3.5.1.r351_v20090821-0800,"org.eclipse.jdt.ui.PackageExplorer",1413184553981
activated,editor,com.android.ide.eclipse.adt,12.0.0.v201106281929-138431,"com.android.ide.eclipse.editors.layout.LayoutEditor",1413184554853
executed,command,org.eclipse.ui,3.5.1.M20090902-1000,"org.eclipse.ui.file.save",1413184579371
activated,view,org.eclipse.jdt.ui,3.5.1.r351_v20090821-0800,"org.eclipse.jdt.ui.PackageExplorer",1413184584207
activated,editor,com.android.ide.eclipse.adt,12.0.0.v201106281929-138431,"com.android.ide.eclipse.editors.layout.LayoutEditor",1413184587320
executed,command,org.eclipse.ui,3.5.1.M20090902-1000,"org.eclipse.ui.edit.text.contentAssist.proposals",1413184602246
activated,view,org.eclipse.jdt.ui,3.5.1.r351_v20090821-0800,"org.eclipse.jdt.ui.PackageExplorer",1413184617415
deactivated,workbench,org.eclipse.ui.workbench,3.5.1.M20090826-0800a,"",1413184620898
activated,workbench,org.eclipse.ui.workbench,3.5.1.M20090826-0800a,"",1413184623096
executed,command,org.eclipse.jdt.ui,3.5.1.r351_v20090821-0800,"org.eclipse.jdt.ui.edit.text.java.open.editor",1413184628167
deactivated,workbench,org.eclipse.ui.workbench,3.5.1.M20090826-0800a,"",1413184628257
activated,workbench,org.eclipse.ui.workbench,3.5.1.M20090826-0800a,"",1413184629748
activated,editor,com.android.ide.eclipse.adt,12.0.0.v201106281929-138431,"com.android.ide.eclipse.editors.layout.LayoutEditor",1413184645082
deactivated,workbench,org.eclipse.ui.workbench,3.5.1.M20090826-0800a,"",1413184661404
activated,workbench,org.eclipse.ui.workbench,3.5.1.M20090826-0800a,"",1413184794460
deactivated,workbench,org.eclipse.ui.workbench,3.5.1.M20090826-0800a,"",1413184799364
deactivated,workbench,org.eclipse.ui.workbench,3.5.1.M20090826-0800a,"",1413184816280
activated,workbench,org.eclipse.ui.workbench,3.5.1.M20090826-0800a,"",1413184924800
executed,command,org.eclipse.ui,3.5.1.M20090902-1000,"org.eclipse.ui.file.save",1413185030710
activated,editor,org.eclipse.jdt.ui,3.5.1.r351_v20090821-0800,"org.eclipse.jdt.ui.CompilationUnitEditor",1413185032009
activated,view,org.eclipse.jdt.ui,3.5.1.r351_v20090821-0800,"org.eclipse.jdt.ui.PackageExplorer",1413185042354
activated,editor,com.android.ide.eclipse.adt,12.0.0.v201106281929-138431,"com.android.ide.eclipse.editors.layout.LayoutEditor",1413185042653
deactivated,workbench,org.eclipse.ui.workbench,3.5.1.M20090826-0800a,"",1413185066283
activated,workbench,org.eclipse.ui.workbench,3.5.1.M20090826-0800a,"",1413185075660
executed,command,org.eclipse.ui,3.5.1.M20090902-1000,"org.eclipse.ui.file.save",1413185116688
