what,kind,bundleId,bundleVersion,description,time
executed,command,,,"com.android.ide.eclipse.adt.debug.launching.LaunchShortcut.run",1413182261964
activated,view,com.android.ide.eclipse.ddms,12.0.0.v201106281929-138431,"com.android.ide.eclipse.ddms.views.LogCatView",1413182265102
deactivated,workbench,org.eclipse.ui.workbench,3.5.1.M20090826-0800a,"",1413182266147
activated,workbench,org.eclipse.ui.workbench,3.5.1.M20090826-0800a,"",1413182270747
activated,editor,org.eclipse.jdt.ui,3.5.1.r351_v20090821-0800,"org.eclipse.jdt.ui.CompilationUnitEditor",1413182294544
executed,command,org.eclipse.ui,3.5.1.M20090902-1000,"org.eclipse.ui.file.save",1413182321828
executed,command,org.eclipse.ui,3.5.1.M20090902-1000,"org.eclipse.ui.edit.copy",1413182326670
executed,command,org.eclipse.ui,3.5.1.M20090902-1000,"org.eclipse.ui.edit.paste",1413182332405
executed,command,org.eclipse.ui,3.5.1.M20090902-1000,"org.eclipse.ui.file.save",1413182333819
activated,view,com.android.ide.eclipse.ddms,12.0.0.v201106281929-138431,"com.android.ide.eclipse.ddms.views.LogCatView",1413182337414
activated,view,org.eclipse.jdt.ui,3.5.1.r351_v20090821-0800,"org.eclipse.jdt.ui.PackageExplorer",1413182338832
executed,command,,,"com.android.ide.eclipse.adt.debug.launching.LaunchShortcut.run",1413182342332
deactivated,workbench,org.eclipse.ui.workbench,3.5.1.M20090826-0800a,"",1413182343066
activated,workbench,org.eclipse.ui.workbench,3.5.1.M20090826-0800a,"",1413182404664
activated,editor,org.eclipse.jdt.ui,3.5.1.r351_v20090821-0800,"org.eclipse.jdt.ui.CompilationUnitEditor",1413182405007
executed,command,,,"AUTOGEN:::org.eclipse.jdt.internal.ui.CompilationUnitEditor.ruler.actions/org.eclipse.jdt.internal.ui.javaeditor.JavaSelectRulerAction",1413182516276
executed,command,,,"AUTOGEN:::org.eclipse.jdt.debug.CompilationUnitEditor.BreakpointRulerActions/org.eclipse.jdt.debug.ui.actions.ManageBreakpointRulerAction",1413182516979
executed,command,,,"AUTOGEN:::org.eclipse.jdt.internal.ui.CompilationUnitEditor.ruler.actions/org.eclipse.jdt.internal.ui.javaeditor.JavaSelectRulerAction",1413182539356
executed,command,,,"AUTOGEN:::org.eclipse.jdt.debug.CompilationUnitEditor.BreakpointRulerActions/org.eclipse.jdt.debug.ui.actions.ManageBreakpointRulerAction",1413182541228
executed,command,org.eclipse.ui,3.5.1.M20090902-1000,"org.eclipse.ui.file.save",1413182562760
activated,view,org.eclipse.jdt.ui,3.5.1.r351_v20090821-0800,"org.eclipse.jdt.ui.PackageExplorer",1413182564775
executed,command,,,"com.android.ide.eclipse.adt.debug.launching.LaunchShortcut.run",1413182567819
deactivated,workbench,org.eclipse.ui.workbench,3.5.1.M20090826-0800a,"",1413182568635
activated,workbench,org.eclipse.ui.workbench,3.5.1.M20090826-0800a,"",1413182593406
activated,editor,org.eclipse.jdt.ui,3.5.1.r351_v20090821-0800,"org.eclipse.jdt.ui.CompilationUnitEditor",1413182595735
