what,kind,bundleId,bundleVersion,description,time
started,bundle,com.android.ide.eclipse.ddms,12.0.0.v201106281929-138431,"com.android.ide.eclipse.ddms",1415879609082
started,bundle,com.android.ide.eclipse.traceview,12.0.0.v201106281929-138431,"com.android.ide.eclipse.traceview",1415879609082
os,sysinfo,,,"win32",1415879609086
arch,sysinfo,,,"x86",1415879609086
ws,sysinfo,,,"win32",1415879609086
locale,sysinfo,,,"zh_CN",1415879609086
processors,sysinfo,,,"4",1415879609086
java.runtime.name,sysinfo,,,"Java(TM) SE Runtime Environment",1415879609086
java.runtime.version,sysinfo,,,"1.6.0_03-b05",1415879609086
java.specification.name,sysinfo,,,"Java Platform API Specification",1415879609086
java.specification.vendor,sysinfo,,,"Sun Microsystems Inc.",1415879609086
java.specification.version,sysinfo,,,"1.6",1415879609086
java.vendor,sysinfo,,,"Sun Microsystems Inc.",1415879609086
java.version,sysinfo,,,"1.6.0_03",1415879609086
java.vm.info,sysinfo,,,"mixed mode",1415879609086
java.vm.name,sysinfo,,,"Java HotSpot(TM) Client VM",1415879609086
java.vm.specification.name,sysinfo,,,"Java Virtual Machine Specification",1415879609086
java.vm.specification.vendor,sysinfo,,,"Sun Microsystems Inc.",1415879609086
java.vm.specification.version,sysinfo,,,"1.0",1415879609086
java.vm.vendor,sysinfo,,,"Sun Microsystems Inc.",1415879609086
java.vm.version,sysinfo,,,"1.6.0_03-b05",1415879609086
started,bundle,org.eclipse.mylyn.commons.ui,3.2.2.v20090912-0400-e3x,"org.eclipse.mylyn.commons.ui",1415879609983
started,bundle,org.eclipse.jst.common.project.facet.core,1.4.1.v200908111817,"org.eclipse.jst.common.project.facet.core",1415879610748
started,bundle,org.eclipse.mylyn.bugzilla.core,3.2.2.v20090912-0400-e3x,"org.eclipse.mylyn.bugzilla.core",1415879610842
started,bundle,org.eclipse.mylyn.bugzilla.ui,3.2.2.v20090912-0400-e3x,"org.eclipse.mylyn.bugzilla.ui",1415879611168
