what,kind,bundleId,bundleVersion,description,time
started,bundle,org.eclipse.update.scheduler,3.2.200.v20081127,"org.eclipse.update.scheduler",1414411177150
started,bundle,org.eclipse.update.core,3.2.300.v20090525,"org.eclipse.update.core",1414411177361
started,bundle,org.eclipse.wst.ws.service.policy.ui,1.0.102.v200903070248,"org.eclipse.wst.ws.service.policy.ui",1414411177396
started,bundle,org.eclipse.mylyn.monitor.ui,3.2.2.v20090912-0400-e3x,"org.eclipse.mylyn.monitor.ui",1414411177492
error,log,,,"Error validating C:\\Users\\acer\\.android\\devices.xml",1414411177866
started,bundle,org.eclipse.debug.core,3.5.0.v20090526-1600,"org.eclipse.debug.core",1414411178905
started,bundle,org.eclipse.jdt.launching,3.5.0.v20090527,"org.eclipse.jdt.launching",1414411178963
started,bundle,org.eclipse.jdt.apt.core,3.3.201.R35x_v20090818-0235,"org.eclipse.jdt.apt.core",1414411179035
started,bundle,org.eclipse.jdt.apt.pluggable.core,1.0.201.R35x_v20090818-0225,"org.eclipse.jdt.apt.pluggable.core",1414411179075
started,bundle,org.eclipse.mylyn.wikitext.ui,1.1.2.v20090912-0400-e3x,"org.eclipse.mylyn.wikitext.ui",1414411179982
started,bundle,org.eclipse.jst.common.project.facet.core,1.4.1.v200908111817,"org.eclipse.jst.common.project.facet.core",1414413220265
started,bundle,org.eclipse.jpt.core,2.2.1.v200908270220,"org.eclipse.jpt.core",1414413220338
started,bundle,org.eclipse.jpt.eclipselink.core,1.2.0.v200905310000,"org.eclipse.jpt.eclipselink.core",1414413220373
deactivated,workbench,org.eclipse.ui.workbench,3.5.1.M20090826-0800a,"",1414413221772
activated,workbench,org.eclipse.ui.workbench,3.5.1.M20090826-0800a,"",1414414196039
deactivated,workbench,org.eclipse.ui.workbench,3.5.1.M20090826-0800a,"",1414414197318
activated,workbench,org.eclipse.ui.workbench,3.5.1.M20090826-0800a,"",1414414392805
deactivated,workbench,org.eclipse.ui.workbench,3.5.1.M20090826-0800a,"",1414414395088
activated,workbench,org.eclipse.ui.workbench,3.5.1.M20090826-0800a,"",1414414395218
started,bundle,org.eclipse.compare.core,3.5.0.I20090430-0408,"org.eclipse.compare.core",1414414406435
opened,editor,org.eclipse.jdt.ui,3.5.1.r351_v20090821-0800,"org.eclipse.jdt.ui.CompilationUnitEditor",1414414406762
activated,editor,org.eclipse.jdt.ui,3.5.1.r351_v20090821-0800,"org.eclipse.jdt.ui.CompilationUnitEditor",1414414407103
deactivated,workbench,org.eclipse.ui.workbench,3.5.1.M20090826-0800a,"",1414414407331
started,bundle,org.eclipse.core.variables,3.2.200.v20090521,"org.eclipse.core.variables",1414414408574
activated,workbench,org.eclipse.ui.workbench,3.5.1.M20090826-0800a,"",1414414409109
