what,kind,bundleId,bundleVersion,description,time
started,bundle,org.eclipse.wst.sse.ui,1.1.101.v200908261807,"org.eclipse.wst.sse.ui",1415799185060
started,bundle,org.eclipse.jpt.core,2.2.1.v200908270220,"org.eclipse.jpt.core",1415799185448
started,bundle,org.eclipse.jpt.eclipselink.core,1.2.0.v200905310000,"org.eclipse.jpt.eclipselink.core",1415799185649
started,bundle,org.eclipse.wst.xml.core,1.1.401.v200908242115,"org.eclipse.wst.xml.core",1415799185978
started,bundle,org.eclipse.debug.ui,3.5.1.v20090811_r351,"org.eclipse.debug.ui",1415799187057
started,bundle,org.eclipse.wst.common.uriresolver,1.1.301.v200805140415,"org.eclipse.wst.common.uriresolver",1415799187173
started,bundle,org.eclipse.wst.xml.ui,1.1.1.v200908242115,"org.eclipse.wst.xml.ui",1415799187300
started,bundle,org.eclipse.wst.xsl.core,1.0.1.v200908101420,"org.eclipse.wst.xsl.core",1415799188353
started,bundle,org.eclipse.jst.jsp.ui,1.1.401.v200908111935,"org.eclipse.jst.jsp.ui",1415799189126
started,bundle,org.eclipse.jst.jsp.core,1.2.203.v200908241513,"org.eclipse.jst.jsp.core",1415799190010
started,bundle,org.eclipse.wst.dtd.ui,1.0.400.v200904300717,"org.eclipse.wst.dtd.ui",1415799191518
opened,editor,com.android.ide.eclipse.adt,12.0.0.v201106281929-138431,"com.android.ide.eclipse.editors.layout.LayoutEditor",1415799192081
started,bundle,org.eclipse.wst.validation,1.2.102.v200905201610,"org.eclipse.wst.validation",1415799192292
started,bundle,org.eclipse.wst.common.emf,1.1.301.v200908181930,"org.eclipse.wst.common.emf",1415799193617
activated,editor,com.android.ide.eclipse.adt,12.0.0.v201106281929-138431,"com.android.ide.eclipse.editors.layout.LayoutEditor",1415799193711
started,bundle,org.eclipse.jst.j2ee.core,1.1.301.v200908181930,"org.eclipse.jst.j2ee.core",1415799193744
started,bundle,org.eclipse.jem,2.0.300.v200901272200,"org.eclipse.jem",1415799193964
started,bundle,org.eclipse.emf.ecore.xmi,2.5.0.v200906151043,"org.eclipse.emf.ecore.xmi",1415799194008
started,bundle,org.eclipse.jst.jee,1.0.201.v200909030330,"org.eclipse.jst.jee",1415799194156
started,bundle,org.eclipse.wst.common.frameworks.ui,1.1.301.v200908101600,"org.eclipse.wst.common.frameworks.ui",1415799194286
started,bundle,org.eclipse.wst.common.emfworkbench.integration,1.1.301.v200908101600,"org.eclipse.wst.common.emfworkbench.integration",1415799195229
started,bundle,org.eclipse.wst.common.modulecore,1.1.301.v200908101600,"org.eclipse.wst.common.modulecore",1415799195286
started,bundle,org.eclipse.jst.j2ee,1.1.301.v200909030330,"org.eclipse.jst.j2ee",1415799195325
started,bundle,org.eclipse.jem.workbench,2.0.201.v200908271530,"org.eclipse.jem.workbench",1415799195534
started,bundle,org.eclipse.wst.wsi.ui,1.0.500.v200901141851,"org.eclipse.wst.wsi.ui",1415799195637
