what,kind,bundleId,bundleVersion,description,time
deactivated,workbench,org.eclipse.ui.workbench,3.5.1.M20090826-0800a,"",1414673172776
activated,workbench,org.eclipse.ui.workbench,3.5.1.M20090826-0800a,"",1414673172786
deactivated,workbench,org.eclipse.ui.workbench,3.5.1.M20090826-0800a,"",1414673173264
activated,workbench,org.eclipse.ui.workbench,3.5.1.M20090826-0800a,"",1414673173282
deactivated,workbench,org.eclipse.ui.workbench,3.5.1.M20090826-0800a,"",1414673173313
activated,workbench,org.eclipse.ui.workbench,3.5.1.M20090826-0800a,"",1414673173321
deactivated,workbench,org.eclipse.ui.workbench,3.5.1.M20090826-0800a,"",1414673178890
activated,workbench,org.eclipse.ui.workbench,3.5.1.M20090826-0800a,"",1414673180554
executed,command,org.eclipse.ui,3.5.1.M20090902-1000,"org.eclipse.ui.file.save",1414673191348
activated,view,org.eclipse.jdt.ui,3.5.1.r351_v20090821-0800,"org.eclipse.jdt.ui.PackageExplorer",1414673193145
executed,command,,,"com.android.ide.eclipse.adt.debug.launching.LaunchShortcut.run",1414673195885
activated,view,com.android.ide.eclipse.ddms,12.0.0.v201106281929-138431,"com.android.ide.eclipse.ddms.views.LogCatView",1414673197221
activated,editor,org.eclipse.jdt.ui,3.5.1.r351_v20090821-0800,"org.eclipse.jdt.ui.CompilationUnitEditor",1414673209803
deactivated,workbench,org.eclipse.ui.workbench,3.5.1.M20090826-0800a,"",1414673215272
activated,workbench,org.eclipse.ui.workbench,3.5.1.M20090826-0800a,"",1414673222924
deactivated,workbench,org.eclipse.ui.workbench,3.5.1.M20090826-0800a,"",1414673224248
activated,workbench,org.eclipse.ui.workbench,3.5.1.M20090826-0800a,"",1414673228502
deactivated,workbench,org.eclipse.ui.workbench,3.5.1.M20090826-0800a,"",1414673229512
activated,workbench,org.eclipse.ui.workbench,3.5.1.M20090826-0800a,"",1414673235897
deactivated,workbench,org.eclipse.ui.workbench,3.5.1.M20090826-0800a,"",1414673239009
activated,workbench,org.eclipse.ui.workbench,3.5.1.M20090826-0800a,"",1414673245563
deactivated,workbench,org.eclipse.ui.workbench,3.5.1.M20090826-0800a,"",1414673247272
activated,workbench,org.eclipse.ui.workbench,3.5.1.M20090826-0800a,"",1414673251707
deactivated,workbench,org.eclipse.ui.workbench,3.5.1.M20090826-0800a,"",1414673256941
activated,workbench,org.eclipse.ui.workbench,3.5.1.M20090826-0800a,"",1414673263206
