what,kind,bundleId,bundleVersion,description,time
executed,command,,,"com.android.ide.eclipse.adt.debug.launching.LaunchShortcut.run",1414654104737
deactivated,workbench,org.eclipse.ui.workbench,3.5.1.M20090826-0800a,"",1414654734375
activated,workbench,org.eclipse.ui.workbench,3.5.1.M20090826-0800a,"",1414655151936
activated,editor,org.eclipse.jdt.ui,3.5.1.r351_v20090821-0800,"org.eclipse.jdt.ui.CompilationUnitEditor",1414655154657
activated,editor,org.eclipse.jdt.ui,3.5.1.r351_v20090821-0800,"org.eclipse.jdt.ui.CompilationUnitEditor",1414655158138
deactivated,workbench,org.eclipse.ui.workbench,3.5.1.M20090826-0800a,"",1414655163049
activated,workbench,org.eclipse.ui.workbench,3.5.1.M20090826-0800a,"",1414658086946
executed,command,org.eclipse.ui,3.5.1.M20090902-1000,"org.eclipse.ui.file.save",1414658102781
deactivated,workbench,org.eclipse.ui.workbench,3.5.1.M20090826-0800a,"",1414658104801
activated,workbench,org.eclipse.ui.workbench,3.5.1.M20090826-0800a,"",1414658151024
activated,view,org.eclipse.jdt.ui,3.5.1.r351_v20090821-0800,"org.eclipse.jdt.ui.PackageExplorer",1414658154793
deactivated,workbench,org.eclipse.ui.workbench,3.5.1.M20090826-0800a,"",1414658156243
activated,workbench,org.eclipse.ui.workbench,3.5.1.M20090826-0800a,"",1414658158583
deactivated,workbench,org.eclipse.ui.workbench,3.5.1.M20090826-0800a,"",1414658165168
activated,workbench,org.eclipse.ui.workbench,3.5.1.M20090826-0800a,"",1414658171522
deactivated,workbench,org.eclipse.ui.workbench,3.5.1.M20090826-0800a,"",1414658176555
activated,workbench,org.eclipse.ui.workbench,3.5.1.M20090826-0800a,"",1414658203011
opened,editor,org.eclipse.jdt.ui,3.5.1.r351_v20090821-0800,"org.eclipse.jdt.ui.CompilationUnitEditor",1414658203408
activated,editor,org.eclipse.jdt.ui,3.5.1.r351_v20090821-0800,"org.eclipse.jdt.ui.CompilationUnitEditor",1414658203436
deactivated,workbench,org.eclipse.ui.workbench,3.5.1.M20090826-0800a,"",1414658228607
activated,workbench,org.eclipse.ui.workbench,3.5.1.M20090826-0800a,"",1414658229668
deactivated,workbench,org.eclipse.ui.workbench,3.5.1.M20090826-0800a,"",1414658230121
activated,workbench,org.eclipse.ui.workbench,3.5.1.M20090826-0800a,"",1414658231887
executed,command,org.eclipse.ui,3.5.1.M20090902-1000,"org.eclipse.ui.edit.text.contentAssist.proposals",1414658238505
deactivated,workbench,org.eclipse.ui.workbench,3.5.1.M20090826-0800a,"",1414658261392
