what,kind,bundleId,bundleVersion,description,time
executed,command,,,"com.android.ide.eclipse.adt.debug.launching.LaunchShortcut.run",1413185714113
deactivated,workbench,org.eclipse.ui.workbench,3.5.1.M20090826-0800a,"",1413185714995
activated,workbench,org.eclipse.ui.workbench,3.5.1.M20090826-0800a,"",1413185734531
activated,editor,org.eclipse.jdt.ui,3.5.1.r351_v20090821-0800,"org.eclipse.jdt.ui.CompilationUnitEditor",1413185734566
executed,command,org.eclipse.ui,3.5.1.M20090902-1000,"org.eclipse.ui.file.save",1413185741752
activated,view,org.eclipse.jdt.ui,3.5.1.r351_v20090821-0800,"org.eclipse.jdt.ui.PackageExplorer",1413185743668
executed,command,,,"com.android.ide.eclipse.adt.debug.launching.LaunchShortcut.run",1413185746115
deactivated,workbench,org.eclipse.ui.workbench,3.5.1.M20090826-0800a,"",1413185746713
activated,workbench,org.eclipse.ui.workbench,3.5.1.M20090826-0800a,"",1413185771432
activated,editor,org.eclipse.jdt.ui,3.5.1.r351_v20090821-0800,"org.eclipse.jdt.ui.CompilationUnitEditor",1413185772027
deactivated,workbench,org.eclipse.ui.workbench,3.5.1.M20090826-0800a,"",1413185812327
activated,workbench,org.eclipse.ui.workbench,3.5.1.M20090826-0800a,"",1413185812593
executed,command,org.eclipse.ui,3.5.1.M20090902-1000,"org.eclipse.ui.edit.text.contentAssist.proposals",1413185856702
executed,command,org.eclipse.ui,3.5.1.M20090902-1000,"org.eclipse.ui.edit.text.contentAssist.proposals",1413185868898
executed,command,org.eclipse.ui,3.5.1.M20090902-1000,"org.eclipse.ui.edit.text.contentAssist.proposals",1413185877818
executed,command,org.eclipse.ui,3.5.1.M20090902-1000,"org.eclipse.ui.edit.text.contentAssist.proposals",1413185883738
deactivated,workbench,org.eclipse.ui.workbench,3.5.1.M20090826-0800a,"",1413185886860
activated,workbench,org.eclipse.ui.workbench,3.5.1.M20090826-0800a,"",1413185888260
deactivated,workbench,org.eclipse.ui.workbench,3.5.1.M20090826-0800a,"",1413185892010
activated,workbench,org.eclipse.ui.workbench,3.5.1.M20090826-0800a,"",1413185892120
deactivated,workbench,org.eclipse.ui.workbench,3.5.1.M20090826-0800a,"",1413185899992
activated,workbench,org.eclipse.ui.workbench,3.5.1.M20090826-0800a,"",1413185900121
executed,command,org.eclipse.ui,3.5.1.M20090902-1000,"org.eclipse.ui.edit.text.contentAssist.proposals",1413185916698
deactivated,workbench,org.eclipse.ui.workbench,3.5.1.M20090826-0800a,"",1413185937175
activated,workbench,org.eclipse.ui.workbench,3.5.1.M20090826-0800a,"",1413185937344
