what,kind,bundleId,bundleVersion,description,time
started,bundle,org.eclipse.jdt.apt.pluggable.core,1.0.201.R35x_v20090818-0225,"org.eclipse.jdt.apt.pluggable.core",1408079670711
started,bundle,org.eclipse.jdt.core,3.5.1.v_972_R35x,"org.eclipse.jdt.core",1408079670712
started,bundle,org.eclipse.jdt.core.manipulation,1.3.0.v20090603,"org.eclipse.jdt.core.manipulation",1408079670713
started,bundle,org.eclipse.jdt.launching,3.5.0.v20090527,"org.eclipse.jdt.launching",1408079670715
started,bundle,org.eclipse.jdt.ui,3.5.1.r351_v20090821-0800,"org.eclipse.jdt.ui",1408079670715
started,bundle,org.eclipse.jem.util,2.0.200.v200905140200,"org.eclipse.jem.util",1408079670716
started,bundle,org.eclipse.jface,3.5.1.M20090826-0800,"org.eclipse.jface",1408079670717
started,bundle,org.eclipse.jsch.core,1.1.100.I20090430-0408,"org.eclipse.jsch.core",1408079670718
started,bundle,org.eclipse.jst.common.project.facet.core,1.4.1.v200908111817,"org.eclipse.jst.common.project.facet.core",1408079670720
started,bundle,org.eclipse.jst.jsf.common,1.1.7.v20090903,"org.eclipse.jst.jsf.common",1408079670722
started,bundle,org.eclipse.jst.jsf.core,1.2.2.v20090903,"org.eclipse.jst.jsf.core",1408079670724
started,bundle,org.eclipse.ltk.core.refactoring,3.5.0.v20090513-2000,"org.eclipse.ltk.core.refactoring",1408079670726
started,bundle,org.eclipse.ltk.ui.refactoring,3.4.100.v20090604,"org.eclipse.ltk.ui.refactoring",1408079670727
started,bundle,org.eclipse.mylyn.bugzilla.core,3.2.2.v20090912-0400-e3x,"org.eclipse.mylyn.bugzilla.core",1408079670728
started,bundle,org.eclipse.mylyn.bugzilla.ui,3.2.2.v20090912-0400-e3x,"org.eclipse.mylyn.bugzilla.ui",1408079670733
started,bundle,org.eclipse.mylyn.commons.net,3.2.0.v20090617-0100-e3x,"org.eclipse.mylyn.commons.net",1408079670733
started,bundle,org.eclipse.mylyn.commons.ui,3.2.2.v20090912-0400-e3x,"org.eclipse.mylyn.commons.ui",1408079670735
started,bundle,org.eclipse.mylyn.context.core,3.2.2.v20090912-0400-e3x,"org.eclipse.mylyn.context.core",1408079670737
started,bundle,org.eclipse.mylyn.context.ui,3.2.2.v20090912-0400-e3x,"org.eclipse.mylyn.context.ui",1408079670739
started,bundle,org.eclipse.mylyn.monitor.ui,3.2.2.v20090912-0400-e3x,"org.eclipse.mylyn.monitor.ui",1408079670740
started,bundle,org.eclipse.mylyn.tasks.ui,3.2.2.v20090912-0400-e3x,"org.eclipse.mylyn.tasks.ui",1408079670743
started,bundle,org.eclipse.mylyn.team.ui,3.2.2.v20090912-0400-e3x,"org.eclipse.mylyn.team.ui",1408079670744
started,bundle,org.eclipse.pde.ui,3.5.0.v20090821,"org.eclipse.pde.ui",1408079670748
started,bundle,org.eclipse.team.core,3.5.0.I20090527-0620,"org.eclipse.team.core",1408079670749
started,bundle,org.eclipse.team.cvs.core,3.3.200.I20090430-0408,"org.eclipse.team.cvs.core",1408079670750
