what,kind,bundleId,bundleVersion,description,time
ws,sysinfo,,,"win32",1408079670802
locale,sysinfo,,,"zh_CN",1408079670802
processors,sysinfo,,,"4",1408079670802
java.runtime.name,sysinfo,,,"Java(TM) SE Runtime Environment",1408079670802
java.runtime.version,sysinfo,,,"1.6.0_03-b05",1408079670802
java.specification.name,sysinfo,,,"Java Platform API Specification",1408079670802
java.specification.vendor,sysinfo,,,"Sun Microsystems Inc.",1408079670802
java.specification.version,sysinfo,,,"1.6",1408079670802
java.vendor,sysinfo,,,"Sun Microsystems Inc.",1408079670802
java.version,sysinfo,,,"1.6.0_03",1408079670802
java.vm.info,sysinfo,,,"mixed mode",1408079670802
java.vm.name,sysinfo,,,"Java HotSpot(TM) Client VM",1408079670802
java.vm.specification.name,sysinfo,,,"Java Virtual Machine Specification",1408079670802
java.vm.specification.vendor,sysinfo,,,"Sun Microsystems Inc.",1408079670802
java.vm.specification.version,sysinfo,,,"1.0",1408079670802
java.vm.vendor,sysinfo,,,"Sun Microsystems Inc.",1408079670802
java.vm.version,sysinfo,,,"1.6.0_03-b05",1408079670802
closed,workbench,org.eclipse.ui.workbench,3.5.1.M20090826-0800a,"",1408079691089
stopped,bundle,org.eclipse.jst.ws.axis.creation.ui,1.0.406.v200903031852,"org.eclipse.jst.ws.axis.creation.ui",1408079691607
stopped,bundle,org.eclipse.jst.ws.axis.consumption.ui,1.0.405.v200901261650,"org.eclipse.jst.ws.axis.consumption.ui",1408079691609
stopped,bundle,org.eclipse.jst.ws.axis.consumption.core,1.0.306.v200810082309,"org.eclipse.jst.ws.axis.consumption.core",1408079691610
stopped,bundle,org.eclipse.jst.ws.axis2.creation.ui,1.0.103.v200807162242,"org.eclipse.jst.ws.axis2.creation.ui",1408079691611
stopped,bundle,org.eclipse.jst.ws.axis2.consumption.ui,1.0.102.v200807232000,"org.eclipse.jst.ws.axis2.consumption.ui",1408079691612
stopped,bundle,org.eclipse.jst.ws.axis2.creation.core,1.0.105.v200901220134,"org.eclipse.jst.ws.axis2.creation.core",1408079691613
stopped,bundle,org.eclipse.jst.ws.axis2.consumption.core,1.0.104.v200810151442,"org.eclipse.jst.ws.axis2.consumption.core",1408079691614
