what,kind,bundleId,bundleVersion,description,time
error,log,,,"Failed to load properties file for project 'SQLiteDatabase'",1422975190369
error,log,,,"Failed to load properties file for project 'SensorList'",1422975190395
error,log,,,"Failed to load properties file for project 'SensorListYM'",1422975190418
error,log,,,"Failed to load properties file for project 'Shudu'",1422975190445
error,log,,,"Failed to load properties file for project 'SoundMeter'",1422975190475
error,log,,,"Failed to load properties file for project 'Test'",1422975190501
error,log,,,"Failed to load properties file for project 'YoumiNormalAdsDemo'",1422975190527
error,log,,,"Failed to load properties file for project 'YoumiOffersAdsDemo'",1422975190556
error,log,,,"Failed to load properties file for project 'appcompat_v7'",1422975190579
error,log,,,"Failed to load properties file for project 'appcompat_v7_2'",1422975190608
error,log,,,"Failed to load properties file for project 'appcompat_v7_3'",1422975190631
error,log,,,"Failed to load properties file for project 'appcompat_v7_4'",1422975190654
error,log,,,"Failed to load properties file for project 'pulmonary'",1422975190676
error,log,,,"Failed to load properties file for project 'readmind'",1422975190704
activated,view,org.eclipse.ui.navigator.resources,3.4.1.M20090826-0800,"org.eclipse.ui.navigator.ProjectExplorer",1422975214015
opened,editor,org.eclipse.jdt.ui,3.5.1.r351_v20090821-0800,"org.eclipse.jdt.ui.CompilationUnitEditor",1422975214343
activated,editor,org.eclipse.jdt.ui,3.5.1.r351_v20090821-0800,"org.eclipse.jdt.ui.CompilationUnitEditor",1422975214428
started,bundle,org.eclipse.ui.views.log,1.0.100.v20090731,"org.eclipse.ui.views.log",1422975215063
started,bundle,org.eclipse.pde.ui,3.5.0.v20090821,"org.eclipse.pde.ui",1422975215109
activated,editor,org.eclipse.jdt.ui,3.5.1.r351_v20090821-0800,"org.eclipse.jdt.ui.CompilationUnitEditor",1422975225214
closed,editor,org.eclipse.jdt.ui,3.5.1.r351_v20090821-0800,"org.eclipse.jdt.ui.CompilationUnitEditor",1422975225214
activated,view,org.eclipse.ui.navigator.resources,3.4.1.M20090826-0800,"org.eclipse.ui.navigator.ProjectExplorer",1422975318434
closed,editor,org.eclipse.jdt.ui,3.5.1.r351_v20090821-0800,"org.eclipse.jdt.ui.CompilationUnitEditor",1422975318434
opened,editor,org.eclipse.jdt.ui,3.5.1.r351_v20090821-0800,"org.eclipse.jdt.ui.CompilationUnitEditor",1422975324753
activated,editor,org.eclipse.jdt.ui,3.5.1.r351_v20090821-0800,"org.eclipse.jdt.ui.CompilationUnitEditor",1422975324845
