what,kind,bundleId,bundleVersion,description,time
activated,editor,com.android.ide.eclipse.adt,12.0.0.v201106281929-138431,"com.android.ide.eclipse.editors.manifest.ManifestEditor",1414401880899
executed,command,org.eclipse.ui,3.5.1.M20090902-1000,"org.eclipse.ui.edit.paste",1414401884423
activated,editor,org.eclipse.jdt.ui,3.5.1.r351_v20090821-0800,"org.eclipse.jdt.ui.CompilationUnitEditor",1414401891868
executed,command,org.eclipse.ui,3.5.1.M20090902-1000,"org.eclipse.ui.edit.copy",1414401895869
activated,editor,com.android.ide.eclipse.adt,12.0.0.v201106281929-138431,"com.android.ide.eclipse.editors.manifest.ManifestEditor",1414401897103
executed,command,org.eclipse.ui,3.5.1.M20090902-1000,"org.eclipse.ui.edit.paste",1414401899253
executed,command,org.eclipse.ui,3.5.1.M20090902-1000,"org.eclipse.ui.file.save",1414401904244
deactivated,workbench,org.eclipse.ui.workbench,3.5.1.M20090826-0800a,"",1414401905691
activated,workbench,org.eclipse.ui.workbench,3.5.1.M20090826-0800a,"",1414402157137
deactivated,workbench,org.eclipse.ui.workbench,3.5.1.M20090826-0800a,"",1414402164891
activated,workbench,org.eclipse.ui.workbench,3.5.1.M20090826-0800a,"",1414402214267
deactivated,workbench,org.eclipse.ui.workbench,3.5.1.M20090826-0800a,"",1414402222670
activated,workbench,org.eclipse.ui.workbench,3.5.1.M20090826-0800a,"",1414402248208
activated,view,org.eclipse.jdt.ui,3.5.1.r351_v20090821-0800,"org.eclipse.jdt.ui.PackageExplorer",1414402251637
opened,editor,com.android.ide.eclipse.adt,12.0.0.v201106281929-138431,"com.android.ide.eclipse.editors.layout.LayoutEditor",1414402254053
activated,editor,com.android.ide.eclipse.adt,12.0.0.v201106281929-138431,"com.android.ide.eclipse.editors.layout.LayoutEditor",1414402254100
executed,command,org.eclipse.ui,3.5.1.M20090902-1000,"org.eclipse.ui.edit.paste",1414402258104
executed,command,org.eclipse.wst.sse.ui,1.1.101.v200908261807,"org.eclipse.wst.sse.ui.format.document",1414402265735
executed,command,org.eclipse.ui,3.5.1.M20090902-1000,"org.eclipse.ui.edit.selectAll",1414402276054
executed,command,org.eclipse.wst.sse.ui,1.1.101.v200908261807,"org.eclipse.wst.sse.ui.format.document",1414402282621
executed,command,org.eclipse.ui,3.5.1.M20090902-1000,"org.eclipse.ui.edit.undo",1414402288608
executed,command,org.eclipse.ui,3.5.1.M20090902-1000,"org.eclipse.ui.edit.undo",1414402289025
deactivated,workbench,org.eclipse.ui.workbench,3.5.1.M20090826-0800a,"",1414402292483
activated,workbench,org.eclipse.ui.workbench,3.5.1.M20090826-0800a,"",1414402293548
activated,editor,com.android.ide.eclipse.adt,12.0.0.v201106281929-138431,"com.android.ide.eclipse.editors.manifest.ManifestEditor",1414402293591
