what,kind,bundleId,bundleVersion,description,time
started,bundle,org.eclipse.wst.web,1.1.301.v200909021400,"org.eclipse.wst.web",1414482500123
started,bundle,com.android.ide.eclipse.adt,12.0.0.v201106281929-138431,"com.android.ide.eclipse.adt",1414482500123
started,bundle,com.android.ide.eclipse.ddms,12.0.0.v201106281929-138431,"com.android.ide.eclipse.ddms",1414482500185
started,bundle,com.android.ide.eclipse.traceview,12.0.0.v201106281929-138431,"com.android.ide.eclipse.traceview",1414482500185
os,sysinfo,,,"win32",1414482500189
arch,sysinfo,,,"x86",1414482500189
ws,sysinfo,,,"win32",1414482500189
locale,sysinfo,,,"zh_CN",1414482500189
processors,sysinfo,,,"4",1414482500189
java.runtime.name,sysinfo,,,"Java(TM) SE Runtime Environment",1414482500189
java.runtime.version,sysinfo,,,"1.6.0_03-b05",1414482500189
java.specification.name,sysinfo,,,"Java Platform API Specification",1414482500189
java.specification.vendor,sysinfo,,,"Sun Microsystems Inc.",1414482500189
java.specification.version,sysinfo,,,"1.6",1414482500189
java.vendor,sysinfo,,,"Sun Microsystems Inc.",1414482500189
java.version,sysinfo,,,"1.6.0_03",1414482500189
java.vm.info,sysinfo,,,"mixed mode",1414482500189
java.vm.name,sysinfo,,,"Java HotSpot(TM) Client VM",1414482500189
java.vm.specification.name,sysinfo,,,"Java Virtual Machine Specification",1414482500189
java.vm.specification.vendor,sysinfo,,,"Sun Microsystems Inc.",1414482500189
java.vm.specification.version,sysinfo,,,"1.0",1414482500189
java.vm.vendor,sysinfo,,,"Sun Microsystems Inc.",1414482500189
java.vm.version,sysinfo,,,"1.6.0_03-b05",1414482500189
deactivated,workbench,org.eclipse.ui.workbench,3.5.1.M20090826-0800a,"",1414482500193
started,bundle,org.eclipse.mylyn.commons.net,3.2.0.v20090617-0100-e3x,"org.eclipse.mylyn.commons.net",1414482500410
