what,kind,bundleId,bundleVersion,description,time
deactivated,workbench,org.eclipse.ui.workbench,3.5.1.M20090826-0800a,"",1415147545918
activated,workbench,org.eclipse.ui.workbench,3.5.1.M20090826-0800a,"",1415147553881
deactivated,workbench,org.eclipse.ui.workbench,3.5.1.M20090826-0800a,"",1415147554994
activated,workbench,org.eclipse.ui.workbench,3.5.1.M20090826-0800a,"",1415147557337
deactivated,workbench,org.eclipse.ui.workbench,3.5.1.M20090826-0800a,"",1415147563189
activated,workbench,org.eclipse.ui.workbench,3.5.1.M20090826-0800a,"",1415147639077
activated,perspective,com.android.ide.eclipse.ddms,12.0.0.v201106281929-138431,"com.android.ide.eclipse.ddms.Perspective",1415147642392
activated,view,com.android.ide.eclipse.ddms,12.0.0.v201106281929-138431,"com.android.ide.eclipse.ddms.views.FileExplorerView",1415147642408
deactivated,workbench,org.eclipse.ui.workbench,3.5.1.M20090826-0800a,"",1415147665684
deactivated,workbench,org.eclipse.ui.workbench,3.5.1.M20090826-0800a,"",1415147667155
activated,workbench,org.eclipse.ui.workbench,3.5.1.M20090826-0800a,"",1415147685481
deactivated,workbench,org.eclipse.ui.workbench,3.5.1.M20090826-0800a,"",1415147729160
activated,workbench,org.eclipse.ui.workbench,3.5.1.M20090826-0800a,"",1415147740739
deactivated,workbench,org.eclipse.ui.workbench,3.5.1.M20090826-0800a,"",1415147740849
activated,workbench,org.eclipse.ui.workbench,3.5.1.M20090826-0800a,"",1415147740889
activated,view,org.eclipse.ui.console,3.4.0.v20090513,"org.eclipse.ui.console.ConsoleView",1415147740951
deactivated,workbench,org.eclipse.ui.workbench,3.5.1.M20090826-0800a,"",1415147746927
activated,workbench,org.eclipse.ui.workbench,3.5.1.M20090826-0800a,"",1415147748948
activated,view,com.android.ide.eclipse.ddms,12.0.0.v201106281929-138431,"com.android.ide.eclipse.ddms.views.FileExplorerView",1415147750661
deactivated,workbench,org.eclipse.ui.workbench,3.5.1.M20090826-0800a,"",1415147750795
activated,workbench,org.eclipse.ui.workbench,3.5.1.M20090826-0800a,"",1415147764757
deactivated,workbench,org.eclipse.ui.workbench,3.5.1.M20090826-0800a,"",1415147765801
activated,workbench,org.eclipse.ui.workbench,3.5.1.M20090826-0800a,"",1415147769688
deactivated,workbench,org.eclipse.ui.workbench,3.5.1.M20090826-0800a,"",1415147769783
activated,workbench,org.eclipse.ui.workbench,3.5.1.M20090826-0800a,"",1415147770132
