what,kind,bundleId,bundleVersion,description,time
deactivated,workbench,org.eclipse.ui.workbench,3.5.1.M20090826-0800a,"",1414484724790
activated,workbench,org.eclipse.ui.workbench,3.5.1.M20090826-0800a,"",1414484726241
deactivated,workbench,org.eclipse.ui.workbench,3.5.1.M20090826-0800a,"",1414484733504
activated,workbench,org.eclipse.ui.workbench,3.5.1.M20090826-0800a,"",1414484734136
deactivated,workbench,org.eclipse.ui.workbench,3.5.1.M20090826-0800a,"",1414484734761
activated,workbench,org.eclipse.ui.workbench,3.5.1.M20090826-0800a,"",1414484761654
executed,command,org.eclipse.ui,3.5.1.M20090902-1000,"org.eclipse.ui.file.save",1414484766361
deactivated,workbench,org.eclipse.ui.workbench,3.5.1.M20090826-0800a,"",1414484767281
activated,workbench,org.eclipse.ui.workbench,3.5.1.M20090826-0800a,"",1414484768025
deactivated,workbench,org.eclipse.ui.workbench,3.5.1.M20090826-0800a,"",1414484768492
activated,workbench,org.eclipse.ui.workbench,3.5.1.M20090826-0800a,"",1414484772986
executed,command,org.eclipse.ui,3.5.1.M20090902-1000,"org.eclipse.ui.edit.paste",1414484774656
executed,command,org.eclipse.ui,3.5.1.M20090902-1000,"org.eclipse.ui.file.save",1414484791665
deactivated,workbench,org.eclipse.ui.workbench,3.5.1.M20090826-0800a,"",1414484795345
activated,workbench,org.eclipse.ui.workbench,3.5.1.M20090826-0800a,"",1414484796418
executed,command,org.eclipse.ui,3.5.1.M20090902-1000,"org.eclipse.ui.edit.delete",1414484822616
executed,command,org.eclipse.ui,3.5.1.M20090902-1000,"org.eclipse.ui.file.save",1414484832528
deactivated,workbench,org.eclipse.ui.workbench,3.5.1.M20090826-0800a,"",1414484834486
activated,workbench,org.eclipse.ui.workbench,3.5.1.M20090826-0800a,"",1414484839850
activated,view,org.eclipse.jdt.ui,3.5.1.r351_v20090821-0800,"org.eclipse.jdt.ui.PackageExplorer",1414484847041
executed,command,,,"com.android.ide.eclipse.adt.debug.launching.LaunchShortcut.run",1414484849209
opened,view,com.android.ide.eclipse.ddms,12.0.0.v201106281929-138431,"com.android.ide.eclipse.ddms.views.LogCatView",1414484852691
activated,view,com.android.ide.eclipse.ddms,12.0.0.v201106281929-138431,"com.android.ide.eclipse.ddms.views.LogCatView",1414484852758
deactivated,workbench,org.eclipse.ui.workbench,3.5.1.M20090826-0800a,"",1414484856220
activated,workbench,org.eclipse.ui.workbench,3.5.1.M20090826-0800a,"",1414484857047
