what,kind,bundleId,bundleVersion,description,time
activated,workbench,org.eclipse.ui.workbench,3.5.1.M20090826-0800a,"",1408063925445
deactivated,workbench,org.eclipse.ui.workbench,3.5.1.M20090826-0800a,"",1408063925547
activated,workbench,org.eclipse.ui.workbench,3.5.1.M20090826-0800a,"",1408063926167
deactivated,workbench,org.eclipse.ui.workbench,3.5.1.M20090826-0800a,"",1408063926344
activated,workbench,org.eclipse.ui.workbench,3.5.1.M20090826-0800a,"",1408063927357
executed,command,org.eclipse.ui,3.5.1.M20090902-1000,"org.eclipse.ui.file.save",1408063967902
deactivated,workbench,org.eclipse.ui.workbench,3.5.1.M20090826-0800a,"",1408063971073
activated,workbench,org.eclipse.ui.workbench,3.5.1.M20090826-0800a,"",1408063972463
deactivated,workbench,org.eclipse.ui.workbench,3.5.1.M20090826-0800a,"",1408063992888
activated,workbench,org.eclipse.ui.workbench,3.5.1.M20090826-0800a,"",1408063994175
deactivated,workbench,org.eclipse.ui.workbench,3.5.1.M20090826-0800a,"",1408064004851
activated,workbench,org.eclipse.ui.workbench,3.5.1.M20090826-0800a,"",1408064010458
activated,view,org.eclipse.jdt.ui,3.5.1.r351_v20090821-0800,"org.eclipse.jdt.ui.PackageExplorer",1408064010491
started,bundle,org.eclipse.cdt.debug.core,6.0.0.201002161416,"org.eclipse.cdt.debug.core",1408064014358
started,bundle,org.eclipse.cdt.debug.ui,6.0.0.201002161416,"org.eclipse.cdt.debug.ui",1408064014397
executed,command,,,"com.android.ide.eclipse.adt.debug.launching.LaunchShortcut.run",1408064015861
deactivated,workbench,org.eclipse.ui.workbench,3.5.1.M20090826-0800a,"",1408064017422
activated,workbench,org.eclipse.ui.workbench,3.5.1.M20090826-0800a,"",1408064052118
deactivated,workbench,org.eclipse.ui.workbench,3.5.1.M20090826-0800a,"",1408064144612
activated,workbench,org.eclipse.ui.workbench,3.5.1.M20090826-0800a,"",1408064241382
activated,editor,org.eclipse.jdt.ui,3.5.1.r351_v20090821-0800,"org.eclipse.jdt.ui.CompilationUnitEditor",1408064540669
deactivated,workbench,org.eclipse.ui.workbench,3.5.1.M20090826-0800a,"",1408064662791
activated,workbench,org.eclipse.ui.workbench,3.5.1.M20090826-0800a,"",1408079065235
deactivated,workbench,org.eclipse.ui.workbench,3.5.1.M20090826-0800a,"",1408079319386
activated,workbench,org.eclipse.ui.workbench,3.5.1.M20090826-0800a,"",1408079340098
