<?xml version="1.0" encoding="UTF-8"?>
<session version="1.0">
<refactoring comment="将 1 个元素复制到 “FoodAndroidMobile”&#x0D;&#x0A;－ 原始项目：“Layout”&#x0D;&#x0A;－ 目标元素：“FoodAndroidMobile”&#x0D;&#x0A;－ 原始元素：“default.properties”" description="复制文件" element1="default.properties" files="1" flags="589830" folders="0" id="org.eclipse.jdt.ui.copy" policy="org.eclipse.jdt.ui.copyResources" stamp="1378799539904" target="/FoodAndroidMobile" units="0" version="1.0"/>
</session>