INDEX VERSION 1.126+E:\AndroidWorkSpace\ErvinAnSpace00\.metadata\.plugins\org.eclipse.jdt.core
2851094213.index
3905647746.index
3979458543.index
666896813.index
850203368.index
294878163.index
2043727593.index
41023537.index
1693549345.index
2048842681.index
262368350.index
4196137354.index
2214169457.index
2218855153.index
2445801981.index
3845528856.index
3807135940.index
1407747261.index
4083682992.index
2538971516.index
3635728310.index
199104723.index
828917335.index
1337744242.index
1339542979.index
1657330681.index
3603228877.index
2423248788.index
1284074322.index
2685704574.index
2205213100.index
534845219.index
1030012038.index
2540099554.index
3696469705.index
2595257824.index
2806059066.index
3882870953.index
3871394155.index
1104752049.index
1644813865.index
3595614876.index
946569843.index
2576831366.index
1087970068.index
4201823431.index
2771105959.index
3675458491.index
4181955505.index
4003304151.index
1764321331.index
2867027345.index
1797532618.index
3580191240.index
776146531.index
1950837995.index
2052877129.index
3888736326.index
2303589458.index
1060100298.index
1306783826.index
