what,kind,bundleId,bundleVersion,description,time
deactivated,workbench,org.eclipse.ui.workbench,3.5.1.M20090826-0800a,"",1398688164871
activated,workbench,org.eclipse.ui.workbench,3.5.1.M20090826-0800a,"",1398688165939
deactivated,workbench,org.eclipse.ui.workbench,3.5.1.M20090826-0800a,"",1398688166329
activated,workbench,org.eclipse.ui.workbench,3.5.1.M20090826-0800a,"",1398688591483
activated,editor,org.eclipse.jdt.ui,3.5.1.r351_v20090821-0800,"org.eclipse.jdt.ui.CompilationUnitEditor",1398688595476
activated,editor,org.eclipse.jdt.ui,3.5.1.r351_v20090821-0800,"org.eclipse.jdt.ui.CompilationUnitEditor",1398688596752
activated,editor,org.eclipse.jdt.ui,3.5.1.r351_v20090821-0800,"org.eclipse.jdt.ui.CompilationUnitEditor",1398688600669
deactivated,workbench,org.eclipse.ui.workbench,3.5.1.M20090826-0800a,"",1398688602250
activated,workbench,org.eclipse.ui.workbench,3.5.1.M20090826-0800a,"",1398688685645
deactivated,workbench,org.eclipse.ui.workbench,3.5.1.M20090826-0800a,"",1398688686544
activated,workbench,org.eclipse.ui.workbench,3.5.1.M20090826-0800a,"",1398688924354
started,bundle,org.eclipse.mylyn.java.ui,3.2.2.v20090912-0400-e3x,"org.eclipse.mylyn.java.ui",1398688930119
started,bundle,org.eclipse.pde.api.tools,1.0.101.v20090714,"org.eclipse.pde.api.tools",1398688930655
started,bundle,org.eclipse.pde.api.tools.ui,1.0.101.v20090820,"org.eclipse.pde.api.tools.ui",1398688930683
executed,command,org.eclipse.ui.workbench.texteditor,3.5.0.v20090603,"org.eclipse.ui.edit.text.smartEnter",1398688934166
deactivated,workbench,org.eclipse.ui.workbench,3.5.1.M20090826-0800a,"",1398688941153
activated,workbench,org.eclipse.ui.workbench,3.5.1.M20090826-0800a,"",1398688943506
deactivated,workbench,org.eclipse.ui.workbench,3.5.1.M20090826-0800a,"",1398688943933
activated,workbench,org.eclipse.ui.workbench,3.5.1.M20090826-0800a,"",1398688950718
executed,command,org.eclipse.ui,3.5.1.M20090902-1000,"org.eclipse.ui.file.save",1398688953692
started,bundle,org.eclipse.wst.server.core,1.1.102.v20090825,"org.eclipse.wst.server.core",1398688954661
started,bundle,org.eclipse.wst.server.ui,1.1.103.v20090909,"org.eclipse.wst.server.ui",1398688954710
opened,view,org.eclipse.ui.console,3.4.0.v20090513,"org.eclipse.ui.console.ConsoleView",1398688956142
activated,view,com.android.ide.eclipse.ddms,12.0.0.v201106281929-138431,"com.android.ide.eclipse.ddms.views.LogCatView",1398688960081
deactivated,workbench,org.eclipse.ui.workbench,3.5.1.M20090826-0800a,"",1398688963567
