what,kind,bundleId,bundleVersion,description,time
activated,workbench,org.eclipse.ui.workbench,3.5.1.M20090826-0800a,"",1390381086085
executed,command,org.eclipse.ui,3.5.1.M20090902-1000,"org.eclipse.ui.file.save",1390381094706
deactivated,workbench,org.eclipse.ui.workbench,3.5.1.M20090826-0800a,"",1390381106227
activated,workbench,org.eclipse.ui.workbench,3.5.1.M20090826-0800a,"",1390381108481
executed,command,org.eclipse.ui,3.5.1.M20090902-1000,"org.eclipse.ui.file.print",1390381108492
deactivated,workbench,org.eclipse.ui.workbench,3.5.1.M20090826-0800a,"",1390381115001
activated,workbench,org.eclipse.ui.workbench,3.5.1.M20090826-0800a,"",1390381118649
executed,command,org.eclipse.ui,3.5.1.M20090902-1000,"org.eclipse.ui.file.save",1390381200449
executed,command,org.eclipse.ui,3.5.1.M20090902-1000,"org.eclipse.ui.file.save",1390381259333
activated,view,org.eclipse.jdt.ui,3.5.1.r351_v20090821-0800,"org.eclipse.jdt.ui.PackageExplorer",1390381262330
executed,command,org.eclipse.jdt.debug.ui,3.4.1.v20090811_r351,"org.eclipse.jdt.debug.ui.localJavaShortcut.run",1390381264540
activated,view,org.eclipse.ui.console,3.4.0.v20090513,"org.eclipse.ui.console.ConsoleView",1390381265827
deactivated,workbench,org.eclipse.ui.workbench,3.5.1.M20090826-0800a,"",1390381276447
activated,workbench,org.eclipse.ui.workbench,3.5.1.M20090826-0800a,"",1390381278148
activated,editor,org.eclipse.jdt.ui,3.5.1.r351_v20090821-0800,"org.eclipse.jdt.ui.CompilationUnitEditor",1390381278175
deactivated,workbench,org.eclipse.ui.workbench,3.5.1.M20090826-0800a,"",1390381282872
activated,workbench,org.eclipse.ui.workbench,3.5.1.M20090826-0800a,"",1390381310550
executed,command,org.eclipse.ui,3.5.1.M20090902-1000,"org.eclipse.ui.edit.undo",1390381345181
executed,command,org.eclipse.ui,3.5.1.M20090902-1000,"org.eclipse.ui.edit.copy",1390381409606
executed,command,org.eclipse.ui,3.5.1.M20090902-1000,"org.eclipse.ui.edit.paste",1390381411237
started,bundle,org.eclipse.mylyn.java.tasks,3.2.2.v20090912-0400-e3x,"org.eclipse.mylyn.java.tasks",1390381411305
executed,command,org.eclipse.ui,3.5.1.M20090902-1000,"org.eclipse.ui.edit.text.contentAssist.proposals",1390381465926
deactivated,workbench,org.eclipse.ui.workbench,3.5.1.M20090826-0800a,"",1390381474480
activated,workbench,org.eclipse.ui.workbench,3.5.1.M20090826-0800a,"",1390381502481
executed,command,org.eclipse.ui,3.5.1.M20090902-1000,"org.eclipse.ui.edit.text.contentAssist.proposals",1390381554537
