what,kind,bundleId,bundleVersion,description,time
started,bundle,org.eclipse.mylyn.context.core,3.2.2.v20090912-0400-e3x,"org.eclipse.mylyn.context.core",1401106646010
started,bundle,org.eclipse.mylyn.context.ui,3.2.2.v20090912-0400-e3x,"org.eclipse.mylyn.context.ui",1401106646461
started,bundle,org.eclipse.mylyn.tasks.ui,3.2.2.v20090912-0400-e3x,"org.eclipse.mylyn.tasks.ui",1401106650313
started,bundle,org.eclipse.mylyn.team.ui,3.2.2.v20090912-0400-e3x,"org.eclipse.mylyn.team.ui",1401106650579
started,bundle,org.eclipse.update.scheduler,3.2.200.v20081127,"org.eclipse.update.scheduler",1401106651034
started,bundle,org.eclipse.update.core,3.2.300.v20090525,"org.eclipse.update.core",1401106651832
started,bundle,org.eclipse.wst.ws.service.policy.ui,1.0.102.v200903070248,"org.eclipse.wst.ws.service.policy.ui",1401106652238
started,bundle,org.eclipse.mylyn.monitor.ui,3.2.2.v20090912-0400-e3x,"org.eclipse.mylyn.monitor.ui",1401106652606
started,bundle,org.eclipse.jpt.core,2.2.1.v200908270220,"org.eclipse.jpt.core",1401106656928
started,bundle,org.eclipse.jpt.eclipselink.core,1.2.0.v200905310000,"org.eclipse.jpt.eclipselink.core",1401106657030
deactivated,workbench,org.eclipse.ui.workbench,3.5.1.M20090826-0800a,"",1401106676454
activated,workbench,org.eclipse.ui.workbench,3.5.1.M20090826-0800a,"",1401106695036
deactivated,workbench,org.eclipse.ui.workbench,3.5.1.M20090826-0800a,"",1401106696177
activated,workbench,org.eclipse.ui.workbench,3.5.1.M20090826-0800a,"",1401106696520
deactivated,workbench,org.eclipse.ui.workbench,3.5.1.M20090826-0800a,"",1401106696732
activated,workbench,org.eclipse.ui.workbench,3.5.1.M20090826-0800a,"",1401106706484
deactivated,workbench,org.eclipse.ui.workbench,3.5.1.M20090826-0800a,"",1401106707858
deactivated,workbench,org.eclipse.ui.workbench,3.5.1.M20090826-0800a,"",1401107863676
activated,workbench,org.eclipse.ui.workbench,3.5.1.M20090826-0800a,"",1401107864088
deactivated,workbench,org.eclipse.ui.workbench,3.5.1.M20090826-0800a,"",1401107865810
activated,workbench,org.eclipse.ui.workbench,3.5.1.M20090826-0800a,"",1401107865949
deactivated,workbench,org.eclipse.ui.workbench,3.5.1.M20090826-0800a,"",1401107869320
activated,workbench,org.eclipse.ui.workbench,3.5.1.M20090826-0800a,"",1401107898987
opened,view,com.android.ide.eclipse.ddms,12.0.0.v201106281929-138431,"com.android.ide.eclipse.ddms.views.LogCatView",1401107899401
activated,view,com.android.ide.eclipse.ddms,12.0.0.v201106281929-138431,"com.android.ide.eclipse.ddms.views.LogCatView",1401107899469
