what,kind,bundleId,bundleVersion,description,time
started,bundle,org.eclipse.jdt.junit,3.5.1.r351_v20090708-0800,"org.eclipse.jdt.junit",1398648963370
deactivated,workbench,org.eclipse.ui.workbench,3.5.1.M20090826-0800a,"",1398648974426
activated,workbench,org.eclipse.ui.workbench,3.5.1.M20090826-0800a,"",1398649111879
activated,editor,org.eclipse.jdt.ui,3.5.1.r351_v20090821-0800,"org.eclipse.jdt.ui.CompilationUnitEditor",1398649114576
deactivated,workbench,org.eclipse.ui.workbench,3.5.1.M20090826-0800a,"",1398649126712
activated,workbench,org.eclipse.ui.workbench,3.5.1.M20090826-0800a,"",1398649127561
deactivated,workbench,org.eclipse.ui.workbench,3.5.1.M20090826-0800a,"",1398649128035
activated,workbench,org.eclipse.ui.workbench,3.5.1.M20090826-0800a,"",1398649137904
deactivated,workbench,org.eclipse.ui.workbench,3.5.1.M20090826-0800a,"",1398649142495
activated,workbench,org.eclipse.ui.workbench,3.5.1.M20090826-0800a,"",1398649143264
deactivated,workbench,org.eclipse.ui.workbench,3.5.1.M20090826-0800a,"",1398649143663
activated,workbench,org.eclipse.ui.workbench,3.5.1.M20090826-0800a,"",1398649158569
deactivated,workbench,org.eclipse.ui.workbench,3.5.1.M20090826-0800a,"",1398649169404
activated,workbench,org.eclipse.ui.workbench,3.5.1.M20090826-0800a,"",1398649217873
activated,editor,org.eclipse.jdt.ui,3.5.1.r351_v20090821-0800,"org.eclipse.jdt.ui.CompilationUnitEditor",1398649223549
deactivated,workbench,org.eclipse.ui.workbench,3.5.1.M20090826-0800a,"",1398649238953
activated,workbench,org.eclipse.ui.workbench,3.5.1.M20090826-0800a,"",1398649239649
deactivated,workbench,org.eclipse.ui.workbench,3.5.1.M20090826-0800a,"",1398649243951
activated,workbench,org.eclipse.ui.workbench,3.5.1.M20090826-0800a,"",1398649245112
activated,editor,org.eclipse.jdt.ui,3.5.1.r351_v20090821-0800,"org.eclipse.jdt.ui.CompilationUnitEditor",1398649246453
deactivated,workbench,org.eclipse.ui.workbench,3.5.1.M20090826-0800a,"",1398649250064
activated,workbench,org.eclipse.ui.workbench,3.5.1.M20090826-0800a,"",1398649267001
deactivated,workbench,org.eclipse.ui.workbench,3.5.1.M20090826-0800a,"",1398649269303
activated,workbench,org.eclipse.ui.workbench,3.5.1.M20090826-0800a,"",1398649293958
activated,editor,org.eclipse.jdt.ui,3.5.1.r351_v20090821-0800,"org.eclipse.jdt.ui.CompilationUnitEditor",1398649297340
