what,kind,bundleId,bundleVersion,description,time
arch,sysinfo,,,"x86",1399426561117
ws,sysinfo,,,"win32",1399426561117
locale,sysinfo,,,"zh_CN",1399426561117
processors,sysinfo,,,"4",1399426561117
java.runtime.name,sysinfo,,,"Java(TM) SE Runtime Environment",1399426561117
java.runtime.version,sysinfo,,,"1.6.0_03-b05",1399426561117
java.specification.name,sysinfo,,,"Java Platform API Specification",1399426561117
java.specification.vendor,sysinfo,,,"Sun Microsystems Inc.",1399426561117
java.specification.version,sysinfo,,,"1.6",1399426561117
java.vendor,sysinfo,,,"Sun Microsystems Inc.",1399426561117
java.version,sysinfo,,,"1.6.0_03",1399426561117
java.vm.info,sysinfo,,,"mixed mode",1399426561117
java.vm.name,sysinfo,,,"Java HotSpot(TM) Client VM",1399426561117
java.vm.specification.name,sysinfo,,,"Java Virtual Machine Specification",1399426561117
java.vm.specification.vendor,sysinfo,,,"Sun Microsystems Inc.",1399426561117
java.vm.specification.version,sysinfo,,,"1.0",1399426561117
java.vm.vendor,sysinfo,,,"Sun Microsystems Inc.",1399426561117
java.vm.version,sysinfo,,,"1.6.0_03-b05",1399426561117
started,bundle,com.android.ide.eclipse.traceview,12.0.0.v201106281929-138431,"com.android.ide.eclipse.traceview",1399426561274
started,bundle,org.eclipse.mylyn.commons.net,3.2.0.v20090617-0100-e3x,"org.eclipse.mylyn.commons.net",1399426561945
started,bundle,org.eclipse.jst.common.project.facet.core,1.4.1.v200908111817,"org.eclipse.jst.common.project.facet.core",1399426562257
started,bundle,org.eclipse.epp.usagedata.ui,1.1.0.R200906100410,"org.eclipse.epp.usagedata.ui",1399426562371
started,bundle,org.eclipse.mylyn.commons.ui,3.2.2.v20090912-0400-e3x,"org.eclipse.mylyn.commons.ui",1399426562626
started,bundle,org.eclipse.mylyn.bugzilla.core,3.2.2.v20090912-0400-e3x,"org.eclipse.mylyn.bugzilla.core",1399426563065
started,bundle,org.eclipse.mylyn.bugzilla.ui,3.2.2.v20090912-0400-e3x,"org.eclipse.mylyn.bugzilla.ui",1399426563462
