what,kind,bundleId,bundleVersion,description,time
activated,editor,com.android.ide.eclipse.adt,12.0.0.v201106281929-138431,"com.android.ide.eclipse.editors.manifest.ManifestEditor",1406534061838
deactivated,workbench,org.eclipse.ui.workbench,3.5.1.M20090826-0800a,"",1406534064000
activated,workbench,org.eclipse.ui.workbench,3.5.1.M20090826-0800a,"",1406534066622
deactivated,workbench,org.eclipse.ui.workbench,3.5.1.M20090826-0800a,"",1406534068933
activated,workbench,org.eclipse.ui.workbench,3.5.1.M20090826-0800a,"",1406534070863
executed,command,org.eclipse.ui,3.5.1.M20090902-1000,"org.eclipse.ui.file.save",1406534084911
activated,editor,org.eclipse.jdt.ui,3.5.1.r351_v20090821-0800,"org.eclipse.jdt.ui.CompilationUnitEditor",1406534086712
closed,editor,com.android.ide.eclipse.adt,12.0.0.v201106281929-138431,"com.android.ide.eclipse.editors.manifest.ManifestEditor",1406534086713
activated,view,org.eclipse.jdt.ui,3.5.1.r351_v20090821-0800,"org.eclipse.jdt.ui.PackageExplorer",1406534088724
executed,command,,,"com.android.ide.eclipse.adt.debug.launching.LaunchShortcut.run",1406534091313
deactivated,workbench,org.eclipse.ui.workbench,3.5.1.M20090826-0800a,"",1406534091888
activated,workbench,org.eclipse.ui.workbench,3.5.1.M20090826-0800a,"",1406534162109
activated,editor,org.eclipse.jdt.ui,3.5.1.r351_v20090821-0800,"org.eclipse.jdt.ui.CompilationUnitEditor",1406534162612
executed,command,org.eclipse.ui,3.5.1.M20090902-1000,"org.eclipse.ui.file.save",1406534221392
deactivated,workbench,org.eclipse.ui.workbench,3.5.1.M20090826-0800a,"",1406534758941
activated,workbench,org.eclipse.ui.workbench,3.5.1.M20090826-0800a,"",1406534933514
executed,command,org.eclipse.ui,3.5.1.M20090902-1000,"org.eclipse.ui.edit.text.contentAssist.proposals",1406534974861
executed,command,org.eclipse.jdt.ui,3.5.1.r351_v20090821-0800,"org.eclipse.jdt.ui.edit.text.java.toggle.comment",1406534976655
deactivated,workbench,org.eclipse.ui.workbench,3.5.1.M20090826-0800a,"",1406534982987
activated,workbench,org.eclipse.ui.workbench,3.5.1.M20090826-0800a,"",1406535038536
deactivated,workbench,org.eclipse.ui.workbench,3.5.1.M20090826-0800a,"",1406535041475
activated,workbench,org.eclipse.ui.workbench,3.5.1.M20090826-0800a,"",1406535042237
deactivated,workbench,org.eclipse.ui.workbench,3.5.1.M20090826-0800a,"",1406535043053
activated,workbench,org.eclipse.ui.workbench,3.5.1.M20090826-0800a,"",1406535044654
executed,command,org.eclipse.ui,3.5.1.M20090902-1000,"org.eclipse.ui.edit.delete",1406535060530
