what,kind,bundleId,bundleVersion,description,time
activated,view,org.eclipse.jdt.ui,3.5.1.r351_v20090821-0800,"org.eclipse.jdt.ui.PackageExplorer",1406179992274
deactivated,workbench,org.eclipse.ui.workbench,3.5.1.M20090826-0800a,"",1406180021162
activated,workbench,org.eclipse.ui.workbench,3.5.1.M20090826-0800a,"",1406180040621
deactivated,workbench,org.eclipse.ui.workbench,3.5.1.M20090826-0800a,"",1406180051761
activated,workbench,org.eclipse.ui.workbench,3.5.1.M20090826-0800a,"",1406180073030
opened,editor,org.eclipse.jdt.ui,3.5.1.r351_v20090821-0800,"org.eclipse.jdt.ui.CompilationUnitEditor",1406180073461
activated,editor,org.eclipse.jdt.ui,3.5.1.r351_v20090821-0800,"org.eclipse.jdt.ui.CompilationUnitEditor",1406180073605
activated,editor,org.eclipse.jdt.ui,3.5.1.r351_v20090821-0800,"org.eclipse.jdt.ui.CompilationUnitEditor",1406180076881
activated,editor,org.eclipse.jdt.ui,3.5.1.r351_v20090821-0800,"org.eclipse.jdt.ui.CompilationUnitEditor",1406180080605
executed,command,org.eclipse.ui,3.5.1.M20090902-1000,"org.eclipse.ui.edit.delete",1406180100424
deactivated,workbench,org.eclipse.ui.workbench,3.5.1.M20090826-0800a,"",1406180103241
activated,workbench,org.eclipse.ui.workbench,3.5.1.M20090826-0800a,"",1406180103452
executed,command,org.eclipse.ui,3.5.1.M20090902-1000,"org.eclipse.ui.file.save",1406180117402
activated,editor,org.eclipse.jdt.ui,3.5.1.r351_v20090821-0800,"org.eclipse.jdt.ui.CompilationUnitEditor",1406180118699
activated,editor,com.android.ide.eclipse.adt,12.0.0.v201106281929-138431,"com.android.ide.eclipse.editors.layout.LayoutEditor",1406180120798
activated,view,org.eclipse.jdt.ui,3.5.1.r351_v20090821-0800,"org.eclipse.jdt.ui.PackageExplorer",1406180125950
deactivated,workbench,org.eclipse.ui.workbench,3.5.1.M20090826-0800a,"",1406180133037
opened,editor,com.android.ide.eclipse.adt,12.0.0.v201106281929-138431,"com.android.ide.eclipse.editors.layout.LayoutEditor",1406180176259
activated,editor,com.android.ide.eclipse.adt,12.0.0.v201106281929-138431,"com.android.ide.eclipse.editors.layout.LayoutEditor",1406180176322
activated,workbench,org.eclipse.ui.workbench,3.5.1.M20090826-0800a,"",1406180176351
activated,view,org.eclipse.jdt.ui,3.5.1.r351_v20090821-0800,"org.eclipse.jdt.ui.PackageExplorer",1406180176362
activated,editor,com.android.ide.eclipse.adt,12.0.0.v201106281929-138431,"com.android.ide.eclipse.editors.layout.LayoutEditor",1406180181083
activated,editor,com.android.ide.eclipse.adt,12.0.0.v201106281929-138431,"com.android.ide.eclipse.editors.layout.LayoutEditor",1406180187295
error,log,,,"Failed to load properties file for project 'FoodAndroidMobile'",1406180190355
started,bundle,org.eclipse.draw2d,3.5.1.v20090813-1341,"org.eclipse.draw2d",1406180190771
