what,kind,bundleId,bundleVersion,description,time
arch,sysinfo,,,"x86",1396919485130
ws,sysinfo,,,"win32",1396919485130
locale,sysinfo,,,"zh_CN",1396919485130
processors,sysinfo,,,"4",1396919485130
java.runtime.name,sysinfo,,,"Java(TM) SE Runtime Environment",1396919485130
java.runtime.version,sysinfo,,,"1.6.0_03-b05",1396919485130
java.specification.name,sysinfo,,,"Java Platform API Specification",1396919485130
java.specification.vendor,sysinfo,,,"Sun Microsystems Inc.",1396919485130
java.specification.version,sysinfo,,,"1.6",1396919485130
java.vendor,sysinfo,,,"Sun Microsystems Inc.",1396919485130
java.version,sysinfo,,,"1.6.0_03",1396919485130
java.vm.info,sysinfo,,,"mixed mode",1396919485130
java.vm.name,sysinfo,,,"Java HotSpot(TM) Client VM",1396919485130
java.vm.specification.name,sysinfo,,,"Java Virtual Machine Specification",1396919485130
java.vm.specification.vendor,sysinfo,,,"Sun Microsystems Inc.",1396919485130
java.vm.specification.version,sysinfo,,,"1.0",1396919485130
java.vm.vendor,sysinfo,,,"Sun Microsystems Inc.",1396919485130
java.vm.version,sysinfo,,,"1.6.0_03-b05",1396919485130
started,bundle,org.eclipse.jst.jsf.core,1.2.2.v20090903,"org.eclipse.jst.jsf.core",1396919485586
started,bundle,org.eclipse.mylyn.commons.net,3.2.0.v20090617-0100-e3x,"org.eclipse.mylyn.commons.net",1396919486112
started,bundle,org.eclipse.jst.common.project.facet.core,1.4.1.v200908111817,"org.eclipse.jst.common.project.facet.core",1396919486766
started,bundle,org.eclipse.mylyn.commons.ui,3.2.2.v20090912-0400-e3x,"org.eclipse.mylyn.commons.ui",1396919487168
started,bundle,org.eclipse.mylyn.bugzilla.core,3.2.2.v20090912-0400-e3x,"org.eclipse.mylyn.bugzilla.core",1396919487930
started,bundle,org.eclipse.epp.usagedata.ui,1.1.0.R200906100410,"org.eclipse.epp.usagedata.ui",1396919488212
started,bundle,org.eclipse.mylyn.bugzilla.ui,3.2.2.v20090912-0400-e3x,"org.eclipse.mylyn.bugzilla.ui",1396919488366
