what,kind,bundleId,bundleVersion,description,time
deactivated,workbench,org.eclipse.ui.workbench,3.5.1.M20090826-0800a,"",1405063209155
activated,workbench,org.eclipse.ui.workbench,3.5.1.M20090826-0800a,"",1405063210840
executed,command,org.eclipse.ui,3.5.1.M20090902-1000,"org.eclipse.ui.file.save",1405063420468
executed,command,org.eclipse.ui,3.5.1.M20090902-1000,"org.eclipse.ui.file.save",1405063442914
executed,command,org.eclipse.ui,3.5.1.M20090902-1000,"org.eclipse.ui.file.save",1405063549944
executed,command,org.eclipse.ui,3.5.1.M20090902-1000,"org.eclipse.ui.file.save",1405063637160
deactivated,workbench,org.eclipse.ui.workbench,3.5.1.M20090826-0800a,"",1405063732841
activated,workbench,org.eclipse.ui.workbench,3.5.1.M20090826-0800a,"",1405064335073
deactivated,workbench,org.eclipse.ui.workbench,3.5.1.M20090826-0800a,"",1405064388788
activated,workbench,org.eclipse.ui.workbench,3.5.1.M20090826-0800a,"",1405064391171
deactivated,workbench,org.eclipse.ui.workbench,3.5.1.M20090826-0800a,"",1405064392663
activated,workbench,org.eclipse.ui.workbench,3.5.1.M20090826-0800a,"",1405064394281
deactivated,workbench,org.eclipse.ui.workbench,3.5.1.M20090826-0800a,"",1405064395559
activated,workbench,org.eclipse.ui.workbench,3.5.1.M20090826-0800a,"",1405064396564
deactivated,workbench,org.eclipse.ui.workbench,3.5.1.M20090826-0800a,"",1405064396980
activated,workbench,org.eclipse.ui.workbench,3.5.1.M20090826-0800a,"",1405066702101
deactivated,workbench,org.eclipse.ui.workbench,3.5.1.M20090826-0800a,"",1405066702727
activated,workbench,org.eclipse.ui.workbench,3.5.1.M20090826-0800a,"",1405066705237
deactivated,workbench,org.eclipse.ui.workbench,3.5.1.M20090826-0800a,"",1405066706802
activated,workbench,org.eclipse.ui.workbench,3.5.1.M20090826-0800a,"",1405066878158
deactivated,workbench,org.eclipse.ui.workbench,3.5.1.M20090826-0800a,"",1405066878701
activated,workbench,org.eclipse.ui.workbench,3.5.1.M20090826-0800a,"",1405066879410
deactivated,workbench,org.eclipse.ui.workbench,3.5.1.M20090826-0800a,"",1405066886451
activated,workbench,org.eclipse.ui.workbench,3.5.1.M20090826-0800a,"",1405067586351
executed,command,org.eclipse.ui,3.5.1.M20090902-1000,"org.eclipse.ui.edit.undo",1405067622646
