what,kind,bundleId,bundleVersion,description,time
activated,view,org.eclipse.jdt.ui,3.5.1.r351_v20090821-0800,"org.eclipse.jdt.ui.PackageExplorer",1416405398738
opened,editor,org.eclipse.jdt.ui,3.5.1.r351_v20090821-0800,"org.eclipse.jdt.ui.CompilationUnitEditor",1416405399191
activated,editor,org.eclipse.jdt.ui,3.5.1.r351_v20090821-0800,"org.eclipse.jdt.ui.CompilationUnitEditor",1416405399299
started,bundle,org.eclipse.jdt.junit,3.5.1.r351_v20090708-0800,"org.eclipse.jdt.junit",1416405399447
activated,editor,org.eclipse.jdt.ui,3.5.1.r351_v20090821-0800,"org.eclipse.jdt.ui.CompilationUnitEditor",1416405418563
activated,editor,org.eclipse.jdt.ui,3.5.1.r351_v20090821-0800,"org.eclipse.jdt.ui.CompilationUnitEditor",1416405422133
activated,editor,org.eclipse.jdt.ui,3.5.1.r351_v20090821-0800,"org.eclipse.jdt.ui.CompilationUnitEditor",1416405423468
activated,editor,org.eclipse.jdt.ui,3.5.1.r351_v20090821-0800,"org.eclipse.jdt.ui.CompilationUnitEditor",1416405430736
activated,editor,org.eclipse.jdt.ui,3.5.1.r351_v20090821-0800,"org.eclipse.jdt.ui.CompilationUnitEditor",1416405432425
activated,editor,org.eclipse.jdt.ui,3.5.1.r351_v20090821-0800,"org.eclipse.jdt.ui.CompilationUnitEditor",1416405436361
activated,view,org.eclipse.jdt.ui,3.5.1.r351_v20090821-0800,"org.eclipse.jdt.ui.PackageExplorer",1416405484863
activated,editor,org.eclipse.jdt.ui,3.5.1.r351_v20090821-0800,"org.eclipse.jdt.ui.CompilationUnitEditor",1416405526931
deactivated,workbench,org.eclipse.ui.workbench,3.5.1.M20090826-0800a,"",1416405543790
activated,workbench,org.eclipse.ui.workbench,3.5.1.M20090826-0800a,"",1416405941531
deactivated,workbench,org.eclipse.ui.workbench,3.5.1.M20090826-0800a,"",1416405945969
activated,workbench,org.eclipse.ui.workbench,3.5.1.M20090826-0800a,"",1416405956338
deactivated,workbench,org.eclipse.ui.workbench,3.5.1.M20090826-0800a,"",1416405958874
activated,workbench,org.eclipse.ui.workbench,3.5.1.M20090826-0800a,"",1416405959023
deactivated,workbench,org.eclipse.ui.workbench,3.5.1.M20090826-0800a,"",1416405959351
activated,workbench,org.eclipse.ui.workbench,3.5.1.M20090826-0800a,"",1416405984851
deactivated,workbench,org.eclipse.ui.workbench,3.5.1.M20090826-0800a,"",1416405986721
activated,workbench,org.eclipse.ui.workbench,3.5.1.M20090826-0800a,"",1416406246483
deactivated,workbench,org.eclipse.ui.workbench,3.5.1.M20090826-0800a,"",1416406247657
activated,workbench,org.eclipse.ui.workbench,3.5.1.M20090826-0800a,"",1416406561558
deactivated,workbench,org.eclipse.ui.workbench,3.5.1.M20090826-0800a,"",1416406561578
