what,kind,bundleId,bundleVersion,description,time
started,bundle,org.eclipse.wst.internet.cache,1.0.301.v200805140020,"org.eclipse.wst.internet.cache",1408927402684
started,bundle,org.eclipse.core.variables,3.2.200.v20090521,"org.eclipse.core.variables",1408927403376
started,bundle,org.eclipse.jdt.debug.ui,3.4.1.v20090811_r351,"org.eclipse.jdt.debug.ui",1408927405129
activated,editor,org.eclipse.jdt.ui,3.5.1.r351_v20090821-0800,"org.eclipse.jdt.ui.CompilationUnitEditor",1408927406680
closed,editor,com.android.ide.eclipse.adt,12.0.0.v201106281929-138431,"com.android.ide.eclipse.editors.layout.LayoutEditor",1408927406680
error,log,,,"Failed to update a TargetChangeListener.",1408927408285
activated,view,org.eclipse.jdt.ui,3.5.1.r351_v20090821-0800,"org.eclipse.jdt.ui.PackageExplorer",1408927410416
closed,editor,org.eclipse.jdt.ui,3.5.1.r351_v20090821-0800,"org.eclipse.jdt.ui.CompilationUnitEditor",1408927410416
started,bundle,org.eclipse.compare,3.5.0.I20090514-0808,"org.eclipse.compare",1408927436907
started,bundle,org.eclipse.cdt.core,5.1.2.201002161416,"org.eclipse.cdt.core",1408927438964
started,bundle,org.eclipse.cdt.debug.core,6.0.0.201002161416,"org.eclipse.cdt.debug.core",1408927439030
started,bundle,org.eclipse.cdt.debug.ui,6.0.0.201002161416,"org.eclipse.cdt.debug.ui",1408927439108
started,bundle,org.eclipse.cdt.core.tests,5.1.2.201002161416,"org.eclipse.cdt.core.tests",1408927439206
deactivated,workbench,org.eclipse.ui.workbench,3.5.1.M20090826-0800a,"",1408927441415
activated,workbench,org.eclipse.ui.workbench,3.5.1.M20090826-0800a,"",1408927461770
deactivated,workbench,org.eclipse.ui.workbench,3.5.1.M20090826-0800a,"",1408927469148
activated,workbench,org.eclipse.ui.workbench,3.5.1.M20090826-0800a,"",1408927476670
opened,editor,org.eclipse.jdt.ui,3.5.1.r351_v20090821-0800,"org.eclipse.jdt.ui.CompilationUnitEditor",1408927477417
activated,editor,org.eclipse.jdt.ui,3.5.1.r351_v20090821-0800,"org.eclipse.jdt.ui.CompilationUnitEditor",1408927477456
started,bundle,org.eclipse.mylyn.java.ui,3.2.2.v20090912-0400-e3x,"org.eclipse.mylyn.java.ui",1408927489055
started,bundle,org.eclipse.pde.api.tools,1.0.101.v20090714,"org.eclipse.pde.api.tools",1408927489569
started,bundle,org.eclipse.pde.api.tools.ui,1.0.101.v20090820,"org.eclipse.pde.api.tools.ui",1408927489574
started,bundle,org.eclipse.jdt.junit,3.5.1.r351_v20090708-0800,"org.eclipse.jdt.junit",1408927489912
executed,command,org.eclipse.ui,3.5.1.M20090902-1000,"org.eclipse.ui.file.save",1408927535702
deactivated,workbench,org.eclipse.ui.workbench,3.5.1.M20090826-0800a,"",1408927536858
