what,kind,bundleId,bundleVersion,description,time
activated,workbench,org.eclipse.ui.workbench,3.5.1.M20090826-0800a,"",1405390170879
executed,command,org.eclipse.ui,3.5.1.M20090902-1000,"org.eclipse.ui.file.save",1405390174618
deactivated,workbench,org.eclipse.ui.workbench,3.5.1.M20090826-0800a,"",1405390193718
activated,workbench,org.eclipse.ui.workbench,3.5.1.M20090826-0800a,"",1405390219989
deactivated,workbench,org.eclipse.ui.workbench,3.5.1.M20090826-0800a,"",1405390221205
activated,workbench,org.eclipse.ui.workbench,3.5.1.M20090826-0800a,"",1405390315905
deactivated,workbench,org.eclipse.ui.workbench,3.5.1.M20090826-0800a,"",1405390323071
activated,workbench,org.eclipse.ui.workbench,3.5.1.M20090826-0800a,"",1405390336876
deactivated,workbench,org.eclipse.ui.workbench,3.5.1.M20090826-0800a,"",1405391283802
activated,workbench,org.eclipse.ui.workbench,3.5.1.M20090826-0800a,"",1405391421832
deactivated,workbench,org.eclipse.ui.workbench,3.5.1.M20090826-0800a,"",1405391423863
activated,workbench,org.eclipse.ui.workbench,3.5.1.M20090826-0800a,"",1405391426393
deactivated,workbench,org.eclipse.ui.workbench,3.5.1.M20090826-0800a,"",1405391427296
activated,workbench,org.eclipse.ui.workbench,3.5.1.M20090826-0800a,"",1405391428164
deactivated,workbench,org.eclipse.ui.workbench,3.5.1.M20090826-0800a,"",1405391428698
activated,workbench,org.eclipse.ui.workbench,3.5.1.M20090826-0800a,"",1405391483026
deactivated,workbench,org.eclipse.ui.workbench,3.5.1.M20090826-0800a,"",1405391537736
activated,workbench,org.eclipse.ui.workbench,3.5.1.M20090826-0800a,"",1405391538430
deactivated,workbench,org.eclipse.ui.workbench,3.5.1.M20090826-0800a,"",1405391539834
activated,workbench,org.eclipse.ui.workbench,3.5.1.M20090826-0800a,"",1405391606748
activated,view,org.eclipse.jdt.ui,3.5.1.r351_v20090821-0800,"org.eclipse.jdt.ui.PackageExplorer",1405391606833
activated,editor,org.eclipse.jdt.ui,3.5.1.r351_v20090821-0800,"org.eclipse.jdt.ui.CompilationUnitEditor",1405391609807
activated,view,org.eclipse.jdt.ui,3.5.1.r351_v20090821-0800,"org.eclipse.jdt.ui.PackageExplorer",1405391613201
executed,command,org.eclipse.ui,3.5.1.M20090902-1000,"org.eclipse.ui.file.save",1405391615470
deactivated,workbench,org.eclipse.ui.workbench,3.5.1.M20090826-0800a,"",1405391620566
