what,kind,bundleId,bundleVersion,description,time
started,bundle,org.eclipse.ui.workbench.texteditor,3.5.0.v20090603,"org.eclipse.ui.workbench.texteditor",1376357330101
started,bundle,org.eclipse.update.configurator,3.3.0.v20090312,"org.eclipse.update.configurator",1376357330120
started,bundle,org.eclipse.update.core,3.2.300.v20090525,"org.eclipse.update.core",1376357330178
started,bundle,org.eclipse.update.scheduler,3.2.200.v20081127,"org.eclipse.update.scheduler",1376357330198
started,bundle,org.eclipse.wst.common.emf,1.1.301.v200908181930,"org.eclipse.wst.common.emf",1376357330224
started,bundle,org.eclipse.wst.common.emfworkbench.integration,1.1.301.v200908101600,"org.eclipse.wst.common.emfworkbench.integration",1376357330232
started,bundle,org.eclipse.wst.common.frameworks,1.1.300.v200904160730,"org.eclipse.wst.common.frameworks",1376357330241
started,bundle,org.eclipse.wst.common.frameworks.ui,1.1.301.v200908101600,"org.eclipse.wst.common.frameworks.ui",1376357330258
started,bundle,org.eclipse.wst.common.modulecore,1.1.301.v200908101600,"org.eclipse.wst.common.modulecore",1376357330350
started,bundle,org.eclipse.wst.common.project.facet.core,1.4.1.v200908111817,"org.eclipse.wst.common.project.facet.core",1376357330481
started,bundle,org.eclipse.wst.jsdt.core,1.0.201.v200908101420,"org.eclipse.wst.jsdt.core",1376357330533
started,bundle,org.eclipse.wst.jsdt.manipulation,1.0.100.v200809240707,"org.eclipse.wst.jsdt.manipulation",1376357330570
started,bundle,org.eclipse.wst.jsdt.ui,1.0.200.v200905242047,"org.eclipse.wst.jsdt.ui",1376357330637
started,bundle,org.eclipse.wst.sse.core,1.1.401.v200909172215,"org.eclipse.wst.sse.core",1376357330646
started,bundle,org.eclipse.wst.validation,1.2.102.v200905201610,"org.eclipse.wst.validation",1376357330721
started,bundle,org.eclipse.wst.web,1.1.301.v200909021400,"org.eclipse.wst.web",1376357330724
started,bundle,org.eclipse.wst.ws.service.policy.ui,1.0.102.v200903070248,"org.eclipse.wst.ws.service.policy.ui",1376357330772
started,bundle,org.eclipse.wst.xml.core,1.1.401.v200908242115,"org.eclipse.wst.xml.core",1376357330835
started,bundle,org.eclipse.cdt.core,5.1.2.201002161416,"org.eclipse.cdt.core",1376357330884
started,bundle,org.eclipse.cdt.core.tests,5.1.2.201002161416,"org.eclipse.cdt.core.tests",1376357330937
started,bundle,org.eclipse.cdt.make.ui,6.0.1.201002161416,"org.eclipse.cdt.make.ui",1376357330989
started,bundle,org.eclipse.cdt.ui,5.1.2.201002161416,"org.eclipse.cdt.ui",1376357331045
started,bundle,org.eclipse.cdt.ui.tests,5.1.0.201002161416,"org.eclipse.cdt.ui.tests",1376357331133
started,bundle,com.android.ide.eclipse.adt,12.0.0.v201106281929-138431,"com.android.ide.eclipse.adt",1376357331133
started,bundle,com.android.ide.eclipse.ddms,12.0.0.v201106281929-138431,"com.android.ide.eclipse.ddms",1376357331161
