what,kind,bundleId,bundleVersion,description,time
deactivated,workbench,org.eclipse.ui.workbench,3.5.1.M20090826-0800a,"",1390466879173
activated,workbench,org.eclipse.ui.workbench,3.5.1.M20090826-0800a,"",1390466880530
deactivated,workbench,org.eclipse.ui.workbench,3.5.1.M20090826-0800a,"",1390466881030
activated,workbench,org.eclipse.ui.workbench,3.5.1.M20090826-0800a,"",1390466911709
deactivated,workbench,org.eclipse.ui.workbench,3.5.1.M20090826-0800a,"",1390466935998
activated,workbench,org.eclipse.ui.workbench,3.5.1.M20090826-0800a,"",1390466947080
started,bundle,org.eclipse.wst.server.core,1.1.102.v20090825,"org.eclipse.wst.server.core",1390466983393
started,bundle,org.eclipse.wst.server.ui,1.1.103.v20090909,"org.eclipse.wst.server.ui",1390466983462
executed,command,org.eclipse.jdt.ui,3.5.1.r351_v20090821-0800,"org.eclipse.jdt.ui.edit.text.java.toggle.comment",1390467002804
executed,command,org.eclipse.jdt.ui,3.5.1.r351_v20090821-0800,"org.eclipse.jdt.ui.edit.text.java.toggle.comment",1390467016468
executed,command,org.eclipse.jdt.ui,3.5.1.r351_v20090821-0800,"org.eclipse.jdt.ui.edit.text.java.toggle.comment",1390467018792
executed,command,org.eclipse.ui,3.5.1.M20090902-1000,"org.eclipse.ui.file.save",1390467023579
activated,view,org.eclipse.jdt.ui,3.5.1.r351_v20090821-0800,"org.eclipse.jdt.ui.PackageExplorer",1390467032727
executed,command,org.eclipse.jdt.debug.ui,3.4.1.v20090811_r351,"org.eclipse.jdt.debug.ui.localJavaShortcut.run",1390467034609
activated,editor,org.eclipse.jdt.ui,3.5.1.r351_v20090821-0800,"org.eclipse.jdt.ui.CompilationUnitEditor",1390467035751
deactivated,workbench,org.eclipse.ui.workbench,3.5.1.M20090826-0800a,"",1390467039806
activated,workbench,org.eclipse.ui.workbench,3.5.1.M20090826-0800a,"",1390467040587
deactivated,workbench,org.eclipse.ui.workbench,3.5.1.M20090826-0800a,"",1390467040967
activated,workbench,org.eclipse.ui.workbench,3.5.1.M20090826-0800a,"",1390467613794
deactivated,workbench,org.eclipse.ui.workbench,3.5.1.M20090826-0800a,"",1390467614261
activated,workbench,org.eclipse.ui.workbench,3.5.1.M20090826-0800a,"",1390467615389
executed,command,org.eclipse.ui,3.5.1.M20090902-1000,"org.eclipse.ui.edit.undo",1390467629047
deactivated,workbench,org.eclipse.ui.workbench,3.5.1.M20090826-0800a,"",1390467637781
activated,workbench,org.eclipse.ui.workbench,3.5.1.M20090826-0800a,"",1390467639229
executed,command,org.eclipse.ui,3.5.1.M20090902-1000,"org.eclipse.ui.edit.undo",1390467640941
