what,kind,bundleId,bundleVersion,description,time
arch,sysinfo,,,"x86",1405488365752
ws,sysinfo,,,"win32",1405488365752
locale,sysinfo,,,"zh_CN",1405488365752
processors,sysinfo,,,"4",1405488365752
java.runtime.name,sysinfo,,,"Java(TM) SE Runtime Environment",1405488365752
java.runtime.version,sysinfo,,,"1.6.0_03-b05",1405488365752
java.specification.name,sysinfo,,,"Java Platform API Specification",1405488365752
java.specification.vendor,sysinfo,,,"Sun Microsystems Inc.",1405488365752
java.specification.version,sysinfo,,,"1.6",1405488365752
java.vendor,sysinfo,,,"Sun Microsystems Inc.",1405488365752
java.version,sysinfo,,,"1.6.0_03",1405488365752
java.vm.info,sysinfo,,,"mixed mode",1405488365752
java.vm.name,sysinfo,,,"Java HotSpot(TM) Client VM",1405488365752
java.vm.specification.name,sysinfo,,,"Java Virtual Machine Specification",1405488365752
java.vm.specification.vendor,sysinfo,,,"Sun Microsystems Inc.",1405488365752
java.vm.specification.version,sysinfo,,,"1.0",1405488365752
java.vm.vendor,sysinfo,,,"Sun Microsystems Inc.",1405488365752
java.vm.version,sysinfo,,,"1.6.0_03-b05",1405488365752
started,bundle,org.eclipse.team.cvs.ui,3.3.201.R35x_v20090826-0905,"org.eclipse.team.cvs.ui",1405488366173
started,bundle,org.eclipse.mylyn.commons.net,3.2.0.v20090617-0100-e3x,"org.eclipse.mylyn.commons.net",1405488367245
started,bundle,org.eclipse.jst.common.project.facet.core,1.4.1.v200908111817,"org.eclipse.jst.common.project.facet.core",1405488367966
started,bundle,org.eclipse.mylyn.commons.ui,3.2.2.v20090912-0400-e3x,"org.eclipse.mylyn.commons.ui",1405488369904
started,bundle,org.eclipse.mylyn.bugzilla.core,3.2.2.v20090912-0400-e3x,"org.eclipse.mylyn.bugzilla.core",1405488371596
started,bundle,org.eclipse.mylyn.bugzilla.ui,3.2.2.v20090912-0400-e3x,"org.eclipse.mylyn.bugzilla.ui",1405488372732
started,bundle,org.eclipse.mylyn.context.core,3.2.2.v20090912-0400-e3x,"org.eclipse.mylyn.context.core",1405488374913
