what,kind,bundleId,bundleVersion,description,time
activated,editor,org.eclipse.jdt.ui,3.5.1.r351_v20090821-0800,"org.eclipse.jdt.ui.CompilationUnitEditor",1398775404840
deactivated,workbench,org.eclipse.ui.workbench,3.5.1.M20090826-0800a,"",1398775408478
activated,workbench,org.eclipse.ui.workbench,3.5.1.M20090826-0800a,"",1398775424904
activated,perspective,com.android.ide.eclipse.ddms,12.0.0.v201106281929-138431,"com.android.ide.eclipse.ddms.Perspective",1398775425213
activated,view,org.eclipse.ui.console,3.4.0.v20090513,"org.eclipse.ui.console.ConsoleView",1398775425275
activated,view,com.android.ide.eclipse.ddms,12.0.0.v201106281929-138431,"com.android.ide.eclipse.ddms.views.EmulatorControlView",1398775427680
deactivated,workbench,org.eclipse.ui.workbench,3.5.1.M20090826-0800a,"",1398775433081
activated,workbench,org.eclipse.ui.workbench,3.5.1.M20090826-0800a,"",1398775434857
deactivated,workbench,org.eclipse.ui.workbench,3.5.1.M20090826-0800a,"",1398775435902
activated,workbench,org.eclipse.ui.workbench,3.5.1.M20090826-0800a,"",1398775468400
deactivated,workbench,org.eclipse.ui.workbench,3.5.1.M20090826-0800a,"",1398775469474
activated,workbench,org.eclipse.ui.workbench,3.5.1.M20090826-0800a,"",1398775512997
activated,perspective,org.eclipse.jdt.ui,3.5.1.r351_v20090821-0800,"org.eclipse.jdt.ui.JavaPerspective",1398775516597
activated,editor,org.eclipse.jdt.ui,3.5.1.r351_v20090821-0800,"org.eclipse.jdt.ui.CompilationUnitEditor",1398775516676
activated,view,com.android.ide.eclipse.ddms,12.0.0.v201106281929-138431,"com.android.ide.eclipse.ddms.views.LogCatView",1398775518198
activated,editor,org.eclipse.jdt.ui,3.5.1.r351_v20090821-0800,"org.eclipse.jdt.ui.CompilationUnitEditor",1398775545173
deactivated,workbench,org.eclipse.ui.workbench,3.5.1.M20090826-0800a,"",1398775557599
activated,workbench,org.eclipse.ui.workbench,3.5.1.M20090826-0800a,"",1398775593929
deactivated,workbench,org.eclipse.ui.workbench,3.5.1.M20090826-0800a,"",1398775594571
activated,workbench,org.eclipse.ui.workbench,3.5.1.M20090826-0800a,"",1398775595459
executed,command,org.eclipse.jdt.ui,3.5.1.r351_v20090821-0800,"org.eclipse.jdt.ui.edit.text.java.toggle.comment",1398775599879
deactivated,workbench,org.eclipse.ui.workbench,3.5.1.M20090826-0800a,"",1398775603148
activated,workbench,org.eclipse.ui.workbench,3.5.1.M20090826-0800a,"",1398775625842
deactivated,workbench,org.eclipse.ui.workbench,3.5.1.M20090826-0800a,"",1398775654738
activated,workbench,org.eclipse.ui.workbench,3.5.1.M20090826-0800a,"",1398775654992
