what,kind,bundleId,bundleVersion,description,time
deactivated,workbench,org.eclipse.ui.workbench,3.5.1.M20090826-0800a,"",1368945175837
activated,workbench,org.eclipse.ui.workbench,3.5.1.M20090826-0800a,"",1368945187408
deactivated,workbench,org.eclipse.ui.workbench,3.5.1.M20090826-0800a,"",1368945194779
activated,workbench,org.eclipse.ui.workbench,3.5.1.M20090826-0800a,"",1368945197155
executed,command,org.eclipse.ui,3.5.1.M20090902-1000,"org.eclipse.ui.edit.delete",1368945231718
executed,command,org.eclipse.ui,3.5.1.M20090902-1000,"org.eclipse.ui.file.save",1368945233286
deactivated,workbench,org.eclipse.ui.workbench,3.5.1.M20090826-0800a,"",1368945255923
activated,workbench,org.eclipse.ui.workbench,3.5.1.M20090826-0800a,"",1368945274251
deactivated,workbench,org.eclipse.ui.workbench,3.5.1.M20090826-0800a,"",1368945327867
activated,workbench,org.eclipse.ui.workbench,3.5.1.M20090826-0800a,"",1368945338536
deactivated,workbench,org.eclipse.ui.workbench,3.5.1.M20090826-0800a,"",1368945409420
activated,workbench,org.eclipse.ui.workbench,3.5.1.M20090826-0800a,"",1368945411759
executed,command,org.eclipse.ui,3.5.1.M20090902-1000,"org.eclipse.ui.file.save",1368945419751
deactivated,workbench,org.eclipse.ui.workbench,3.5.1.M20090826-0800a,"",1368945423314
activated,workbench,org.eclipse.ui.workbench,3.5.1.M20090826-0800a,"",1368945426451
executed,command,org.eclipse.ui,3.5.1.M20090902-1000,"org.eclipse.ui.file.save",1368945445992
deactivated,workbench,org.eclipse.ui.workbench,3.5.1.M20090826-0800a,"",1368945458067
activated,workbench,org.eclipse.ui.workbench,3.5.1.M20090826-0800a,"",1368945458266
executed,command,org.eclipse.ui,3.5.1.M20090902-1000,"org.eclipse.ui.file.save",1368945481917
opened,view,org.eclipse.ui.ide,3.5.1.M20090826-0800,"org.eclipse.ui.views.ProblemView",1368945489745
deactivated,workbench,org.eclipse.ui.workbench,3.5.1.M20090826-0800a,"",1368945495051
activated,workbench,org.eclipse.ui.workbench,3.5.1.M20090826-0800a,"",1368945495148
executed,command,org.eclipse.ui,3.5.1.M20090902-1000,"org.eclipse.ui.edit.undo",1368945498572
executed,command,org.eclipse.ui,3.5.1.M20090902-1000,"org.eclipse.ui.edit.undo",1368945499367
executed,command,org.eclipse.ui,3.5.1.M20090902-1000,"org.eclipse.ui.file.save",1368945506394
