what,kind,bundleId,bundleVersion,description,time
started,bundle,org.eclipse.wst.sse.core,1.1.401.v200909172215,"org.eclipse.wst.sse.core",1400144213481
started,bundle,org.eclipse.wst.web,1.1.301.v200909021400,"org.eclipse.wst.web",1400144213514
started,bundle,com.android.ide.eclipse.adt,12.0.0.v201106281929-138431,"com.android.ide.eclipse.adt",1400144213514
started,bundle,com.android.ide.eclipse.ddms,12.0.0.v201106281929-138431,"com.android.ide.eclipse.ddms",1400144213532
started,bundle,com.android.ide.eclipse.traceview,12.0.0.v201106281929-138431,"com.android.ide.eclipse.traceview",1400144213532
os,sysinfo,,,"win32",1400144213536
arch,sysinfo,,,"x86",1400144213536
ws,sysinfo,,,"win32",1400144213536
locale,sysinfo,,,"zh_CN",1400144213536
processors,sysinfo,,,"4",1400144213536
java.runtime.name,sysinfo,,,"Java(TM) SE Runtime Environment",1400144213536
java.runtime.version,sysinfo,,,"1.6.0_03-b05",1400144213536
java.specification.name,sysinfo,,,"Java Platform API Specification",1400144213536
java.specification.vendor,sysinfo,,,"Sun Microsystems Inc.",1400144213536
java.specification.version,sysinfo,,,"1.6",1400144213536
java.vendor,sysinfo,,,"Sun Microsystems Inc.",1400144213536
java.version,sysinfo,,,"1.6.0_03",1400144213536
java.vm.info,sysinfo,,,"mixed mode",1400144213536
java.vm.name,sysinfo,,,"Java HotSpot(TM) Client VM",1400144213536
java.vm.specification.name,sysinfo,,,"Java Virtual Machine Specification",1400144213536
java.vm.specification.vendor,sysinfo,,,"Sun Microsystems Inc.",1400144213536
java.vm.specification.version,sysinfo,,,"1.0",1400144213536
java.vm.vendor,sysinfo,,,"Sun Microsystems Inc.",1400144213536
java.vm.version,sysinfo,,,"1.6.0_03-b05",1400144213536
started,bundle,org.eclipse.mylyn.commons.ui,3.2.2.v20090912-0400-e3x,"org.eclipse.mylyn.commons.ui",1400144213683
