what,kind,bundleId,bundleVersion,description,time
activated,workbench,org.eclipse.ui.workbench,3.5.1.M20090826-0800a,"",1406533654370
deactivated,workbench,org.eclipse.ui.workbench,3.5.1.M20090826-0800a,"",1406533655381
activated,workbench,org.eclipse.ui.workbench,3.5.1.M20090826-0800a,"",1406533658280
deactivated,workbench,org.eclipse.ui.workbench,3.5.1.M20090826-0800a,"",1406533659358
activated,workbench,org.eclipse.ui.workbench,3.5.1.M20090826-0800a,"",1406533886474
activated,view,org.eclipse.jdt.ui,3.5.1.r351_v20090821-0800,"org.eclipse.jdt.ui.PackageExplorer",1406533888876
executed,command,,,"com.android.ide.eclipse.adt.debug.launching.LaunchShortcut.run",1406533890617
deactivated,workbench,org.eclipse.ui.workbench,3.5.1.M20090826-0800a,"",1406533891987
activated,workbench,org.eclipse.ui.workbench,3.5.1.M20090826-0800a,"",1406533903783
activated,editor,org.eclipse.jdt.ui,3.5.1.r351_v20090821-0800,"org.eclipse.jdt.ui.CompilationUnitEditor",1406533903813
activated,editor,org.eclipse.jdt.ui,3.5.1.r351_v20090821-0800,"org.eclipse.jdt.ui.CompilationUnitEditor",1406533908176
activated,editor,org.eclipse.jdt.ui,3.5.1.r351_v20090821-0800,"org.eclipse.jdt.ui.CompilationUnitEditor",1406533922316
activated,editor,org.eclipse.jdt.ui,3.5.1.r351_v20090821-0800,"org.eclipse.jdt.ui.CompilationUnitEditor",1406533938421
activated,editor,org.eclipse.jdt.ui,3.5.1.r351_v20090821-0800,"org.eclipse.jdt.ui.CompilationUnitEditor",1406533941412
activated,editor,org.eclipse.jdt.ui,3.5.1.r351_v20090821-0800,"org.eclipse.jdt.ui.CompilationUnitEditor",1406533943861
activated,editor,org.eclipse.jdt.ui,3.5.1.r351_v20090821-0800,"org.eclipse.jdt.ui.CompilationUnitEditor",1406533949802
deactivated,workbench,org.eclipse.ui.workbench,3.5.1.M20090826-0800a,"",1406533958486
activated,workbench,org.eclipse.ui.workbench,3.5.1.M20090826-0800a,"",1406534034533
deactivated,workbench,org.eclipse.ui.workbench,3.5.1.M20090826-0800a,"",1406534037884
activated,workbench,org.eclipse.ui.workbench,3.5.1.M20090826-0800a,"",1406534041419
activated,editor,org.eclipse.jdt.ui,3.5.1.r351_v20090821-0800,"org.eclipse.jdt.ui.CompilationUnitEditor",1406534045601
activated,view,com.android.ide.eclipse.ddms,12.0.0.v201106281929-138431,"com.android.ide.eclipse.ddms.views.LogCatView",1406534050679
activated,editor,org.eclipse.jdt.ui,3.5.1.r351_v20090821-0800,"org.eclipse.jdt.ui.CompilationUnitEditor",1406534056735
activated,view,org.eclipse.jdt.ui,3.5.1.r351_v20090821-0800,"org.eclipse.jdt.ui.PackageExplorer",1406534058916
opened,editor,com.android.ide.eclipse.adt,12.0.0.v201106281929-138431,"com.android.ide.eclipse.editors.manifest.ManifestEditor",1406534061748
