what,kind,bundleId,bundleVersion,description,time
os,sysinfo,,,"win32",1401106642093
arch,sysinfo,,,"x86",1401106642093
ws,sysinfo,,,"win32",1401106642093
locale,sysinfo,,,"zh_CN",1401106642093
processors,sysinfo,,,"4",1401106642093
java.runtime.name,sysinfo,,,"Java(TM) SE Runtime Environment",1401106642093
java.runtime.version,sysinfo,,,"1.6.0_03-b05",1401106642093
java.specification.name,sysinfo,,,"Java Platform API Specification",1401106642093
java.specification.vendor,sysinfo,,,"Sun Microsystems Inc.",1401106642093
java.specification.version,sysinfo,,,"1.6",1401106642093
java.vendor,sysinfo,,,"Sun Microsystems Inc.",1401106642093
java.version,sysinfo,,,"1.6.0_03",1401106642093
java.vm.info,sysinfo,,,"mixed mode",1401106642093
java.vm.name,sysinfo,,,"Java HotSpot(TM) Client VM",1401106642093
java.vm.specification.name,sysinfo,,,"Java Virtual Machine Specification",1401106642093
java.vm.specification.vendor,sysinfo,,,"Sun Microsystems Inc.",1401106642093
java.vm.specification.version,sysinfo,,,"1.0",1401106642093
java.vm.vendor,sysinfo,,,"Sun Microsystems Inc.",1401106642093
java.vm.version,sysinfo,,,"1.6.0_03-b05",1401106642093
started,bundle,org.eclipse.mylyn.commons.net,3.2.0.v20090617-0100-e3x,"org.eclipse.mylyn.commons.net",1401106642577
started,bundle,org.eclipse.jst.common.project.facet.core,1.4.1.v200908111817,"org.eclipse.jst.common.project.facet.core",1401106642987
started,bundle,org.eclipse.mylyn.commons.ui,3.2.2.v20090912-0400-e3x,"org.eclipse.mylyn.commons.ui",1401106643788
started,bundle,org.eclipse.mylyn.bugzilla.core,3.2.2.v20090912-0400-e3x,"org.eclipse.mylyn.bugzilla.core",1401106644648
started,bundle,org.eclipse.mylyn.bugzilla.ui,3.2.2.v20090912-0400-e3x,"org.eclipse.mylyn.bugzilla.ui",1401106645016
error,log,,,"Error validating C:\\Users\\acer\\.android\\devices.xml",1401106645939
