what,kind,bundleId,bundleVersion,description,time
activated,view,org.eclipse.jdt.ui,3.5.1.r351_v20090821-0800,"org.eclipse.jdt.ui.TypeHierarchy",1405649048095
executed,command,org.eclipse.jdt.ui,3.5.1.r351_v20090821-0800,"org.eclipse.jdt.ui.edit.text.java.open.type.hierarchy",1405649048415
activated,view,org.eclipse.jdt.ui,3.5.1.r351_v20090821-0800,"org.eclipse.jdt.ui.PackageExplorer",1405649050882
deactivated,workbench,org.eclipse.ui.workbench,3.5.1.M20090826-0800a,"",1405649063109
activated,workbench,org.eclipse.ui.workbench,3.5.1.M20090826-0800a,"",1405649082820
deactivated,workbench,org.eclipse.ui.workbench,3.5.1.M20090826-0800a,"",1405649088251
activated,workbench,org.eclipse.ui.workbench,3.5.1.M20090826-0800a,"",1405649098557
deactivated,workbench,org.eclipse.ui.workbench,3.5.1.M20090826-0800a,"",1405649105200
activated,workbench,org.eclipse.ui.workbench,3.5.1.M20090826-0800a,"",1405649123285
opened,editor,org.eclipse.jdt.ui,3.5.1.r351_v20090821-0800,"org.eclipse.jdt.ui.CompilationUnitEditor",1405649123856
activated,editor,org.eclipse.jdt.ui,3.5.1.r351_v20090821-0800,"org.eclipse.jdt.ui.CompilationUnitEditor",1405649123913
deactivated,workbench,org.eclipse.ui.workbench,3.5.1.M20090826-0800a,"",1405649132841
activated,workbench,org.eclipse.ui.workbench,3.5.1.M20090826-0800a,"",1405649133038
deactivated,workbench,org.eclipse.ui.workbench,3.5.1.M20090826-0800a,"",1405649137842
activated,workbench,org.eclipse.ui.workbench,3.5.1.M20090826-0800a,"",1405649138629
deactivated,workbench,org.eclipse.ui.workbench,3.5.1.M20090826-0800a,"",1405649140955
activated,workbench,org.eclipse.ui.workbench,3.5.1.M20090826-0800a,"",1405649141130
executed,command,org.eclipse.ui,3.5.1.M20090902-1000,"org.eclipse.ui.file.save",1405649185012
executed,command,org.eclipse.ui,3.5.1.M20090902-1000,"org.eclipse.ui.file.save",1405649195917
deactivated,workbench,org.eclipse.ui.workbench,3.5.1.M20090826-0800a,"",1405649203361
activated,workbench,org.eclipse.ui.workbench,3.5.1.M20090826-0800a,"",1405649211777
executed,command,org.eclipse.jdt.ui,3.5.1.r351_v20090821-0800,"org.eclipse.jdt.ui.edit.text.java.override.methods",1405649211847
executed,command,org.eclipse.ui,3.5.1.M20090902-1000,"org.eclipse.ui.file.save",1405649214117
activated,editor,org.eclipse.jdt.ui,3.5.1.r351_v20090821-0800,"org.eclipse.jdt.ui.CompilationUnitEditor",1405649334126
activated,view,org.eclipse.jdt.ui,3.5.1.r351_v20090821-0800,"org.eclipse.jdt.ui.PackageExplorer",1405649383673
