what,kind,bundleId,bundleVersion,description,time
activated,view,org.eclipse.debug.ui,3.5.1.v20090811_r351,"org.eclipse.debug.ui.DebugView",1398244341955
error,log,,,"Internal error logged from JDI Debug: ",1398244346845
deactivated,workbench,org.eclipse.ui.workbench,3.5.1.M20090826-0800a,"",1398244349826
activated,workbench,org.eclipse.ui.workbench,3.5.1.M20090826-0800a,"",1398244353811
deactivated,workbench,org.eclipse.ui.workbench,3.5.1.M20090826-0800a,"",1398244355668
activated,workbench,org.eclipse.ui.workbench,3.5.1.M20090826-0800a,"",1398244364980
activated,view,com.android.ide.eclipse.ddms,12.0.0.v201106281929-138431,"com.android.ide.eclipse.ddms.views.LogCatView",1398244364991
deactivated,workbench,org.eclipse.ui.workbench,3.5.1.M20090826-0800a,"",1398244369531
activated,workbench,org.eclipse.ui.workbench,3.5.1.M20090826-0800a,"",1398244374406
deactivated,workbench,org.eclipse.ui.workbench,3.5.1.M20090826-0800a,"",1398244379676
activated,workbench,org.eclipse.ui.workbench,3.5.1.M20090826-0800a,"",1398244385403
deactivated,workbench,org.eclipse.ui.workbench,3.5.1.M20090826-0800a,"",1398244388771
activated,workbench,org.eclipse.ui.workbench,3.5.1.M20090826-0800a,"",1398244449050
deactivated,workbench,org.eclipse.ui.workbench,3.5.1.M20090826-0800a,"",1398244471392
activated,workbench,org.eclipse.ui.workbench,3.5.1.M20090826-0800a,"",1398244474746
deactivated,workbench,org.eclipse.ui.workbench,3.5.1.M20090826-0800a,"",1398244497207
activated,workbench,org.eclipse.ui.workbench,3.5.1.M20090826-0800a,"",1398244502841
deactivated,workbench,org.eclipse.ui.workbench,3.5.1.M20090826-0800a,"",1398244503812
activated,workbench,org.eclipse.ui.workbench,3.5.1.M20090826-0800a,"",1398244505971
activated,view,org.eclipse.debug.ui,3.5.1.v20090811_r351,"org.eclipse.debug.ui.DebugView",1398244507332
executed,command,org.eclipse.debug.ui,3.5.1.v20090811_r351,"org.eclipse.debug.ui.commands.StepOver",1398244507492
executed,command,org.eclipse.debug.ui,3.5.1.v20090811_r351,"org.eclipse.debug.ui.commands.StepOver",1398244512341
executed,command,org.eclipse.debug.ui,3.5.1.v20090811_r351,"org.eclipse.debug.ui.commands.StepOver",1398244520685
activated,editor,org.eclipse.jdt.ui,3.5.1.r351_v20090821-0800,"org.eclipse.jdt.ui.CompilationUnitEditor",1398244532104
deactivated,workbench,org.eclipse.ui.workbench,3.5.1.M20090826-0800a,"",1398244535026
