what,kind,bundleId,bundleVersion,description,time
deactivated,workbench,org.eclipse.ui.workbench,3.5.1.M20090826-0800a,"",1395902791230
deactivated,workbench,org.eclipse.ui.workbench,3.5.1.M20090826-0800a,"",1395902872744
activated,workbench,org.eclipse.ui.workbench,3.5.1.M20090826-0800a,"",1395907329443
activated,view,org.eclipse.jdt.ui,3.5.1.r351_v20090821-0800,"org.eclipse.jdt.ui.PackageExplorer",1395907331066
closed,editor,org.eclipse.jdt.ui,3.5.1.r351_v20090821-0800,"org.eclipse.jdt.ui.CompilationUnitEditor",1395907331066
opened,editor,org.eclipse.jdt.ui,3.5.1.r351_v20090821-0800,"org.eclipse.jdt.ui.CompilationUnitEditor",1395907341276
activated,editor,org.eclipse.jdt.ui,3.5.1.r351_v20090821-0800,"org.eclipse.jdt.ui.CompilationUnitEditor",1395907341306
deactivated,workbench,org.eclipse.ui.workbench,3.5.1.M20090826-0800a,"",1395907385488
executed,command,org.eclipse.ui.workbench.texteditor,3.5.0.v20090603,"org.eclipse.ui.edit.text.showInformation",1395907385507
activated,workbench,org.eclipse.ui.workbench,3.5.1.M20090826-0800a,"",1395907391559
started,bundle,org.eclipse.help.base,3.4.0.v200909170800,"org.eclipse.help.base",1395907391721
started,bundle,org.eclipse.help.ui,3.4.1.v20090819_35x,"org.eclipse.help.ui",1395907391737
started,bundle,org.eclipse.equinox.http.jetty,2.0.0.v20090520-1800,"org.eclipse.equinox.http.jetty",1395907391957
started,bundle,org.eclipse.equinox.http.servlet,1.0.200.v20090520-1800,"org.eclipse.equinox.http.servlet",1395907392089
started,bundle,org.eclipse.equinox.http.registry,1.0.200.v20090520-1800,"org.eclipse.equinox.http.registry",1395907392433
started,bundle,org.eclipse.ui.browser,3.2.300.v20090526,"org.eclipse.ui.browser",1395907392487
executed,command,org.eclipse.ui,3.5.1.M20090902-1000,"org.eclipse.ui.file.save",1395907438284
deactivated,workbench,org.eclipse.ui.workbench,3.5.1.M20090826-0800a,"",1395909271765
activated,workbench,org.eclipse.ui.workbench,3.5.1.M20090826-0800a,"",1395909324358
deactivated,workbench,org.eclipse.ui.workbench,3.5.1.M20090826-0800a,"",1395909469485
executed,command,org.eclipse.ui.workbench.texteditor,3.5.0.v20090603,"org.eclipse.ui.edit.text.showInformation",1395909469507
activated,workbench,org.eclipse.ui.workbench,3.5.1.M20090826-0800a,"",1395909479517
error,log,,,"Unable to create editor ID org.eclipse.jdt.ui.ClassFileEditor: Unmatched braces in the pattern.",1395909489984
opened,editor,org.eclipse.jdt.ui,3.5.1.r351_v20090821-0800,"org.eclipse.jdt.ui.ClassFileEditor",1395909490094
opened,editor,org.eclipse.jdt.ui,3.5.1.r351_v20090821-0800,"org.eclipse.jdt.ui.ClassFileEditor",1395909490098
