what,kind,bundleId,bundleVersion,description,time
executed,command,org.eclipse.ui,3.5.1.M20090902-1000,"org.eclipse.ui.file.save",1406538096876
activated,view,org.eclipse.jdt.ui,3.5.1.r351_v20090821-0800,"org.eclipse.jdt.ui.PackageExplorer",1406538098555
executed,command,,,"com.android.ide.eclipse.adt.debug.launching.LaunchShortcut.run",1406538100534
deactivated,workbench,org.eclipse.ui.workbench,3.5.1.M20090826-0800a,"",1406538102858
activated,workbench,org.eclipse.ui.workbench,3.5.1.M20090826-0800a,"",1406538113059
activated,editor,org.eclipse.jdt.ui,3.5.1.r351_v20090821-0800,"org.eclipse.jdt.ui.CompilationUnitEditor",1406538113092
deactivated,workbench,org.eclipse.ui.workbench,3.5.1.M20090826-0800a,"",1406538114596
activated,workbench,org.eclipse.ui.workbench,3.5.1.M20090826-0800a,"",1406538115477
deactivated,workbench,org.eclipse.ui.workbench,3.5.1.M20090826-0800a,"",1406538116997
activated,workbench,org.eclipse.ui.workbench,3.5.1.M20090826-0800a,"",1406538143006
executed,command,org.eclipse.ui,3.5.1.M20090902-1000,"org.eclipse.ui.file.save",1406538154858
deactivated,workbench,org.eclipse.ui.workbench,3.5.1.M20090826-0800a,"",1406538157291
activated,workbench,org.eclipse.ui.workbench,3.5.1.M20090826-0800a,"",1406538172578
deactivated,workbench,org.eclipse.ui.workbench,3.5.1.M20090826-0800a,"",1406538180200
activated,workbench,org.eclipse.ui.workbench,3.5.1.M20090826-0800a,"",1406538200754
executed,command,org.eclipse.ui,3.5.1.M20090902-1000,"org.eclipse.ui.file.save",1406538209099
activated,view,org.eclipse.jdt.ui,3.5.1.r351_v20090821-0800,"org.eclipse.jdt.ui.PackageExplorer",1406538211628
executed,command,,,"com.android.ide.eclipse.adt.debug.launching.LaunchShortcut.run",1406538213540
deactivated,workbench,org.eclipse.ui.workbench,3.5.1.M20090826-0800a,"",1406538215161
activated,workbench,org.eclipse.ui.workbench,3.5.1.M20090826-0800a,"",1406538226494
activated,editor,org.eclipse.jdt.ui,3.5.1.r351_v20090821-0800,"org.eclipse.jdt.ui.CompilationUnitEditor",1406538226522
executed,command,org.eclipse.ui,3.5.1.M20090902-1000,"org.eclipse.ui.file.save",1406538236991
activated,view,org.eclipse.jdt.ui,3.5.1.r351_v20090821-0800,"org.eclipse.jdt.ui.PackageExplorer",1406538238463
executed,command,,,"com.android.ide.eclipse.adt.debug.launching.LaunchShortcut.run",1406538240034
deactivated,workbench,org.eclipse.ui.workbench,3.5.1.M20090826-0800a,"",1406538240736
