what,kind,bundleId,bundleVersion,description,time
activated,workbench,org.eclipse.ui.workbench,3.5.1.M20090826-0800a,"",1398153689323
deactivated,workbench,org.eclipse.ui.workbench,3.5.1.M20090826-0800a,"",1398153691168
activated,workbench,org.eclipse.ui.workbench,3.5.1.M20090826-0800a,"",1398153817139
deactivated,workbench,org.eclipse.ui.workbench,3.5.1.M20090826-0800a,"",1398153823869
activated,workbench,org.eclipse.ui.workbench,3.5.1.M20090826-0800a,"",1398153826895
activated,view,com.android.ide.eclipse.ddms,12.0.0.v201106281929-138431,"com.android.ide.eclipse.ddms.views.LogCatView",1398153826924
deactivated,workbench,org.eclipse.ui.workbench,3.5.1.M20090826-0800a,"",1398153829054
activated,workbench,org.eclipse.ui.workbench,3.5.1.M20090826-0800a,"",1398153955938
activated,editor,org.eclipse.jdt.ui,3.5.1.r351_v20090821-0800,"org.eclipse.jdt.ui.CompilationUnitEditor",1398153956431
activated,view,org.eclipse.jdt.ui,3.5.1.r351_v20090821-0800,"org.eclipse.jdt.ui.PackageExplorer",1398153964844
deactivated,workbench,org.eclipse.ui.workbench,3.5.1.M20090826-0800a,"",1398153970160
activated,workbench,org.eclipse.ui.workbench,3.5.1.M20090826-0800a,"",1398153970948
deactivated,workbench,org.eclipse.ui.workbench,3.5.1.M20090826-0800a,"",1398153970954
activated,workbench,org.eclipse.ui.workbench,3.5.1.M20090826-0800a,"",1398157281546
closed,workbench,org.eclipse.ui.workbench,3.5.1.M20090826-0800a,"",1398157282048
stopped,bundle,org.eclipse.jst.ws.axis.creation.ui,1.0.406.v200903031852,"org.eclipse.jst.ws.axis.creation.ui",1398157285894
stopped,bundle,org.eclipse.jst.ws.axis.consumption.ui,1.0.405.v200901261650,"org.eclipse.jst.ws.axis.consumption.ui",1398157285922
