what,kind,bundleId,bundleVersion,description,time
deactivated,workbench,org.eclipse.ui.workbench,3.5.1.M20090826-0800a,"",1416209764260
deactivated,workbench,org.eclipse.ui.workbench,3.5.1.M20090826-0800a,"",1416209775156
activated,workbench,org.eclipse.ui.workbench,3.5.1.M20090826-0800a,"",1416209809199
deactivated,workbench,org.eclipse.ui.workbench,3.5.1.M20090826-0800a,"",1416209810072
activated,workbench,org.eclipse.ui.workbench,3.5.1.M20090826-0800a,"",1416209816914
deactivated,workbench,org.eclipse.ui.workbench,3.5.1.M20090826-0800a,"",1416209817633
activated,workbench,org.eclipse.ui.workbench,3.5.1.M20090826-0800a,"",1416209835448
deactivated,workbench,org.eclipse.ui.workbench,3.5.1.M20090826-0800a,"",1416209836432
activated,workbench,org.eclipse.ui.workbench,3.5.1.M20090826-0800a,"",1416209844617
deactivated,workbench,org.eclipse.ui.workbench,3.5.1.M20090826-0800a,"",1416209846190
activated,workbench,org.eclipse.ui.workbench,3.5.1.M20090826-0800a,"",1416210169357
deactivated,workbench,org.eclipse.ui.workbench,3.5.1.M20090826-0800a,"",1416210170079
activated,workbench,org.eclipse.ui.workbench,3.5.1.M20090826-0800a,"",1416210181191
deactivated,workbench,org.eclipse.ui.workbench,3.5.1.M20090826-0800a,"",1416210181613
activated,workbench,org.eclipse.ui.workbench,3.5.1.M20090826-0800a,"",1416210237756
deactivated,workbench,org.eclipse.ui.workbench,3.5.1.M20090826-0800a,"",1416210238161
activated,workbench,org.eclipse.ui.workbench,3.5.1.M20090826-0800a,"",1416210252694
deactivated,workbench,org.eclipse.ui.workbench,3.5.1.M20090826-0800a,"",1416210253474
activated,workbench,org.eclipse.ui.workbench,3.5.1.M20090826-0800a,"",1416210295097
deactivated,workbench,org.eclipse.ui.workbench,3.5.1.M20090826-0800a,"",1416210295744
activated,workbench,org.eclipse.ui.workbench,3.5.1.M20090826-0800a,"",1416210327637
deactivated,workbench,org.eclipse.ui.workbench,3.5.1.M20090826-0800a,"",1416210328209
deactivated,workbench,org.eclipse.ui.workbench,3.5.1.M20090826-0800a,"",1416217614269
deactivated,workbench,org.eclipse.ui.workbench,3.5.1.M20090826-0800a,"",1416217615299
closed,workbench,org.eclipse.ui.workbench,3.5.1.M20090826-0800a,"",1416217616224
