what,kind,bundleId,bundleVersion,description,time
started,bundle,org.eclipse.jst.j2ee.core,1.1.301.v200908181930,"org.eclipse.jst.j2ee.core",1398145593748
started,bundle,org.eclipse.jem,2.0.300.v200901272200,"org.eclipse.jem",1398145593856
started,bundle,org.eclipse.emf.ecore.xmi,2.5.0.v200906151043,"org.eclipse.emf.ecore.xmi",1398145593895
started,bundle,org.eclipse.jst.jee,1.0.201.v200909030330,"org.eclipse.jst.jee",1398145594023
started,bundle,org.eclipse.wst.common.frameworks.ui,1.1.301.v200908101600,"org.eclipse.wst.common.frameworks.ui",1398145594112
started,bundle,org.eclipse.wst.xml.core,1.1.401.v200908242115,"org.eclipse.wst.xml.core",1398145594190
started,bundle,org.eclipse.wst.common.emfworkbench.integration,1.1.301.v200908101600,"org.eclipse.wst.common.emfworkbench.integration",1398145594517
activated,view,org.eclipse.jdt.ui,3.5.1.r351_v20090821-0800,"org.eclipse.jdt.ui.PackageExplorer",1398145594912
started,bundle,org.eclipse.wst.common.modulecore,1.1.301.v200908101600,"org.eclipse.wst.common.modulecore",1398145594923
started,bundle,org.eclipse.wst.validation,1.2.102.v200905201610,"org.eclipse.wst.validation",1398145595003
started,bundle,org.eclipse.jst.j2ee,1.1.301.v200909030330,"org.eclipse.jst.j2ee",1398145595055
executed,command,org.eclipse.jdt.debug.ui,3.4.1.v20090811_r351,"org.eclipse.jdt.debug.ui.localJavaShortcut.run",1398145599442
activated,view,org.eclipse.ui.console,3.4.0.v20090513,"org.eclipse.ui.console.ConsoleView",1398145599884
deactivated,workbench,org.eclipse.ui.workbench,3.5.1.M20090826-0800a,"",1398145733957
activated,workbench,org.eclipse.ui.workbench,3.5.1.M20090826-0800a,"",1398147801115
activated,editor,org.eclipse.jdt.ui,3.5.1.r351_v20090821-0800,"org.eclipse.jdt.ui.CompilationUnitEditor",1398147808904
executed,command,org.eclipse.ui,3.5.1.M20090902-1000,"org.eclipse.ui.file.save",1398147816304
deactivated,workbench,org.eclipse.ui.workbench,3.5.1.M20090826-0800a,"",1398147817726
activated,workbench,org.eclipse.ui.workbench,3.5.1.M20090826-0800a,"",1398148266364
activated,view,org.eclipse.jdt.ui,3.5.1.r351_v20090821-0800,"org.eclipse.jdt.ui.PackageExplorer",1398148268302
deactivated,workbench,org.eclipse.ui.workbench,3.5.1.M20090826-0800a,"",1398148275462
error,log,,,"Failed to load properties file for project '7.Sqlite'",1398148375612
activated,workbench,org.eclipse.ui.workbench,3.5.1.M20090826-0800a,"",1398148375799
activated,editor,org.eclipse.jdt.ui,3.5.1.r351_v20090821-0800,"org.eclipse.jdt.ui.CompilationUnitEditor",1398148380783
activated,view,org.eclipse.jdt.ui,3.5.1.r351_v20090821-0800,"org.eclipse.jdt.ui.PackageExplorer",1398148380843
