what,kind,bundleId,bundleVersion,description,time
deactivated,workbench,org.eclipse.ui.workbench,3.5.1.M20090826-0800a,"",1407850287124
activated,workbench,org.eclipse.ui.workbench,3.5.1.M20090826-0800a,"",1407850295230
deactivated,workbench,org.eclipse.ui.workbench,3.5.1.M20090826-0800a,"",1407850295952
activated,workbench,org.eclipse.ui.workbench,3.5.1.M20090826-0800a,"",1407851073058
activated,view,org.eclipse.jdt.ui,3.5.1.r351_v20090821-0800,"org.eclipse.jdt.ui.PackageExplorer",1407851075254
executed,command,,,"com.android.ide.eclipse.adt.debug.launching.LaunchShortcut.run",1407851079529
opened,view,org.eclipse.ui.console,3.4.0.v20090513,"org.eclipse.ui.console.ConsoleView",1407851080083
deactivated,workbench,org.eclipse.ui.workbench,3.5.1.M20090826-0800a,"",1407851080561
activated,workbench,org.eclipse.ui.workbench,3.5.1.M20090826-0800a,"",1407851098311
activated,editor,org.eclipse.jdt.ui,3.5.1.r351_v20090821-0800,"org.eclipse.jdt.ui.CompilationUnitEditor",1407851099052
deactivated,workbench,org.eclipse.ui.workbench,3.5.1.M20090826-0800a,"",1407851111302
activated,workbench,org.eclipse.ui.workbench,3.5.1.M20090826-0800a,"",1407851113567
deactivated,workbench,org.eclipse.ui.workbench,3.5.1.M20090826-0800a,"",1407851420842
activated,workbench,org.eclipse.ui.workbench,3.5.1.M20090826-0800a,"",1407851801853
activated,view,org.eclipse.jdt.ui,3.5.1.r351_v20090821-0800,"org.eclipse.jdt.ui.PackageExplorer",1407851825630
opened,editor,com.android.ide.eclipse.adt,12.0.0.v201106281929-138431,"com.android.ide.eclipse.editors.resources.ResourcesEditor",1407851830021
activated,editor,com.android.ide.eclipse.adt,12.0.0.v201106281929-138431,"com.android.ide.eclipse.editors.resources.ResourcesEditor",1407851830435
deactivated,workbench,org.eclipse.ui.workbench,3.5.1.M20090826-0800a,"",1407851837226
activated,workbench,org.eclipse.ui.workbench,3.5.1.M20090826-0800a,"",1407851839379
deactivated,workbench,org.eclipse.ui.workbench,3.5.1.M20090826-0800a,"",1407851841586
activated,workbench,org.eclipse.ui.workbench,3.5.1.M20090826-0800a,"",1407851842647
deactivated,workbench,org.eclipse.ui.workbench,3.5.1.M20090826-0800a,"",1407851842963
activated,workbench,org.eclipse.ui.workbench,3.5.1.M20090826-0800a,"",1407851843730
activated,editor,org.eclipse.jdt.ui,3.5.1.r351_v20090821-0800,"org.eclipse.jdt.ui.CompilationUnitEditor",1407851845381
activated,editor,com.android.ide.eclipse.adt,12.0.0.v201106281929-138431,"com.android.ide.eclipse.editors.resources.ResourcesEditor",1407851848684
