what,kind,bundleId,bundleVersion,description,time
started,bundle,com.android.ide.eclipse.ddms,12.0.0.v201106281929-138431,"com.android.ide.eclipse.ddms",1406120882358
os,sysinfo,,,"win32",1406120882363
arch,sysinfo,,,"x86",1406120882363
ws,sysinfo,,,"win32",1406120882363
locale,sysinfo,,,"zh_CN",1406120882363
processors,sysinfo,,,"4",1406120882363
java.runtime.name,sysinfo,,,"Java(TM) SE Runtime Environment",1406120882363
java.runtime.version,sysinfo,,,"1.6.0_03-b05",1406120882363
java.specification.name,sysinfo,,,"Java Platform API Specification",1406120882363
java.specification.vendor,sysinfo,,,"Sun Microsystems Inc.",1406120882363
java.specification.version,sysinfo,,,"1.6",1406120882363
java.vendor,sysinfo,,,"Sun Microsystems Inc.",1406120882363
java.version,sysinfo,,,"1.6.0_03",1406120882363
java.vm.info,sysinfo,,,"mixed mode",1406120882363
java.vm.name,sysinfo,,,"Java HotSpot(TM) Client VM",1406120882363
java.vm.specification.name,sysinfo,,,"Java Virtual Machine Specification",1406120882363
java.vm.specification.vendor,sysinfo,,,"Sun Microsystems Inc.",1406120882363
java.vm.specification.version,sysinfo,,,"1.0",1406120882363
java.vm.vendor,sysinfo,,,"Sun Microsystems Inc.",1406120882363
java.vm.version,sysinfo,,,"1.6.0_03-b05",1406120882363
started,bundle,org.eclipse.mylyn.commons.net,3.2.0.v20090617-0100-e3x,"org.eclipse.mylyn.commons.net",1406120882526
started,bundle,org.eclipse.jst.common.project.facet.core,1.4.1.v200908111817,"org.eclipse.jst.common.project.facet.core",1406120883280
started,bundle,org.eclipse.mylyn.commons.ui,3.2.2.v20090912-0400-e3x,"org.eclipse.mylyn.commons.ui",1406120883437
started,bundle,org.eclipse.mylyn.bugzilla.core,3.2.2.v20090912-0400-e3x,"org.eclipse.mylyn.bugzilla.core",1406120884074
started,bundle,org.eclipse.mylyn.bugzilla.ui,3.2.2.v20090912-0400-e3x,"org.eclipse.mylyn.bugzilla.ui",1406120884400
