what,kind,bundleId,bundleVersion,description,time
closed,editor,org.eclipse.jdt.ui,3.5.1.r351_v20090821-0800,"org.eclipse.jdt.ui.CompilationUnitEditor",1409532523160
activated,view,org.eclipse.jdt.ui,3.5.1.r351_v20090821-0800,"org.eclipse.jdt.ui.PackageExplorer",1409532524217
closed,editor,org.eclipse.jdt.ui,3.5.1.r351_v20090821-0800,"org.eclipse.jdt.ui.CompilationUnitEditor",1409532524217
started,bundle,org.eclipse.compare,3.5.0.I20090514-0808,"org.eclipse.compare",1409532528829
deactivated,workbench,org.eclipse.ui.workbench,3.5.1.M20090826-0800a,"",1409532532686
activated,workbench,org.eclipse.ui.workbench,3.5.1.M20090826-0800a,"",1409532755243
deactivated,workbench,org.eclipse.ui.workbench,3.5.1.M20090826-0800a,"",1409532762052
activated,workbench,org.eclipse.ui.workbench,3.5.1.M20090826-0800a,"",1409532782262
opened,editor,org.eclipse.jdt.ui,3.5.1.r351_v20090821-0800,"org.eclipse.jdt.ui.CompilationUnitEditor",1409532782747
activated,editor,org.eclipse.jdt.ui,3.5.1.r351_v20090821-0800,"org.eclipse.jdt.ui.CompilationUnitEditor",1409532782788
started,bundle,org.eclipse.mylyn.java.ui,3.2.2.v20090912-0400-e3x,"org.eclipse.mylyn.java.ui",1409532796458
started,bundle,org.eclipse.pde.api.tools,1.0.101.v20090714,"org.eclipse.pde.api.tools",1409532796550
started,bundle,org.eclipse.pde.api.tools.ui,1.0.101.v20090820,"org.eclipse.pde.api.tools.ui",1409532796567
deactivated,workbench,org.eclipse.ui.workbench,3.5.1.M20090826-0800a,"",1409532800491
activated,workbench,org.eclipse.ui.workbench,3.5.1.M20090826-0800a,"",1409532835827
executed,command,org.eclipse.ui,3.5.1.M20090902-1000,"org.eclipse.ui.file.save",1409532874889
deactivated,workbench,org.eclipse.ui.workbench,3.5.1.M20090826-0800a,"",1409532880585
activated,workbench,org.eclipse.ui.workbench,3.5.1.M20090826-0800a,"",1409533096431
deactivated,workbench,org.eclipse.ui.workbench,3.5.1.M20090826-0800a,"",1409533125241
activated,workbench,org.eclipse.ui.workbench,3.5.1.M20090826-0800a,"",1409533125357
executed,command,org.eclipse.ui,3.5.1.M20090902-1000,"org.eclipse.ui.file.save",1409533951800
executed,command,org.eclipse.ui,3.5.1.M20090902-1000,"org.eclipse.ui.file.save",1409533988699
executed,command,org.eclipse.ui,3.5.1.M20090902-1000,"org.eclipse.ui.file.save",1409534477547
executed,command,org.eclipse.ui.workbench.texteditor,3.5.0.v20090603,"org.eclipse.ui.edit.text.smartEnter",1409534480873
executed,command,org.eclipse.ui,3.5.1.M20090902-1000,"org.eclipse.ui.edit.undo",1409534482357
