what,kind,bundleId,bundleVersion,description,time
activated,workbench,org.eclipse.ui.workbench,3.5.1.M20090826-0800a,"",1377763908931
activated,perspective,org.eclipse.jst.j2ee.ui,1.1.301.v200909020100,"org.eclipse.jst.j2ee.J2EEPerspective",1377763918685
activated,editor,org.eclipse.jdt.ui,3.5.1.r351_v20090821-0800,"org.eclipse.jdt.ui.CompilationUnitEditor",1377763918705
started,bundle,org.eclipse.ui.views.log,1.0.100.v20090731,"org.eclipse.ui.views.log",1377763923928
started,bundle,org.eclipse.pde.ui,3.5.0.v20090821,"org.eclipse.pde.ui",1377763923989
opened,view,org.eclipse.jdt.ui,3.5.1.r351_v20090821-0800,"org.eclipse.jdt.ui.PackageExplorer",1377763924133
opened,view,org.eclipse.ui.ide,3.5.1.M20090826-0800,"org.eclipse.ui.views.ProblemView",1377763924763
started,bundle,org.eclipse.search,3.5.1.r351_v20090708-0800,"org.eclipse.search",1377763925308
opened,view,org.eclipse.mylyn.tasks.ui,,"org.eclipse.mylyn.tasks.ui.views.tasks",1377763925567
activated,perspective,org.eclipse.jdt.ui,3.5.1.r351_v20090821-0800,"org.eclipse.jdt.ui.JavaPerspective",1377763925643
executed,command,org.eclipse.ui,3.5.1.M20090902-1000,"org.eclipse.ui.perspectives.showPerspective",1377763925813
executed,command,org.eclipse.jdt.ui,3.5.1.r351_v20090821-0800,"org.eclipse.jdt.ui.JavaPerspective",1377763925813
activated,perspective,org.eclipse.jst.j2ee.ui,1.1.301.v200909020100,"org.eclipse.jst.j2ee.J2EEPerspective",1377763938535
deactivated,workbench,org.eclipse.ui.workbench,3.5.1.M20090826-0800a,"",1377763947849
activated,workbench,org.eclipse.ui.workbench,3.5.1.M20090826-0800a,"",1377763966290
deactivated,workbench,org.eclipse.ui.workbench,3.5.1.M20090826-0800a,"",1377763980201
activated,workbench,org.eclipse.ui.workbench,3.5.1.M20090826-0800a,"",1377764018739
deactivated,workbench,org.eclipse.ui.workbench,3.5.1.M20090826-0800a,"",1377764020669
activated,workbench,org.eclipse.ui.workbench,3.5.1.M20090826-0800a,"",1377764039371
deactivated,workbench,org.eclipse.ui.workbench,3.5.1.M20090826-0800a,"",1377764455888
deactivated,workbench,org.eclipse.ui.workbench,3.5.1.M20090826-0800a,"",1377768345241
deactivated,workbench,org.eclipse.ui.workbench,3.5.1.M20090826-0800a,"",1377768347008
activated,workbench,org.eclipse.ui.workbench,3.5.1.M20090826-0800a,"",1377768349697
deactivated,workbench,org.eclipse.ui.workbench,3.5.1.M20090826-0800a,"",1377768351345
activated,workbench,org.eclipse.ui.workbench,3.5.1.M20090826-0800a,"",1377768353430
