what,kind,bundleId,bundleVersion,description,time
activated,editor,org.eclipse.jdt.ui,3.5.1.r351_v20090821-0800,"org.eclipse.jdt.ui.CompilationUnitEditor",1396589315607
executed,command,org.eclipse.ui,3.5.1.M20090902-1000,"org.eclipse.ui.edit.delete",1396589319231
executed,command,org.eclipse.ui,3.5.1.M20090902-1000,"org.eclipse.ui.file.save",1396589322142
activated,view,org.eclipse.ui.console,3.4.0.v20090513,"org.eclipse.ui.console.ConsoleView",1396589326300
deactivated,workbench,org.eclipse.ui.workbench,3.5.1.M20090826-0800a,"",1396589330865
activated,workbench,org.eclipse.ui.workbench,3.5.1.M20090826-0800a,"",1396589345299
activated,editor,org.eclipse.jdt.ui,3.5.1.r351_v20090821-0800,"org.eclipse.jdt.ui.CompilationUnitEditor",1396589345992
activated,view,org.eclipse.jdt.ui,3.5.1.r351_v20090821-0800,"org.eclipse.jdt.ui.PackageExplorer",1396589365129
executed,command,org.eclipse.ui,3.5.1.M20090902-1000,"org.eclipse.ui.navigate.collapseAll",1396589380528
executed,command,org.eclipse.ui,3.5.1.M20090902-1000,"org.eclipse.ui.navigate.linkWithEditor",1396589382152
executed,command,org.eclipse.ui,3.5.1.M20090902-1000,"org.eclipse.ui.navigate.linkWithEditor",1396589383070
executed,command,org.eclipse.ui,3.5.1.M20090902-1000,"org.eclipse.ui.navigate.collapseAll",1396589388923
executed,command,org.eclipse.ui,3.5.1.M20090902-1000,"org.eclipse.ui.navigate.linkWithEditor",1396589391653
activated,view,org.eclipse.ui.console,3.4.0.v20090513,"org.eclipse.ui.console.ConsoleView",1396589417364
activated,view,org.eclipse.jdt.ui,3.5.1.r351_v20090821-0800,"org.eclipse.jdt.ui.PackageExplorer",1396589417383
activated,editor,org.eclipse.jdt.ui,3.5.1.r351_v20090821-0800,"org.eclipse.jdt.ui.CompilationUnitEditor",1396589430855
activated,editor,org.eclipse.jdt.ui,3.5.1.r351_v20090821-0800,"org.eclipse.jdt.ui.CompilationUnitEditor",1396589430953
closed,editor,org.eclipse.jdt.ui,3.5.1.r351_v20090821-0800,"org.eclipse.jdt.ui.CompilationUnitEditor",1396589430953
activated,editor,com.android.ide.eclipse.adt,12.0.0.v201106281929-138431,"com.android.ide.eclipse.editors.resources.ResourcesEditor",1396589432358
closed,editor,org.eclipse.jdt.ui,3.5.1.r351_v20090821-0800,"org.eclipse.jdt.ui.CompilationUnitEditor",1396589432358
activated,view,org.eclipse.jdt.ui,3.5.1.r351_v20090821-0800,"org.eclipse.jdt.ui.PackageExplorer",1396589433246
closed,editor,com.android.ide.eclipse.adt,12.0.0.v201106281929-138431,"com.android.ide.eclipse.editors.resources.ResourcesEditor",1396589433246
opened,editor,org.eclipse.jdt.ui,3.5.1.r351_v20090821-0800,"org.eclipse.jdt.ui.CompilationUnitEditor",1396589435306
activated,editor,org.eclipse.jdt.ui,3.5.1.r351_v20090821-0800,"org.eclipse.jdt.ui.CompilationUnitEditor",1396589435413
activated,view,org.eclipse.jdt.ui,3.5.1.r351_v20090821-0800,"org.eclipse.jdt.ui.PackageExplorer",1396589476819
