what,kind,bundleId,bundleVersion,description,time
deactivated,workbench,org.eclipse.ui.workbench,3.5.1.M20090826-0800a,"",1397809208669
activated,workbench,org.eclipse.ui.workbench,3.5.1.M20090826-0800a,"",1397809211912
deactivated,workbench,org.eclipse.ui.workbench,3.5.1.M20090826-0800a,"",1397809218179
activated,workbench,org.eclipse.ui.workbench,3.5.1.M20090826-0800a,"",1397809222624
activated,editor,org.eclipse.jdt.ui,3.5.1.r351_v20090821-0800,"org.eclipse.jdt.ui.CompilationUnitEditor",1397809224955
deactivated,workbench,org.eclipse.ui.workbench,3.5.1.M20090826-0800a,"",1397809228468
activated,workbench,org.eclipse.ui.workbench,3.5.1.M20090826-0800a,"",1397809230245
deactivated,workbench,org.eclipse.ui.workbench,3.5.1.M20090826-0800a,"",1397809230805
activated,workbench,org.eclipse.ui.workbench,3.5.1.M20090826-0800a,"",1397809231572
activated,view,org.eclipse.ui.console,3.4.0.v20090513,"org.eclipse.ui.console.ConsoleView",1397809237357
deactivated,workbench,org.eclipse.ui.workbench,3.5.1.M20090826-0800a,"",1397809242563
activated,workbench,org.eclipse.ui.workbench,3.5.1.M20090826-0800a,"",1397809243536
activated,editor,org.eclipse.jdt.ui,3.5.1.r351_v20090821-0800,"org.eclipse.jdt.ui.CompilationUnitEditor",1397809245643
opened,view,org.eclipse.ui.console,3.4.0.v20090513,"org.eclipse.ui.console.ConsoleView",1397809245730
activated,view,org.eclipse.ui.console,3.4.0.v20090513,"org.eclipse.ui.console.ConsoleView",1397809245772
activated,editor,org.eclipse.jdt.ui,3.5.1.r351_v20090821-0800,"org.eclipse.jdt.ui.CompilationUnitEditor",1397809254243
activated,view,com.android.ide.eclipse.ddms,12.0.0.v201106281929-138431,"com.android.ide.eclipse.ddms.views.LogCatView",1397809265249
deactivated,workbench,org.eclipse.ui.workbench,3.5.1.M20090826-0800a,"",1397809271242
activated,workbench,org.eclipse.ui.workbench,3.5.1.M20090826-0800a,"",1397809276045
deactivated,workbench,org.eclipse.ui.workbench,3.5.1.M20090826-0800a,"",1397809278444
activated,workbench,org.eclipse.ui.workbench,3.5.1.M20090826-0800a,"",1397809279981
deactivated,workbench,org.eclipse.ui.workbench,3.5.1.M20090826-0800a,"",1397809280923
activated,workbench,org.eclipse.ui.workbench,3.5.1.M20090826-0800a,"",1397809288421
deactivated,workbench,org.eclipse.ui.workbench,3.5.1.M20090826-0800a,"",1397809291724
activated,workbench,org.eclipse.ui.workbench,3.5.1.M20090826-0800a,"",1397809294427
