what,kind,bundleId,bundleVersion,description,time
deactivated,workbench,org.eclipse.ui.workbench,3.5.1.M20090826-0800a,"",1398739116641
activated,workbench,org.eclipse.ui.workbench,3.5.1.M20090826-0800a,"",1398739120490
activated,view,com.android.ide.eclipse.ddms,12.0.0.v201106281929-138431,"com.android.ide.eclipse.ddms.views.LogCatView",1398739120637
activated,perspective,com.android.ide.eclipse.ddms,12.0.0.v201106281929-138431,"com.android.ide.eclipse.ddms.Perspective",1398739122756
activated,view,com.android.ide.eclipse.ddms,12.0.0.v201106281929-138431,"com.android.ide.eclipse.ddms.views.EmulatorControlView",1398739124043
deactivated,workbench,org.eclipse.ui.workbench,3.5.1.M20090826-0800a,"",1398739126256
activated,workbench,org.eclipse.ui.workbench,3.5.1.M20090826-0800a,"",1398739127309
deactivated,workbench,org.eclipse.ui.workbench,3.5.1.M20090826-0800a,"",1398739128881
activated,workbench,org.eclipse.ui.workbench,3.5.1.M20090826-0800a,"",1398739138573
deactivated,workbench,org.eclipse.ui.workbench,3.5.1.M20090826-0800a,"",1398739140160
activated,workbench,org.eclipse.ui.workbench,3.5.1.M20090826-0800a,"",1398739141011
deactivated,workbench,org.eclipse.ui.workbench,3.5.1.M20090826-0800a,"",1398739141437
activated,workbench,org.eclipse.ui.workbench,3.5.1.M20090826-0800a,"",1398739142440
deactivated,workbench,org.eclipse.ui.workbench,3.5.1.M20090826-0800a,"",1398739143320
activated,workbench,org.eclipse.ui.workbench,3.5.1.M20090826-0800a,"",1398739169471
activated,perspective,org.eclipse.jdt.ui,3.5.1.r351_v20090821-0800,"org.eclipse.jdt.ui.JavaPerspective",1398739172121
activated,editor,com.android.ide.eclipse.adt,12.0.0.v201106281929-138431,"com.android.ide.eclipse.editors.manifest.ManifestEditor",1398739172147
closed,editor,org.eclipse.jdt.ui,3.5.1.r351_v20090821-0800,"org.eclipse.jdt.ui.CompilationUnitEditor",1398739173429
closed,editor,org.eclipse.jdt.ui,3.5.1.r351_v20090821-0800,"org.eclipse.jdt.ui.CompilationUnitEditor",1398739174390
activated,view,org.eclipse.jdt.ui,3.5.1.r351_v20090821-0800,"org.eclipse.jdt.ui.PackageExplorer",1398739175074
closed,editor,com.android.ide.eclipse.adt,12.0.0.v201106281929-138431,"com.android.ide.eclipse.editors.manifest.ManifestEditor",1398739175075
opened,editor,org.eclipse.jdt.ui,3.5.1.r351_v20090821-0800,"org.eclipse.jdt.ui.CompilationUnitEditor",1398739181743
activated,editor,org.eclipse.jdt.ui,3.5.1.r351_v20090821-0800,"org.eclipse.jdt.ui.CompilationUnitEditor",1398739181787
activated,view,org.eclipse.jdt.ui,3.5.1.r351_v20090821-0800,"org.eclipse.jdt.ui.PackageExplorer",1398739183717
opened,editor,com.android.ide.eclipse.adt,12.0.0.v201106281929-138431,"com.android.ide.eclipse.editors.manifest.ManifestEditor",1398739183960
