what,kind,bundleId,bundleVersion,description,time
activated,editor,org.eclipse.jdt.ui,3.5.1.r351_v20090821-0800,"org.eclipse.jdt.ui.CompilationUnitEditor",1406181589413
closed,editor,com.android.ide.eclipse.adt,12.0.0.v201106281929-138431,"com.android.ide.eclipse.editors.manifest.ManifestEditor",1406181589413
deactivated,workbench,org.eclipse.ui.workbench,3.5.1.M20090826-0800a,"",1406181590870
activated,workbench,org.eclipse.ui.workbench,3.5.1.M20090826-0800a,"",1406181804237
activated,editor,com.android.ide.eclipse.adt,12.0.0.v201106281929-138431,"com.android.ide.eclipse.editors.layout.LayoutEditor",1406181805927
deactivated,workbench,org.eclipse.ui.workbench,3.5.1.M20090826-0800a,"",1406181814136
activated,workbench,org.eclipse.ui.workbench,3.5.1.M20090826-0800a,"",1406181818602
deactivated,workbench,org.eclipse.ui.workbench,3.5.1.M20090826-0800a,"",1406181827755
activated,workbench,org.eclipse.ui.workbench,3.5.1.M20090826-0800a,"",1406181840392
activated,view,org.eclipse.jdt.ui,3.5.1.r351_v20090821-0800,"org.eclipse.jdt.ui.PackageExplorer",1406181840517
deactivated,workbench,org.eclipse.ui.workbench,3.5.1.M20090826-0800a,"",1406181855775
activated,workbench,org.eclipse.ui.workbench,3.5.1.M20090826-0800a,"",1406181862074
activated,editor,com.android.ide.eclipse.adt,12.0.0.v201106281929-138431,"com.android.ide.eclipse.editors.layout.LayoutEditor",1406181862157
deactivated,workbench,org.eclipse.ui.workbench,3.5.1.M20090826-0800a,"",1406181888525
activated,workbench,org.eclipse.ui.workbench,3.5.1.M20090826-0800a,"",1406181892687
deactivated,workbench,org.eclipse.ui.workbench,3.5.1.M20090826-0800a,"",1406181894039
activated,workbench,org.eclipse.ui.workbench,3.5.1.M20090826-0800a,"",1406181895514
executed,command,org.eclipse.ui,3.5.1.M20090902-1000,"org.eclipse.ui.edit.text.contentAssist.proposals",1406181900845
executed,command,org.eclipse.ui,3.5.1.M20090902-1000,"org.eclipse.ui.edit.text.contentAssist.proposals",1406181918785
deactivated,workbench,org.eclipse.ui.workbench,3.5.1.M20090826-0800a,"",1406181922265
activated,workbench,org.eclipse.ui.workbench,3.5.1.M20090826-0800a,"",1406181922465
deactivated,workbench,org.eclipse.ui.workbench,3.5.1.M20090826-0800a,"",1406181937726
activated,workbench,org.eclipse.ui.workbench,3.5.1.M20090826-0800a,"",1406181942592
deactivated,workbench,org.eclipse.ui.workbench,3.5.1.M20090826-0800a,"",1406181977261
activated,workbench,org.eclipse.ui.workbench,3.5.1.M20090826-0800a,"",1406181978416
