what,kind,bundleId,bundleVersion,description,time
deactivated,workbench,org.eclipse.ui.workbench,3.5.1.M20090826-0800a,"",1405384649082
deactivated,workbench,org.eclipse.ui.workbench,3.5.1.M20090826-0800a,"",1405384650302
activated,workbench,org.eclipse.ui.workbench,3.5.1.M20090826-0800a,"",1405384650830
activated,perspective,org.eclipse.jdt.ui,3.5.1.r351_v20090821-0800,"org.eclipse.jdt.ui.JavaPerspective",1405384653104
activated,editor,org.eclipse.jdt.ui,3.5.1.r351_v20090821-0800,"org.eclipse.jdt.ui.CompilationUnitEditor",1405384653132
opened,editor,org.eclipse.jdt.ui,3.5.1.r351_v20090821-0800,"org.eclipse.jdt.ui.CompilationUnitEditor",1405384677583
activated,editor,org.eclipse.jdt.ui,3.5.1.r351_v20090821-0800,"org.eclipse.jdt.ui.CompilationUnitEditor",1405384677809
activated,editor,org.eclipse.jdt.ui,3.5.1.r351_v20090821-0800,"org.eclipse.jdt.ui.CompilationUnitEditor",1405384680045
executed,command,,,"AUTOGEN:::org.eclipse.jdt.internal.ui.CompilationUnitEditor.ruler.actions/org.eclipse.jdt.internal.ui.javaeditor.JavaSelectRulerAction",1405384782889
executed,command,,,"AUTOGEN:::org.eclipse.jdt.debug.CompilationUnitEditor.BreakpointRulerActions/org.eclipse.jdt.debug.ui.actions.ManageBreakpointRulerAction",1405384787280
started,bundle,org.eclipse.wst.server.core,1.1.102.v20090825,"org.eclipse.wst.server.core",1405384790763
started,bundle,org.eclipse.wst.server.ui,1.1.103.v20090909,"org.eclipse.wst.server.ui",1405384790821
deactivated,workbench,org.eclipse.ui.workbench,3.5.1.M20090826-0800a,"",1405384793896
activated,workbench,org.eclipse.ui.workbench,3.5.1.M20090826-0800a,"",1405384798714
deactivated,workbench,org.eclipse.ui.workbench,3.5.1.M20090826-0800a,"",1405384798964
activated,workbench,org.eclipse.ui.workbench,3.5.1.M20090826-0800a,"",1405384803816
deactivated,workbench,org.eclipse.ui.workbench,3.5.1.M20090826-0800a,"",1405384805493
activated,workbench,org.eclipse.ui.workbench,3.5.1.M20090826-0800a,"",1405384807800
activated,view,com.android.ide.eclipse.ddms,12.0.0.v201106281929-138431,"com.android.ide.eclipse.ddms.views.LogCatView",1405384808020
deactivated,workbench,org.eclipse.ui.workbench,3.5.1.M20090826-0800a,"",1405384814925
activated,workbench,org.eclipse.ui.workbench,3.5.1.M20090826-0800a,"",1405384821883
opened,view,org.eclipse.debug.ui,3.5.1.v20090811_r351,"org.eclipse.debug.ui.VariableView",1405384822612
opened,view,org.eclipse.debug.ui,3.5.1.v20090811_r351,"org.eclipse.debug.ui.DebugView",1405384823119
opened,view,org.eclipse.debug.ui,3.5.1.v20090811_r351,"org.eclipse.debug.ui.ExpressionView",1405384823265
activated,perspective,org.eclipse.debug.ui,3.5.1.v20090811_r351,"org.eclipse.debug.ui.DebugPerspective",1405384823515
