what,kind,bundleId,bundleVersion,description,time
executed,command,org.eclipse.ui,3.5.1.M20090902-1000,"org.eclipse.ui.edit.text.contentAssist.proposals",1413648089301
executed,command,org.eclipse.ui,3.5.1.M20090902-1000,"org.eclipse.ui.edit.text.contentAssist.proposals",1413648093468
deactivated,workbench,org.eclipse.ui.workbench,3.5.1.M20090826-0800a,"",1413648102682
activated,workbench,org.eclipse.ui.workbench,3.5.1.M20090826-0800a,"",1413648102856
deactivated,workbench,org.eclipse.ui.workbench,3.5.1.M20090826-0800a,"",1413648146633
activated,workbench,org.eclipse.ui.workbench,3.5.1.M20090826-0800a,"",1413648148827
deactivated,workbench,org.eclipse.ui.workbench,3.5.1.M20090826-0800a,"",1413648149446
activated,workbench,org.eclipse.ui.workbench,3.5.1.M20090826-0800a,"",1413648154846
deactivated,workbench,org.eclipse.ui.workbench,3.5.1.M20090826-0800a,"",1413648323053
activated,workbench,org.eclipse.ui.workbench,3.5.1.M20090826-0800a,"",1413648334807
executed,command,org.eclipse.ui,3.5.1.M20090902-1000,"org.eclipse.ui.file.save",1413648339701
executed,command,org.eclipse.ui,3.5.1.M20090902-1000,"org.eclipse.ui.file.save",1413648347407
executed,command,org.eclipse.jdt.debug.ui,3.4.1.v20090811_r351,"org.eclipse.jdt.debug.ui.localJavaShortcut.run",1413648353714
activated,view,org.eclipse.ui.console,3.4.0.v20090513,"org.eclipse.ui.console.ConsoleView",1413648355616
started,bundle,org.eclipse.cdt.debug.mi.ui,6.0.0.201002161416,"org.eclipse.cdt.debug.mi.ui",1413648355757
started,bundle,org.eclipse.cdt.debug.mi.core,6.0.0.201002161416,"org.eclipse.cdt.debug.mi.core",1413648355819
deactivated,workbench,org.eclipse.ui.workbench,3.5.1.M20090826-0800a,"",1413648374673
activated,workbench,org.eclipse.ui.workbench,3.5.1.M20090826-0800a,"",1413648402767
activated,editor,org.eclipse.jdt.ui,3.5.1.r351_v20090821-0800,"org.eclipse.jdt.ui.CompilationUnitEditor",1413648404013
executed,command,org.eclipse.jdt.debug.ui,3.4.1.v20090811_r351,"org.eclipse.jdt.debug.ui.localJavaShortcut.run",1413648406069
activated,view,org.eclipse.ui.console,3.4.0.v20090513,"org.eclipse.ui.console.ConsoleView",1413648406496
activated,editor,org.eclipse.jdt.ui,3.5.1.r351_v20090821-0800,"org.eclipse.jdt.ui.CompilationUnitEditor",1413648432830
started,bundle,org.eclipse.mylyn.java.tasks,3.2.2.v20090912-0400-e3x,"org.eclipse.mylyn.java.tasks",1413648463744
executed,command,org.eclipse.ui,3.5.1.M20090902-1000,"org.eclipse.ui.edit.copy",1413648463930
executed,command,org.eclipse.ui,3.5.1.M20090902-1000,"org.eclipse.ui.edit.paste",1413648464859
