what,kind,bundleId,bundleVersion,description,time
executed,command,,,"com.android.ide.eclipse.adt.debug.launching.LaunchShortcut.run",1400143738962
activated,view,com.android.ide.eclipse.ddms,12.0.0.v201106281929-138431,"com.android.ide.eclipse.ddms.views.LogCatView",1400143740218
activated,view,org.eclipse.ui.console,3.4.0.v20090513,"org.eclipse.ui.console.ConsoleView",1400143742997
deactivated,workbench,org.eclipse.ui.workbench,3.5.1.M20090826-0800a,"",1400143744266
activated,workbench,org.eclipse.ui.workbench,3.5.1.M20090826-0800a,"",1400143745087
deactivated,workbench,org.eclipse.ui.workbench,3.5.1.M20090826-0800a,"",1400143745378
activated,workbench,org.eclipse.ui.workbench,3.5.1.M20090826-0800a,"",1400143757476
deactivated,workbench,org.eclipse.ui.workbench,3.5.1.M20090826-0800a,"",1400143757785
activated,workbench,org.eclipse.ui.workbench,3.5.1.M20090826-0800a,"",1400143758487
deactivated,workbench,org.eclipse.ui.workbench,3.5.1.M20090826-0800a,"",1400143760705
activated,workbench,org.eclipse.ui.workbench,3.5.1.M20090826-0800a,"",1400143761724
deactivated,workbench,org.eclipse.ui.workbench,3.5.1.M20090826-0800a,"",1400143792237
activated,workbench,org.eclipse.ui.workbench,3.5.1.M20090826-0800a,"",1400143793230
deactivated,workbench,org.eclipse.ui.workbench,3.5.1.M20090826-0800a,"",1400143794878
activated,workbench,org.eclipse.ui.workbench,3.5.1.M20090826-0800a,"",1400143796686
deactivated,workbench,org.eclipse.ui.workbench,3.5.1.M20090826-0800a,"",1400143932680
activated,workbench,org.eclipse.ui.workbench,3.5.1.M20090826-0800a,"",1400143944889
started,bundle,org.eclipse.jdt.debug.ui,3.4.1.v20090811_r351,"org.eclipse.jdt.debug.ui",1400143945592
activated,editor,org.eclipse.jdt.ui,3.5.1.r351_v20090821-0800,"org.eclipse.jdt.ui.CompilationUnitEditor",1400143945708
activated,view,com.android.ide.eclipse.ddms,12.0.0.v201106281929-138431,"com.android.ide.eclipse.ddms.views.LogCatView",1400143947682
activated,editor,org.eclipse.jdt.ui,3.5.1.r351_v20090821-0800,"org.eclipse.jdt.ui.CompilationUnitEditor",1400143952056
executed,command,org.eclipse.jdt.ui,3.5.1.r351_v20090821-0800,"org.eclipse.jdt.ui.edit.text.java.toggle.comment",1400143959395
started,bundle,org.eclipse.mylyn.java.ui,3.2.2.v20090912-0400-e3x,"org.eclipse.mylyn.java.ui",1400143966911
started,bundle,org.eclipse.pde.api.tools,1.0.101.v20090714,"org.eclipse.pde.api.tools",1400143967306
started,bundle,org.eclipse.pde.api.tools.ui,1.0.101.v20090820,"org.eclipse.pde.api.tools.ui",1400143967673
