what,kind,bundleId,bundleVersion,description,time
started,bundle,com.android.ide.eclipse.traceview,12.0.0.v201106281929-138431,"com.android.ide.eclipse.traceview",1417004153008
os,sysinfo,,,"win32",1417004153013
arch,sysinfo,,,"x86",1417004153013
ws,sysinfo,,,"win32",1417004153013
locale,sysinfo,,,"zh_CN",1417004153013
processors,sysinfo,,,"4",1417004153013
java.runtime.name,sysinfo,,,"Java(TM) SE Runtime Environment",1417004153013
java.runtime.version,sysinfo,,,"1.6.0_03-b05",1417004153013
java.specification.name,sysinfo,,,"Java Platform API Specification",1417004153013
java.specification.vendor,sysinfo,,,"Sun Microsystems Inc.",1417004153013
java.specification.version,sysinfo,,,"1.6",1417004153013
java.vendor,sysinfo,,,"Sun Microsystems Inc.",1417004153013
java.version,sysinfo,,,"1.6.0_03",1417004153013
java.vm.info,sysinfo,,,"mixed mode",1417004153013
java.vm.name,sysinfo,,,"Java HotSpot(TM) Client VM",1417004153013
java.vm.specification.name,sysinfo,,,"Java Virtual Machine Specification",1417004153013
java.vm.specification.vendor,sysinfo,,,"Sun Microsystems Inc.",1417004153013
java.vm.specification.version,sysinfo,,,"1.0",1417004153013
java.vm.vendor,sysinfo,,,"Sun Microsystems Inc.",1417004153013
java.vm.version,sysinfo,,,"1.6.0_03-b05",1417004153013
started,bundle,org.eclipse.emf.ecore,2.5.0.v200906151043,"org.eclipse.emf.ecore",1417004153133
started,bundle,org.eclipse.jem.util,2.0.200.v200905140200,"org.eclipse.jem.util",1417004153157
started,bundle,org.eclipse.wst.common.frameworks,1.1.300.v200904160730,"org.eclipse.wst.common.frameworks",1417004153183
started,bundle,org.eclipse.jst.jsf.common,1.1.7.v20090903,"org.eclipse.jst.jsf.common",1417004153264
started,bundle,org.eclipse.jst.jsf.core,1.2.2.v20090903,"org.eclipse.jst.jsf.core",1417004153317
