what,kind,bundleId,bundleVersion,description,time
deactivated,workbench,org.eclipse.ui.workbench,3.5.1.M20090826-0800a,"",1400748576769
activated,workbench,org.eclipse.ui.workbench,3.5.1.M20090826-0800a,"",1400748584683
deactivated,workbench,org.eclipse.ui.workbench,3.5.1.M20090826-0800a,"",1400748586285
activated,workbench,org.eclipse.ui.workbench,3.5.1.M20090826-0800a,"",1400748608551
deactivated,workbench,org.eclipse.ui.workbench,3.5.1.M20090826-0800a,"",1400748615645
activated,workbench,org.eclipse.ui.workbench,3.5.1.M20090826-0800a,"",1400748617962
deactivated,workbench,org.eclipse.ui.workbench,3.5.1.M20090826-0800a,"",1400748619574
activated,workbench,org.eclipse.ui.workbench,3.5.1.M20090826-0800a,"",1400748690447
deactivated,workbench,org.eclipse.ui.workbench,3.5.1.M20090826-0800a,"",1400748690990
activated,workbench,org.eclipse.ui.workbench,3.5.1.M20090826-0800a,"",1400748762247
deactivated,workbench,org.eclipse.ui.workbench,3.5.1.M20090826-0800a,"",1400748762937
activated,workbench,org.eclipse.ui.workbench,3.5.1.M20090826-0800a,"",1400748771455
deactivated,workbench,org.eclipse.ui.workbench,3.5.1.M20090826-0800a,"",1400748772179
activated,workbench,org.eclipse.ui.workbench,3.5.1.M20090826-0800a,"",1400748807781
deactivated,workbench,org.eclipse.ui.workbench,3.5.1.M20090826-0800a,"",1400748809665
activated,workbench,org.eclipse.ui.workbench,3.5.1.M20090826-0800a,"",1400748811275
activated,editor,org.eclipse.jdt.ui,3.5.1.r351_v20090821-0800,"org.eclipse.jdt.ui.CompilationUnitEditor",1400748822734
activated,view,org.eclipse.jdt.ui,3.5.1.r351_v20090821-0800,"org.eclipse.jdt.ui.PackageExplorer",1400748827002
activated,editor,org.eclipse.jdt.ui,3.5.1.r351_v20090821-0800,"org.eclipse.jdt.ui.CompilationUnitEditor",1400748848317
activated,editor,org.eclipse.jdt.ui,3.5.1.r351_v20090821-0800,"org.eclipse.jdt.ui.CompilationUnitEditor",1400748849473
closed,editor,org.eclipse.jdt.ui,3.5.1.r351_v20090821-0800,"org.eclipse.jdt.ui.CompilationUnitEditor",1400748849473
closed,editor,com.android.ide.eclipse.adt,12.0.0.v201106281929-138431,"com.android.ide.eclipse.editors.layout.LayoutEditor",1400748850781
closed,editor,org.eclipse.jdt.ui,3.5.1.r351_v20090821-0800,"org.eclipse.jdt.ui.CompilationUnitEditor",1400748851894
activated,view,org.eclipse.jdt.ui,3.5.1.r351_v20090821-0800,"org.eclipse.jdt.ui.PackageExplorer",1400748853252
closed,editor,org.eclipse.jdt.ui,3.5.1.r351_v20090821-0800,"org.eclipse.jdt.ui.CompilationUnitEditor",1400748853252
