what,kind,bundleId,bundleVersion,description,time
started,bundle,org.eclipse.mylyn.context.core,3.2.2.v20090912-0400-e3x,"org.eclipse.mylyn.context.core",1396686450967
started,bundle,org.eclipse.mylyn.context.ui,3.2.2.v20090912-0400-e3x,"org.eclipse.mylyn.context.ui",1396686451097
error,log,,,"Error validating C:\\Users\\acer\\.android\\devices.xml",1396686451255
started,bundle,org.eclipse.mylyn.tasks.ui,3.2.2.v20090912-0400-e3x,"org.eclipse.mylyn.tasks.ui",1396686453423
started,bundle,org.eclipse.mylyn.team.ui,3.2.2.v20090912-0400-e3x,"org.eclipse.mylyn.team.ui",1396686453478
started,bundle,org.eclipse.update.scheduler,3.2.200.v20081127,"org.eclipse.update.scheduler",1396686453857
started,bundle,org.eclipse.update.core,3.2.300.v20090525,"org.eclipse.update.core",1396686454429
started,bundle,org.eclipse.wst.ws.service.policy.ui,1.0.102.v200903070248,"org.eclipse.wst.ws.service.policy.ui",1396686454588
started,bundle,org.eclipse.mylyn.monitor.ui,3.2.2.v20090912-0400-e3x,"org.eclipse.mylyn.monitor.ui",1396686454722
deactivated,workbench,org.eclipse.ui.workbench,3.5.1.M20090826-0800a,"",1396686474593
activated,workbench,org.eclipse.ui.workbench,3.5.1.M20090826-0800a,"",1396686487670
deactivated,workbench,org.eclipse.ui.workbench,3.5.1.M20090826-0800a,"",1396686491550
activated,workbench,org.eclipse.ui.workbench,3.5.1.M20090826-0800a,"",1396686514960
deactivated,workbench,org.eclipse.ui.workbench,3.5.1.M20090826-0800a,"",1396686515375
activated,workbench,org.eclipse.ui.workbench,3.5.1.M20090826-0800a,"",1396686640544
deactivated,workbench,org.eclipse.ui.workbench,3.5.1.M20090826-0800a,"",1396686641024
activated,workbench,org.eclipse.ui.workbench,3.5.1.M20090826-0800a,"",1396691401419
closed,workbench,org.eclipse.ui.workbench,3.5.1.M20090826-0800a,"",1396691402899
