what,kind,bundleId,bundleVersion,description,time
executed,command,org.eclipse.ui,3.5.1.M20090902-1000,"org.eclipse.ui.file.save",1407896243768
deactivated,workbench,org.eclipse.ui.workbench,3.5.1.M20090826-0800a,"",1407896265569
activated,workbench,org.eclipse.ui.workbench,3.5.1.M20090826-0800a,"",1407897082315
activated,view,org.eclipse.jdt.ui,3.5.1.r351_v20090821-0800,"org.eclipse.jdt.ui.PackageExplorer",1407897085691
opened,editor,com.android.ide.eclipse.adt,12.0.0.v201106281929-138431,"com.android.ide.eclipse.editors.layout.LayoutEditor",1407897086687
activated,editor,com.android.ide.eclipse.adt,12.0.0.v201106281929-138431,"com.android.ide.eclipse.editors.layout.LayoutEditor",1407897086775
deactivated,workbench,org.eclipse.ui.workbench,3.5.1.M20090826-0800a,"",1407897130788
activated,workbench,org.eclipse.ui.workbench,3.5.1.M20090826-0800a,"",1407897192795
deactivated,workbench,org.eclipse.ui.workbench,3.5.1.M20090826-0800a,"",1407897193246
activated,workbench,org.eclipse.ui.workbench,3.5.1.M20090826-0800a,"",1407897206110
deactivated,workbench,org.eclipse.ui.workbench,3.5.1.M20090826-0800a,"",1407897206753
activated,workbench,org.eclipse.ui.workbench,3.5.1.M20090826-0800a,"",1407898614901
deactivated,workbench,org.eclipse.ui.workbench,3.5.1.M20090826-0800a,"",1407898616816
activated,workbench,org.eclipse.ui.workbench,3.5.1.M20090826-0800a,"",1407899565059
deactivated,workbench,org.eclipse.ui.workbench,3.5.1.M20090826-0800a,"",1407899585754
activated,workbench,org.eclipse.ui.workbench,3.5.1.M20090826-0800a,"",1407899943665
deactivated,workbench,org.eclipse.ui.workbench,3.5.1.M20090826-0800a,"",1407899947885
activated,workbench,org.eclipse.ui.workbench,3.5.1.M20090826-0800a,"",1407908310638
activated,view,org.eclipse.jdt.ui,3.5.1.r351_v20090821-0800,"org.eclipse.jdt.ui.PackageExplorer",1407908312944
started,bundle,org.eclipse.jdt.junit,3.5.1.r351_v20090708-0800,"org.eclipse.jdt.junit",1407908318700
started,bundle,org.eclipse.jdt.debug.ui,3.4.1.v20090811_r351,"org.eclipse.jdt.debug.ui",1407908318954
started,bundle,org.eclipse.wst.ws.service.policy,1.0.103.v200905151848,"org.eclipse.wst.ws.service.policy",1407908324119
started,bundle,org.eclipse.wst.command.env,1.0.408.v200903110045,"org.eclipse.wst.command.env",1407908324182
started,bundle,org.eclipse.wst.ws,1.1.103.v200903111822,"org.eclipse.wst.ws",1407908324207
deactivated,workbench,org.eclipse.ui.workbench,3.5.1.M20090826-0800a,"",1407908331789
