what,kind,bundleId,bundleVersion,description,time
os,sysinfo,,,"win32",1417008615471
arch,sysinfo,,,"x86",1417008615471
ws,sysinfo,,,"win32",1417008615471
locale,sysinfo,,,"zh_CN",1417008615471
processors,sysinfo,,,"4",1417008615471
java.runtime.name,sysinfo,,,"Java(TM) SE Runtime Environment",1417008615471
java.runtime.version,sysinfo,,,"1.6.0_03-b05",1417008615471
java.specification.name,sysinfo,,,"Java Platform API Specification",1417008615471
java.specification.vendor,sysinfo,,,"Sun Microsystems Inc.",1417008615471
java.specification.version,sysinfo,,,"1.6",1417008615471
java.vendor,sysinfo,,,"Sun Microsystems Inc.",1417008615471
java.version,sysinfo,,,"1.6.0_03",1417008615471
java.vm.info,sysinfo,,,"mixed mode",1417008615471
java.vm.name,sysinfo,,,"Java HotSpot(TM) Client VM",1417008615471
java.vm.specification.name,sysinfo,,,"Java Virtual Machine Specification",1417008615471
java.vm.specification.vendor,sysinfo,,,"Sun Microsystems Inc.",1417008615471
java.vm.specification.version,sysinfo,,,"1.0",1417008615471
java.vm.vendor,sysinfo,,,"Sun Microsystems Inc.",1417008615471
java.vm.version,sysinfo,,,"1.6.0_03-b05",1417008615471
started,bundle,org.eclipse.mylyn.commons.net,3.2.0.v20090617-0100-e3x,"org.eclipse.mylyn.commons.net",1417008615562
started,bundle,org.eclipse.mylyn.commons.ui,3.2.2.v20090912-0400-e3x,"org.eclipse.mylyn.commons.ui",1417008616031
started,bundle,org.eclipse.jst.common.project.facet.core,1.4.1.v200908111817,"org.eclipse.jst.common.project.facet.core",1417008616104
started,bundle,org.eclipse.mylyn.bugzilla.core,3.2.2.v20090912-0400-e3x,"org.eclipse.mylyn.bugzilla.core",1417008616312
started,bundle,org.eclipse.mylyn.bugzilla.ui,3.2.2.v20090912-0400-e3x,"org.eclipse.mylyn.bugzilla.ui",1417008616485
error,log,,,"Error validating C:\\Users\\acer\\.android\\devices.xml",1417008616559
