what,kind,bundleId,bundleVersion,description,time
started,bundle,com.android.ide.eclipse.traceview,12.0.0.v201106281929-138431,"com.android.ide.eclipse.traceview",1415799021749
os,sysinfo,,,"win32",1415799021755
arch,sysinfo,,,"x86",1415799021755
ws,sysinfo,,,"win32",1415799021755
locale,sysinfo,,,"zh_CN",1415799021755
processors,sysinfo,,,"4",1415799021755
java.runtime.name,sysinfo,,,"Java(TM) SE Runtime Environment",1415799021755
java.runtime.version,sysinfo,,,"1.6.0_03-b05",1415799021755
java.specification.name,sysinfo,,,"Java Platform API Specification",1415799021755
java.specification.vendor,sysinfo,,,"Sun Microsystems Inc.",1415799021755
java.specification.version,sysinfo,,,"1.6",1415799021755
java.vendor,sysinfo,,,"Sun Microsystems Inc.",1415799021755
java.version,sysinfo,,,"1.6.0_03",1415799021755
java.vm.info,sysinfo,,,"mixed mode",1415799021755
java.vm.name,sysinfo,,,"Java HotSpot(TM) Client VM",1415799021755
java.vm.specification.name,sysinfo,,,"Java Virtual Machine Specification",1415799021755
java.vm.specification.vendor,sysinfo,,,"Sun Microsystems Inc.",1415799021755
java.vm.specification.version,sysinfo,,,"1.0",1415799021755
java.vm.vendor,sysinfo,,,"Sun Microsystems Inc.",1415799021755
java.vm.version,sysinfo,,,"1.6.0_03-b05",1415799021755
error,log,,,"Failed to load properties file for project 'FoodAndroidMobile'",1415799021951
started,bundle,org.eclipse.mylyn.commons.net,3.2.0.v20090617-0100-e3x,"org.eclipse.mylyn.commons.net",1415799022094
started,bundle,org.eclipse.mylyn.commons.ui,3.2.2.v20090912-0400-e3x,"org.eclipse.mylyn.commons.ui",1415799022274
started,bundle,org.eclipse.mylyn.bugzilla.core,3.2.2.v20090912-0400-e3x,"org.eclipse.mylyn.bugzilla.core",1415799022584
started,bundle,org.eclipse.mylyn.bugzilla.ui,3.2.2.v20090912-0400-e3x,"org.eclipse.mylyn.bugzilla.ui",1415799022789
