what,kind,bundleId,bundleVersion,description,time
started,bundle,org.eclipse.jdt.debug,3.5.0.v20090526,"org.eclipse.jdt.debug",1413426660780
started,bundle,org.eclipse.jdt.debug.ui,3.4.1.v20090811_r351,"org.eclipse.jdt.debug.ui",1413426661476
executed,command,org.eclipse.jdt.debug.ui,3.4.1.v20090811_r351,"org.eclipse.jdt.debug.ui.localJavaShortcut.run",1413426662384
started,bundle,org.eclipse.cdt.debug.mi.ui,6.0.0.201002161416,"org.eclipse.cdt.debug.mi.ui",1413426663636
started,bundle,org.eclipse.cdt.debug.mi.core,6.0.0.201002161416,"org.eclipse.cdt.debug.mi.core",1413426663688
activated,view,org.eclipse.ui.console,3.4.0.v20090513,"org.eclipse.ui.console.ConsoleView",1413426666856
activated,editor,org.eclipse.jdt.ui,3.5.1.r351_v20090821-0800,"org.eclipse.jdt.ui.CompilationUnitEditor",1413426670427
executed,command,org.eclipse.jdt.debug.ui,3.4.1.v20090811_r351,"org.eclipse.jdt.debug.ui.localJavaShortcut.run",1413426681698
activated,view,org.eclipse.ui.console,3.4.0.v20090513,"org.eclipse.ui.console.ConsoleView",1413426683405
deactivated,workbench,org.eclipse.ui.workbench,3.5.1.M20090826-0800a,"",1413426688711
activated,workbench,org.eclipse.ui.workbench,3.5.1.M20090826-0800a,"",1413426690395
activated,editor,org.eclipse.jdt.ui,3.5.1.r351_v20090821-0800,"org.eclipse.jdt.ui.CompilationUnitEditor",1413426691295
deactivated,workbench,org.eclipse.ui.workbench,3.5.1.M20090826-0800a,"",1413426702587
activated,workbench,org.eclipse.ui.workbench,3.5.1.M20090826-0800a,"",1413426704081
deactivated,workbench,org.eclipse.ui.workbench,3.5.1.M20090826-0800a,"",1413426704707
activated,workbench,org.eclipse.ui.workbench,3.5.1.M20090826-0800a,"",1413426705983
deactivated,workbench,org.eclipse.ui.workbench,3.5.1.M20090826-0800a,"",1413426706827
activated,workbench,org.eclipse.ui.workbench,3.5.1.M20090826-0800a,"",1413426709244
deactivated,workbench,org.eclipse.ui.workbench,3.5.1.M20090826-0800a,"",1413426710203
activated,workbench,org.eclipse.ui.workbench,3.5.1.M20090826-0800a,"",1413426712112
deactivated,workbench,org.eclipse.ui.workbench,3.5.1.M20090826-0800a,"",1413426712682
activated,workbench,org.eclipse.ui.workbench,3.5.1.M20090826-0800a,"",1413426718351
executed,command,org.eclipse.ui,3.5.1.M20090902-1000,"org.eclipse.ui.file.save",1413426730802
executed,command,org.eclipse.jdt.debug.ui,3.4.1.v20090811_r351,"org.eclipse.jdt.debug.ui.localJavaShortcut.run",1413426733817
executed,command,org.eclipse.ui,3.5.1.M20090902-1000,"org.eclipse.ui.file.save",1413426742148
