what,kind,bundleId,bundleVersion,description,time
activated,view,org.eclipse.jdt.ui,3.5.1.r351_v20090821-0800,"org.eclipse.jdt.ui.PackageExplorer",1416207147584
closed,editor,org.eclipse.jdt.ui,3.5.1.r351_v20090821-0800,"org.eclipse.jdt.ui.CompilationUnitEditor",1416207147584
opened,editor,org.eclipse.jdt.ui,3.5.1.r351_v20090821-0800,"org.eclipse.jdt.ui.CompilationUnitEditor",1416207155770
activated,editor,org.eclipse.jdt.ui,3.5.1.r351_v20090821-0800,"org.eclipse.jdt.ui.CompilationUnitEditor",1416207155793
deactivated,workbench,org.eclipse.ui.workbench,3.5.1.M20090826-0800a,"",1416207592535
activated,workbench,org.eclipse.ui.workbench,3.5.1.M20090826-0800a,"",1416208085403
activated,view,org.eclipse.jdt.ui,3.5.1.r351_v20090821-0800,"org.eclipse.jdt.ui.PackageExplorer",1416208097169
opened,editor,org.eclipse.jdt.ui,3.5.1.r351_v20090821-0800,"org.eclipse.jdt.ui.CompilationUnitEditor",1416208097538
activated,editor,org.eclipse.jdt.ui,3.5.1.r351_v20090821-0800,"org.eclipse.jdt.ui.CompilationUnitEditor",1416208097599
started,bundle,org.eclipse.jdt.junit,3.5.1.r351_v20090708-0800,"org.eclipse.jdt.junit",1416208168116
executed,command,org.eclipse.ui,3.5.1.M20090902-1000,"org.eclipse.ui.file.save",1416208225057
deactivated,workbench,org.eclipse.ui.workbench,3.5.1.M20090826-0800a,"",1416208239366
activated,workbench,org.eclipse.ui.workbench,3.5.1.M20090826-0800a,"",1416208252037
deactivated,workbench,org.eclipse.ui.workbench,3.5.1.M20090826-0800a,"",1416208283857
activated,workbench,org.eclipse.ui.workbench,3.5.1.M20090826-0800a,"",1416208332670
deactivated,workbench,org.eclipse.ui.workbench,3.5.1.M20090826-0800a,"",1416208333259
activated,workbench,org.eclipse.ui.workbench,3.5.1.M20090826-0800a,"",1416208414509
activated,view,org.eclipse.jdt.ui,3.5.1.r351_v20090821-0800,"org.eclipse.jdt.ui.PackageExplorer",1416208422735
opened,editor,org.eclipse.jdt.ui,3.5.1.r351_v20090821-0800,"org.eclipse.jdt.ui.CompilationUnitEditor",1416208423109
activated,editor,org.eclipse.jdt.ui,3.5.1.r351_v20090821-0800,"org.eclipse.jdt.ui.CompilationUnitEditor",1416208423167
deactivated,workbench,org.eclipse.ui.workbench,3.5.1.M20090826-0800a,"",1416208450056
activated,workbench,org.eclipse.ui.workbench,3.5.1.M20090826-0800a,"",1416208454846
activated,view,org.eclipse.jdt.ui,3.5.1.r351_v20090821-0800,"org.eclipse.jdt.ui.PackageExplorer",1416208458432
opened,editor,org.eclipse.jdt.ui,3.5.1.r351_v20090821-0800,"org.eclipse.jdt.ui.CompilationUnitEditor",1416208458756
activated,editor,org.eclipse.jdt.ui,3.5.1.r351_v20090821-0800,"org.eclipse.jdt.ui.CompilationUnitEditor",1416208458819
