what,kind,bundleId,bundleVersion,description,time
java.runtime.name,sysinfo,,,"Java(TM) SE Runtime Environment",1411018058842
java.runtime.version,sysinfo,,,"1.6.0_03-b05",1411018058842
java.specification.name,sysinfo,,,"Java Platform API Specification",1411018058842
java.specification.vendor,sysinfo,,,"Sun Microsystems Inc.",1411018058842
java.specification.version,sysinfo,,,"1.6",1411018058842
java.vendor,sysinfo,,,"Sun Microsystems Inc.",1411018058842
java.version,sysinfo,,,"1.6.0_03",1411018058842
java.vm.info,sysinfo,,,"mixed mode",1411018058842
java.vm.name,sysinfo,,,"Java HotSpot(TM) Client VM",1411018058842
java.vm.specification.name,sysinfo,,,"Java Virtual Machine Specification",1411018058842
java.vm.specification.vendor,sysinfo,,,"Sun Microsystems Inc.",1411018058842
java.vm.specification.version,sysinfo,,,"1.0",1411018058842
java.vm.vendor,sysinfo,,,"Sun Microsystems Inc.",1411018058842
java.vm.version,sysinfo,,,"1.6.0_03-b05",1411018058842
started,bundle,org.eclipse.mylyn.commons.net,3.2.0.v20090617-0100-e3x,"org.eclipse.mylyn.commons.net",1411018059176
started,bundle,org.eclipse.mylyn.commons.ui,3.2.2.v20090912-0400-e3x,"org.eclipse.mylyn.commons.ui",1411018059833
started,bundle,org.eclipse.mylyn.bugzilla.core,3.2.2.v20090912-0400-e3x,"org.eclipse.mylyn.bugzilla.core",1411018060528
started,bundle,org.eclipse.mylyn.bugzilla.ui,3.2.2.v20090912-0400-e3x,"org.eclipse.mylyn.bugzilla.ui",1411018061569
started,bundle,org.eclipse.ui.forms,3.4.1.v20090714_35x,"org.eclipse.ui.forms",1411018062306
started,bundle,org.eclipse.mylyn.context.core,3.2.2.v20090912-0400-e3x,"org.eclipse.mylyn.context.core",1411018062771
started,bundle,org.eclipse.mylyn.context.ui,3.2.2.v20090912-0400-e3x,"org.eclipse.mylyn.context.ui",1411018062985
started,bundle,org.eclipse.mylyn.tasks.ui,3.2.2.v20090912-0400-e3x,"org.eclipse.mylyn.tasks.ui",1411018063877
started,bundle,org.eclipse.mylyn.team.ui,3.2.2.v20090912-0400-e3x,"org.eclipse.mylyn.team.ui",1411018063898
started,bundle,org.eclipse.update.scheduler,3.2.200.v20081127,"org.eclipse.update.scheduler",1411018063933
started,bundle,org.eclipse.update.core,3.2.300.v20090525,"org.eclipse.update.core",1411018064178
