what,kind,bundleId,bundleVersion,description,time
activated,editor,org.eclipse.jdt.ui,3.5.1.r351_v20090821-0800,"org.eclipse.jdt.ui.CompilationUnitEditor",1404969870096
activated,view,org.eclipse.jdt.ui,3.5.1.r351_v20090821-0800,"org.eclipse.jdt.ui.PackageExplorer",1404969873281
executed,command,,,"com.android.ide.eclipse.adt.debug.launching.LaunchShortcut.run",1404969876233
deactivated,workbench,org.eclipse.ui.workbench,3.5.1.M20090826-0800a,"",1404969877324
activated,workbench,org.eclipse.ui.workbench,3.5.1.M20090826-0800a,"",1404969879285
activated,view,org.eclipse.ui.console,3.4.0.v20090513,"org.eclipse.ui.console.ConsoleView",1404969879293
deactivated,workbench,org.eclipse.ui.workbench,3.5.1.M20090826-0800a,"",1404969884971
activated,workbench,org.eclipse.ui.workbench,3.5.1.M20090826-0800a,"",1404969888456
activated,view,org.eclipse.jdt.ui,3.5.1.r351_v20090821-0800,"org.eclipse.jdt.ui.PackageExplorer",1404969889862
executed,command,,,"com.android.ide.eclipse.adt.debug.launching.LaunchShortcut.run",1404969891696
activated,view,com.android.ide.eclipse.ddms,12.0.0.v201106281929-138431,"com.android.ide.eclipse.ddms.views.LogCatView",1404969893354
deactivated,workbench,org.eclipse.ui.workbench,3.5.1.M20090826-0800a,"",1404969899451
activated,workbench,org.eclipse.ui.workbench,3.5.1.M20090826-0800a,"",1404969903450
deactivated,workbench,org.eclipse.ui.workbench,3.5.1.M20090826-0800a,"",1404969906543
activated,workbench,org.eclipse.ui.workbench,3.5.1.M20090826-0800a,"",1404969909186
activated,editor,org.eclipse.jdt.ui,3.5.1.r351_v20090821-0800,"org.eclipse.jdt.ui.CompilationUnitEditor",1404969966335
activated,editor,com.android.ide.eclipse.adt,12.0.0.v201106281929-138431,"com.android.ide.eclipse.editors.manifest.ManifestEditor",1404969974341
activated,editor,org.eclipse.jdt.ui,3.5.1.r351_v20090821-0800,"org.eclipse.jdt.ui.CompilationUnitEditor",1404969978333
executed,command,org.eclipse.ui,3.5.1.M20090902-1000,"org.eclipse.ui.edit.copy",1404969985976
executed,command,org.eclipse.ui,3.5.1.M20090902-1000,"org.eclipse.ui.file.save",1404969992099
executed,command,org.eclipse.ui,3.5.1.M20090902-1000,"org.eclipse.ui.edit.copy",1404969997111
executed,command,org.eclipse.ui,3.5.1.M20090902-1000,"org.eclipse.ui.edit.copy",1404969998286
executed,command,org.eclipse.ui,3.5.1.M20090902-1000,"org.eclipse.ui.edit.copy",1404970003220
executed,command,org.eclipse.ui,3.5.1.M20090902-1000,"org.eclipse.ui.edit.copy",1404970003532
executed,command,org.eclipse.ui,3.5.1.M20090902-1000,"org.eclipse.ui.edit.copy",1404970005987
