what,kind,bundleId,bundleVersion,description,time
java.runtime.name,sysinfo,,,"Java(TM) SE Runtime Environment",1409877577586
java.runtime.version,sysinfo,,,"1.6.0_03-b05",1409877577586
java.specification.name,sysinfo,,,"Java Platform API Specification",1409877577586
java.specification.vendor,sysinfo,,,"Sun Microsystems Inc.",1409877577586
java.specification.version,sysinfo,,,"1.6",1409877577586
java.vendor,sysinfo,,,"Sun Microsystems Inc.",1409877577586
java.version,sysinfo,,,"1.6.0_03",1409877577586
java.vm.info,sysinfo,,,"mixed mode",1409877577586
java.vm.name,sysinfo,,,"Java HotSpot(TM) Client VM",1409877577586
java.vm.specification.name,sysinfo,,,"Java Virtual Machine Specification",1409877577586
java.vm.specification.vendor,sysinfo,,,"Sun Microsystems Inc.",1409877577586
java.vm.specification.version,sysinfo,,,"1.0",1409877577586
java.vm.vendor,sysinfo,,,"Sun Microsystems Inc.",1409877577586
java.vm.version,sysinfo,,,"1.6.0_03-b05",1409877577586
started,bundle,org.eclipse.mylyn.commons.ui,3.2.2.v20090912-0400-e3x,"org.eclipse.mylyn.commons.ui",1409877577949
started,bundle,org.eclipse.mylyn.bugzilla.core,3.2.2.v20090912-0400-e3x,"org.eclipse.mylyn.bugzilla.core",1409877578438
started,bundle,org.eclipse.mylyn.bugzilla.ui,3.2.2.v20090912-0400-e3x,"org.eclipse.mylyn.bugzilla.ui",1409877578759
started,bundle,org.eclipse.ui.forms,3.4.1.v20090714_35x,"org.eclipse.ui.forms",1409877579696
started,bundle,org.eclipse.mylyn.context.core,3.2.2.v20090912-0400-e3x,"org.eclipse.mylyn.context.core",1409877580094
started,bundle,org.eclipse.mylyn.context.ui,3.2.2.v20090912-0400-e3x,"org.eclipse.mylyn.context.ui",1409877580344
started,bundle,org.eclipse.mylyn.tasks.ui,3.2.2.v20090912-0400-e3x,"org.eclipse.mylyn.tasks.ui",1409877581485
started,bundle,org.eclipse.mylyn.team.ui,3.2.2.v20090912-0400-e3x,"org.eclipse.mylyn.team.ui",1409877581551
started,bundle,org.eclipse.update.scheduler,3.2.200.v20081127,"org.eclipse.update.scheduler",1409877581645
started,bundle,org.eclipse.update.core,3.2.300.v20090525,"org.eclipse.update.core",1409877582371
started,bundle,org.eclipse.wst.ws.service.policy.ui,1.0.102.v200903070248,"org.eclipse.wst.ws.service.policy.ui",1409877582480
