what,kind,bundleId,bundleVersion,description,time
started,bundle,com.android.ide.eclipse.ddms,12.0.0.v201106281929-138431,"com.android.ide.eclipse.ddms",1406506717670
os,sysinfo,,,"win32",1406506717674
arch,sysinfo,,,"x86",1406506717674
ws,sysinfo,,,"win32",1406506717674
locale,sysinfo,,,"zh_CN",1406506717674
processors,sysinfo,,,"4",1406506717675
java.runtime.name,sysinfo,,,"Java(TM) SE Runtime Environment",1406506717675
java.runtime.version,sysinfo,,,"1.6.0_03-b05",1406506717675
java.specification.name,sysinfo,,,"Java Platform API Specification",1406506717675
java.specification.vendor,sysinfo,,,"Sun Microsystems Inc.",1406506717675
java.specification.version,sysinfo,,,"1.6",1406506717675
java.vendor,sysinfo,,,"Sun Microsystems Inc.",1406506717675
java.version,sysinfo,,,"1.6.0_03",1406506717675
java.vm.info,sysinfo,,,"mixed mode",1406506717675
java.vm.name,sysinfo,,,"Java HotSpot(TM) Client VM",1406506717675
java.vm.specification.name,sysinfo,,,"Java Virtual Machine Specification",1406506717675
java.vm.specification.vendor,sysinfo,,,"Sun Microsystems Inc.",1406506717675
java.vm.specification.version,sysinfo,,,"1.0",1406506717675
java.vm.vendor,sysinfo,,,"Sun Microsystems Inc.",1406506717675
java.vm.version,sysinfo,,,"1.6.0_03-b05",1406506717675
started,bundle,org.eclipse.mylyn.commons.net,3.2.0.v20090617-0100-e3x,"org.eclipse.mylyn.commons.net",1406506718271
started,bundle,org.eclipse.jst.common.project.facet.core,1.4.1.v200908111817,"org.eclipse.jst.common.project.facet.core",1406506719492
started,bundle,com.android.ide.eclipse.traceview,12.0.0.v201106281929-138431,"com.android.ide.eclipse.traceview",1406506719944
started,bundle,org.eclipse.mylyn.commons.ui,3.2.2.v20090912-0400-e3x,"org.eclipse.mylyn.commons.ui",1406506720216
error,log,,,"Failed to load properties file for project 'FoodAndroidMobile'",1406506720546
