what,kind,bundleId,bundleVersion,description,time
executed,command,org.eclipse.jdt.ui,3.5.1.r351_v20090821-0800,"org.eclipse.jdt.ui.edit.text.java.override.methods",1397809987879
executed,command,org.eclipse.ui,3.5.1.M20090902-1000,"org.eclipse.ui.edit.copy",1397810003347
executed,command,org.eclipse.ui,3.5.1.M20090902-1000,"org.eclipse.ui.edit.paste",1397810007224
executed,command,org.eclipse.ui,3.5.1.M20090902-1000,"org.eclipse.ui.edit.copy",1397810061376
executed,command,org.eclipse.ui,3.5.1.M20090902-1000,"org.eclipse.ui.edit.paste",1397810063723
deactivated,workbench,org.eclipse.ui.workbench,3.5.1.M20090826-0800a,"",1397810118414
activated,workbench,org.eclipse.ui.workbench,3.5.1.M20090826-0800a,"",1397810128538
executed,command,org.eclipse.ui,3.5.1.M20090902-1000,"org.eclipse.ui.file.save",1397810309643
activated,view,com.android.ide.eclipse.ddms,12.0.0.v201106281929-138431,"com.android.ide.eclipse.ddms.views.LogCatView",1397810356348
deactivated,workbench,org.eclipse.ui.workbench,3.5.1.M20090826-0800a,"",1397810360288
activated,workbench,org.eclipse.ui.workbench,3.5.1.M20090826-0800a,"",1397810367708
deactivated,workbench,org.eclipse.ui.workbench,3.5.1.M20090826-0800a,"",1397810371243
activated,workbench,org.eclipse.ui.workbench,3.5.1.M20090826-0800a,"",1397810376196
deactivated,workbench,org.eclipse.ui.workbench,3.5.1.M20090826-0800a,"",1397810377348
activated,workbench,org.eclipse.ui.workbench,3.5.1.M20090826-0800a,"",1397810387576
activated,editor,org.eclipse.jdt.ui,3.5.1.r351_v20090821-0800,"org.eclipse.jdt.ui.CompilationUnitEditor",1397810408553
activated,view,com.android.ide.eclipse.ddms,12.0.0.v201106281929-138431,"com.android.ide.eclipse.ddms.views.LogCatView",1397810421185
deactivated,workbench,org.eclipse.ui.workbench,3.5.1.M20090826-0800a,"",1397810423724
activated,workbench,org.eclipse.ui.workbench,3.5.1.M20090826-0800a,"",1397810431476
activated,editor,org.eclipse.jdt.ui,3.5.1.r351_v20090821-0800,"org.eclipse.jdt.ui.CompilationUnitEditor",1397811544471
executed,command,org.eclipse.ui.workbench.texteditor,3.5.0.v20090603,"org.eclipse.ui.edit.text.toggleOverwrite",1397811549621
executed,command,org.eclipse.ui.workbench.texteditor,3.5.0.v20090603,"org.eclipse.ui.edit.text.toggleOverwrite",1397811550394
executed,command,org.eclipse.ui,3.5.1.M20090902-1000,"org.eclipse.ui.edit.delete",1397811550430
executed,command,org.eclipse.jdt.ui,3.5.1.r351_v20090821-0800,"org.eclipse.jdt.ui.edit.text.java.toggle.comment",1397811560899
executed,command,org.eclipse.jdt.ui,3.5.1.r351_v20090821-0800,"org.eclipse.jdt.ui.edit.text.java.toggle.comment",1397811570440
