what,kind,bundleId,bundleVersion,description,time
closed,editor,org.eclipse.debug.ui,3.5.1.v20090811_r351,"org.eclipse.debug.ui.sourcelookup.CommonSourceNotFoundEditor",1398261507279
activated,workbench,org.eclipse.ui.workbench,3.5.1.M20090826-0800a,"",1398261510272
activated,editor,org.eclipse.jdt.ui,3.5.1.r351_v20090821-0800,"org.eclipse.jdt.ui.CompilationUnitEditor",1398261514500
started,bundle,org.eclipse.ui.navigator,3.4.1.M20090911-1550,"org.eclipse.ui.navigator",1398261514593
opened,view,org.eclipse.wst.server.ui,1.1.103.v20090909,"org.eclipse.wst.server.ui.ServersView",1398261515429
closed,view,org.eclipse.debug.ui,3.5.1.v20090811_r351,"org.eclipse.debug.ui.DebugView",1398261515436
activated,perspective,org.eclipse.jdt.ui,3.5.1.r351_v20090821-0800,"org.eclipse.jdt.ui.JavaPerspective",1398261517359
executed,command,org.eclipse.ui,3.5.1.M20090902-1000,"org.eclipse.ui.file.save",1398261530132
started,bundle,org.eclipse.mylyn.java.ui,3.2.2.v20090912-0400-e3x,"org.eclipse.mylyn.java.ui",1398261537896
started,bundle,org.eclipse.pde.api.tools,1.0.101.v20090714,"org.eclipse.pde.api.tools",1398261538000
started,bundle,org.eclipse.pde.api.tools.ui,1.0.101.v20090820,"org.eclipse.pde.api.tools.ui",1398261538003
executed,command,org.eclipse.ui,3.5.1.M20090902-1000,"org.eclipse.ui.file.save",1398261574307
activated,view,com.android.ide.eclipse.ddms,12.0.0.v201106281929-138431,"com.android.ide.eclipse.ddms.views.LogCatView",1398261578140
deactivated,workbench,org.eclipse.ui.workbench,3.5.1.M20090826-0800a,"",1398261580924
activated,workbench,org.eclipse.ui.workbench,3.5.1.M20090826-0800a,"",1398261591762
deactivated,workbench,org.eclipse.ui.workbench,3.5.1.M20090826-0800a,"",1398261593240
activated,workbench,org.eclipse.ui.workbench,3.5.1.M20090826-0800a,"",1398261614441
activated,editor,org.eclipse.jdt.ui,3.5.1.r351_v20090821-0800,"org.eclipse.jdt.ui.CompilationUnitEditor",1398261614473
activated,perspective,com.android.ide.eclipse.ddms,12.0.0.v201106281929-138431,"com.android.ide.eclipse.ddms.Perspective",1398261616096
activated,view,com.android.ide.eclipse.ddms,12.0.0.v201106281929-138431,"com.android.ide.eclipse.ddms.views.LogCatView",1398261616118
activated,perspective,org.eclipse.jdt.ui,3.5.1.r351_v20090821-0800,"org.eclipse.jdt.ui.JavaPerspective",1398261618661
activated,editor,org.eclipse.jdt.ui,3.5.1.r351_v20090821-0800,"org.eclipse.jdt.ui.CompilationUnitEditor",1398261618677
deactivated,workbench,org.eclipse.ui.workbench,3.5.1.M20090826-0800a,"",1398261620141
activated,workbench,org.eclipse.ui.workbench,3.5.1.M20090826-0800a,"",1398261622209
activated,view,com.android.ide.eclipse.ddms,12.0.0.v201106281929-138431,"com.android.ide.eclipse.ddms.views.LogCatView",1398261622419
