what,kind,bundleId,bundleVersion,description,time
started,bundle,com.android.ide.eclipse.traceview,12.0.0.v201106281929-138431,"com.android.ide.eclipse.traceview",1376357331162
os,sysinfo,,,"win32",1376357331168
arch,sysinfo,,,"x86",1376357331168
ws,sysinfo,,,"win32",1376357331168
locale,sysinfo,,,"zh_CN",1376357331168
processors,sysinfo,,,"4",1376357331168
java.runtime.name,sysinfo,,,"Java(TM) SE Runtime Environment",1376357331168
java.runtime.version,sysinfo,,,"1.6.0_03-b05",1376357331168
java.specification.name,sysinfo,,,"Java Platform API Specification",1376357331168
java.specification.vendor,sysinfo,,,"Sun Microsystems Inc.",1376357331168
java.specification.version,sysinfo,,,"1.6",1376357331168
java.vendor,sysinfo,,,"Sun Microsystems Inc.",1376357331168
java.version,sysinfo,,,"1.6.0_03",1376357331168
java.vm.info,sysinfo,,,"mixed mode",1376357331168
java.vm.name,sysinfo,,,"Java HotSpot(TM) Client VM",1376357331168
java.vm.specification.name,sysinfo,,,"Java Virtual Machine Specification",1376357331168
java.vm.specification.vendor,sysinfo,,,"Sun Microsystems Inc.",1376357331168
java.vm.specification.version,sysinfo,,,"1.0",1376357331168
java.vm.vendor,sysinfo,,,"Sun Microsystems Inc.",1376357331168
java.vm.version,sysinfo,,,"1.6.0_03-b05",1376357331168
started,bundle,org.eclipse.mylyn.monitor.ui,3.2.2.v20090912-0400-e3x,"org.eclipse.mylyn.monitor.ui",1376357331646
started,bundle,org.eclipse.epp.usagedata.ui,1.1.0.R200906100410,"org.eclipse.epp.usagedata.ui",1376357332458
activated,workbench,org.eclipse.ui.workbench,3.5.1.M20090826-0800a,"",1376357336063
deactivated,workbench,org.eclipse.ui.workbench,3.5.1.M20090826-0800a,"",1376357337389
activated,workbench,org.eclipse.ui.workbench,3.5.1.M20090826-0800a,"",1376357341562
