what,kind,bundleId,bundleVersion,description,time
activated,editor,org.eclipse.jdt.ui,3.5.1.r351_v20090821-0800,"org.eclipse.jdt.ui.CompilationUnitEditor",1406533504611
deactivated,workbench,org.eclipse.ui.workbench,3.5.1.M20090826-0800a,"",1406533520532
activated,workbench,org.eclipse.ui.workbench,3.5.1.M20090826-0800a,"",1406533523916
executed,command,org.eclipse.ui,3.5.1.M20090902-1000,"org.eclipse.ui.edit.cut",1406533540779
executed,command,org.eclipse.ui,3.5.1.M20090902-1000,"org.eclipse.ui.edit.paste",1406533543847
executed,command,org.eclipse.ui,3.5.1.M20090902-1000,"org.eclipse.ui.file.save",1406533549285
executed,command,org.eclipse.ui,3.5.1.M20090902-1000,"org.eclipse.ui.file.save",1406533560344
deactivated,workbench,org.eclipse.ui.workbench,3.5.1.M20090826-0800a,"",1406533563965
activated,workbench,org.eclipse.ui.workbench,3.5.1.M20090826-0800a,"",1406533564093
executed,command,org.eclipse.ui,3.5.1.M20090902-1000,"org.eclipse.ui.file.save",1406533571457
activated,view,org.eclipse.jdt.ui,3.5.1.r351_v20090821-0800,"org.eclipse.jdt.ui.PackageExplorer",1406533576485
executed,command,,,"com.android.ide.eclipse.adt.debug.launching.LaunchShortcut.run",1406533578276
deactivated,workbench,org.eclipse.ui.workbench,3.5.1.M20090826-0800a,"",1406533579016
activated,workbench,org.eclipse.ui.workbench,3.5.1.M20090826-0800a,"",1406533595040
activated,editor,org.eclipse.jdt.ui,3.5.1.r351_v20090821-0800,"org.eclipse.jdt.ui.CompilationUnitEditor",1406533595074
activated,view,com.android.ide.eclipse.ddms,12.0.0.v201106281929-138431,"com.android.ide.eclipse.ddms.views.LogCatView",1406533596196
deactivated,workbench,org.eclipse.ui.workbench,3.5.1.M20090826-0800a,"",1406533599438
activated,workbench,org.eclipse.ui.workbench,3.5.1.M20090826-0800a,"",1406533600789
activated,editor,org.eclipse.jdt.ui,3.5.1.r351_v20090821-0800,"org.eclipse.jdt.ui.CompilationUnitEditor",1406533601667
executed,command,org.eclipse.ui,3.5.1.M20090902-1000,"org.eclipse.ui.file.save",1406533619631
activated,editor,com.android.ide.eclipse.adt,12.0.0.v201106281929-138431,"com.android.ide.eclipse.editors.layout.LayoutEditor",1406533623585
activated,editor,org.eclipse.jdt.ui,3.5.1.r351_v20090821-0800,"org.eclipse.jdt.ui.CompilationUnitEditor",1406533624695
deactivated,workbench,org.eclipse.ui.workbench,3.5.1.M20090826-0800a,"",1406533647544
activated,workbench,org.eclipse.ui.workbench,3.5.1.M20090826-0800a,"",1406533648588
deactivated,workbench,org.eclipse.ui.workbench,3.5.1.M20090826-0800a,"",1406533648825
