what,kind,bundleId,bundleVersion,description,time
deactivated,workbench,org.eclipse.ui.workbench,3.5.1.M20090826-0800a,"",1399884016969
activated,workbench,org.eclipse.ui.workbench,3.5.1.M20090826-0800a,"",1399884063149
deactivated,workbench,org.eclipse.ui.workbench,3.5.1.M20090826-0800a,"",1399884063642
activated,workbench,org.eclipse.ui.workbench,3.5.1.M20090826-0800a,"",1399885291148
deactivated,workbench,org.eclipse.ui.workbench,3.5.1.M20090826-0800a,"",1399885296997
activated,workbench,org.eclipse.ui.workbench,3.5.1.M20090826-0800a,"",1399885297007
deactivated,workbench,org.eclipse.ui.workbench,3.5.1.M20090826-0800a,"",1399885324610
activated,workbench,org.eclipse.ui.workbench,3.5.1.M20090826-0800a,"",1399886206509
closed,workbench,org.eclipse.ui.workbench,3.5.1.M20090826-0800a,"",1399886209172
stopped,bundle,org.eclipse.jst.ws.axis.creation.ui,1.0.406.v200903031852,"org.eclipse.jst.ws.axis.creation.ui",1399886215725
stopped,bundle,org.eclipse.jst.ws.axis.consumption.ui,1.0.405.v200901261650,"org.eclipse.jst.ws.axis.consumption.ui",1399886215828
