what,kind,bundleId,bundleVersion,description,time
activated,perspective,org.eclipse.jdt.ui,3.5.1.r351_v20090821-0800,"org.eclipse.jdt.ui.JavaPerspective",1392776144490
activated,perspective,com.android.ide.eclipse.ddms,12.0.0.v201106281929-138431,"com.android.ide.eclipse.ddms.Perspective",1392776145204
activated,view,com.android.ide.eclipse.ddms,12.0.0.v201106281929-138431,"com.android.ide.eclipse.ddms.views.FileExplorerView",1392776145221
opened,view,com.android.ide.eclipse.ddms,12.0.0.v201106281929-138431,"com.android.ide.eclipse.ddms.views.AllocTrackerView",1392776148099
activated,view,com.android.ide.eclipse.ddms,12.0.0.v201106281929-138431,"com.android.ide.eclipse.ddms.views.AllocTrackerView",1392776148114
started,bundle,org.eclipse.wst.sse.core,1.1.401.v200909172215,"org.eclipse.wst.sse.core",1392776148129
opened,view,com.android.ide.eclipse.ddms,12.0.0.v201106281929-138431,"com.android.ide.eclipse.ddms.views.HeapView",1392776150938
activated,view,com.android.ide.eclipse.ddms,12.0.0.v201106281929-138431,"com.android.ide.eclipse.ddms.views.HeapView",1392776150979
opened,view,com.android.ide.eclipse.ddms,12.0.0.v201106281929-138431,"com.android.ide.eclipse.ddms.views.ThreadView",1392776151048
activated,view,com.android.ide.eclipse.ddms,12.0.0.v201106281929-138431,"com.android.ide.eclipse.ddms.views.ThreadView",1392776151057
activated,perspective,org.eclipse.jdt.ui,3.5.1.r351_v20090821-0800,"org.eclipse.jdt.ui.JavaPerspective",1392776153091
activated,editor,org.eclipse.jdt.ui,3.5.1.r351_v20090821-0800,"org.eclipse.jdt.ui.CompilationUnitEditor",1392776153139
started,bundle,com.android.ide.eclipse.adt,12.0.0.v201106281929-138431,"com.android.ide.eclipse.adt",1392776163195
started,bundle,com.android.ide.eclipse.traceview,12.0.0.v201106281929-138431,"com.android.ide.eclipse.traceview",1392776168653
deactivated,workbench,org.eclipse.ui.workbench,3.5.1.M20090826-0800a,"",1392776290611
activated,workbench,org.eclipse.ui.workbench,3.5.1.M20090826-0800a,"",1392796976670
deactivated,workbench,org.eclipse.ui.workbench,3.5.1.M20090826-0800a,"",1392797684866
activated,workbench,org.eclipse.ui.workbench,3.5.1.M20090826-0800a,"",1392797686791
activated,view,org.eclipse.jdt.ui,3.5.1.r351_v20090821-0800,"org.eclipse.jdt.ui.PackageExplorer",1392797982334
started,bundle,org.eclipse.jpt.core,2.2.1.v200908270220,"org.eclipse.jpt.core",1392797982885
started,bundle,org.eclipse.jpt.eclipselink.core,1.2.0.v200905310000,"org.eclipse.jpt.eclipselink.core",1392797982931
deactivated,workbench,org.eclipse.ui.workbench,3.5.1.M20090826-0800a,"",1392797992373
activated,workbench,org.eclipse.ui.workbench,3.5.1.M20090826-0800a,"",1392797994327
started,bundle,org.eclipse.wst.server.core,1.1.102.v20090825,"org.eclipse.wst.server.core",1392797995826
started,bundle,org.eclipse.wst.server.ui,1.1.103.v20090909,"org.eclipse.wst.server.ui",1392797996019
