what,kind,bundleId,bundleVersion,description,time
activated,editor,org.eclipse.jdt.ui,3.5.1.r351_v20090821-0800,"org.eclipse.jdt.ui.CompilationUnitEditor",1412581178969
activated,editor,org.eclipse.jdt.ui,3.5.1.r351_v20090821-0800,"org.eclipse.jdt.ui.CompilationUnitEditor",1412581205261
activated,editor,org.eclipse.jdt.ui,3.5.1.r351_v20090821-0800,"org.eclipse.jdt.ui.CompilationUnitEditor",1412581215385
activated,editor,org.eclipse.jdt.ui,3.5.1.r351_v20090821-0800,"org.eclipse.jdt.ui.CompilationUnitEditor",1412581219362
closed,editor,org.eclipse.jdt.ui,3.5.1.r351_v20090821-0800,"org.eclipse.jdt.ui.CompilationUnitEditor",1412581219362
activated,editor,org.eclipse.jdt.ui,3.5.1.r351_v20090821-0800,"org.eclipse.jdt.ui.CompilationUnitEditor",1412581220891
deactivated,workbench,org.eclipse.ui.workbench,3.5.1.M20090826-0800a,"",1412581454477
activated,workbench,org.eclipse.ui.workbench,3.5.1.M20090826-0800a,"",1412581455320
deactivated,workbench,org.eclipse.ui.workbench,3.5.1.M20090826-0800a,"",1412581455881
activated,workbench,org.eclipse.ui.workbench,3.5.1.M20090826-0800a,"",1412584597923
deactivated,workbench,org.eclipse.ui.workbench,3.5.1.M20090826-0800a,"",1412584598432
activated,workbench,org.eclipse.ui.workbench,3.5.1.M20090826-0800a,"",1412584634068
deactivated,workbench,org.eclipse.ui.workbench,3.5.1.M20090826-0800a,"",1412584634827
activated,workbench,org.eclipse.ui.workbench,3.5.1.M20090826-0800a,"",1412584851596
deactivated,workbench,org.eclipse.ui.workbench,3.5.1.M20090826-0800a,"",1412584853056
activated,workbench,org.eclipse.ui.workbench,3.5.1.M20090826-0800a,"",1412584880110
deactivated,workbench,org.eclipse.ui.workbench,3.5.1.M20090826-0800a,"",1412584880606
activated,workbench,org.eclipse.ui.workbench,3.5.1.M20090826-0800a,"",1412584883364
deactivated,workbench,org.eclipse.ui.workbench,3.5.1.M20090826-0800a,"",1412584883748
activated,workbench,org.eclipse.ui.workbench,3.5.1.M20090826-0800a,"",1412586341335
deactivated,workbench,org.eclipse.ui.workbench,3.5.1.M20090826-0800a,"",1412586341781
activated,workbench,org.eclipse.ui.workbench,3.5.1.M20090826-0800a,"",1412586379067
closed,workbench,org.eclipse.ui.workbench,3.5.1.M20090826-0800a,"",1412586382092
stopped,bundle,org.eclipse.jst.ws.axis.creation.ui,1.0.406.v200903031852,"org.eclipse.jst.ws.axis.creation.ui",1412586402953
