what,kind,bundleId,bundleVersion,description,time
started,bundle,org.eclipse.rse.services,3.1.1.v200909160005,"org.eclipse.rse.services",1396580916000
started,bundle,org.eclipse.rse.core,3.1.1.v200909160005,"org.eclipse.rse.core",1396580916140
started,bundle,org.eclipse.rse.ui,3.1.1.v200909160005,"org.eclipse.rse.ui",1396580916770
started,bundle,org.eclipse.rse.subsystems.files.core,3.1.1.v200909160005,"org.eclipse.rse.subsystems.files.core",1396580916780
started,bundle,org.eclipse.rse.subsystems.files.local,2.1.101.v200907301400,"org.eclipse.rse.subsystems.files.local",1396580916821
started,bundle,org.eclipse.rse.connectorservice.local,2.1.100.v200905272300,"org.eclipse.rse.connectorservice.local",1396580917105
started,bundle,org.eclipse.rse.services.local,2.1.101.v200909160005,"org.eclipse.rse.services.local",1396580917112
started,bundle,org.eclipse.rse.subsystems.shells.core,3.1.0.v200905272300,"org.eclipse.rse.subsystems.shells.core",1396580917378
started,bundle,org.eclipse.rse.subsystems.shells.local,2.1.100.v200905272300,"org.eclipse.rse.subsystems.shells.local",1396580917391
activated,workbench,org.eclipse.ui.workbench,3.5.1.M20090826-0800a,"",1396580982613
activated,editor,org.eclipse.jdt.ui,3.5.1.r351_v20090821-0800,"org.eclipse.jdt.ui.CompilationUnitEditor",1396581035752
activated,editor,org.eclipse.jdt.ui,3.5.1.r351_v20090821-0800,"org.eclipse.jdt.ui.CompilationUnitEditor",1396581037732
deactivated,workbench,org.eclipse.ui.workbench,3.5.1.M20090826-0800a,"",1396581063209
activated,workbench,org.eclipse.ui.workbench,3.5.1.M20090826-0800a,"",1396581063386
executed,command,org.eclipse.ui,3.5.1.M20090902-1000,"org.eclipse.ui.edit.delete",1396581298428
deactivated,workbench,org.eclipse.ui.workbench,3.5.1.M20090826-0800a,"",1396581401859
activated,workbench,org.eclipse.ui.workbench,3.5.1.M20090826-0800a,"",1396581440802
activated,view,org.eclipse.ui.console,3.4.0.v20090513,"org.eclipse.ui.console.ConsoleView",1396581440819
deactivated,workbench,org.eclipse.ui.workbench,3.5.1.M20090826-0800a,"",1396581502983
activated,workbench,org.eclipse.ui.workbench,3.5.1.M20090826-0800a,"",1396581503516
activated,editor,org.eclipse.jdt.ui,3.5.1.r351_v20090821-0800,"org.eclipse.jdt.ui.CompilationUnitEditor",1396581509526
executed,command,org.eclipse.ui,3.5.1.M20090902-1000,"org.eclipse.ui.edit.delete",1396581513260
deactivated,workbench,org.eclipse.ui.workbench,3.5.1.M20090826-0800a,"",1396581515600
activated,workbench,org.eclipse.ui.workbench,3.5.1.M20090826-0800a,"",1396581524612
deactivated,workbench,org.eclipse.ui.workbench,3.5.1.M20090826-0800a,"",1396581524760
