what,kind,bundleId,bundleVersion,description,time
activated,editor,org.eclipse.jdt.ui,3.5.1.r351_v20090821-0800,"org.eclipse.jdt.ui.CompilationUnitEditor",1399269955253
deactivated,workbench,org.eclipse.ui.workbench,3.5.1.M20090826-0800a,"",1399269965509
activated,workbench,org.eclipse.ui.workbench,3.5.1.M20090826-0800a,"",1399269968875
started,bundle,org.eclipse.compare,3.5.0.I20090514-0808,"org.eclipse.compare",1399269970747
deactivated,workbench,org.eclipse.ui.workbench,3.5.1.M20090826-0800a,"",1399269983625
activated,workbench,org.eclipse.ui.workbench,3.5.1.M20090826-0800a,"",1399270006868
failed,command,org.eclipse.jdt.ui,3.5.1.r351_v20090821-0800,"org.eclipse.jdt.ui.edit.text.java.override.methods",1399270006881
deactivated,workbench,org.eclipse.ui.workbench,3.5.1.M20090826-0800a,"",1399270007359
activated,workbench,org.eclipse.ui.workbench,3.5.1.M20090826-0800a,"",1399270222386
deactivated,workbench,org.eclipse.ui.workbench,3.5.1.M20090826-0800a,"",1399270224096
activated,workbench,org.eclipse.ui.workbench,3.5.1.M20090826-0800a,"",1399270969650
deactivated,workbench,org.eclipse.ui.workbench,3.5.1.M20090826-0800a,"",1399270970836
activated,workbench,org.eclipse.ui.workbench,3.5.1.M20090826-0800a,"",1399272632145
deactivated,workbench,org.eclipse.ui.workbench,3.5.1.M20090826-0800a,"",1399272632777
activated,workbench,org.eclipse.ui.workbench,3.5.1.M20090826-0800a,"",1399274778678
deactivated,workbench,org.eclipse.ui.workbench,3.5.1.M20090826-0800a,"",1399274788883
activated,workbench,org.eclipse.ui.workbench,3.5.1.M20090826-0800a,"",1399275136624
deactivated,workbench,org.eclipse.ui.workbench,3.5.1.M20090826-0800a,"",1399275268175
activated,workbench,org.eclipse.ui.workbench,3.5.1.M20090826-0800a,"",1399275269213
executed,command,org.eclipse.ui,3.5.1.M20090902-1000,"org.eclipse.ui.edit.copy",1399275297413
executed,command,org.eclipse.ui,3.5.1.M20090902-1000,"org.eclipse.ui.edit.paste",1399275299135
executed,command,org.eclipse.ui,3.5.1.M20090902-1000,"org.eclipse.ui.edit.copy",1399275302444
activated,editor,org.eclipse.jdt.ui,3.5.1.r351_v20090821-0800,"org.eclipse.jdt.ui.CompilationUnitEditor",1399275304404
executed,command,org.eclipse.ui,3.5.1.M20090902-1000,"org.eclipse.ui.edit.paste",1399275310598
executed,command,org.eclipse.ui,3.5.1.M20090902-1000,"org.eclipse.ui.file.save",1399275322119
