what,kind,bundleId,bundleVersion,description,time
error,log,,,"内部错误",1399431111888
error,log,,,"删除资源时遇到问题。",1399431111889
activated,workbench,org.eclipse.ui.workbench,3.5.1.M20090826-0800a,"",1399431115549
executed,command,org.eclipse.ltk.ui.refactoring,3.4.100.v20090604,"org.eclipse.ltk.ui.refactoring.commands.deleteResources",1399431115599
executed,command,org.eclipse.ui,3.5.1.M20090902-1000,"org.eclipse.ui.edit.delete",1399431115599
error,log,,,"Failed to load properties file for project 'Handler'",1399431115810
error,log,,,"Failed to load properties file for project 'Handler'",1399431115811
error,log,,,"Failed to load properties file for project 'Handler'",1399431115860
error,log,,,"Failed to call IResourceEventListener.resourceChangeEventEnd",1399431115877
deactivated,workbench,org.eclipse.ui.workbench,3.5.1.M20090826-0800a,"",1399431122587
error,log,,,"Failed to call IResourceEventListener.resourceChangeEventEnd",1399431123606
error,log,,,"Failed to call IResourceEventListener.resourceChangeEventEnd",1399431123688
activated,workbench,org.eclipse.ui.workbench,3.5.1.M20090826-0800a,"",1399431123932
executed,command,org.eclipse.ltk.ui.refactoring,3.4.100.v20090604,"org.eclipse.ltk.ui.refactoring.commands.deleteResources",1399431123945
executed,command,org.eclipse.ui,3.5.1.M20090902-1000,"org.eclipse.ui.edit.delete",1399431123945
deactivated,workbench,org.eclipse.ui.workbench,3.5.1.M20090826-0800a,"",1399431130857
error,log,,,"Failed to load properties file for project '6.Handler2'",1399431176098
error,log,,,"Failed to call IResourceEventListener.resourceChangeEventEnd",1399431176170
activated,workbench,org.eclipse.ui.workbench,3.5.1.M20090826-0800a,"",1399431176217
error,log,,,"Failed to call IResourceEventListener.resourceChangeEventEnd",1399431177747
error,log,,,"Failed to call IResourceEventListener.resourceChangeEventEnd",1399431177876
opened,editor,org.eclipse.jdt.ui,3.5.1.r351_v20090821-0800,"org.eclipse.jdt.ui.CompilationUnitEditor",1399431181432
activated,editor,org.eclipse.jdt.ui,3.5.1.r351_v20090821-0800,"org.eclipse.jdt.ui.CompilationUnitEditor",1399431181452
activated,view,org.eclipse.jdt.ui,3.5.1.r351_v20090821-0800,"org.eclipse.jdt.ui.PackageExplorer",1399431186412
opened,editor,com.android.ide.eclipse.adt,12.0.0.v201106281929-138431,"com.android.ide.eclipse.editors.layout.LayoutEditor",1399431188665
