what,kind,bundleId,bundleVersion,description,time
activated,workbench,org.eclipse.ui.workbench,3.5.1.M20090826-0800a,"",1400036564325
deactivated,workbench,org.eclipse.ui.workbench,3.5.1.M20090826-0800a,"",1400036565435
activated,workbench,org.eclipse.ui.workbench,3.5.1.M20090826-0800a,"",1400037544145
deactivated,workbench,org.eclipse.ui.workbench,3.5.1.M20090826-0800a,"",1400037546537
activated,workbench,org.eclipse.ui.workbench,3.5.1.M20090826-0800a,"",1400037546699
deactivated,workbench,org.eclipse.ui.workbench,3.5.1.M20090826-0800a,"",1400037702028
activated,workbench,org.eclipse.ui.workbench,3.5.1.M20090826-0800a,"",1400044194171
deactivated,workbench,org.eclipse.ui.workbench,3.5.1.M20090826-0800a,"",1400045210248
activated,workbench,org.eclipse.ui.workbench,3.5.1.M20090826-0800a,"",1400045260550
deactivated,workbench,org.eclipse.ui.workbench,3.5.1.M20090826-0800a,"",1400045279144
activated,workbench,org.eclipse.ui.workbench,3.5.1.M20090826-0800a,"",1400045318943
deactivated,workbench,org.eclipse.ui.workbench,3.5.1.M20090826-0800a,"",1400045416733
activated,workbench,org.eclipse.ui.workbench,3.5.1.M20090826-0800a,"",1400045453174
deactivated,workbench,org.eclipse.ui.workbench,3.5.1.M20090826-0800a,"",1400045471819
activated,workbench,org.eclipse.ui.workbench,3.5.1.M20090826-0800a,"",1400045486009
deactivated,workbench,org.eclipse.ui.workbench,3.5.1.M20090826-0800a,"",1400045494627
activated,workbench,org.eclipse.ui.workbench,3.5.1.M20090826-0800a,"",1400045514282
deactivated,workbench,org.eclipse.ui.workbench,3.5.1.M20090826-0800a,"",1400045700191
activated,workbench,org.eclipse.ui.workbench,3.5.1.M20090826-0800a,"",1400045710117
deactivated,workbench,org.eclipse.ui.workbench,3.5.1.M20090826-0800a,"",1400045722189
activated,workbench,org.eclipse.ui.workbench,3.5.1.M20090826-0800a,"",1400045723096
deactivated,workbench,org.eclipse.ui.workbench,3.5.1.M20090826-0800a,"",1400045723779
activated,workbench,org.eclipse.ui.workbench,3.5.1.M20090826-0800a,"",1400045744572
deactivated,workbench,org.eclipse.ui.workbench,3.5.1.M20090826-0800a,"",1400045745522
activated,workbench,org.eclipse.ui.workbench,3.5.1.M20090826-0800a,"",1400045749312
