what,kind,bundleId,bundleVersion,description,time
started,bundle,org.eclipse.cdt.core,5.1.2.201002161416,"org.eclipse.cdt.core",1386641870118
started,bundle,org.eclipse.cdt.debug.core,6.0.0.201002161416,"org.eclipse.cdt.debug.core",1386641870163
started,bundle,org.eclipse.cdt.debug.ui,6.0.0.201002161416,"org.eclipse.cdt.debug.ui",1386641870308
started,bundle,org.eclipse.wst.xsl.debug.ui,1.0.0.v200904240436,"org.eclipse.wst.xsl.debug.ui",1386641870464
started,bundle,org.eclipse.cdt.core.tests,5.1.2.201002161416,"org.eclipse.cdt.core.tests",1386641870692
activated,workbench,org.eclipse.ui.workbench,3.5.1.M20090826-0800a,"",1386641880299
deactivated,workbench,org.eclipse.ui.workbench,3.5.1.M20090826-0800a,"",1386641881540
activated,workbench,org.eclipse.ui.workbench,3.5.1.M20090826-0800a,"",1386641899468
deactivated,workbench,org.eclipse.ui.workbench,3.5.1.M20090826-0800a,"",1386641902027
activated,workbench,org.eclipse.ui.workbench,3.5.1.M20090826-0800a,"",1386641905299
activated,view,org.eclipse.jdt.ui,3.5.1.r351_v20090821-0800,"org.eclipse.jdt.ui.PackageExplorer",1386641911197
activated,editor,com.android.ide.eclipse.adt,12.0.0.v201106281929-138431,"com.android.ide.eclipse.editors.layout.LayoutEditor",1386641930872
deactivated,workbench,org.eclipse.ui.workbench,3.5.1.M20090826-0800a,"",1386641932752
activated,workbench,org.eclipse.ui.workbench,3.5.1.M20090826-0800a,"",1386641933790
deactivated,workbench,org.eclipse.ui.workbench,3.5.1.M20090826-0800a,"",1386641934720
activated,workbench,org.eclipse.ui.workbench,3.5.1.M20090826-0800a,"",1386641945306
activated,view,org.eclipse.jdt.ui,3.5.1.r351_v20090821-0800,"org.eclipse.jdt.ui.PackageExplorer",1386641947364
deactivated,workbench,org.eclipse.ui.workbench,3.5.1.M20090826-0800a,"",1386641950288
deactivated,workbench,org.eclipse.ui.workbench,3.5.1.M20090826-0800a,"",1386642237134
activated,workbench,org.eclipse.ui.workbench,3.5.1.M20090826-0800a,"",1386642241045
deactivated,workbench,org.eclipse.ui.workbench,3.5.1.M20090826-0800a,"",1386642247723
activated,workbench,org.eclipse.ui.workbench,3.5.1.M20090826-0800a,"",1386642249625
started,bundle,org.eclipse.jdt.junit,3.5.1.r351_v20090708-0800,"org.eclipse.jdt.junit",1386642258302
executed,command,,,"com.android.ide.eclipse.adt.debug.launching.LaunchShortcut.run",1386642259968
deactivated,workbench,org.eclipse.ui.workbench,3.5.1.M20090826-0800a,"",1386642263104
