what,kind,bundleId,bundleVersion,description,time
started,bundle,org.eclipse.cdt.core.tests,5.1.2.201002161416,"org.eclipse.cdt.core.tests",1398845617235
started,bundle,org.eclipse.cdt.debug.core,6.0.0.201002161416,"org.eclipse.cdt.debug.core",1398845617784
started,bundle,org.eclipse.cdt.debug.ui,6.0.0.201002161416,"org.eclipse.cdt.debug.ui",1398845617853
started,bundle,org.eclipse.jdt.debug,3.5.0.v20090526,"org.eclipse.jdt.debug",1398845619235
started,bundle,org.eclipse.jdt.debug.ui,3.4.1.v20090811_r351,"org.eclipse.jdt.debug.ui",1398845620065
deactivated,workbench,org.eclipse.ui.workbench,3.5.1.M20090826-0800a,"",1398845620233
activated,workbench,org.eclipse.ui.workbench,3.5.1.M20090826-0800a,"",1398845620276
deactivated,workbench,org.eclipse.ui.workbench,3.5.1.M20090826-0800a,"",1398845626956
activated,workbench,org.eclipse.ui.workbench,3.5.1.M20090826-0800a,"",1398845644890
executed,command,org.eclipse.jdt.ui,3.5.1.r351_v20090821-0800,"org.eclipse.jdt.ui.edit.text.java.override.methods",1398845645196
started,bundle,org.eclipse.mylyn.java.ui,3.2.2.v20090912-0400-e3x,"org.eclipse.mylyn.java.ui",1398845659664
started,bundle,org.eclipse.pde.api.tools,1.0.101.v20090714,"org.eclipse.pde.api.tools",1398845659915
started,bundle,org.eclipse.pde.api.tools.ui,1.0.101.v20090820,"org.eclipse.pde.api.tools.ui",1398845659935
started,bundle,org.eclipse.mylyn.java.tasks,3.2.2.v20090912-0400-e3x,"org.eclipse.mylyn.java.tasks",1398845691405
executed,command,org.eclipse.ui,3.5.1.M20090902-1000,"org.eclipse.ui.edit.copy",1398845691605
executed,command,org.eclipse.ui,3.5.1.M20090902-1000,"org.eclipse.ui.edit.paste",1398845692368
deactivated,workbench,org.eclipse.ui.workbench,3.5.1.M20090826-0800a,"",1398845705895
activated,workbench,org.eclipse.ui.workbench,3.5.1.M20090826-0800a,"",1398845720708
deactivated,workbench,org.eclipse.ui.workbench,3.5.1.M20090826-0800a,"",1398845721748
activated,workbench,org.eclipse.ui.workbench,3.5.1.M20090826-0800a,"",1398845761213
executed,command,org.eclipse.ui,3.5.1.M20090902-1000,"org.eclipse.ui.edit.copy",1398845768684
executed,command,org.eclipse.ui,3.5.1.M20090902-1000,"org.eclipse.ui.edit.paste",1398845772889
executed,command,org.eclipse.ui,3.5.1.M20090902-1000,"org.eclipse.ui.edit.copy",1398845775525
executed,command,org.eclipse.ui,3.5.1.M20090902-1000,"org.eclipse.ui.edit.paste",1398845776809
deactivated,workbench,org.eclipse.ui.workbench,3.5.1.M20090826-0800a,"",1398845784206
