what,kind,bundleId,bundleVersion,description,time
deactivated,workbench,org.eclipse.ui.workbench,3.5.1.M20090826-0800a,"",1368897504170
activated,workbench,org.eclipse.ui.workbench,3.5.1.M20090826-0800a,"",1368897505709
deactivated,workbench,org.eclipse.ui.workbench,3.5.1.M20090826-0800a,"",1368897505889
activated,workbench,org.eclipse.ui.workbench,3.5.1.M20090826-0800a,"",1368897505918
executed,command,org.eclipse.ui,3.5.1.M20090902-1000,"org.eclipse.ui.edit.copy",1368897516177
executed,command,org.eclipse.ui,3.5.1.M20090902-1000,"org.eclipse.ui.edit.paste",1368897518415
executed,command,org.eclipse.ui,3.5.1.M20090902-1000,"org.eclipse.ui.edit.copy",1368897523047
executed,command,org.eclipse.ui,3.5.1.M20090902-1000,"org.eclipse.ui.edit.paste",1368897526505
executed,command,org.eclipse.ui,3.5.1.M20090902-1000,"org.eclipse.ui.file.save",1368897544167
deactivated,workbench,org.eclipse.ui.workbench,3.5.1.M20090826-0800a,"",1368897545236
activated,workbench,org.eclipse.ui.workbench,3.5.1.M20090826-0800a,"",1368897591903
deactivated,workbench,org.eclipse.ui.workbench,3.5.1.M20090826-0800a,"",1368897592149
activated,workbench,org.eclipse.ui.workbench,3.5.1.M20090826-0800a,"",1368897668094
deactivated,workbench,org.eclipse.ui.workbench,3.5.1.M20090826-0800a,"",1368897670196
activated,workbench,org.eclipse.ui.workbench,3.5.1.M20090826-0800a,"",1368897671834
activated,view,org.eclipse.ui.console,3.4.0.v20090513,"org.eclipse.ui.console.ConsoleView",1368897674219
activated,view,org.eclipse.jdt.ui,3.5.1.r351_v20090821-0800,"org.eclipse.jdt.ui.PackageExplorer",1368897678176
started,bundle,org.eclipse.wst.ws.service.policy,1.0.103.v200905151848,"org.eclipse.wst.ws.service.policy",1368897678640
started,bundle,org.eclipse.wst.command.env,1.0.408.v200903110045,"org.eclipse.wst.command.env",1368897678802
started,bundle,org.eclipse.wst.ws,1.1.103.v200903111822,"org.eclipse.wst.ws",1368897678829
started,bundle,org.eclipse.cdt.core,5.1.2.201002161416,"org.eclipse.cdt.core",1368897681308
started,bundle,org.eclipse.cdt.debug.core,6.0.0.201002161416,"org.eclipse.cdt.debug.core",1368897681831
started,bundle,org.eclipse.cdt.debug.ui,6.0.0.201002161416,"org.eclipse.cdt.debug.ui",1368897681865
started,bundle,org.eclipse.cdt.core.tests,5.1.2.201002161416,"org.eclipse.cdt.core.tests",1368897682153
executed,command,,,"com.android.ide.eclipse.adt.debug.launching.LaunchShortcut.run",1368897685318
