what,kind,bundleId,bundleVersion,description,time
activated,workbench,org.eclipse.ui.workbench,3.5.1.M20090826-0800a,"",1405412749268
deactivated,workbench,org.eclipse.ui.workbench,3.5.1.M20090826-0800a,"",1405412763004
activated,workbench,org.eclipse.ui.workbench,3.5.1.M20090826-0800a,"",1405412789930
deactivated,workbench,org.eclipse.ui.workbench,3.5.1.M20090826-0800a,"",1405412797924
activated,workbench,org.eclipse.ui.workbench,3.5.1.M20090826-0800a,"",1405412800058
deactivated,workbench,org.eclipse.ui.workbench,3.5.1.M20090826-0800a,"",1405412821204
activated,workbench,org.eclipse.ui.workbench,3.5.1.M20090826-0800a,"",1405412821301
deactivated,workbench,org.eclipse.ui.workbench,3.5.1.M20090826-0800a,"",1405412839413
activated,workbench,org.eclipse.ui.workbench,3.5.1.M20090826-0800a,"",1405412844000
deactivated,workbench,org.eclipse.ui.workbench,3.5.1.M20090826-0800a,"",1405412854341
activated,workbench,org.eclipse.ui.workbench,3.5.1.M20090826-0800a,"",1405412856749
deactivated,workbench,org.eclipse.ui.workbench,3.5.1.M20090826-0800a,"",1405412857655
activated,workbench,org.eclipse.ui.workbench,3.5.1.M20090826-0800a,"",1405412858386
deactivated,workbench,org.eclipse.ui.workbench,3.5.1.M20090826-0800a,"",1405412858895
activated,workbench,org.eclipse.ui.workbench,3.5.1.M20090826-0800a,"",1405412864551
deactivated,workbench,org.eclipse.ui.workbench,3.5.1.M20090826-0800a,"",1405412869707
activated,workbench,org.eclipse.ui.workbench,3.5.1.M20090826-0800a,"",1405412869859
executed,command,org.eclipse.ui,3.5.1.M20090902-1000,"org.eclipse.ui.edit.text.contentAssist.proposals",1405412874279
deactivated,workbench,org.eclipse.ui.workbench,3.5.1.M20090826-0800a,"",1405412887293
activated,workbench,org.eclipse.ui.workbench,3.5.1.M20090826-0800a,"",1405412891788
deactivated,workbench,org.eclipse.ui.workbench,3.5.1.M20090826-0800a,"",1405412900310
activated,workbench,org.eclipse.ui.workbench,3.5.1.M20090826-0800a,"",1405412901000
deactivated,workbench,org.eclipse.ui.workbench,3.5.1.M20090826-0800a,"",1405412905605
activated,workbench,org.eclipse.ui.workbench,3.5.1.M20090826-0800a,"",1405412916482
executed,command,org.eclipse.ui,3.5.1.M20090902-1000,"org.eclipse.ui.file.save",1405413000087
