what,kind,bundleId,bundleVersion,description,time
started,bundle,org.eclipse.wst.dtd.ui,1.0.400.v200904300717,"org.eclipse.wst.dtd.ui",1407980549318
opened,editor,com.android.ide.eclipse.adt,12.0.0.v201106281929-138431,"com.android.ide.eclipse.editors.layout.LayoutEditor",1407980549520
started,bundle,org.eclipse.jdt.debug,3.5.0.v20090526,"org.eclipse.jdt.debug",1407980552346
started,bundle,org.eclipse.jem.workbench,2.0.201.v200908271530,"org.eclipse.jem.workbench",1407980552483
started,bundle,org.eclipse.jst.j2ee.ejb,1.1.300.v200904230730,"org.eclipse.jst.j2ee.ejb",1407980552677
started,bundle,org.eclipse.jst.common.frameworks,1.1.300.v200904132230,"org.eclipse.jst.common.frameworks",1407980552731
activated,editor,com.android.ide.eclipse.adt,12.0.0.v201106281929-138431,"com.android.ide.eclipse.editors.layout.LayoutEditor",1407980552767
started,bundle,org.eclipse.wst.dtd.core,1.1.300.v200904181727,"org.eclipse.wst.dtd.core",1407980553206
started,bundle,org.eclipse.wst.wsdl.validation,1.1.401.v200902271605,"org.eclipse.wst.wsdl.validation",1407980553370
started,bundle,org.eclipse.wst.wsi.ui,1.0.500.v200901141851,"org.eclipse.wst.wsi.ui",1407980553436
started,bundle,org.eclipse.wst.jsdt.core,1.0.201.v200908101420,"org.eclipse.wst.jsdt.core",1407980554770
started,bundle,org.eclipse.wst.jsdt.web.core,1.0.200.v200905120445,"org.eclipse.wst.jsdt.web.core",1407980554819
started,bundle,org.eclipse.jst.j2ee.jca,1.1.300.v200903120000,"org.eclipse.jst.j2ee.jca",1407980555033
started,bundle,org.eclipse.jst.jsf.ui,1.2.1.v20090827,"org.eclipse.jst.jsf.ui",1407980555236
started,bundle,org.eclipse.wst.html.ui,1.0.401.v200908111935,"org.eclipse.wst.html.ui",1407980555278
started,bundle,org.eclipse.jst.j2ee.web,1.1.301.v200908270924,"org.eclipse.jst.j2ee.web",1407980555503
started,bundle,org.eclipse.wst.xsd.core,1.1.401.v200903020335,"org.eclipse.wst.xsd.core",1407980555599
started,bundle,org.eclipse.wst.internet.cache,1.0.301.v200805140020,"org.eclipse.wst.internet.cache",1407980556326
started,bundle,org.eclipse.jdt.debug.ui,3.4.1.v20090811_r351,"org.eclipse.jdt.debug.ui",1407980557310
activated,editor,org.eclipse.jdt.ui,3.5.1.r351_v20090821-0800,"org.eclipse.jdt.ui.CompilationUnitEditor",1407980557722
activated,editor,com.android.ide.eclipse.adt,12.0.0.v201106281929-138431,"com.android.ide.eclipse.editors.layout.LayoutEditor",1407980559342
activated,view,org.eclipse.jdt.ui,3.5.1.r351_v20090821-0800,"org.eclipse.jdt.ui.PackageExplorer",1407980562440
opened,editor,com.android.ide.eclipse.adt,12.0.0.v201106281929-138431,"com.android.ide.eclipse.editors.layout.LayoutEditor",1407980562810
activated,editor,com.android.ide.eclipse.adt,12.0.0.v201106281929-138431,"com.android.ide.eclipse.editors.layout.LayoutEditor",1407980563273
started,bundle,org.eclipse.draw2d,3.5.1.v20090813-1341,"org.eclipse.draw2d",1407980568254
