what,kind,bundleId,bundleVersion,description,time
activated,workbench,org.eclipse.ui.workbench,3.5.1.M20090826-0800a,"",1404986214845
executed,command,org.eclipse.ui,3.5.1.M20090902-1000,"org.eclipse.ui.file.save",1404986239533
executed,command,org.eclipse.ui,3.5.1.M20090902-1000,"org.eclipse.ui.file.save",1404986259150
deactivated,workbench,org.eclipse.ui.workbench,3.5.1.M20090826-0800a,"",1404986268939
activated,workbench,org.eclipse.ui.workbench,3.5.1.M20090826-0800a,"",1404986269663
deactivated,workbench,org.eclipse.ui.workbench,3.5.1.M20090826-0800a,"",1404986271408
activated,workbench,org.eclipse.ui.workbench,3.5.1.M20090826-0800a,"",1404986297299
activated,editor,org.eclipse.jdt.ui,3.5.1.r351_v20090821-0800,"org.eclipse.jdt.ui.CompilationUnitEditor",1404986298839
executed,command,org.eclipse.ui,3.5.1.M20090902-1000,"org.eclipse.ui.edit.copy",1404986302764
executed,command,org.eclipse.ui,3.5.1.M20090902-1000,"org.eclipse.ui.file.save",1404986306682
deactivated,workbench,org.eclipse.ui.workbench,3.5.1.M20090826-0800a,"",1404986308825
activated,workbench,org.eclipse.ui.workbench,3.5.1.M20090826-0800a,"",1404986376546
activated,editor,org.eclipse.jdt.ui,3.5.1.r351_v20090821-0800,"org.eclipse.jdt.ui.CompilationUnitEditor",1404986378860
executed,command,org.eclipse.ui,3.5.1.M20090902-1000,"org.eclipse.ui.edit.copy",1404986384900
executed,command,org.eclipse.ui,3.5.1.M20090902-1000,"org.eclipse.ui.edit.copy",1404986393191
activated,editor,org.eclipse.jdt.ui,3.5.1.r351_v20090821-0800,"org.eclipse.jdt.ui.CompilationUnitEditor",1404986400838
activated,editor,org.eclipse.jdt.ui,3.5.1.r351_v20090821-0800,"org.eclipse.jdt.ui.CompilationUnitEditor",1404986405758
activated,editor,org.eclipse.jdt.ui,3.5.1.r351_v20090821-0800,"org.eclipse.jdt.ui.CompilationUnitEditor",1404986408279
activated,editor,org.eclipse.jdt.ui,3.5.1.r351_v20090821-0800,"org.eclipse.jdt.ui.CompilationUnitEditor",1404986409194
activated,editor,org.eclipse.jdt.ui,3.5.1.r351_v20090821-0800,"org.eclipse.jdt.ui.CompilationUnitEditor",1404986411529
activated,editor,org.eclipse.jdt.ui,3.5.1.r351_v20090821-0800,"org.eclipse.jdt.ui.CompilationUnitEditor",1404986418191
deactivated,workbench,org.eclipse.ui.workbench,3.5.1.M20090826-0800a,"",1404986447766
activated,workbench,org.eclipse.ui.workbench,3.5.1.M20090826-0800a,"",1404986448520
deactivated,workbench,org.eclipse.ui.workbench,3.5.1.M20090826-0800a,"",1404986449587
activated,workbench,org.eclipse.ui.workbench,3.5.1.M20090826-0800a,"",1404986475361
