what,kind,bundleId,bundleVersion,description,time
activated,workbench,org.eclipse.ui.workbench,3.5.1.M20090826-0800a,"",1397023437538
executed,command,org.eclipse.ui,3.5.1.M20090902-1000,"org.eclipse.ui.edit.paste",1397023440949
deactivated,workbench,org.eclipse.ui.workbench,3.5.1.M20090826-0800a,"",1397023445654
activated,workbench,org.eclipse.ui.workbench,3.5.1.M20090826-0800a,"",1397023477388
deactivated,workbench,org.eclipse.ui.workbench,3.5.1.M20090826-0800a,"",1397023623195
activated,workbench,org.eclipse.ui.workbench,3.5.1.M20090826-0800a,"",1397023625101
executed,command,org.eclipse.ui,3.5.1.M20090902-1000,"org.eclipse.ui.file.save",1397023737608
deactivated,workbench,org.eclipse.ui.workbench,3.5.1.M20090826-0800a,"",1397023791801
activated,workbench,org.eclipse.ui.workbench,3.5.1.M20090826-0800a,"",1397023792005
deactivated,workbench,org.eclipse.ui.workbench,3.5.1.M20090826-0800a,"",1397023792324
activated,workbench,org.eclipse.ui.workbench,3.5.1.M20090826-0800a,"",1397023794119
executed,command,org.eclipse.ui,3.5.1.M20090902-1000,"org.eclipse.ui.edit.text.contentAssist.proposals",1397023818427
deactivated,workbench,org.eclipse.ui.workbench,3.5.1.M20090826-0800a,"",1397023886048
activated,workbench,org.eclipse.ui.workbench,3.5.1.M20090826-0800a,"",1397023886213
executed,command,org.eclipse.ui,3.5.1.M20090902-1000,"org.eclipse.ui.edit.undo",1397023889338
executed,command,org.eclipse.ui,3.5.1.M20090902-1000,"org.eclipse.ui.edit.text.contentAssist.proposals",1397023957782
deactivated,workbench,org.eclipse.ui.workbench,3.5.1.M20090826-0800a,"",1397023975151
activated,workbench,org.eclipse.ui.workbench,3.5.1.M20090826-0800a,"",1397023975219
deactivated,workbench,org.eclipse.ui.workbench,3.5.1.M20090826-0800a,"",1397023975375
activated,workbench,org.eclipse.ui.workbench,3.5.1.M20090826-0800a,"",1397023979702
deactivated,workbench,org.eclipse.ui.workbench,3.5.1.M20090826-0800a,"",1397024018780
activated,workbench,org.eclipse.ui.workbench,3.5.1.M20090826-0800a,"",1397024023507
failed,command,org.eclipse.jdt.ui,3.5.1.r351_v20090821-0800,"org.eclipse.jdt.ui.edit.text.java.override.methods",1397024023516
executed,command,org.eclipse.ui,3.5.1.M20090902-1000,"org.eclipse.ui.edit.text.contentAssist.proposals",1397024037395
deactivated,workbench,org.eclipse.ui.workbench,3.5.1.M20090826-0800a,"",1397024141404
