what,kind,bundleId,bundleVersion,description,time
executed,command,org.eclipse.ui,3.5.1.M20090902-1000,"org.eclipse.ui.file.save",1414052876527
executed,command,org.eclipse.ui,3.5.1.M20090902-1000,"org.eclipse.ui.file.save",1414052884740
executed,command,org.eclipse.ui,3.5.1.M20090902-1000,"org.eclipse.ui.file.save",1414052888434
executed,command,org.eclipse.ui,3.5.1.M20090902-1000,"org.eclipse.ui.file.save",1414052907294
executed,command,org.eclipse.ui,3.5.1.M20090902-1000,"org.eclipse.ui.file.save",1414052932819
deactivated,workbench,org.eclipse.ui.workbench,3.5.1.M20090826-0800a,"",1414052936879
activated,workbench,org.eclipse.ui.workbench,3.5.1.M20090826-0800a,"",1414052947931
deactivated,workbench,org.eclipse.ui.workbench,3.5.1.M20090826-0800a,"",1414052949253
activated,workbench,org.eclipse.ui.workbench,3.5.1.M20090826-0800a,"",1414052951566
deactivated,workbench,org.eclipse.ui.workbench,3.5.1.M20090826-0800a,"",1414052953072
activated,workbench,org.eclipse.ui.workbench,3.5.1.M20090826-0800a,"",1414052958445
executed,command,org.eclipse.ui,3.5.1.M20090902-1000,"org.eclipse.ui.file.save",1414052976489
deactivated,workbench,org.eclipse.ui.workbench,3.5.1.M20090826-0800a,"",1414052979003
activated,workbench,org.eclipse.ui.workbench,3.5.1.M20090826-0800a,"",1414052979767
deactivated,workbench,org.eclipse.ui.workbench,3.5.1.M20090826-0800a,"",1414052980060
activated,workbench,org.eclipse.ui.workbench,3.5.1.M20090826-0800a,"",1414052981147
deactivated,workbench,org.eclipse.ui.workbench,3.5.1.M20090826-0800a,"",1414052981460
activated,workbench,org.eclipse.ui.workbench,3.5.1.M20090826-0800a,"",1414052994181
deactivated,workbench,org.eclipse.ui.workbench,3.5.1.M20090826-0800a,"",1414052996245
activated,workbench,org.eclipse.ui.workbench,3.5.1.M20090826-0800a,"",1414053015753
deactivated,workbench,org.eclipse.ui.workbench,3.5.1.M20090826-0800a,"",1414053022199
activated,workbench,org.eclipse.ui.workbench,3.5.1.M20090826-0800a,"",1414053047337
executed,command,org.eclipse.ui,3.5.1.M20090902-1000,"org.eclipse.ui.edit.text.contentAssist.proposals",1414053118505
deactivated,workbench,org.eclipse.ui.workbench,3.5.1.M20090826-0800a,"",1414053141614
activated,workbench,org.eclipse.ui.workbench,3.5.1.M20090826-0800a,"",1414053165782
