what,kind,bundleId,bundleVersion,description,time
java.runtime.version,sysinfo,,,"1.6.0_03-b05",1409293000592
java.specification.name,sysinfo,,,"Java Platform API Specification",1409293000592
java.specification.vendor,sysinfo,,,"Sun Microsystems Inc.",1409293000592
java.specification.version,sysinfo,,,"1.6",1409293000592
java.vendor,sysinfo,,,"Sun Microsystems Inc.",1409293000592
java.version,sysinfo,,,"1.6.0_03",1409293000592
java.vm.info,sysinfo,,,"mixed mode",1409293000592
java.vm.name,sysinfo,,,"Java HotSpot(TM) Client VM",1409293000592
java.vm.specification.name,sysinfo,,,"Java Virtual Machine Specification",1409293000592
java.vm.specification.vendor,sysinfo,,,"Sun Microsystems Inc.",1409293000592
java.vm.specification.version,sysinfo,,,"1.0",1409293000592
java.vm.vendor,sysinfo,,,"Sun Microsystems Inc.",1409293000592
java.vm.version,sysinfo,,,"1.6.0_03-b05",1409293000592
started,bundle,org.eclipse.mylyn.commons.net,3.2.0.v20090617-0100-e3x,"org.eclipse.mylyn.commons.net",1409293000821
started,bundle,org.eclipse.mylyn.commons.ui,3.2.2.v20090912-0400-e3x,"org.eclipse.mylyn.commons.ui",1409293002087
started,bundle,org.eclipse.mylyn.bugzilla.core,3.2.2.v20090912-0400-e3x,"org.eclipse.mylyn.bugzilla.core",1409293003402
started,bundle,org.eclipse.mylyn.bugzilla.ui,3.2.2.v20090912-0400-e3x,"org.eclipse.mylyn.bugzilla.ui",1409293004151
started,bundle,org.eclipse.ui.forms,3.4.1.v20090714_35x,"org.eclipse.ui.forms",1409293004844
started,bundle,org.eclipse.mylyn.context.core,3.2.2.v20090912-0400-e3x,"org.eclipse.mylyn.context.core",1409293005442
started,bundle,org.eclipse.mylyn.context.ui,3.2.2.v20090912-0400-e3x,"org.eclipse.mylyn.context.ui",1409293005593
started,bundle,org.eclipse.mylyn.tasks.ui,3.2.2.v20090912-0400-e3x,"org.eclipse.mylyn.tasks.ui",1409293006727
started,bundle,org.eclipse.mylyn.team.ui,3.2.2.v20090912-0400-e3x,"org.eclipse.mylyn.team.ui",1409293006735
started,bundle,org.eclipse.update.scheduler,3.2.200.v20081127,"org.eclipse.update.scheduler",1409293006871
started,bundle,org.eclipse.update.core,3.2.300.v20090525,"org.eclipse.update.core",1409293007175
started,bundle,org.eclipse.wst.ws.service.policy.ui,1.0.102.v200903070248,"org.eclipse.wst.ws.service.policy.ui",1409293007228
