what,kind,bundleId,bundleVersion,description,time
deactivated,workbench,org.eclipse.ui.workbench,3.5.1.M20090826-0800a,"",1378879532126
activated,workbench,org.eclipse.ui.workbench,3.5.1.M20090826-0800a,"",1378879533339
error,log,,,"缺少“MediaInterface”的项目描述文件（.project）。此文件包含有关项目的重要信息。项目将在复原此文件之后才能正常工作。",1378879533471
error,log,,,"打开选择的资源时发生了问题。",1378879533475
deactivated,workbench,org.eclipse.ui.workbench,3.5.1.M20090826-0800a,"",1378879534067
activated,workbench,org.eclipse.ui.workbench,3.5.1.M20090826-0800a,"",1378879549342
deactivated,workbench,org.eclipse.ui.workbench,3.5.1.M20090826-0800a,"",1378879557636
activated,workbench,org.eclipse.ui.workbench,3.5.1.M20090826-0800a,"",1378879558405
started,bundle,org.eclipse.jst.servlet.ui,1.1.301.v200908101600,"org.eclipse.jst.servlet.ui",1378879561666
deactivated,workbench,org.eclipse.ui.workbench,3.5.1.M20090826-0800a,"",1378879565780
activated,workbench,org.eclipse.ui.workbench,3.5.1.M20090826-0800a,"",1378879566504
error,log,,,"缺少“Media_Scan”的项目描述文件（.project）。此文件包含有关项目的重要信息。项目将在复原此文件之后才能正常工作。",1378879566579
error,log,,,"打开选择的资源时发生了问题。",1378879566590
deactivated,workbench,org.eclipse.ui.workbench,3.5.1.M20090826-0800a,"",1378879567053
activated,workbench,org.eclipse.ui.workbench,3.5.1.M20090826-0800a,"",1378879569920
deactivated,workbench,org.eclipse.ui.workbench,3.5.1.M20090826-0800a,"",1378879573874
executed,command,org.eclipse.ui,3.5.1.M20090902-1000,"org.eclipse.ui.edit.copy",1378879587274
activated,workbench,org.eclipse.ui.workbench,3.5.1.M20090826-0800a,"",1378879612709
executed,command,org.eclipse.ui,3.5.1.M20090902-1000,"org.eclipse.ui.file.properties",1378879612727
deactivated,workbench,org.eclipse.ui.workbench,3.5.1.M20090826-0800a,"",1378879616724
activated,workbench,org.eclipse.ui.workbench,3.5.1.M20090826-0800a,"",1378879624479
executed,command,org.eclipse.ltk.ui.refactoring,3.4.100.v20090604,"org.eclipse.ltk.ui.refactoring.commands.deleteResources",1378879624502
executed,command,org.eclipse.ui,3.5.1.M20090902-1000,"org.eclipse.ui.edit.delete",1378879624502
deactivated,workbench,org.eclipse.ui.workbench,3.5.1.M20090826-0800a,"",1378879627869
activated,workbench,org.eclipse.ui.workbench,3.5.1.M20090826-0800a,"",1378879635697
