what,kind,bundleId,bundleVersion,description,time
started,bundle,com.android.ide.eclipse.ddms,12.0.0.v201106281929-138431,"com.android.ide.eclipse.ddms",1392864696898
os,sysinfo,,,"win32",1392864696918
arch,sysinfo,,,"x86",1392864696918
ws,sysinfo,,,"win32",1392864696918
locale,sysinfo,,,"zh_CN",1392864696918
processors,sysinfo,,,"4",1392864696918
java.runtime.name,sysinfo,,,"Java(TM) SE Runtime Environment",1392864696918
java.runtime.version,sysinfo,,,"1.6.0_03-b05",1392864696918
java.specification.name,sysinfo,,,"Java Platform API Specification",1392864696918
java.specification.vendor,sysinfo,,,"Sun Microsystems Inc.",1392864696918
java.specification.version,sysinfo,,,"1.6",1392864696918
java.vendor,sysinfo,,,"Sun Microsystems Inc.",1392864696918
java.version,sysinfo,,,"1.6.0_03",1392864696918
java.vm.info,sysinfo,,,"mixed mode",1392864696918
java.vm.name,sysinfo,,,"Java HotSpot(TM) Client VM",1392864696918
java.vm.specification.name,sysinfo,,,"Java Virtual Machine Specification",1392864696918
java.vm.specification.vendor,sysinfo,,,"Sun Microsystems Inc.",1392864696918
java.vm.specification.version,sysinfo,,,"1.0",1392864696918
java.vm.vendor,sysinfo,,,"Sun Microsystems Inc.",1392864696918
java.vm.version,sysinfo,,,"1.6.0_03-b05",1392864696918
started,bundle,org.eclipse.mylyn.commons.net,3.2.0.v20090617-0100-e3x,"org.eclipse.mylyn.commons.net",1392864696988
started,bundle,org.eclipse.jst.common.project.facet.core,1.4.1.v200908111817,"org.eclipse.jst.common.project.facet.core",1392864697642
started,bundle,org.eclipse.mylyn.commons.ui,3.2.2.v20090912-0400-e3x,"org.eclipse.mylyn.commons.ui",1392864697680
started,bundle,org.eclipse.mylyn.bugzilla.core,3.2.2.v20090912-0400-e3x,"org.eclipse.mylyn.bugzilla.core",1392864698132
started,bundle,org.eclipse.mylyn.bugzilla.ui,3.2.2.v20090912-0400-e3x,"org.eclipse.mylyn.bugzilla.ui",1392864698943
