what,kind,bundleId,bundleVersion,description,time
executed,command,org.eclipse.ui,3.5.1.M20090902-1000,"org.eclipse.ui.file.save",1413532086858
activated,view,org.eclipse.jdt.ui,3.5.1.r351_v20090821-0800,"org.eclipse.jdt.ui.PackageExplorer",1413532089671
deactivated,workbench,org.eclipse.ui.workbench,3.5.1.M20090826-0800a,"",1413532094253
activated,workbench,org.eclipse.ui.workbench,3.5.1.M20090826-0800a,"",1413532109810
opened,editor,org.eclipse.jdt.ui,3.5.1.r351_v20090821-0800,"org.eclipse.jdt.ui.CompilationUnitEditor",1413532110248
activated,editor,org.eclipse.jdt.ui,3.5.1.r351_v20090821-0800,"org.eclipse.jdt.ui.CompilationUnitEditor",1413532110300
executed,command,org.eclipse.ui,3.5.1.M20090902-1000,"org.eclipse.ui.edit.text.contentAssist.proposals",1413532129557
executed,command,org.eclipse.ui,3.5.1.M20090902-1000,"org.eclipse.ui.edit.text.contentAssist.proposals",1413532149378
executed,command,org.eclipse.ui,3.5.1.M20090902-1000,"org.eclipse.ui.file.save",1413532161060
deactivated,workbench,org.eclipse.ui.workbench,3.5.1.M20090826-0800a,"",1413532162209
activated,workbench,org.eclipse.ui.workbench,3.5.1.M20090826-0800a,"",1413532176056
deactivated,workbench,org.eclipse.ui.workbench,3.5.1.M20090826-0800a,"",1413532176388
activated,workbench,org.eclipse.ui.workbench,3.5.1.M20090826-0800a,"",1413532177757
activated,editor,org.eclipse.jdt.ui,3.5.1.r351_v20090821-0800,"org.eclipse.jdt.ui.CompilationUnitEditor",1413532180640
executed,command,org.eclipse.ui,3.5.1.M20090902-1000,"org.eclipse.ui.file.save",1413532199588
executed,command,org.eclipse.ui,3.5.1.M20090902-1000,"org.eclipse.ui.file.save",1413532205805
activated,editor,org.eclipse.jdt.ui,3.5.1.r351_v20090821-0800,"org.eclipse.jdt.ui.CompilationUnitEditor",1413532207796
deactivated,workbench,org.eclipse.ui.workbench,3.5.1.M20090826-0800a,"",1413532209569
activated,workbench,org.eclipse.ui.workbench,3.5.1.M20090826-0800a,"",1413532211745
activated,editor,org.eclipse.jdt.ui,3.5.1.r351_v20090821-0800,"org.eclipse.jdt.ui.CompilationUnitEditor",1413532212963
executed,command,org.eclipse.ui,3.5.1.M20090902-1000,"org.eclipse.ui.file.save",1413532221887
activated,editor,org.eclipse.jdt.ui,3.5.1.r351_v20090821-0800,"org.eclipse.jdt.ui.CompilationUnitEditor",1413532222929
executed,command,org.eclipse.ui,3.5.1.M20090902-1000,"org.eclipse.ui.file.save",1413532230556
deactivated,workbench,org.eclipse.ui.workbench,3.5.1.M20090826-0800a,"",1413532232157
activated,workbench,org.eclipse.ui.workbench,3.5.1.M20090826-0800a,"",1413532233991
