what,kind,bundleId,bundleVersion,description,time
activated,editor,com.android.ide.eclipse.adt,12.0.0.v201106281929-138431,"com.android.ide.eclipse.editors.manifest.ManifestEditor",1398739184049
deactivated,workbench,org.eclipse.ui.workbench,3.5.1.M20090826-0800a,"",1398739190771
activated,workbench,org.eclipse.ui.workbench,3.5.1.M20090826-0800a,"",1398739194037
executed,command,org.eclipse.ui,3.5.1.M20090902-1000,"org.eclipse.ui.file.save",1398739213253
activated,view,org.eclipse.jdt.ui,3.5.1.r351_v20090821-0800,"org.eclipse.jdt.ui.PackageExplorer",1398739221714
executed,command,,,"com.android.ide.eclipse.adt.debug.launching.LaunchShortcut.run",1398739224367
deactivated,workbench,org.eclipse.ui.workbench,3.5.1.M20090826-0800a,"",1398739225204
activated,workbench,org.eclipse.ui.workbench,3.5.1.M20090826-0800a,"",1398739227013
activated,view,org.eclipse.ui.console,3.4.0.v20090513,"org.eclipse.ui.console.ConsoleView",1398739227173
deactivated,workbench,org.eclipse.ui.workbench,3.5.1.M20090826-0800a,"",1398739229771
activated,workbench,org.eclipse.ui.workbench,3.5.1.M20090826-0800a,"",1398739236409
activated,view,com.android.ide.eclipse.ddms,12.0.0.v201106281929-138431,"com.android.ide.eclipse.ddms.views.LogCatView",1398739236584
activated,perspective,com.android.ide.eclipse.ddms,12.0.0.v201106281929-138431,"com.android.ide.eclipse.ddms.Perspective",1398739242795
activated,view,com.android.ide.eclipse.ddms,12.0.0.v201106281929-138431,"com.android.ide.eclipse.ddms.views.EmulatorControlView",1398739244691
deactivated,workbench,org.eclipse.ui.workbench,3.5.1.M20090826-0800a,"",1398739255162
activated,workbench,org.eclipse.ui.workbench,3.5.1.M20090826-0800a,"",1398739255975
deactivated,workbench,org.eclipse.ui.workbench,3.5.1.M20090826-0800a,"",1398739256624
activated,workbench,org.eclipse.ui.workbench,3.5.1.M20090826-0800a,"",1398739898824
deactivated,workbench,org.eclipse.ui.workbench,3.5.1.M20090826-0800a,"",1398739900008
activated,workbench,org.eclipse.ui.workbench,3.5.1.M20090826-0800a,"",1398739909840
deactivated,workbench,org.eclipse.ui.workbench,3.5.1.M20090826-0800a,"",1398739910884
activated,workbench,org.eclipse.ui.workbench,3.5.1.M20090826-0800a,"",1398740704088
activated,perspective,org.eclipse.jdt.ui,3.5.1.r351_v20090821-0800,"org.eclipse.jdt.ui.JavaPerspective",1398740706093
activated,view,org.eclipse.jdt.ui,3.5.1.r351_v20090821-0800,"org.eclipse.jdt.ui.PackageExplorer",1398740706141
activated,editor,com.android.ide.eclipse.adt,12.0.0.v201106281929-138431,"com.android.ide.eclipse.editors.manifest.ManifestEditor",1398740707613
