what,kind,bundleId,bundleVersion,description,time
executed,command,org.eclipse.ui,3.5.1.M20090902-1000,"org.eclipse.ui.file.save",1406531864010
deactivated,workbench,org.eclipse.ui.workbench,3.5.1.M20090826-0800a,"",1406531868609
activated,workbench,org.eclipse.ui.workbench,3.5.1.M20090826-0800a,"",1406531869498
deactivated,workbench,org.eclipse.ui.workbench,3.5.1.M20090826-0800a,"",1406531870628
activated,workbench,org.eclipse.ui.workbench,3.5.1.M20090826-0800a,"",1406532130077
executed,command,org.eclipse.ui,3.5.1.M20090902-1000,"org.eclipse.ui.file.save",1406532144962
executed,command,org.eclipse.ui,3.5.1.M20090902-1000,"org.eclipse.ui.file.save",1406532195163
activated,view,org.eclipse.jdt.ui,3.5.1.r351_v20090821-0800,"org.eclipse.jdt.ui.PackageExplorer",1406532199954
executed,command,,,"com.android.ide.eclipse.adt.debug.launching.LaunchShortcut.run",1406532201870
activated,view,com.android.ide.eclipse.ddms,12.0.0.v201106281929-138431,"com.android.ide.eclipse.ddms.views.LogCatView",1406532203077
deactivated,workbench,org.eclipse.ui.workbench,3.5.1.M20090826-0800a,"",1406532211930
activated,workbench,org.eclipse.ui.workbench,3.5.1.M20090826-0800a,"",1406532215036
deactivated,workbench,org.eclipse.ui.workbench,3.5.1.M20090826-0800a,"",1406532219756
activated,workbench,org.eclipse.ui.workbench,3.5.1.M20090826-0800a,"",1406532221616
activated,editor,org.eclipse.jdt.ui,3.5.1.r351_v20090821-0800,"org.eclipse.jdt.ui.CompilationUnitEditor",1406532222452
executed,command,org.eclipse.ui,3.5.1.M20090902-1000,"org.eclipse.ui.edit.text.contentAssist.proposals",1406533311456
deactivated,workbench,org.eclipse.ui.workbench,3.5.1.M20090826-0800a,"",1406533328413
activated,workbench,org.eclipse.ui.workbench,3.5.1.M20090826-0800a,"",1406533331901
activated,editor,org.eclipse.jdt.ui,3.5.1.r351_v20090821-0800,"org.eclipse.jdt.ui.CompilationUnitEditor",1406533333238
activated,editor,org.eclipse.jdt.ui,3.5.1.r351_v20090821-0800,"org.eclipse.jdt.ui.CompilationUnitEditor",1406533378964
activated,editor,org.eclipse.jdt.ui,3.5.1.r351_v20090821-0800,"org.eclipse.jdt.ui.CompilationUnitEditor",1406533394825
activated,editor,org.eclipse.jdt.ui,3.5.1.r351_v20090821-0800,"org.eclipse.jdt.ui.CompilationUnitEditor",1406533398827
executed,command,org.eclipse.ui,3.5.1.M20090902-1000,"org.eclipse.ui.file.save",1406533440109
executed,command,org.eclipse.ui,3.5.1.M20090902-1000,"org.eclipse.ui.file.save",1406533451295
activated,editor,org.eclipse.jdt.ui,3.5.1.r351_v20090821-0800,"org.eclipse.jdt.ui.CompilationUnitEditor",1406533496836
