what,kind,bundleId,bundleVersion,description,time
activated,view,org.eclipse.ui.console,3.4.0.v20090513,"org.eclipse.ui.console.ConsoleView",1396586641201
deactivated,workbench,org.eclipse.ui.workbench,3.5.1.M20090826-0800a,"",1396586645097
activated,workbench,org.eclipse.ui.workbench,3.5.1.M20090826-0800a,"",1396586646421
opened,view,com.android.ide.eclipse.ddms,12.0.0.v201106281929-138431,"com.android.ide.eclipse.ddms.views.LogCatView",1396586651611
activated,view,com.android.ide.eclipse.ddms,12.0.0.v201106281929-138431,"com.android.ide.eclipse.ddms.views.LogCatView",1396586651635
opened,view,org.eclipse.ui.views.log,1.0.100.v20090731,"org.eclipse.pde.runtime.LogView",1396586653548
activated,view,org.eclipse.ui.views.log,1.0.100.v20090731,"org.eclipse.pde.runtime.LogView",1396586653574
deactivated,workbench,org.eclipse.ui.workbench,3.5.1.M20090826-0800a,"",1396586666382
activated,workbench,org.eclipse.ui.workbench,3.5.1.M20090826-0800a,"",1396586668239
deactivated,workbench,org.eclipse.ui.workbench,3.5.1.M20090826-0800a,"",1396586672847
activated,workbench,org.eclipse.ui.workbench,3.5.1.M20090826-0800a,"",1396586673832
activated,view,org.eclipse.ui.console,3.4.0.v20090513,"org.eclipse.ui.console.ConsoleView",1396586675528
deactivated,workbench,org.eclipse.ui.workbench,3.5.1.M20090826-0800a,"",1396586680689
activated,workbench,org.eclipse.ui.workbench,3.5.1.M20090826-0800a,"",1396586691816
deactivated,workbench,org.eclipse.ui.workbench,3.5.1.M20090826-0800a,"",1396586720622
activated,workbench,org.eclipse.ui.workbench,3.5.1.M20090826-0800a,"",1396586721758
deactivated,workbench,org.eclipse.ui.workbench,3.5.1.M20090826-0800a,"",1396586723790
activated,workbench,org.eclipse.ui.workbench,3.5.1.M20090826-0800a,"",1396586780209
deactivated,workbench,org.eclipse.ui.workbench,3.5.1.M20090826-0800a,"",1396586784472
activated,workbench,org.eclipse.ui.workbench,3.5.1.M20090826-0800a,"",1396586786071
deactivated,workbench,org.eclipse.ui.workbench,3.5.1.M20090826-0800a,"",1396586787625
activated,workbench,org.eclipse.ui.workbench,3.5.1.M20090826-0800a,"",1396586789057
activated,editor,org.eclipse.jdt.ui,3.5.1.r351_v20090821-0800,"org.eclipse.jdt.ui.CompilationUnitEditor",1396586789974
activated,editor,org.eclipse.jdt.ui,3.5.1.r351_v20090821-0800,"org.eclipse.jdt.ui.CompilationUnitEditor",1396586793415
deactivated,workbench,org.eclipse.ui.workbench,3.5.1.M20090826-0800a,"",1396586842652
