what,kind,bundleId,bundleVersion,description,time
activated,workbench,org.eclipse.ui.workbench,3.5.1.M20090826-0800a,"",1397009402682
deactivated,workbench,org.eclipse.ui.workbench,3.5.1.M20090826-0800a,"",1397009403036
activated,workbench,org.eclipse.ui.workbench,3.5.1.M20090826-0800a,"",1397009533030
deactivated,workbench,org.eclipse.ui.workbench,3.5.1.M20090826-0800a,"",1397009569620
activated,workbench,org.eclipse.ui.workbench,3.5.1.M20090826-0800a,"",1397009576720
deactivated,workbench,org.eclipse.ui.workbench,3.5.1.M20090826-0800a,"",1397009617251
activated,workbench,org.eclipse.ui.workbench,3.5.1.M20090826-0800a,"",1397009635194
activated,view,org.eclipse.jdt.ui,3.5.1.r351_v20090821-0800,"org.eclipse.jdt.ui.PackageExplorer",1397009636733
opened,editor,org.eclipse.jdt.ui,3.5.1.r351_v20090821-0800,"org.eclipse.jdt.ui.CompilationUnitEditor",1397009644267
activated,editor,org.eclipse.jdt.ui,3.5.1.r351_v20090821-0800,"org.eclipse.jdt.ui.CompilationUnitEditor",1397009644322
deactivated,workbench,org.eclipse.ui.workbench,3.5.1.M20090826-0800a,"",1397009678259
activated,workbench,org.eclipse.ui.workbench,3.5.1.M20090826-0800a,"",1397009739071
deactivated,workbench,org.eclipse.ui.workbench,3.5.1.M20090826-0800a,"",1397009741275
activated,workbench,org.eclipse.ui.workbench,3.5.1.M20090826-0800a,"",1397012434982
activated,view,org.eclipse.jdt.ui,3.5.1.r351_v20090821-0800,"org.eclipse.jdt.ui.PackageExplorer",1397012437124
activated,editor,org.eclipse.jdt.ui,3.5.1.r351_v20090821-0800,"org.eclipse.jdt.ui.CompilationUnitEditor",1397012440566
deactivated,workbench,org.eclipse.ui.workbench,3.5.1.M20090826-0800a,"",1397012443259
activated,workbench,org.eclipse.ui.workbench,3.5.1.M20090826-0800a,"",1397013329946
deactivated,workbench,org.eclipse.ui.workbench,3.5.1.M20090826-0800a,"",1397013679216
activated,workbench,org.eclipse.ui.workbench,3.5.1.M20090826-0800a,"",1397020502611
activated,view,com.android.ide.eclipse.ddms,12.0.0.v201106281929-138431,"com.android.ide.eclipse.ddms.views.LogCatView",1397021104955
activated,editor,org.eclipse.jdt.ui,3.5.1.r351_v20090821-0800,"org.eclipse.jdt.ui.CompilationUnitEditor",1397021117399
activated,view,org.eclipse.jdt.ui,3.5.1.r351_v20090821-0800,"org.eclipse.jdt.ui.PackageExplorer",1397021131236
activated,editor,org.eclipse.jdt.ui,3.5.1.r351_v20090821-0800,"org.eclipse.jdt.ui.CompilationUnitEditor",1397021137616
activated,editor,org.eclipse.jdt.ui,3.5.1.r351_v20090821-0800,"org.eclipse.jdt.ui.CompilationUnitEditor",1397021138206
