what,kind,bundleId,bundleVersion,description,time
activated,view,com.android.ide.eclipse.ddms,12.0.0.v201106281929-138431,"com.android.ide.eclipse.ddms.views.LogCatView",1396587081323
activated,editor,org.eclipse.jdt.ui,3.5.1.r351_v20090821-0800,"org.eclipse.jdt.ui.CompilationUnitEditor",1396587091816
activated,view,org.eclipse.debug.ui,3.5.1.v20090811_r351,"org.eclipse.debug.ui.VariableView",1396587093597
activated,editor,org.eclipse.jdt.ui,3.5.1.r351_v20090821-0800,"org.eclipse.jdt.ui.CompilationUnitEditor",1396587106057
activated,view,org.eclipse.ui.views,3.4.1.M20090826-0800,"org.eclipse.ui.views.ContentOutline",1396587108683
activated,editor,org.eclipse.jdt.ui,3.5.1.r351_v20090821-0800,"org.eclipse.jdt.ui.CompilationUnitEditor",1396587110712
activated,view,org.eclipse.debug.ui,3.5.1.v20090811_r351,"org.eclipse.debug.ui.VariableView",1396587113346
started,bundle,org.eclipse.wst.xsl.debug.ui,1.0.0.v200904240436,"org.eclipse.wst.xsl.debug.ui",1396587118060
activated,view,org.eclipse.debug.ui,3.5.1.v20090811_r351,"org.eclipse.debug.ui.DebugView",1396587122378
executed,command,org.eclipse.debug.ui,3.5.1.v20090811_r351,"org.eclipse.debug.ui.commands.StepOver",1396587122502
activated,view,org.eclipse.debug.ui,3.5.1.v20090811_r351,"org.eclipse.debug.ui.VariableView",1396587127060
activated,view,org.eclipse.debug.ui,3.5.1.v20090811_r351,"org.eclipse.debug.ui.DebugView",1396587127087
activated,view,org.eclipse.debug.ui,3.5.1.v20090811_r351,"org.eclipse.debug.ui.VariableView",1396587129310
activated,view,org.eclipse.debug.ui,3.5.1.v20090811_r351,"org.eclipse.debug.ui.DebugView",1396587201610
activated,editor,org.eclipse.jdt.ui,3.5.1.r351_v20090821-0800,"org.eclipse.jdt.ui.CompilationUnitEditor",1396587211757
activated,view,org.eclipse.debug.ui,3.5.1.v20090811_r351,"org.eclipse.debug.ui.VariableView",1396587213315
activated,view,org.eclipse.ui.console,3.4.0.v20090513,"org.eclipse.ui.console.ConsoleView",1396587247021
activated,view,com.android.ide.eclipse.ddms,12.0.0.v201106281929-138431,"com.android.ide.eclipse.ddms.views.LogCatView",1396587250317
activated,view,org.eclipse.ui.views,3.4.1.M20090826-0800,"org.eclipse.ui.views.ContentOutline",1396587253906
activated,view,org.eclipse.debug.ui,3.5.1.v20090811_r351,"org.eclipse.debug.ui.DebugView",1396587257622
activated,view,org.eclipse.ui.views,3.4.1.M20090826-0800,"org.eclipse.ui.views.ContentOutline",1396587262494
activated,view,org.eclipse.debug.ui,3.5.1.v20090811_r351,"org.eclipse.debug.ui.DebugView",1396587262517
activated,view,com.android.ide.eclipse.ddms,12.0.0.v201106281929-138431,"com.android.ide.eclipse.ddms.views.LogCatView",1396587265186
activated,view,org.eclipse.debug.ui,3.5.1.v20090811_r351,"org.eclipse.debug.ui.DebugView",1396587265206
activated,view,org.eclipse.ui.console,3.4.0.v20090513,"org.eclipse.ui.console.ConsoleView",1396587267134
