what,kind,bundleId,bundleVersion,description,time
deactivated,workbench,org.eclipse.ui.workbench,3.5.1.M20090826-0800a,"",1397032589827
activated,workbench,org.eclipse.ui.workbench,3.5.1.M20090826-0800a,"",1397032592163
deactivated,workbench,org.eclipse.ui.workbench,3.5.1.M20090826-0800a,"",1397032607239
activated,workbench,org.eclipse.ui.workbench,3.5.1.M20090826-0800a,"",1397032609068
deactivated,workbench,org.eclipse.ui.workbench,3.5.1.M20090826-0800a,"",1397032611464
activated,workbench,org.eclipse.ui.workbench,3.5.1.M20090826-0800a,"",1397032618870
deactivated,workbench,org.eclipse.ui.workbench,3.5.1.M20090826-0800a,"",1397032628201
activated,workbench,org.eclipse.ui.workbench,3.5.1.M20090826-0800a,"",1397032633738
executed,command,org.eclipse.ui,3.5.1.M20090902-1000,"org.eclipse.ui.file.save",1397032711391
activated,editor,org.eclipse.jdt.ui,3.5.1.r351_v20090821-0800,"org.eclipse.jdt.ui.CompilationUnitEditor",1397032719572
deactivated,workbench,org.eclipse.ui.workbench,3.5.1.M20090826-0800a,"",1397032722220
activated,workbench,org.eclipse.ui.workbench,3.5.1.M20090826-0800a,"",1397032734326
deactivated,workbench,org.eclipse.ui.workbench,3.5.1.M20090826-0800a,"",1397032752168
activated,workbench,org.eclipse.ui.workbench,3.5.1.M20090826-0800a,"",1397032761549
executed,command,org.eclipse.jdt.ui,3.5.1.r351_v20090821-0800,"org.eclipse.jdt.ui.edit.text.java.override.methods",1397032761605
deactivated,workbench,org.eclipse.ui.workbench,3.5.1.M20090826-0800a,"",1397032765541
activated,workbench,org.eclipse.ui.workbench,3.5.1.M20090826-0800a,"",1397032772363
deactivated,workbench,org.eclipse.ui.workbench,3.5.1.M20090826-0800a,"",1397032774139
activated,workbench,org.eclipse.ui.workbench,3.5.1.M20090826-0800a,"",1397032778866
deactivated,workbench,org.eclipse.ui.workbench,3.5.1.M20090826-0800a,"",1397032807972
activated,workbench,org.eclipse.ui.workbench,3.5.1.M20090826-0800a,"",1397032812164
executed,command,org.eclipse.ui,3.5.1.M20090902-1000,"org.eclipse.ui.file.save",1397032864013
deactivated,workbench,org.eclipse.ui.workbench,3.5.1.M20090826-0800a,"",1397032866216
activated,workbench,org.eclipse.ui.workbench,3.5.1.M20090826-0800a,"",1397032892388
activated,editor,org.eclipse.jdt.ui,3.5.1.r351_v20090821-0800,"org.eclipse.jdt.ui.CompilationUnitEditor",1397032893822
