what,kind,bundleId,bundleVersion,description,time
activated,workbench,org.eclipse.ui.workbench,3.5.1.M20090826-0800a,"",1400738800090
opened,view,org.eclipse.jdt.ui,3.5.1.r351_v20090821-0800,"org.eclipse.jdt.ui.JavadocView",1400738800300
activated,view,org.eclipse.jdt.ui,3.5.1.r351_v20090821-0800,"org.eclipse.jdt.ui.JavadocView",1400738800364
activated,editor,org.eclipse.jdt.ui,3.5.1.r351_v20090821-0800,"org.eclipse.jdt.ui.CompilationUnitEditor",1400738802298
deactivated,workbench,org.eclipse.ui.workbench,3.5.1.M20090826-0800a,"",1400738805224
executed,command,org.eclipse.ui.workbench.texteditor,3.5.0.v20090603,"org.eclipse.ui.edit.text.showInformation",1400738805238
activated,workbench,org.eclipse.ui.workbench,3.5.1.M20090826-0800a,"",1400738807498
executed,command,org.eclipse.ui,3.5.1.M20090902-1000,"org.eclipse.ui.file.save",1400738816136
executed,command,org.eclipse.ui,3.5.1.M20090902-1000,"org.eclipse.ui.edit.copy",1400738826374
executed,command,org.eclipse.ui,3.5.1.M20090902-1000,"org.eclipse.ui.edit.paste",1400738827688
deactivated,workbench,org.eclipse.ui.workbench,3.5.1.M20090826-0800a,"",1400738839360
activated,workbench,org.eclipse.ui.workbench,3.5.1.M20090826-0800a,"",1400738844832
deactivated,workbench,org.eclipse.ui.workbench,3.5.1.M20090826-0800a,"",1400738854439
activated,workbench,org.eclipse.ui.workbench,3.5.1.M20090826-0800a,"",1400738860179
deactivated,workbench,org.eclipse.ui.workbench,3.5.1.M20090826-0800a,"",1400738878527
activated,workbench,org.eclipse.ui.workbench,3.5.1.M20090826-0800a,"",1400738882950
executed,command,org.eclipse.ui,3.5.1.M20090902-1000,"org.eclipse.ui.edit.text.contentAssist.proposals",1400738891827
deactivated,workbench,org.eclipse.ui.workbench,3.5.1.M20090826-0800a,"",1400738896772
activated,workbench,org.eclipse.ui.workbench,3.5.1.M20090826-0800a,"",1400738898081
deactivated,workbench,org.eclipse.ui.workbench,3.5.1.M20090826-0800a,"",1400738928220
activated,workbench,org.eclipse.ui.workbench,3.5.1.M20090826-0800a,"",1400738930523
deactivated,workbench,org.eclipse.ui.workbench,3.5.1.M20090826-0800a,"",1400738932587
activated,workbench,org.eclipse.ui.workbench,3.5.1.M20090826-0800a,"",1400738956785
deactivated,workbench,org.eclipse.ui.workbench,3.5.1.M20090826-0800a,"",1400738965510
activated,workbench,org.eclipse.ui.workbench,3.5.1.M20090826-0800a,"",1400738968849
