what,kind,bundleId,bundleVersion,description,time
deactivated,workbench,org.eclipse.ui.workbench,3.5.1.M20090826-0800a,"",1392261099191
deactivated,workbench,org.eclipse.ui.workbench,3.5.1.M20090826-0800a,"",1392261112639
activated,workbench,org.eclipse.ui.workbench,3.5.1.M20090826-0800a,"",1392261116183
deactivated,workbench,org.eclipse.ui.workbench,3.5.1.M20090826-0800a,"",1392261204615
activated,workbench,org.eclipse.ui.workbench,3.5.1.M20090826-0800a,"",1392261214460
deactivated,workbench,org.eclipse.ui.workbench,3.5.1.M20090826-0800a,"",1392261407829
activated,workbench,org.eclipse.ui.workbench,3.5.1.M20090826-0800a,"",1392261450504
deactivated,workbench,org.eclipse.ui.workbench,3.5.1.M20090826-0800a,"",1392261671507
activated,workbench,org.eclipse.ui.workbench,3.5.1.M20090826-0800a,"",1392282342634
closed,workbench,org.eclipse.ui.workbench,3.5.1.M20090826-0800a,"",1392282349055
stopped,bundle,org.eclipse.jst.ws.axis.creation.ui,1.0.406.v200903031852,"org.eclipse.jst.ws.axis.creation.ui",1392282350350
stopped,bundle,org.eclipse.jst.ws.axis.consumption.ui,1.0.405.v200901261650,"org.eclipse.jst.ws.axis.consumption.ui",1392282350399
