what,kind,bundleId,bundleVersion,description,time
deactivated,workbench,org.eclipse.ui.workbench,3.5.1.M20090826-0800a,"",1368898209612
activated,workbench,org.eclipse.ui.workbench,3.5.1.M20090826-0800a,"",1368898236918
deactivated,workbench,org.eclipse.ui.workbench,3.5.1.M20090826-0800a,"",1368898237516
activated,workbench,org.eclipse.ui.workbench,3.5.1.M20090826-0800a,"",1368898262000
deactivated,workbench,org.eclipse.ui.workbench,3.5.1.M20090826-0800a,"",1368898263044
activated,workbench,org.eclipse.ui.workbench,3.5.1.M20090826-0800a,"",1368898264037
deactivated,workbench,org.eclipse.ui.workbench,3.5.1.M20090826-0800a,"",1368898264957
activated,workbench,org.eclipse.ui.workbench,3.5.1.M20090826-0800a,"",1368898267161
executed,command,org.eclipse.ui,3.5.1.M20090902-1000,"org.eclipse.ui.edit.copy",1368898280634
executed,command,org.eclipse.ui,3.5.1.M20090902-1000,"org.eclipse.ui.edit.paste",1368898282357
executed,command,org.eclipse.ui,3.5.1.M20090902-1000,"org.eclipse.ui.edit.paste",1368898286725
executed,command,org.eclipse.ui,3.5.1.M20090902-1000,"org.eclipse.ui.edit.paste",1368898287924
executed,command,org.eclipse.ui,3.5.1.M20090902-1000,"org.eclipse.ui.file.save",1368898290172
deactivated,workbench,org.eclipse.ui.workbench,3.5.1.M20090826-0800a,"",1368898294204
activated,workbench,org.eclipse.ui.workbench,3.5.1.M20090826-0800a,"",1368898297422
activated,view,com.android.ide.eclipse.ddms,12.0.0.v201106281929-138431,"com.android.ide.eclipse.ddms.views.LogCatView",1368898297448
deactivated,workbench,org.eclipse.ui.workbench,3.5.1.M20090826-0800a,"",1368898298644
activated,workbench,org.eclipse.ui.workbench,3.5.1.M20090826-0800a,"",1368898302199
activated,editor,org.eclipse.jdt.ui,3.5.1.r351_v20090821-0800,"org.eclipse.jdt.ui.CompilationUnitEditor",1368898306327
deactivated,workbench,org.eclipse.ui.workbench,3.5.1.M20090826-0800a,"",1368898313372
activated,workbench,org.eclipse.ui.workbench,3.5.1.M20090826-0800a,"",1368898315437
executed,command,org.eclipse.ui,3.5.1.M20090902-1000,"org.eclipse.ui.file.save",1368898375436
deactivated,workbench,org.eclipse.ui.workbench,3.5.1.M20090826-0800a,"",1368898376173
activated,workbench,org.eclipse.ui.workbench,3.5.1.M20090826-0800a,"",1368898485893
deactivated,workbench,org.eclipse.ui.workbench,3.5.1.M20090826-0800a,"",1368898497031
