what,kind,bundleId,bundleVersion,description,time
activated,workbench,org.eclipse.ui.workbench,3.5.1.M20090826-0800a,"",1407122240031
opened,editor,org.eclipse.jdt.ui,3.5.1.r351_v20090821-0800,"org.eclipse.jdt.ui.CompilationUnitEditor",1407122246164
activated,editor,org.eclipse.jdt.ui,3.5.1.r351_v20090821-0800,"org.eclipse.jdt.ui.CompilationUnitEditor",1407122246184
deactivated,workbench,org.eclipse.ui.workbench,3.5.1.M20090826-0800a,"",1407122273552
activated,workbench,org.eclipse.ui.workbench,3.5.1.M20090826-0800a,"",1407122285142
activated,view,org.eclipse.jdt.ui,3.5.1.r351_v20090821-0800,"org.eclipse.jdt.ui.PackageExplorer",1407122479214
deactivated,workbench,org.eclipse.ui.workbench,3.5.1.M20090826-0800a,"",1407122480272
activated,workbench,org.eclipse.ui.workbench,3.5.1.M20090826-0800a,"",1407122511724
activated,editor,org.eclipse.jdt.ui,3.5.1.r351_v20090821-0800,"org.eclipse.jdt.ui.CompilationUnitEditor",1407122513960
deactivated,workbench,org.eclipse.ui.workbench,3.5.1.M20090826-0800a,"",1407123282029
activated,workbench,org.eclipse.ui.workbench,3.5.1.M20090826-0800a,"",1407123290398
deactivated,workbench,org.eclipse.ui.workbench,3.5.1.M20090826-0800a,"",1407123292208
activated,workbench,org.eclipse.ui.workbench,3.5.1.M20090826-0800a,"",1407134626223
activated,view,org.eclipse.jdt.ui,3.5.1.r351_v20090821-0800,"org.eclipse.jdt.ui.PackageExplorer",1407134628839
activated,editor,org.eclipse.jdt.ui,3.5.1.r351_v20090821-0800,"org.eclipse.jdt.ui.CompilationUnitEditor",1407134631786
activated,view,org.eclipse.jdt.ui,3.5.1.r351_v20090821-0800,"org.eclipse.jdt.ui.PackageExplorer",1407134631845
closed,editor,org.eclipse.jdt.ui,3.5.1.r351_v20090821-0800,"org.eclipse.jdt.ui.CompilationUnitEditor",1407134631845
opened,editor,org.eclipse.jdt.ui,3.5.1.r351_v20090821-0800,"org.eclipse.jdt.ui.CompilationUnitEditor",1407134635743
activated,editor,org.eclipse.jdt.ui,3.5.1.r351_v20090821-0800,"org.eclipse.jdt.ui.CompilationUnitEditor",1407134635763
activated,view,org.eclipse.jdt.ui,3.5.1.r351_v20090821-0800,"org.eclipse.jdt.ui.PackageExplorer",1407134650714
activated,editor,org.eclipse.jdt.ui,3.5.1.r351_v20090821-0800,"org.eclipse.jdt.ui.CompilationUnitEditor",1407134693476
activated,view,org.eclipse.jdt.ui,3.5.1.r351_v20090821-0800,"org.eclipse.jdt.ui.PackageExplorer",1407134735735
started,bundle,org.eclipse.wst.sse.ui,1.1.101.v200908261807,"org.eclipse.wst.sse.ui",1407134737573
started,bundle,org.eclipse.wst.common.uriresolver,1.1.301.v200805140415,"org.eclipse.wst.common.uriresolver",1407134738477
started,bundle,org.eclipse.wst.xml.ui,1.1.1.v200908242115,"org.eclipse.wst.xml.ui",1407134738599
