what,kind,bundleId,bundleVersion,description,time
executed,command,org.eclipse.ui,3.5.1.M20090902-1000,"org.eclipse.ui.file.save",1413773888415
executed,command,org.eclipse.jdt.debug.ui,3.4.1.v20090811_r351,"org.eclipse.jdt.debug.ui.localJavaShortcut.run",1413773893092
started,bundle,org.eclipse.cdt.debug.mi.ui,6.0.0.201002161416,"org.eclipse.cdt.debug.mi.ui",1413773894207
started,bundle,org.eclipse.cdt.debug.mi.core,6.0.0.201002161416,"org.eclipse.cdt.debug.mi.core",1413773894364
deactivated,workbench,org.eclipse.ui.workbench,3.5.1.M20090826-0800a,"",1413773897618
activated,workbench,org.eclipse.ui.workbench,3.5.1.M20090826-0800a,"",1413773911030
activated,view,org.eclipse.ui.console,3.4.0.v20090513,"org.eclipse.ui.console.ConsoleView",1413773912684
activated,editor,org.eclipse.jdt.ui,3.5.1.r351_v20090821-0800,"org.eclipse.jdt.ui.CompilationUnitEditor",1413773919985
executed,command,org.eclipse.ui.workbench.texteditor,3.5.0.v20090603,"org.eclipse.ui.edit.text.goto.lineStart",1413773931590
executed,command,org.eclipse.ui,3.5.1.M20090902-1000,"org.eclipse.ui.edit.delete",1413773932629
executed,command,org.eclipse.ui,3.5.1.M20090902-1000,"org.eclipse.ui.edit.delete",1413773932813
executed,command,org.eclipse.ui,3.5.1.M20090902-1000,"org.eclipse.ui.edit.delete",1413773933157
executed,command,org.eclipse.ui,3.5.1.M20090902-1000,"org.eclipse.ui.edit.delete",1413773933372
deactivated,workbench,org.eclipse.ui.workbench,3.5.1.M20090826-0800a,"",1413773944545
activated,workbench,org.eclipse.ui.workbench,3.5.1.M20090826-0800a,"",1413773949372
deactivated,workbench,org.eclipse.ui.workbench,3.5.1.M20090826-0800a,"",1413773952276
activated,workbench,org.eclipse.ui.workbench,3.5.1.M20090826-0800a,"",1413773952459
executed,command,org.eclipse.ui,3.5.1.M20090902-1000,"org.eclipse.ui.file.save",1413773961514
executed,command,org.eclipse.ui,3.5.1.M20090902-1000,"org.eclipse.ui.file.save",1413773977251
deactivated,workbench,org.eclipse.ui.workbench,3.5.1.M20090826-0800a,"",1413773977766
activated,workbench,org.eclipse.ui.workbench,3.5.1.M20090826-0800a,"",1413773987703
executed,command,org.eclipse.jdt.debug.ui,3.4.1.v20090811_r351,"org.eclipse.jdt.debug.ui.localJavaShortcut.run",1413773990999
deactivated,workbench,org.eclipse.ui.workbench,3.5.1.M20090826-0800a,"",1413773991831
activated,workbench,org.eclipse.ui.workbench,3.5.1.M20090826-0800a,"",1413773995429
activated,view,org.eclipse.ui.console,3.4.0.v20090513,"org.eclipse.ui.console.ConsoleView",1413773996672
