what,kind,bundleId,bundleVersion,description,time
started,bundle,org.eclipse.wst.server.core,1.1.102.v20090825,"org.eclipse.wst.server.core",1396926507334
started,bundle,org.eclipse.wst.server.ui,1.1.103.v20090909,"org.eclipse.wst.server.ui",1396926507371
activated,view,org.eclipse.jdt.ui,3.5.1.r351_v20090821-0800,"org.eclipse.jdt.ui.PackageExplorer",1396926512370
started,bundle,org.eclipse.wst.ws.service.policy,1.0.103.v200905151848,"org.eclipse.wst.ws.service.policy",1396926512888
started,bundle,org.eclipse.wst.command.env,1.0.408.v200903110045,"org.eclipse.wst.command.env",1396926512951
started,bundle,org.eclipse.wst.ws,1.1.103.v200903111822,"org.eclipse.wst.ws",1396926512977
activated,editor,org.eclipse.jdt.ui,3.5.1.r351_v20090821-0800,"org.eclipse.jdt.ui.CompilationUnitEditor",1396926515475
activated,view,org.eclipse.jdt.ui,3.5.1.r351_v20090821-0800,"org.eclipse.jdt.ui.PackageExplorer",1396926518739
executed,command,,,"com.android.ide.eclipse.adt.debug.launching.LaunchShortcut.run",1396926520854
opened,view,org.eclipse.ui.console,3.4.0.v20090513,"org.eclipse.ui.console.ConsoleView",1396926521148
activated,editor,org.eclipse.jdt.ui,3.5.1.r351_v20090821-0800,"org.eclipse.jdt.ui.CompilationUnitEditor",1396926521178
deactivated,workbench,org.eclipse.ui.workbench,3.5.1.M20090826-0800a,"",1396926528725
activated,workbench,org.eclipse.ui.workbench,3.5.1.M20090826-0800a,"",1396926528803
activated,view,org.eclipse.ui.console,3.4.0.v20090513,"org.eclipse.ui.console.ConsoleView",1396926529686
deactivated,workbench,org.eclipse.ui.workbench,3.5.1.M20090826-0800a,"",1396926530009
started,bundle,org.eclipse.pde.core,3.5.100.v20090821,"org.eclipse.pde.core",1396926547929
activated,workbench,org.eclipse.ui.workbench,3.5.1.M20090826-0800a,"",1396926588036
activated,editor,org.eclipse.jdt.ui,3.5.1.r351_v20090821-0800,"org.eclipse.jdt.ui.CompilationUnitEditor",1396926588525
activated,view,org.eclipse.ui.console,3.4.0.v20090513,"org.eclipse.ui.console.ConsoleView",1396926592880
deactivated,workbench,org.eclipse.ui.workbench,3.5.1.M20090826-0800a,"",1396926599087
activated,workbench,org.eclipse.ui.workbench,3.5.1.M20090826-0800a,"",1396926601800
opened,view,com.android.ide.eclipse.ddms,12.0.0.v201106281929-138431,"com.android.ide.eclipse.ddms.views.LogCatView",1396926605014
activated,view,com.android.ide.eclipse.ddms,12.0.0.v201106281929-138431,"com.android.ide.eclipse.ddms.views.LogCatView",1396926605033
deactivated,workbench,org.eclipse.ui.workbench,3.5.1.M20090826-0800a,"",1396926611119
activated,workbench,org.eclipse.ui.workbench,3.5.1.M20090826-0800a,"",1396926611892
