what,kind,bundleId,bundleVersion,description,time
activated,editor,org.eclipse.jdt.ui,3.5.1.r351_v20090821-0800,"org.eclipse.jdt.ui.CompilationUnitEditor",1390358138960
executed,command,org.eclipse.ui,3.5.1.M20090902-1000,"org.eclipse.ui.file.save",1390358144257
deactivated,workbench,org.eclipse.ui.workbench,3.5.1.M20090826-0800a,"",1390358204725
activated,workbench,org.eclipse.ui.workbench,3.5.1.M20090826-0800a,"",1390358574104
deactivated,workbench,org.eclipse.ui.workbench,3.5.1.M20090826-0800a,"",1390358584572
activated,workbench,org.eclipse.ui.workbench,3.5.1.M20090826-0800a,"",1390358589345
executed,command,org.eclipse.ui,3.5.1.M20090902-1000,"org.eclipse.ui.file.save",1390358620328
activated,view,org.eclipse.jdt.ui,3.5.1.r351_v20090821-0800,"org.eclipse.jdt.ui.PackageExplorer",1390358622337
executed,command,org.eclipse.jdt.debug.ui,3.4.1.v20090811_r351,"org.eclipse.jdt.debug.ui.localJavaShortcut.run",1390358625903
activated,view,org.eclipse.ui.console,3.4.0.v20090513,"org.eclipse.ui.console.ConsoleView",1390358627073
activated,editor,org.eclipse.jdt.ui,3.5.1.r351_v20090821-0800,"org.eclipse.jdt.ui.CompilationUnitEditor",1390358627708
executed,command,org.eclipse.ui,3.5.1.M20090902-1000,"org.eclipse.ui.file.save",1390358642028
deactivated,workbench,org.eclipse.ui.workbench,3.5.1.M20090826-0800a,"",1390358649750
activated,workbench,org.eclipse.ui.workbench,3.5.1.M20090826-0800a,"",1390358662310
deactivated,workbench,org.eclipse.ui.workbench,3.5.1.M20090826-0800a,"",1390358670295
activated,workbench,org.eclipse.ui.workbench,3.5.1.M20090826-0800a,"",1390360159985
deactivated,workbench,org.eclipse.ui.workbench,3.5.1.M20090826-0800a,"",1390360161562
activated,workbench,org.eclipse.ui.workbench,3.5.1.M20090826-0800a,"",1390360164993
deactivated,workbench,org.eclipse.ui.workbench,3.5.1.M20090826-0800a,"",1390360165015
activated,workbench,org.eclipse.ui.workbench,3.5.1.M20090826-0800a,"",1390360168986
deactivated,workbench,org.eclipse.ui.workbench,3.5.1.M20090826-0800a,"",1390360170569
activated,workbench,org.eclipse.ui.workbench,3.5.1.M20090826-0800a,"",1390360219094
deactivated,workbench,org.eclipse.ui.workbench,3.5.1.M20090826-0800a,"",1390360220449
deactivated,workbench,org.eclipse.ui.workbench,3.5.1.M20090826-0800a,"",1390360306219
activated,workbench,org.eclipse.ui.workbench,3.5.1.M20090826-0800a,"",1390373225363
