what,kind,bundleId,bundleVersion,description,time
closed,editor,org.eclipse.ui.browser,3.2.300.v20090526,"org.eclipse.ui.browser.editor",1400123263781
executed,command,org.eclipse.ui,3.5.1.M20090902-1000,"org.eclipse.ui.file.save",1400123280114
opened,editor,org.eclipse.ui.browser,3.2.300.v20090526,"org.eclipse.ui.browser.editor",1400123281717
activated,editor,org.eclipse.ui.browser,3.2.300.v20090526,"org.eclipse.ui.browser.editor",1400123281775
activated,editor,org.eclipse.jdt.ui,3.5.1.r351_v20090821-0800,"org.eclipse.jdt.ui.CompilationUnitEditor",1400123283182
closed,editor,org.eclipse.ui.browser,3.2.300.v20090526,"org.eclipse.ui.browser.editor",1400123283182
executed,command,org.eclipse.ui,3.5.1.M20090902-1000,"org.eclipse.ui.file.save",1400123293875
opened,editor,org.eclipse.ui.browser,3.2.300.v20090526,"org.eclipse.ui.browser.editor",1400123295883
activated,editor,org.eclipse.ui.browser,3.2.300.v20090526,"org.eclipse.ui.browser.editor",1400123295924
activated,editor,org.eclipse.jdt.ui,3.5.1.r351_v20090821-0800,"org.eclipse.jdt.ui.CompilationUnitEditor",1400123296971
closed,editor,org.eclipse.ui.browser,3.2.300.v20090526,"org.eclipse.ui.browser.editor",1400123296971
deactivated,workbench,org.eclipse.ui.workbench,3.5.1.M20090826-0800a,"",1400123313070
activated,workbench,org.eclipse.ui.workbench,3.5.1.M20090826-0800a,"",1400123330063
activated,view,org.eclipse.jdt.ui,3.5.1.r351_v20090821-0800,"org.eclipse.jdt.ui.PackageExplorer",1400123385203
executed,command,,,"com.android.ide.eclipse.adt.debug.launching.LaunchShortcut.run",1400123388651
activated,view,com.android.ide.eclipse.ddms,12.0.0.v201106281929-138431,"com.android.ide.eclipse.ddms.views.LogCatView",1400123389834
deactivated,workbench,org.eclipse.ui.workbench,3.5.1.M20090826-0800a,"",1400123394315
activated,workbench,org.eclipse.ui.workbench,3.5.1.M20090826-0800a,"",1400123400401
activated,editor,org.eclipse.jdt.ui,3.5.1.r351_v20090821-0800,"org.eclipse.jdt.ui.CompilationUnitEditor",1400123400755
deactivated,workbench,org.eclipse.ui.workbench,3.5.1.M20090826-0800a,"",1400123409320
activated,workbench,org.eclipse.ui.workbench,3.5.1.M20090826-0800a,"",1400123439329
opened,editor,org.eclipse.ui.browser,3.2.300.v20090526,"org.eclipse.ui.browser.editor",1400123459774
activated,editor,org.eclipse.ui.browser,3.2.300.v20090526,"org.eclipse.ui.browser.editor",1400123459825
activated,editor,org.eclipse.jdt.ui,3.5.1.r351_v20090821-0800,"org.eclipse.jdt.ui.CompilationUnitEditor",1400123462443
closed,editor,org.eclipse.ui.browser,3.2.300.v20090526,"org.eclipse.ui.browser.editor",1400123462443
