what,kind,bundleId,bundleVersion,description,time
deactivated,workbench,org.eclipse.ui.workbench,3.5.1.M20090826-0800a,"",1398261418607
activated,workbench,org.eclipse.ui.workbench,3.5.1.M20090826-0800a,"",1398261432084
executed,command,org.eclipse.debug.ui,3.5.1.v20090811_r351,"org.eclipse.debug.ui.commands.StepOver",1398261432240
executed,command,org.eclipse.debug.ui,3.5.1.v20090811_r351,"org.eclipse.debug.ui.commands.StepOver",1398261435744
executed,command,org.eclipse.debug.ui,3.5.1.v20090811_r351,"org.eclipse.debug.ui.commands.StepOver",1398261442896
executed,command,org.eclipse.debug.ui,3.5.1.v20090811_r351,"org.eclipse.debug.ui.commands.StepOver",1398261445313
executed,command,org.eclipse.debug.ui,3.5.1.v20090811_r351,"org.eclipse.debug.ui.commands.StepOver",1398261450392
activated,editor,org.eclipse.jdt.ui,3.5.1.r351_v20090821-0800,"org.eclipse.jdt.ui.CompilationUnitEditor",1398261462138
activated,view,org.eclipse.debug.ui,3.5.1.v20090811_r351,"org.eclipse.debug.ui.DebugView",1398261490805
executed,command,org.eclipse.debug.ui,3.5.1.v20090811_r351,"org.eclipse.debug.ui.commands.StepOver",1398261490944
error,log,,,"Unable to create editor ID org.eclipse.jdt.ui.ClassFileEditor: Unmatched braces in the pattern.",1398261491358
opened,editor,org.eclipse.jdt.ui,3.5.1.r351_v20090821-0800,"org.eclipse.jdt.ui.ClassFileEditor",1398261491399
opened,editor,org.eclipse.jdt.ui,3.5.1.r351_v20090821-0800,"org.eclipse.jdt.ui.ClassFileEditor",1398261491402
activated,editor,org.eclipse.jdt.ui,3.5.1.r351_v20090821-0800,"org.eclipse.jdt.ui.ClassFileEditor",1398261493172
activated,editor,org.eclipse.jdt.ui,3.5.1.r351_v20090821-0800,"org.eclipse.jdt.ui.CompilationUnitEditor",1398261493244
closed,editor,org.eclipse.jdt.ui,3.5.1.r351_v20090821-0800,"org.eclipse.jdt.ui.ClassFileEditor",1398261493245
deactivated,workbench,org.eclipse.ui.workbench,3.5.1.M20090826-0800a,"",1398261493822
activated,workbench,org.eclipse.ui.workbench,3.5.1.M20090826-0800a,"",1398261498089
activated,view,org.eclipse.debug.ui,3.5.1.v20090811_r351,"org.eclipse.debug.ui.DebugView",1398261498113
executed,command,org.eclipse.debug.ui,3.5.1.v20090811_r351,"org.eclipse.debug.ui.commands.Resume",1398261499304
opened,editor,org.eclipse.debug.ui,3.5.1.v20090811_r351,"org.eclipse.debug.ui.sourcelookup.CommonSourceNotFoundEditor",1398261500060
deactivated,workbench,org.eclipse.ui.workbench,3.5.1.M20090826-0800a,"",1398261500460
activated,workbench,org.eclipse.ui.workbench,3.5.1.M20090826-0800a,"",1398261502117
executed,command,org.eclipse.debug.ui,3.5.1.v20090811_r351,"org.eclipse.debug.ui.commands.Resume",1398261503353
deactivated,workbench,org.eclipse.ui.workbench,3.5.1.M20090826-0800a,"",1398261505943
