what,kind,bundleId,bundleVersion,description,time
activated,workbench,org.eclipse.ui.workbench,3.5.1.M20090826-0800a,"",1408081533138
deactivated,workbench,org.eclipse.ui.workbench,3.5.1.M20090826-0800a,"",1408081533730
activated,workbench,org.eclipse.ui.workbench,3.5.1.M20090826-0800a,"",1408081535870
deactivated,workbench,org.eclipse.ui.workbench,3.5.1.M20090826-0800a,"",1408081538376
activated,workbench,org.eclipse.ui.workbench,3.5.1.M20090826-0800a,"",1408081540874
deactivated,workbench,org.eclipse.ui.workbench,3.5.1.M20090826-0800a,"",1408081541862
activated,workbench,org.eclipse.ui.workbench,3.5.1.M20090826-0800a,"",1408081546717
activated,editor,org.eclipse.jdt.ui,3.5.1.r351_v20090821-0800,"org.eclipse.jdt.ui.CompilationUnitEditor",1408081548205
executed,command,org.eclipse.ui,3.5.1.M20090902-1000,"org.eclipse.ui.file.save",1408081555502
activated,view,org.eclipse.jdt.ui,3.5.1.r351_v20090821-0800,"org.eclipse.jdt.ui.PackageExplorer",1408081557407
executed,command,,,"com.android.ide.eclipse.adt.debug.launching.LaunchShortcut.run",1408081559882
deactivated,workbench,org.eclipse.ui.workbench,3.5.1.M20090826-0800a,"",1408081562083
activated,workbench,org.eclipse.ui.workbench,3.5.1.M20090826-0800a,"",1408081566278
activated,view,com.android.ide.eclipse.ddms,12.0.0.v201106281929-138431,"com.android.ide.eclipse.ddms.views.LogCatView",1408081566420
deactivated,workbench,org.eclipse.ui.workbench,3.5.1.M20090826-0800a,"",1408081568626
activated,workbench,org.eclipse.ui.workbench,3.5.1.M20090826-0800a,"",1408081573166
activated,editor,org.eclipse.jdt.ui,3.5.1.r351_v20090821-0800,"org.eclipse.jdt.ui.CompilationUnitEditor",1408081587582
activated,editor,org.eclipse.jdt.ui,3.5.1.r351_v20090821-0800,"org.eclipse.jdt.ui.CompilationUnitEditor",1408081590586
activated,editor,org.eclipse.jdt.ui,3.5.1.r351_v20090821-0800,"org.eclipse.jdt.ui.CompilationUnitEditor",1408081607970
activated,editor,org.eclipse.jdt.ui,3.5.1.r351_v20090821-0800,"org.eclipse.jdt.ui.CompilationUnitEditor",1408081609594
executed,command,org.eclipse.ui,3.5.1.M20090902-1000,"org.eclipse.ui.file.save",1408081631828
activated,editor,org.eclipse.jdt.ui,3.5.1.r351_v20090821-0800,"org.eclipse.jdt.ui.CompilationUnitEditor",1408081652640
activated,editor,org.eclipse.jdt.ui,3.5.1.r351_v20090821-0800,"org.eclipse.jdt.ui.CompilationUnitEditor",1408081656316
activated,editor,org.eclipse.jdt.ui,3.5.1.r351_v20090821-0800,"org.eclipse.jdt.ui.CompilationUnitEditor",1408081664519
closed,editor,org.eclipse.jdt.ui,3.5.1.r351_v20090821-0800,"org.eclipse.jdt.ui.CompilationUnitEditor",1408081664519
