what,kind,bundleId,bundleVersion,description,time
activated,workbench,org.eclipse.ui.workbench,3.5.1.M20090826-0800a,"",1396581525310
deactivated,workbench,org.eclipse.ui.workbench,3.5.1.M20090826-0800a,"",1396581526052
activated,workbench,org.eclipse.ui.workbench,3.5.1.M20090826-0800a,"",1396581531239
deactivated,workbench,org.eclipse.ui.workbench,3.5.1.M20090826-0800a,"",1396581586406
activated,workbench,org.eclipse.ui.workbench,3.5.1.M20090826-0800a,"",1396581606257
deactivated,workbench,org.eclipse.ui.workbench,3.5.1.M20090826-0800a,"",1396581606293
activated,workbench,org.eclipse.ui.workbench,3.5.1.M20090826-0800a,"",1396581606403
deactivated,workbench,org.eclipse.ui.workbench,3.5.1.M20090826-0800a,"",1396581607539
activated,workbench,org.eclipse.ui.workbench,3.5.1.M20090826-0800a,"",1396581653568
deactivated,workbench,org.eclipse.ui.workbench,3.5.1.M20090826-0800a,"",1396581926755
activated,workbench,org.eclipse.ui.workbench,3.5.1.M20090826-0800a,"",1396586462386
deactivated,workbench,org.eclipse.ui.workbench,3.5.1.M20090826-0800a,"",1396586462407
activated,workbench,org.eclipse.ui.workbench,3.5.1.M20090826-0800a,"",1396586462586
activated,editor,org.eclipse.jdt.ui,3.5.1.r351_v20090821-0800,"org.eclipse.jdt.ui.CompilationUnitEditor",1396586524294
executed,command,org.eclipse.ui,3.5.1.M20090902-1000,"org.eclipse.ui.edit.copy",1396586530980
activated,editor,org.eclipse.jdt.ui,3.5.1.r351_v20090821-0800,"org.eclipse.jdt.ui.CompilationUnitEditor",1396586532291
executed,command,org.eclipse.ui,3.5.1.M20090902-1000,"org.eclipse.ui.edit.paste",1396586535350
activated,editor,org.eclipse.jdt.ui,3.5.1.r351_v20090821-0800,"org.eclipse.jdt.ui.CompilationUnitEditor",1396586537017
executed,command,org.eclipse.ui,3.5.1.M20090902-1000,"org.eclipse.ui.edit.copy",1396586542358
activated,editor,org.eclipse.jdt.ui,3.5.1.r351_v20090821-0800,"org.eclipse.jdt.ui.CompilationUnitEditor",1396586543435
executed,command,org.eclipse.ui,3.5.1.M20090902-1000,"org.eclipse.ui.edit.paste",1396586545645
executed,command,org.eclipse.ui,3.5.1.M20090902-1000,"org.eclipse.ui.file.save",1396586549373
executed,command,org.eclipse.ui,3.5.1.M20090902-1000,"org.eclipse.ui.edit.delete",1396586597846
executed,command,org.eclipse.ui,3.5.1.M20090902-1000,"org.eclipse.ui.edit.delete",1396586608726
executed,command,org.eclipse.ui,3.5.1.M20090902-1000,"org.eclipse.ui.file.save",1396586625332
