what,kind,bundleId,bundleVersion,description,time
started,bundle,com.android.ide.eclipse.traceview,12.0.0.v201106281929-138431,"com.android.ide.eclipse.traceview",1401092193316
os,sysinfo,,,"win32",1401092193323
arch,sysinfo,,,"x86",1401092193323
ws,sysinfo,,,"win32",1401092193323
locale,sysinfo,,,"zh_CN",1401092193323
processors,sysinfo,,,"4",1401092193323
java.runtime.name,sysinfo,,,"Java(TM) SE Runtime Environment",1401092193323
java.runtime.version,sysinfo,,,"1.6.0_03-b05",1401092193323
java.specification.name,sysinfo,,,"Java Platform API Specification",1401092193323
java.specification.vendor,sysinfo,,,"Sun Microsystems Inc.",1401092193323
java.specification.version,sysinfo,,,"1.6",1401092193323
java.vendor,sysinfo,,,"Sun Microsystems Inc.",1401092193323
java.version,sysinfo,,,"1.6.0_03",1401092193323
java.vm.info,sysinfo,,,"mixed mode",1401092193323
java.vm.name,sysinfo,,,"Java HotSpot(TM) Client VM",1401092193323
java.vm.specification.name,sysinfo,,,"Java Virtual Machine Specification",1401092193323
java.vm.specification.vendor,sysinfo,,,"Sun Microsystems Inc.",1401092193323
java.vm.specification.version,sysinfo,,,"1.0",1401092193323
java.vm.vendor,sysinfo,,,"Sun Microsystems Inc.",1401092193323
java.vm.version,sysinfo,,,"1.6.0_03-b05",1401092193323
started,bundle,org.eclipse.mylyn.commons.net,3.2.0.v20090617-0100-e3x,"org.eclipse.mylyn.commons.net",1401092194370
started,bundle,org.eclipse.jst.common.project.facet.core,1.4.1.v200908111817,"org.eclipse.jst.common.project.facet.core",1401092195136
started,bundle,org.eclipse.mylyn.commons.ui,3.2.2.v20090912-0400-e3x,"org.eclipse.mylyn.commons.ui",1401092196204
started,bundle,org.eclipse.mylyn.bugzilla.core,3.2.2.v20090912-0400-e3x,"org.eclipse.mylyn.bugzilla.core",1401092197543
started,bundle,org.eclipse.mylyn.bugzilla.ui,3.2.2.v20090912-0400-e3x,"org.eclipse.mylyn.bugzilla.ui",1401092198022
