what,kind,bundleId,bundleVersion,description,time
activated,workbench,org.eclipse.ui.workbench,3.5.1.M20090826-0800a,"",1399466419984
deactivated,workbench,org.eclipse.ui.workbench,3.5.1.M20090826-0800a,"",1399466430966
activated,workbench,org.eclipse.ui.workbench,3.5.1.M20090826-0800a,"",1399466432768
deactivated,workbench,org.eclipse.ui.workbench,3.5.1.M20090826-0800a,"",1399466446998
activated,workbench,org.eclipse.ui.workbench,3.5.1.M20090826-0800a,"",1399466447204
deactivated,workbench,org.eclipse.ui.workbench,3.5.1.M20090826-0800a,"",1399466461281
activated,workbench,org.eclipse.ui.workbench,3.5.1.M20090826-0800a,"",1399466461470
deactivated,workbench,org.eclipse.ui.workbench,3.5.1.M20090826-0800a,"",1399466474847
activated,workbench,org.eclipse.ui.workbench,3.5.1.M20090826-0800a,"",1399466475040
executed,command,org.eclipse.ui,3.5.1.M20090902-1000,"org.eclipse.ui.file.save",1399466482518
deactivated,workbench,org.eclipse.ui.workbench,3.5.1.M20090826-0800a,"",1399466484272
activated,workbench,org.eclipse.ui.workbench,3.5.1.M20090826-0800a,"",1399466488083
activated,view,org.eclipse.jdt.ui,3.5.1.r351_v20090821-0800,"org.eclipse.jdt.ui.PackageExplorer",1399466488248
started,bundle,org.eclipse.wst.ws.service.policy,1.0.103.v200905151848,"org.eclipse.wst.ws.service.policy",1399466488551
started,bundle,org.eclipse.wst.command.env,1.0.408.v200903110045,"org.eclipse.wst.command.env",1399466488714
started,bundle,org.eclipse.wst.ws,1.1.103.v200903111822,"org.eclipse.wst.ws",1399466488740
executed,command,,,"com.android.ide.eclipse.adt.debug.launching.LaunchShortcut.run",1399466493122
opened,view,org.eclipse.ui.console,3.4.0.v20090513,"org.eclipse.ui.console.ConsoleView",1399466493682
deactivated,workbench,org.eclipse.ui.workbench,3.5.1.M20090826-0800a,"",1399466495118
activated,workbench,org.eclipse.ui.workbench,3.5.1.M20090826-0800a,"",1399466519401
activated,editor,org.eclipse.jdt.ui,3.5.1.r351_v20090821-0800,"org.eclipse.jdt.ui.CompilationUnitEditor",1399466519913
opened,view,com.android.ide.eclipse.ddms,12.0.0.v201106281929-138431,"com.android.ide.eclipse.ddms.views.LogCatView",1399466544127
activated,view,com.android.ide.eclipse.ddms,12.0.0.v201106281929-138431,"com.android.ide.eclipse.ddms.views.LogCatView",1399466544188
activated,editor,org.eclipse.jdt.ui,3.5.1.r351_v20090821-0800,"org.eclipse.jdt.ui.CompilationUnitEditor",1399466549116
executed,command,org.eclipse.ui,3.5.1.M20090902-1000,"org.eclipse.ui.file.save",1399466559051
