what,kind,bundleId,bundleVersion,description,time
activated,editor,org.eclipse.jdt.ui,3.5.1.r351_v20090821-0800,"org.eclipse.jdt.ui.CompilationUnitEditor",1400482662809
closed,editor,com.android.ide.eclipse.adt,12.0.0.v201106281929-138431,"com.android.ide.eclipse.editors.manifest.ManifestEditor",1400482662809
deactivated,workbench,org.eclipse.ui.workbench,3.5.1.M20090826-0800a,"",1400482672141
activated,workbench,org.eclipse.ui.workbench,3.5.1.M20090826-0800a,"",1400482677632
deactivated,workbench,org.eclipse.ui.workbench,3.5.1.M20090826-0800a,"",1400482683360
activated,workbench,org.eclipse.ui.workbench,3.5.1.M20090826-0800a,"",1400482684199
deactivated,workbench,org.eclipse.ui.workbench,3.5.1.M20090826-0800a,"",1400482684821
activated,workbench,org.eclipse.ui.workbench,3.5.1.M20090826-0800a,"",1400482719794
activated,view,org.eclipse.jdt.ui,3.5.1.r351_v20090821-0800,"org.eclipse.jdt.ui.PackageExplorer",1400482725400
opened,editor,com.android.ide.eclipse.adt,12.0.0.v201106281929-138431,"com.android.ide.eclipse.editors.manifest.ManifestEditor",1400482726856
activated,editor,com.android.ide.eclipse.adt,12.0.0.v201106281929-138431,"com.android.ide.eclipse.editors.manifest.ManifestEditor",1400482726938
activated,editor,org.eclipse.jdt.ui,3.5.1.r351_v20090821-0800,"org.eclipse.jdt.ui.CompilationUnitEditor",1400482729758
deactivated,workbench,org.eclipse.ui.workbench,3.5.1.M20090826-0800a,"",1400482730964
activated,workbench,org.eclipse.ui.workbench,3.5.1.M20090826-0800a,"",1400482835478
deactivated,workbench,org.eclipse.ui.workbench,3.5.1.M20090826-0800a,"",1400482837841
activated,workbench,org.eclipse.ui.workbench,3.5.1.M20090826-0800a,"",1400482871165
deactivated,workbench,org.eclipse.ui.workbench,3.5.1.M20090826-0800a,"",1400482895746
activated,workbench,org.eclipse.ui.workbench,3.5.1.M20090826-0800a,"",1400489298107
deactivated,workbench,org.eclipse.ui.workbench,3.5.1.M20090826-0800a,"",1400489301998
activated,workbench,org.eclipse.ui.workbench,3.5.1.M20090826-0800a,"",1400489337797
deactivated,workbench,org.eclipse.ui.workbench,3.5.1.M20090826-0800a,"",1400489338478
activated,workbench,org.eclipse.ui.workbench,3.5.1.M20090826-0800a,"",1400489339292
deactivated,workbench,org.eclipse.ui.workbench,3.5.1.M20090826-0800a,"",1400489341374
deactivated,workbench,org.eclipse.ui.workbench,3.5.1.M20090826-0800a,"",1400489344941
deactivated,workbench,org.eclipse.ui.workbench,3.5.1.M20090826-0800a,"",1400489347652
