what,kind,bundleId,bundleVersion,description,time
started,bundle,org.eclipse.mylyn.team.ui,3.2.2.v20090912-0400-e3x,"org.eclipse.mylyn.team.ui",1409658245127
started,bundle,org.eclipse.wst.sse.core,1.1.401.v200909172215,"org.eclipse.wst.sse.core",1409658245144
started,bundle,com.android.ide.eclipse.adt,12.0.0.v201106281929-138431,"com.android.ide.eclipse.adt",1409658245144
started,bundle,org.eclipse.update.scheduler,3.2.200.v20081127,"org.eclipse.update.scheduler",1409658245304
started,bundle,org.eclipse.update.core,3.2.300.v20090525,"org.eclipse.update.core",1409658245505
started,bundle,org.eclipse.wst.ws.service.policy.ui,1.0.102.v200903070248,"org.eclipse.wst.ws.service.policy.ui",1409658245585
error,log,,,"Failed to load properties file for project 'FoodAndroidMobile'",1409658245632
started,bundle,org.eclipse.mylyn.monitor.ui,3.2.2.v20090912-0400-e3x,"org.eclipse.mylyn.monitor.ui",1409658245808
started,bundle,org.eclipse.ltk.core.refactoring,3.5.0.v20090513-2000,"org.eclipse.ltk.core.refactoring",1409658246605
started,bundle,org.eclipse.ltk.ui.refactoring,3.4.100.v20090604,"org.eclipse.ltk.ui.refactoring",1409658246851
opened,view,org.eclipse.ui.console,3.4.0.v20090513,"org.eclipse.ui.console.ConsoleView",1409658247404
error,log,,,"Failed to load properties file for project 'FoodAndroidMobile'",1409658250513
started,bundle,com.android.ide.eclipse.traceview,12.0.0.v201106281929-138431,"com.android.ide.eclipse.traceview",1409658250922
error,log,,,"Error validating C:\\Users\\acer\\.android\\devices.xml",1409658251220
started,bundle,org.eclipse.jdt.apt.core,3.3.201.R35x_v20090818-0235,"org.eclipse.jdt.apt.core",1409658253808
deactivated,workbench,org.eclipse.ui.workbench,3.5.1.M20090826-0800a,"",1409658349123
activated,workbench,org.eclipse.ui.workbench,3.5.1.M20090826-0800a,"",1409659414616
deactivated,workbench,org.eclipse.ui.workbench,3.5.1.M20090826-0800a,"",1409659419123
activated,workbench,org.eclipse.ui.workbench,3.5.1.M20090826-0800a,"",1409659783444
started,bundle,org.eclipse.compare,3.5.0.I20090514-0808,"org.eclipse.compare",1409659798399
deactivated,workbench,org.eclipse.ui.workbench,3.5.1.M20090826-0800a,"",1409659802394
activated,workbench,org.eclipse.ui.workbench,3.5.1.M20090826-0800a,"",1409659824953
deactivated,workbench,org.eclipse.ui.workbench,3.5.1.M20090826-0800a,"",1409659830198
activated,workbench,org.eclipse.ui.workbench,3.5.1.M20090826-0800a,"",1409659868568
deactivated,workbench,org.eclipse.ui.workbench,3.5.1.M20090826-0800a,"",1409659870615
