what,kind,bundleId,bundleVersion,description,time
started,bundle,org.eclipse.wst.jsdt.core,1.0.201.v200908101420,"org.eclipse.wst.jsdt.core",1398149813938
started,bundle,org.eclipse.wst.jsdt.web.core,1.0.200.v200905120445,"org.eclipse.wst.jsdt.web.core",1398149814143
started,bundle,org.eclipse.wst.internet.cache,1.0.301.v200805140020,"org.eclipse.wst.internet.cache",1398149814516
deactivated,workbench,org.eclipse.ui.workbench,3.5.1.M20090826-0800a,"",1398149821290
started,bundle,org.eclipse.draw2d,3.5.1.v20090813-1341,"org.eclipse.draw2d",1398149825155
activated,workbench,org.eclipse.ui.workbench,3.5.1.M20090826-0800a,"",1398149851667
activated,view,org.eclipse.jdt.ui,3.5.1.r351_v20090821-0800,"org.eclipse.jdt.ui.PackageExplorer",1398149851720
activated,editor,com.android.ide.eclipse.adt,12.0.0.v201106281929-138431,"com.android.ide.eclipse.editors.layout.LayoutEditor",1398149853563
executed,command,org.eclipse.ui,3.5.1.M20090902-1000,"org.eclipse.ui.file.save",1398149917902
activated,editor,org.eclipse.jdt.ui,3.5.1.r351_v20090821-0800,"org.eclipse.jdt.ui.CompilationUnitEditor",1398149921800
activated,editor,org.eclipse.jdt.ui,3.5.1.r351_v20090821-0800,"org.eclipse.jdt.ui.CompilationUnitEditor",1398149924844
activated,editor,org.eclipse.jdt.ui,3.5.1.r351_v20090821-0800,"org.eclipse.jdt.ui.CompilationUnitEditor",1398149926362
activated,editor,org.eclipse.jdt.ui,3.5.1.r351_v20090821-0800,"org.eclipse.jdt.ui.CompilationUnitEditor",1398149929621
executed,command,org.eclipse.ui,3.5.1.M20090902-1000,"org.eclipse.ui.file.save",1398149943799
executed,command,org.eclipse.ui,3.5.1.M20090902-1000,"org.eclipse.ui.edit.text.contentAssist.proposals",1398149963276
deactivated,workbench,org.eclipse.ui.workbench,3.5.1.M20090826-0800a,"",1398149999201
activated,workbench,org.eclipse.ui.workbench,3.5.1.M20090826-0800a,"",1398150001443
deactivated,workbench,org.eclipse.ui.workbench,3.5.1.M20090826-0800a,"",1398150234072
activated,workbench,org.eclipse.ui.workbench,3.5.1.M20090826-0800a,"",1398150290255
activated,editor,org.eclipse.jdt.ui,3.5.1.r351_v20090821-0800,"org.eclipse.jdt.ui.CompilationUnitEditor",1398150293750
error,log,,,"Unable to create editor ID org.eclipse.jdt.ui.ClassFileEditor: Unmatched braces in the pattern.",1398150298093
opened,editor,org.eclipse.jdt.ui,3.5.1.r351_v20090821-0800,"org.eclipse.jdt.ui.ClassFileEditor",1398150298123
opened,editor,org.eclipse.jdt.ui,3.5.1.r351_v20090821-0800,"org.eclipse.jdt.ui.ClassFileEditor",1398150298125
activated,editor,org.eclipse.jdt.ui,3.5.1.r351_v20090821-0800,"org.eclipse.jdt.ui.ClassFileEditor",1398150298144
executed,command,org.eclipse.jdt.ui,3.5.1.r351_v20090821-0800,"org.eclipse.jdt.ui.edit.text.java.open.editor",1398150298162
