what,kind,bundleId,bundleVersion,description,time
deactivated,workbench,org.eclipse.ui.workbench,3.5.1.M20090826-0800a,"",1409638529335
activated,workbench,org.eclipse.ui.workbench,3.5.1.M20090826-0800a,"",1409638529346
deactivated,workbench,org.eclipse.ui.workbench,3.5.1.M20090826-0800a,"",1409638537018
activated,workbench,org.eclipse.ui.workbench,3.5.1.M20090826-0800a,"",1409638539945
executed,command,org.eclipse.jdt.ui,3.5.1.r351_v20090821-0800,"org.eclipse.jdt.ui.edit.text.java.create.getter.setter",1409638540007
deactivated,workbench,org.eclipse.ui.workbench,3.5.1.M20090826-0800a,"",1409638548894
activated,workbench,org.eclipse.ui.workbench,3.5.1.M20090826-0800a,"",1409638550434
executed,command,org.eclipse.jdt.ui,3.5.1.r351_v20090821-0800,"org.eclipse.jdt.ui.edit.text.java.generate.constructor.using.fields",1409638550467
deactivated,workbench,org.eclipse.ui.workbench,3.5.1.M20090826-0800a,"",1409638559395
activated,workbench,org.eclipse.ui.workbench,3.5.1.M20090826-0800a,"",1409638562607
executed,command,org.eclipse.jdt.ui,3.5.1.r351_v20090821-0800,"org.eclipse.jdt.ui.edit.text.java.generate.tostring",1409638562650
executed,command,org.eclipse.ui,3.5.1.M20090902-1000,"org.eclipse.ui.edit.copy",1409638570306
executed,command,org.eclipse.ui,3.5.1.M20090902-1000,"org.eclipse.ui.file.save",1409638573745
executed,command,org.eclipse.ui,3.5.1.M20090902-1000,"org.eclipse.ui.edit.copy",1409638582322
executed,command,org.eclipse.ui,3.5.1.M20090902-1000,"org.eclipse.ui.edit.copy",1409638583865
executed,command,org.eclipse.ui,3.5.1.M20090902-1000,"org.eclipse.ui.file.save",1409638635981
deactivated,workbench,org.eclipse.ui.workbench,3.5.1.M20090826-0800a,"",1409638688039
activated,workbench,org.eclipse.ui.workbench,3.5.1.M20090826-0800a,"",1409638688256
executed,command,org.eclipse.ui,3.5.1.M20090902-1000,"org.eclipse.ui.file.save",1409638693394
activated,view,org.eclipse.jdt.ui,3.5.1.r351_v20090821-0800,"org.eclipse.jdt.ui.PackageExplorer",1409638695006
deactivated,workbench,org.eclipse.ui.workbench,3.5.1.M20090826-0800a,"",1409638702464
activated,workbench,org.eclipse.ui.workbench,3.5.1.M20090826-0800a,"",1409638708178
opened,editor,org.eclipse.jdt.ui,3.5.1.r351_v20090821-0800,"org.eclipse.jdt.ui.CompilationUnitEditor",1409638708623
activated,editor,org.eclipse.jdt.ui,3.5.1.r351_v20090821-0800,"org.eclipse.jdt.ui.CompilationUnitEditor",1409638708665
deactivated,workbench,org.eclipse.ui.workbench,3.5.1.M20090826-0800a,"",1409638719488
