what,kind,bundleId,bundleVersion,description,time
started,bundle,org.eclipse.compare,3.5.0.I20090514-0808,"org.eclipse.compare",1404911504353
deactivated,workbench,org.eclipse.ui.workbench,3.5.1.M20090826-0800a,"",1404911509997
activated,workbench,org.eclipse.ui.workbench,3.5.1.M20090826-0800a,"",1404911511126
executed,command,org.eclipse.ui.ide,3.5.1.M20090826-0800,"org.eclipse.ui.project.openProject",1404911511161
started,bundle,org.eclipse.compare.core,3.5.0.I20090430-0408,"org.eclipse.compare.core",1404911521438
opened,editor,org.eclipse.jdt.ui,3.5.1.r351_v20090821-0800,"org.eclipse.jdt.ui.CompilationUnitEditor",1404911521865
activated,editor,org.eclipse.jdt.ui,3.5.1.r351_v20090821-0800,"org.eclipse.jdt.ui.CompilationUnitEditor",1404911521981
started,bundle,org.eclipse.core.variables,3.2.200.v20090521,"org.eclipse.core.variables",1404911522345
activated,view,org.eclipse.jdt.ui,3.5.1.r351_v20090821-0800,"org.eclipse.jdt.ui.PackageExplorer",1404911551902
opened,editor,org.eclipse.jdt.ui,3.5.1.r351_v20090821-0800,"org.eclipse.jdt.ui.CompilationUnitEditor",1404911553266
activated,editor,org.eclipse.jdt.ui,3.5.1.r351_v20090821-0800,"org.eclipse.jdt.ui.CompilationUnitEditor",1404911553448
activated,editor,org.eclipse.jdt.ui,3.5.1.r351_v20090821-0800,"org.eclipse.jdt.ui.CompilationUnitEditor",1404911559799
closed,editor,org.eclipse.jdt.ui,3.5.1.r351_v20090821-0800,"org.eclipse.jdt.ui.CompilationUnitEditor",1404911559824
activated,view,org.eclipse.jdt.ui,3.5.1.r351_v20090821-0800,"org.eclipse.jdt.ui.PackageExplorer",1404911564501
deactivated,workbench,org.eclipse.ui.workbench,3.5.1.M20090826-0800a,"",1404911570368
activated,workbench,org.eclipse.ui.workbench,3.5.1.M20090826-0800a,"",1404911571582
executed,command,org.eclipse.ui.ide,3.5.1.M20090826-0800,"org.eclipse.ui.project.openProject",1404911571590
activated,editor,org.eclipse.jdt.ui,3.5.1.r351_v20090821-0800,"org.eclipse.jdt.ui.CompilationUnitEditor",1404911573762
activated,view,org.eclipse.jdt.ui,3.5.1.r351_v20090821-0800,"org.eclipse.jdt.ui.PackageExplorer",1404911573836
closed,editor,org.eclipse.jdt.ui,3.5.1.r351_v20090821-0800,"org.eclipse.jdt.ui.CompilationUnitEditor",1404911573837
opened,editor,org.eclipse.jdt.ui,3.5.1.r351_v20090821-0800,"org.eclipse.jdt.ui.CompilationUnitEditor",1404911579749
activated,editor,org.eclipse.jdt.ui,3.5.1.r351_v20090821-0800,"org.eclipse.jdt.ui.CompilationUnitEditor",1404911579785
deactivated,workbench,org.eclipse.ui.workbench,3.5.1.M20090826-0800a,"",1404911625686
activated,workbench,org.eclipse.ui.workbench,3.5.1.M20090826-0800a,"",1404911628789
deactivated,workbench,org.eclipse.ui.workbench,3.5.1.M20090826-0800a,"",1404911643387
