what,kind,bundleId,bundleVersion,description,time
started,bundle,org.eclipse.jst.j2ee.web,1.1.301.v200908270924,"org.eclipse.jst.j2ee.web",1368945975754
started,bundle,org.eclipse.wst.wsdl.validation,1.1.401.v200902271605,"org.eclipse.wst.wsdl.validation",1368945975865
started,bundle,org.eclipse.jst.j2ee.ejb,1.1.300.v200904230730,"org.eclipse.jst.j2ee.ejb",1368945975942
started,bundle,org.eclipse.jst.common.frameworks,1.1.300.v200904132230,"org.eclipse.jst.common.frameworks",1368945975984
started,bundle,org.eclipse.jst.jsf.ui,1.2.1.v20090827,"org.eclipse.jst.jsf.ui",1368945976032
started,bundle,org.eclipse.wst.wsi.ui,1.0.500.v200901141851,"org.eclipse.wst.wsi.ui",1368945976181
started,bundle,org.eclipse.wst.html.ui,1.0.401.v200908111935,"org.eclipse.wst.html.ui",1368945976189
started,bundle,org.eclipse.wst.dtd.core,1.1.300.v200904181727,"org.eclipse.wst.dtd.core",1368945976250
started,bundle,org.eclipse.wst.internet.cache,1.0.301.v200805140020,"org.eclipse.wst.internet.cache",1368945976414
activated,editor,org.eclipse.jdt.ui,3.5.1.r351_v20090821-0800,"org.eclipse.jdt.ui.CompilationUnitEditor",1368945986910
activated,editor,com.android.ide.eclipse.adt,12.0.0.v201106281929-138431,"com.android.ide.eclipse.editors.manifest.ManifestEditor",1368945987988
activated,editor,org.eclipse.jdt.ui,3.5.1.r351_v20090821-0800,"org.eclipse.jdt.ui.CompilationUnitEditor",1368945989047
executed,command,org.eclipse.ui,3.5.1.M20090902-1000,"org.eclipse.ui.file.save",1368946011506
deactivated,workbench,org.eclipse.ui.workbench,3.5.1.M20090826-0800a,"",1368946013396
activated,workbench,org.eclipse.ui.workbench,3.5.1.M20090826-0800a,"",1368948784496
deactivated,workbench,org.eclipse.ui.workbench,3.5.1.M20090826-0800a,"",1368948785179
activated,workbench,org.eclipse.ui.workbench,3.5.1.M20090826-0800a,"",1368948800451
deactivated,workbench,org.eclipse.ui.workbench,3.5.1.M20090826-0800a,"",1368948801582
activated,workbench,org.eclipse.ui.workbench,3.5.1.M20090826-0800a,"",1368950681726
deactivated,workbench,org.eclipse.ui.workbench,3.5.1.M20090826-0800a,"",1368950682171
activated,workbench,org.eclipse.ui.workbench,3.5.1.M20090826-0800a,"",1368951541839
deactivated,workbench,org.eclipse.ui.workbench,3.5.1.M20090826-0800a,"",1368951544115
activated,workbench,org.eclipse.ui.workbench,3.5.1.M20090826-0800a,"",1368951579297
deactivated,workbench,org.eclipse.ui.workbench,3.5.1.M20090826-0800a,"",1368951585548
activated,workbench,org.eclipse.ui.workbench,3.5.1.M20090826-0800a,"",1368951589329
