what,kind,bundleId,bundleVersion,description,time
activated,editor,org.eclipse.jdt.ui,3.5.1.r351_v20090821-0800,"org.eclipse.jdt.ui.CompilationUnitEditor",1398222329109
activated,editor,org.eclipse.jdt.ui,3.5.1.r351_v20090821-0800,"org.eclipse.jdt.ui.CompilationUnitEditor",1398222332068
activated,editor,org.eclipse.jdt.ui,3.5.1.r351_v20090821-0800,"org.eclipse.jdt.ui.CompilationUnitEditor",1398222333337
started,bundle,org.eclipse.wst.server.core,1.1.102.v20090825,"org.eclipse.wst.server.core",1398222335048
started,bundle,org.eclipse.wst.server.ui,1.1.103.v20090909,"org.eclipse.wst.server.ui",1398222335094
started,bundle,org.eclipse.cdt.core,5.1.2.201002161416,"org.eclipse.cdt.core",1398222335552
started,bundle,org.eclipse.cdt.debug.core,6.0.0.201002161416,"org.eclipse.cdt.debug.core",1398222335585
started,bundle,org.eclipse.cdt.debug.ui,6.0.0.201002161416,"org.eclipse.cdt.debug.ui",1398222335774
started,bundle,org.eclipse.cdt.core.tests,5.1.2.201002161416,"org.eclipse.cdt.core.tests",1398222335835
activated,view,org.eclipse.jdt.ui,3.5.1.r351_v20090821-0800,"org.eclipse.jdt.ui.PackageExplorer",1398222338435
started,bundle,org.eclipse.wst.ws.service.policy,1.0.103.v200905151848,"org.eclipse.wst.ws.service.policy",1398222338766
started,bundle,org.eclipse.wst.command.env,1.0.408.v200903110045,"org.eclipse.wst.command.env",1398222338830
started,bundle,org.eclipse.wst.ws,1.1.103.v200903111822,"org.eclipse.wst.ws",1398222338855
executed,command,,,"com.android.ide.eclipse.adt.debug.launching.LaunchShortcut.run",1398222343202
deactivated,workbench,org.eclipse.ui.workbench,3.5.1.M20090826-0800a,"",1398222343972
activated,workbench,org.eclipse.ui.workbench,3.5.1.M20090826-0800a,"",1398222353168
deactivated,workbench,org.eclipse.ui.workbench,3.5.1.M20090826-0800a,"",1398222354620
activated,workbench,org.eclipse.ui.workbench,3.5.1.M20090826-0800a,"",1398222378371
deactivated,workbench,org.eclipse.ui.workbench,3.5.1.M20090826-0800a,"",1398222379050
activated,workbench,org.eclipse.ui.workbench,3.5.1.M20090826-0800a,"",1398222459793
activated,editor,org.eclipse.jdt.ui,3.5.1.r351_v20090821-0800,"org.eclipse.jdt.ui.CompilationUnitEditor",1398222459987
deactivated,workbench,org.eclipse.ui.workbench,3.5.1.M20090826-0800a,"",1398222465488
activated,workbench,org.eclipse.ui.workbench,3.5.1.M20090826-0800a,"",1398222467711
deactivated,workbench,org.eclipse.ui.workbench,3.5.1.M20090826-0800a,"",1398222485676
activated,workbench,org.eclipse.ui.workbench,3.5.1.M20090826-0800a,"",1398222572270
