what,kind,bundleId,bundleVersion,description,time
activated,workbench,org.eclipse.ui.workbench,3.5.1.M20090826-0800a,"",1407890421908
deactivated,workbench,org.eclipse.ui.workbench,3.5.1.M20090826-0800a,"",1407890428055
activated,workbench,org.eclipse.ui.workbench,3.5.1.M20090826-0800a,"",1407890430062
started,bundle,org.eclipse.mylyn.java.tasks,3.2.2.v20090912-0400-e3x,"org.eclipse.mylyn.java.tasks",1407890433506
executed,command,org.eclipse.ui,3.5.1.M20090902-1000,"org.eclipse.ui.edit.copy",1407890433584
executed,command,org.eclipse.ui,3.5.1.M20090902-1000,"org.eclipse.ui.edit.paste",1407890435259
executed,command,org.eclipse.ui,3.5.1.M20090902-1000,"org.eclipse.ui.edit.text.contentAssist.proposals",1407890441416
executed,command,org.eclipse.ui,3.5.1.M20090902-1000,"org.eclipse.ui.edit.copy",1407890449495
executed,command,org.eclipse.ui,3.5.1.M20090902-1000,"org.eclipse.ui.edit.paste",1407890451358
executed,command,org.eclipse.ui,3.5.1.M20090902-1000,"org.eclipse.ui.file.save",1407890457133
deactivated,workbench,org.eclipse.ui.workbench,3.5.1.M20090826-0800a,"",1407890470384
activated,workbench,org.eclipse.ui.workbench,3.5.1.M20090826-0800a,"",1407890471239
deactivated,workbench,org.eclipse.ui.workbench,3.5.1.M20090826-0800a,"",1407890477597
deactivated,workbench,org.eclipse.ui.workbench,3.5.1.M20090826-0800a,"",1407890478323
activated,workbench,org.eclipse.ui.workbench,3.5.1.M20090826-0800a,"",1407890478652
deactivated,workbench,org.eclipse.ui.workbench,3.5.1.M20090826-0800a,"",1407890479225
activated,workbench,org.eclipse.ui.workbench,3.5.1.M20090826-0800a,"",1407891421191
executed,command,org.eclipse.ui,3.5.1.M20090902-1000,"org.eclipse.ui.file.save",1407891443987
executed,command,org.eclipse.ui,3.5.1.M20090902-1000,"org.eclipse.ui.edit.copy",1407891460747
executed,command,org.eclipse.ui,3.5.1.M20090902-1000,"org.eclipse.ui.edit.paste",1407891461618
executed,command,org.eclipse.ui,3.5.1.M20090902-1000,"org.eclipse.ui.file.save",1407891463058
executed,command,org.eclipse.ui,3.5.1.M20090902-1000,"org.eclipse.ui.edit.text.contentAssist.proposals",1407891474640
deactivated,workbench,org.eclipse.ui.workbench,3.5.1.M20090826-0800a,"",1407891476504
activated,workbench,org.eclipse.ui.workbench,3.5.1.M20090826-0800a,"",1407891477746
executed,command,org.eclipse.ui,3.5.1.M20090902-1000,"org.eclipse.ui.edit.undo",1407891479977
