what,kind,bundleId,bundleVersion,description,time
activated,view,com.android.ide.eclipse.ddms,12.0.0.v201106281929-138431,"com.android.ide.eclipse.ddms.views.LogCatView",1407206013022
deactivated,workbench,org.eclipse.ui.workbench,3.5.1.M20090826-0800a,"",1407206021464
activated,workbench,org.eclipse.ui.workbench,3.5.1.M20090826-0800a,"",1407206022494
activated,editor,org.eclipse.jdt.ui,3.5.1.r351_v20090821-0800,"org.eclipse.jdt.ui.CompilationUnitEditor",1407206023248
activated,view,org.eclipse.ui.views,3.4.1.M20090826-0800,"org.eclipse.ui.views.ContentOutline",1407206035629
activated,editor,org.eclipse.jdt.ui,3.5.1.r351_v20090821-0800,"org.eclipse.jdt.ui.CompilationUnitEditor",1407206036844
activated,editor,org.eclipse.jdt.ui,3.5.1.r351_v20090821-0800,"org.eclipse.jdt.ui.CompilationUnitEditor",1407206049080
closed,editor,org.eclipse.jdt.ui,3.5.1.r351_v20090821-0800,"org.eclipse.jdt.ui.CompilationUnitEditor",1407206049080
activated,view,org.eclipse.jdt.ui,3.5.1.r351_v20090821-0800,"org.eclipse.jdt.ui.PackageExplorer",1407206057863
deactivated,workbench,org.eclipse.ui.workbench,3.5.1.M20090826-0800a,"",1407206070189
activated,workbench,org.eclipse.ui.workbench,3.5.1.M20090826-0800a,"",1407206078844
activated,editor,org.eclipse.jdt.ui,3.5.1.r351_v20090821-0800,"org.eclipse.jdt.ui.CompilationUnitEditor",1407206078873
deactivated,workbench,org.eclipse.ui.workbench,3.5.1.M20090826-0800a,"",1407206084221
activated,workbench,org.eclipse.ui.workbench,3.5.1.M20090826-0800a,"",1407206462862
deactivated,workbench,org.eclipse.ui.workbench,3.5.1.M20090826-0800a,"",1407206465156
activated,workbench,org.eclipse.ui.workbench,3.5.1.M20090826-0800a,"",1407215976540
deactivated,workbench,org.eclipse.ui.workbench,3.5.1.M20090826-0800a,"",1407215977598
activated,workbench,org.eclipse.ui.workbench,3.5.1.M20090826-0800a,"",1407218719696
activated,view,org.eclipse.jdt.ui,3.5.1.r351_v20090821-0800,"org.eclipse.jdt.ui.PackageExplorer",1407218721371
deactivated,workbench,org.eclipse.ui.workbench,3.5.1.M20090826-0800a,"",1407218791052
activated,workbench,org.eclipse.ui.workbench,3.5.1.M20090826-0800a,"",1407218792533
executed,command,org.eclipse.ltk.ui.refactoring,3.4.100.v20090604,"org.eclipse.ltk.ui.refactoring.commands.deleteResources",1407218792547
executed,command,org.eclipse.ui,3.5.1.M20090902-1000,"org.eclipse.ui.edit.delete",1407218792547
deactivated,workbench,org.eclipse.ui.workbench,3.5.1.M20090826-0800a,"",1407218795131
activated,workbench,org.eclipse.ui.workbench,3.5.1.M20090826-0800a,"",1407218801799
