what,kind,bundleId,bundleVersion,description,time
deactivated,workbench,org.eclipse.ui.workbench,3.5.1.M20090826-0800a,"",1409584425912
activated,workbench,org.eclipse.ui.workbench,3.5.1.M20090826-0800a,"",1409584434061
deactivated,workbench,org.eclipse.ui.workbench,3.5.1.M20090826-0800a,"",1409584435271
activated,workbench,org.eclipse.ui.workbench,3.5.1.M20090826-0800a,"",1409584436617
deactivated,workbench,org.eclipse.ui.workbench,3.5.1.M20090826-0800a,"",1409584437235
activated,workbench,org.eclipse.ui.workbench,3.5.1.M20090826-0800a,"",1409584438449
deactivated,workbench,org.eclipse.ui.workbench,3.5.1.M20090826-0800a,"",1409584439445
activated,workbench,org.eclipse.ui.workbench,3.5.1.M20090826-0800a,"",1409584440660
deactivated,workbench,org.eclipse.ui.workbench,3.5.1.M20090826-0800a,"",1409584460994
activated,workbench,org.eclipse.ui.workbench,3.5.1.M20090826-0800a,"",1409584466613
deactivated,workbench,org.eclipse.ui.workbench,3.5.1.M20090826-0800a,"",1409584467484
activated,workbench,org.eclipse.ui.workbench,3.5.1.M20090826-0800a,"",1409584468569
deactivated,workbench,org.eclipse.ui.workbench,3.5.1.M20090826-0800a,"",1409584485221
activated,workbench,org.eclipse.ui.workbench,3.5.1.M20090826-0800a,"",1409584517756
deactivated,workbench,org.eclipse.ui.workbench,3.5.1.M20090826-0800a,"",1409584706937
activated,workbench,org.eclipse.ui.workbench,3.5.1.M20090826-0800a,"",1409584756712
deactivated,workbench,org.eclipse.ui.workbench,3.5.1.M20090826-0800a,"",1409584821672
deactivated,workbench,org.eclipse.ui.workbench,3.5.1.M20090826-0800a,"",1409584824230
activated,workbench,org.eclipse.ui.workbench,3.5.1.M20090826-0800a,"",1409584889909
executed,command,org.eclipse.ui,3.5.1.M20090902-1000,"org.eclipse.ui.edit.copy",1409584907014
started,bundle,org.eclipse.mylyn.java.tasks,3.2.2.v20090912-0400-e3x,"org.eclipse.mylyn.java.tasks",1409584907143
executed,command,org.eclipse.ui,3.5.1.M20090902-1000,"org.eclipse.ui.edit.paste",1409584908450
deactivated,workbench,org.eclipse.ui.workbench,3.5.1.M20090826-0800a,"",1409584932192
activated,workbench,org.eclipse.ui.workbench,3.5.1.M20090826-0800a,"",1409584938834
deactivated,workbench,org.eclipse.ui.workbench,3.5.1.M20090826-0800a,"",1409584944192
