what,kind,bundleId,bundleVersion,description,time
activated,view,com.android.ide.eclipse.ddms,12.0.0.v201106281929-138431,"com.android.ide.eclipse.ddms.views.EmulatorControlView",1407388867126
activated,view,com.android.ide.eclipse.ddms,12.0.0.v201106281929-138431,"com.android.ide.eclipse.ddms.views.LogCatView",1407388868614
deactivated,workbench,org.eclipse.ui.workbench,3.5.1.M20090826-0800a,"",1407388872396
activated,workbench,org.eclipse.ui.workbench,3.5.1.M20090826-0800a,"",1407388874411
activated,view,com.android.ide.eclipse.ddms,12.0.0.v201106281929-138431,"com.android.ide.eclipse.ddms.views.EmulatorControlView",1407388878102
activated,view,com.android.ide.eclipse.ddms,12.0.0.v201106281929-138431,"com.android.ide.eclipse.ddms.views.LogCatView",1407388880189
activated,view,com.android.ide.eclipse.ddms,12.0.0.v201106281929-138431,"com.android.ide.eclipse.ddms.views.EmulatorControlView",1407388882908
activated,view,com.android.ide.eclipse.ddms,12.0.0.v201106281929-138431,"com.android.ide.eclipse.ddms.views.DeviceView",1407388885090
activated,view,com.android.ide.eclipse.ddms,12.0.0.v201106281929-138431,"com.android.ide.eclipse.ddms.views.EmulatorControlView",1407388886357
activated,view,com.android.ide.eclipse.ddms,12.0.0.v201106281929-138431,"com.android.ide.eclipse.ddms.views.LogCatView",1407388897653
deactivated,workbench,org.eclipse.ui.workbench,3.5.1.M20090826-0800a,"",1407388901068
activated,workbench,org.eclipse.ui.workbench,3.5.1.M20090826-0800a,"",1407388902210
deactivated,workbench,org.eclipse.ui.workbench,3.5.1.M20090826-0800a,"",1407388926042
activated,workbench,org.eclipse.ui.workbench,3.5.1.M20090826-0800a,"",1407388927015
activated,perspective,org.eclipse.jdt.ui,3.5.1.r351_v20090821-0800,"org.eclipse.jdt.ui.JavaPerspective",1407388928495
activated,view,org.eclipse.jdt.ui,3.5.1.r351_v20090821-0800,"org.eclipse.jdt.ui.PackageExplorer",1407388928539
activated,editor,org.eclipse.jdt.ui,3.5.1.r351_v20090821-0800,"org.eclipse.jdt.ui.CompilationUnitEditor",1407388930729
deactivated,workbench,org.eclipse.ui.workbench,3.5.1.M20090826-0800a,"",1407388951058
activated,workbench,org.eclipse.ui.workbench,3.5.1.M20090826-0800a,"",1407388953240
deactivated,workbench,org.eclipse.ui.workbench,3.5.1.M20090826-0800a,"",1407388954217
activated,workbench,org.eclipse.ui.workbench,3.5.1.M20090826-0800a,"",1407388960098
deactivated,workbench,org.eclipse.ui.workbench,3.5.1.M20090826-0800a,"",1407388961032
activated,workbench,org.eclipse.ui.workbench,3.5.1.M20090826-0800a,"",1407388962422
deactivated,workbench,org.eclipse.ui.workbench,3.5.1.M20090826-0800a,"",1407388964499
activated,workbench,org.eclipse.ui.workbench,3.5.1.M20090826-0800a,"",1407389044252
