what,kind,bundleId,bundleVersion,description,time
executed,command,org.eclipse.ltk.ui.refactoring,3.4.100.v20090604,"org.eclipse.ltk.ui.refactoring.commands.deleteResources",1387420679423
executed,command,org.eclipse.ui,3.5.1.M20090902-1000,"org.eclipse.ui.edit.delete",1387420679423
activated,view,org.eclipse.ui.console,3.4.0.v20090513,"org.eclipse.ui.console.ConsoleView",1387420680942
deactivated,workbench,org.eclipse.ui.workbench,3.5.1.M20090826-0800a,"",1387420683861
activated,workbench,org.eclipse.ui.workbench,3.5.1.M20090826-0800a,"",1387420919931
activated,view,org.eclipse.jdt.ui,3.5.1.r351_v20090821-0800,"org.eclipse.jdt.ui.PackageExplorer",1387420919942
deactivated,workbench,org.eclipse.ui.workbench,3.5.1.M20090826-0800a,"",1387420925794
activated,workbench,org.eclipse.ui.workbench,3.5.1.M20090826-0800a,"",1387420926885
deactivated,workbench,org.eclipse.ui.workbench,3.5.1.M20090826-0800a,"",1387420929647
activated,workbench,org.eclipse.ui.workbench,3.5.1.M20090826-0800a,"",1387420930857
executed,command,org.eclipse.ui.ide,3.5.1.M20090826-0800,"org.eclipse.ui.project.openProject",1387420930870
deactivated,workbench,org.eclipse.ui.workbench,3.5.1.M20090826-0800a,"",1387420948066
activated,workbench,org.eclipse.ui.workbench,3.5.1.M20090826-0800a,"",1387420949343
executed,command,org.eclipse.ui.ide,3.5.1.M20090826-0800,"org.eclipse.ui.project.openProject",1387420949358
error,log,,,"缺少“UI_Of_Player”的项目描述文件（.project）。此文件包含有关项目的重要信息。项目将在复原此文件之后才能正常工作。",1387420949378
error,log,,,"打开选择的资源时发生了问题。",1387420949380
deactivated,workbench,org.eclipse.ui.workbench,3.5.1.M20090826-0800a,"",1387420949998
activated,workbench,org.eclipse.ui.workbench,3.5.1.M20090826-0800a,"",1387420954500
deactivated,workbench,org.eclipse.ui.workbench,3.5.1.M20090826-0800a,"",1387420958690
activated,workbench,org.eclipse.ui.workbench,3.5.1.M20090826-0800a,"",1387420960259
executed,command,org.eclipse.ui.ide,3.5.1.M20090826-0800,"org.eclipse.ui.project.openProject",1387420960268
error,log,,,"缺少“UI_Of_Player”的项目描述文件（.project）。此文件包含有关项目的重要信息。项目将在复原此文件之后才能正常工作。",1387420960275
error,log,,,"打开选择的资源时发生了问题。",1387420960279
deactivated,workbench,org.eclipse.ui.workbench,3.5.1.M20090826-0800a,"",1387420960888
activated,workbench,org.eclipse.ui.workbench,3.5.1.M20090826-0800a,"",1387420975415
