what,kind,bundleId,bundleVersion,description,time
started,bundle,org.eclipse.mylyn.java.tasks,3.2.2.v20090912-0400-e3x,"org.eclipse.mylyn.java.tasks",1400160137602
executed,command,org.eclipse.ui,3.5.1.M20090902-1000,"org.eclipse.ui.edit.copy",1400160137748
deactivated,workbench,org.eclipse.ui.workbench,3.5.1.M20090826-0800a,"",1400160138560
activated,workbench,org.eclipse.ui.workbench,3.5.1.M20090826-0800a,"",1400160522079
deactivated,workbench,org.eclipse.ui.workbench,3.5.1.M20090826-0800a,"",1400160572002
activated,workbench,org.eclipse.ui.workbench,3.5.1.M20090826-0800a,"",1400160575919
deactivated,workbench,org.eclipse.ui.workbench,3.5.1.M20090826-0800a,"",1400160577209
activated,workbench,org.eclipse.ui.workbench,3.5.1.M20090826-0800a,"",1400160588175
deactivated,workbench,org.eclipse.ui.workbench,3.5.1.M20090826-0800a,"",1400160590826
activated,workbench,org.eclipse.ui.workbench,3.5.1.M20090826-0800a,"",1400160593119
deactivated,workbench,org.eclipse.ui.workbench,3.5.1.M20090826-0800a,"",1400160594642
activated,workbench,org.eclipse.ui.workbench,3.5.1.M20090826-0800a,"",1400160597007
deactivated,workbench,org.eclipse.ui.workbench,3.5.1.M20090826-0800a,"",1400160604628
activated,workbench,org.eclipse.ui.workbench,3.5.1.M20090826-0800a,"",1400162137491
deactivated,workbench,org.eclipse.ui.workbench,3.5.1.M20090826-0800a,"",1400162138567
activated,workbench,org.eclipse.ui.workbench,3.5.1.M20090826-0800a,"",1400162224766
deactivated,workbench,org.eclipse.ui.workbench,3.5.1.M20090826-0800a,"",1400162225277
activated,workbench,org.eclipse.ui.workbench,3.5.1.M20090826-0800a,"",1400162316547
deactivated,workbench,org.eclipse.ui.workbench,3.5.1.M20090826-0800a,"",1400162316990
activated,workbench,org.eclipse.ui.workbench,3.5.1.M20090826-0800a,"",1400163858195
deactivated,workbench,org.eclipse.ui.workbench,3.5.1.M20090826-0800a,"",1400163862786
activated,workbench,org.eclipse.ui.workbench,3.5.1.M20090826-0800a,"",1400163864660
deactivated,workbench,org.eclipse.ui.workbench,3.5.1.M20090826-0800a,"",1400163865447
activated,workbench,org.eclipse.ui.workbench,3.5.1.M20090826-0800a,"",1400163866425
deactivated,workbench,org.eclipse.ui.workbench,3.5.1.M20090826-0800a,"",1400163867754
