what,kind,bundleId,bundleVersion,description,time
activated,editor,org.eclipse.jdt.ui,3.5.1.r351_v20090821-0800,"org.eclipse.jdt.ui.CompilationUnitEditor",1413792514631
deactivated,workbench,org.eclipse.ui.workbench,3.5.1.M20090826-0800a,"",1413792534808
activated,workbench,org.eclipse.ui.workbench,3.5.1.M20090826-0800a,"",1413794731659
deactivated,workbench,org.eclipse.ui.workbench,3.5.1.M20090826-0800a,"",1413794732729
activated,workbench,org.eclipse.ui.workbench,3.5.1.M20090826-0800a,"",1413794772688
executed,command,org.eclipse.ui,3.5.1.M20090902-1000,"org.eclipse.ui.edit.undo",1413794776301
deactivated,workbench,org.eclipse.ui.workbench,3.5.1.M20090826-0800a,"",1413794777494
activated,workbench,org.eclipse.ui.workbench,3.5.1.M20090826-0800a,"",1413794905924
activated,editor,org.eclipse.jdt.ui,3.5.1.r351_v20090821-0800,"org.eclipse.jdt.ui.CompilationUnitEditor",1413794908011
deactivated,workbench,org.eclipse.ui.workbench,3.5.1.M20090826-0800a,"",1413794951070
activated,workbench,org.eclipse.ui.workbench,3.5.1.M20090826-0800a,"",1413794975894
deactivated,workbench,org.eclipse.ui.workbench,3.5.1.M20090826-0800a,"",1413794981854
activated,workbench,org.eclipse.ui.workbench,3.5.1.M20090826-0800a,"",1413795044925
executed,command,org.eclipse.ui,3.5.1.M20090902-1000,"org.eclipse.ui.file.save",1413795081183
activated,editor,org.eclipse.jdt.ui,3.5.1.r351_v20090821-0800,"org.eclipse.jdt.ui.CompilationUnitEditor",1413795082508
executed,command,org.eclipse.ui,3.5.1.M20090902-1000,"org.eclipse.ui.file.save",1413795132671
deactivated,workbench,org.eclipse.ui.workbench,3.5.1.M20090826-0800a,"",1413795138094
activated,workbench,org.eclipse.ui.workbench,3.5.1.M20090826-0800a,"",1413795139174
deactivated,workbench,org.eclipse.ui.workbench,3.5.1.M20090826-0800a,"",1413795139664
activated,workbench,org.eclipse.ui.workbench,3.5.1.M20090826-0800a,"",1413795140391
deactivated,workbench,org.eclipse.ui.workbench,3.5.1.M20090826-0800a,"",1413795140660
activated,workbench,org.eclipse.ui.workbench,3.5.1.M20090826-0800a,"",1413795216923
deactivated,workbench,org.eclipse.ui.workbench,3.5.1.M20090826-0800a,"",1413795217828
activated,workbench,org.eclipse.ui.workbench,3.5.1.M20090826-0800a,"",1413795221964
deactivated,workbench,org.eclipse.ui.workbench,3.5.1.M20090826-0800a,"",1413795532149
