what,kind,bundleId,bundleVersion,description,time
activated,workbench,org.eclipse.ui.workbench,3.5.1.M20090826-0800a,"",1398778180995
deactivated,workbench,org.eclipse.ui.workbench,3.5.1.M20090826-0800a,"",1398778185817
activated,workbench,org.eclipse.ui.workbench,3.5.1.M20090826-0800a,"",1398778194406
deactivated,workbench,org.eclipse.ui.workbench,3.5.1.M20090826-0800a,"",1398778196002
activated,workbench,org.eclipse.ui.workbench,3.5.1.M20090826-0800a,"",1398778222848
executed,command,org.eclipse.jdt.ui,3.5.1.r351_v20090821-0800,"org.eclipse.jdt.ui.edit.text.java.toggle.comment",1398778229862
deactivated,workbench,org.eclipse.ui.workbench,3.5.1.M20090826-0800a,"",1398778235256
activated,workbench,org.eclipse.ui.workbench,3.5.1.M20090826-0800a,"",1398778236155
deactivated,workbench,org.eclipse.ui.workbench,3.5.1.M20090826-0800a,"",1398778236800
activated,workbench,org.eclipse.ui.workbench,3.5.1.M20090826-0800a,"",1398778243260
deactivated,workbench,org.eclipse.ui.workbench,3.5.1.M20090826-0800a,"",1398778253764
activated,workbench,org.eclipse.ui.workbench,3.5.1.M20090826-0800a,"",1398778257935
executed,command,org.eclipse.ui,3.5.1.M20090902-1000,"org.eclipse.ui.edit.paste",1398778258618
deactivated,workbench,org.eclipse.ui.workbench,3.5.1.M20090826-0800a,"",1398778264040
activated,workbench,org.eclipse.ui.workbench,3.5.1.M20090826-0800a,"",1398778264179
executed,command,org.eclipse.ui,3.5.1.M20090902-1000,"org.eclipse.ui.file.save",1398778266598
activated,perspective,com.android.ide.eclipse.ddms,12.0.0.v201106281929-138431,"com.android.ide.eclipse.ddms.Perspective",1398778280949
activated,view,org.eclipse.ui.console,3.4.0.v20090513,"org.eclipse.ui.console.ConsoleView",1398778280995
activated,view,com.android.ide.eclipse.ddms,12.0.0.v201106281929-138431,"com.android.ide.eclipse.ddms.views.LogCatView",1398778283881
deactivated,workbench,org.eclipse.ui.workbench,3.5.1.M20090826-0800a,"",1398778287240
activated,view,com.android.ide.eclipse.ddms,12.0.0.v201106281929-138431,"com.android.ide.eclipse.ddms.views.EmulatorControlView",1398778291349
activated,workbench,org.eclipse.ui.workbench,3.5.1.M20090826-0800a,"",1398778291359
activated,view,com.android.ide.eclipse.ddms,12.0.0.v201106281929-138431,"com.android.ide.eclipse.ddms.views.LogCatView",1398778291363
activated,view,com.android.ide.eclipse.ddms,12.0.0.v201106281929-138431,"com.android.ide.eclipse.ddms.views.EmulatorControlView",1398778291369
deactivated,workbench,org.eclipse.ui.workbench,3.5.1.M20090826-0800a,"",1398778297198
