what,kind,bundleId,bundleVersion,description,time
deactivated,workbench,org.eclipse.ui.workbench,3.5.1.M20090826-0800a,"",1397546187195
activated,workbench,org.eclipse.ui.workbench,3.5.1.M20090826-0800a,"",1397546215850
deactivated,workbench,org.eclipse.ui.workbench,3.5.1.M20090826-0800a,"",1397546220787
activated,workbench,org.eclipse.ui.workbench,3.5.1.M20090826-0800a,"",1397546222610
deactivated,workbench,org.eclipse.ui.workbench,3.5.1.M20090826-0800a,"",1397546224090
activated,workbench,org.eclipse.ui.workbench,3.5.1.M20090826-0800a,"",1397546228260
deactivated,workbench,org.eclipse.ui.workbench,3.5.1.M20090826-0800a,"",1397546241049
activated,workbench,org.eclipse.ui.workbench,3.5.1.M20090826-0800a,"",1397546242694
deactivated,workbench,org.eclipse.ui.workbench,3.5.1.M20090826-0800a,"",1397546269113
activated,workbench,org.eclipse.ui.workbench,3.5.1.M20090826-0800a,"",1397546274545
deactivated,workbench,org.eclipse.ui.workbench,3.5.1.M20090826-0800a,"",1397546290981
activated,workbench,org.eclipse.ui.workbench,3.5.1.M20090826-0800a,"",1397546291390
deactivated,workbench,org.eclipse.ui.workbench,3.5.1.M20090826-0800a,"",1397546308310
activated,workbench,org.eclipse.ui.workbench,3.5.1.M20090826-0800a,"",1397546316337
executed,command,org.eclipse.ui,3.5.1.M20090902-1000,"org.eclipse.ui.edit.copy",1397546323066
executed,command,org.eclipse.ui,3.5.1.M20090902-1000,"org.eclipse.ui.edit.paste",1397546324348
deactivated,workbench,org.eclipse.ui.workbench,3.5.1.M20090826-0800a,"",1397546487826
activated,workbench,org.eclipse.ui.workbench,3.5.1.M20090826-0800a,"",1397546531424
executed,command,org.eclipse.ui,3.5.1.M20090902-1000,"org.eclipse.ui.edit.paste",1397546534068
executed,command,org.eclipse.ui,3.5.1.M20090902-1000,"org.eclipse.ui.file.save",1397546605186
deactivated,workbench,org.eclipse.ui.workbench,3.5.1.M20090826-0800a,"",1397546606564
activated,workbench,org.eclipse.ui.workbench,3.5.1.M20090826-0800a,"",1397546626642
executed,command,org.eclipse.ui,3.5.1.M20090902-1000,"org.eclipse.ui.edit.paste",1397546634358
deactivated,workbench,org.eclipse.ui.workbench,3.5.1.M20090826-0800a,"",1397546757661
activated,workbench,org.eclipse.ui.workbench,3.5.1.M20090826-0800a,"",1397546779055
