what,kind,bundleId,bundleVersion,description,time
java.runtime.version,sysinfo,,,"1.6.0_03-b05",1375257394963
java.specification.name,sysinfo,,,"Java Platform API Specification",1375257394963
java.specification.vendor,sysinfo,,,"Sun Microsystems Inc.",1375257394963
java.specification.version,sysinfo,,,"1.6",1375257394963
java.vendor,sysinfo,,,"Sun Microsystems Inc.",1375257394963
java.version,sysinfo,,,"1.6.0_03",1375257394963
java.vm.info,sysinfo,,,"mixed mode",1375257394963
java.vm.name,sysinfo,,,"Java HotSpot(TM) Client VM",1375257394963
java.vm.specification.name,sysinfo,,,"Java Virtual Machine Specification",1375257394963
java.vm.specification.vendor,sysinfo,,,"Sun Microsystems Inc.",1375257394963
java.vm.specification.version,sysinfo,,,"1.0",1375257394963
java.vm.vendor,sysinfo,,,"Sun Microsystems Inc.",1375257394963
java.vm.version,sysinfo,,,"1.6.0_03-b05",1375257394963
deactivated,workbench,org.eclipse.ui.workbench,3.5.1.M20090826-0800a,"",1375257396848
started,bundle,org.eclipse.mylyn.monitor.ui,3.2.2.v20090912-0400-e3x,"org.eclipse.mylyn.monitor.ui",1375257399748
activated,workbench,org.eclipse.ui.workbench,3.5.1.M20090826-0800a,"",1375257405351
deactivated,workbench,org.eclipse.ui.workbench,3.5.1.M20090826-0800a,"",1375257409405
activated,workbench,org.eclipse.ui.workbench,3.5.1.M20090826-0800a,"",1375257410798
deactivated,workbench,org.eclipse.ui.workbench,3.5.1.M20090826-0800a,"",1375257411046
activated,workbench,org.eclipse.ui.workbench,3.5.1.M20090826-0800a,"",1375257411196
deactivated,workbench,org.eclipse.ui.workbench,3.5.1.M20090826-0800a,"",1375257412234
deactivated,workbench,org.eclipse.ui.workbench,3.5.1.M20090826-0800a,"",1375257532477
activated,workbench,org.eclipse.ui.workbench,3.5.1.M20090826-0800a,"",1375257532719
closed,workbench,org.eclipse.ui.workbench,3.5.1.M20090826-0800a,"",1375257535094
