what,kind,bundleId,bundleVersion,description,time
arch,sysinfo,,,"x86",1400113342134
ws,sysinfo,,,"win32",1400113342134
locale,sysinfo,,,"zh_CN",1400113342134
processors,sysinfo,,,"4",1400113342134
java.runtime.name,sysinfo,,,"Java(TM) SE Runtime Environment",1400113342134
java.runtime.version,sysinfo,,,"1.6.0_03-b05",1400113342134
java.specification.name,sysinfo,,,"Java Platform API Specification",1400113342134
java.specification.vendor,sysinfo,,,"Sun Microsystems Inc.",1400113342135
java.specification.version,sysinfo,,,"1.6",1400113342135
java.vendor,sysinfo,,,"Sun Microsystems Inc.",1400113342135
java.version,sysinfo,,,"1.6.0_03",1400113342135
java.vm.info,sysinfo,,,"mixed mode",1400113342135
java.vm.name,sysinfo,,,"Java HotSpot(TM) Client VM",1400113342135
java.vm.specification.name,sysinfo,,,"Java Virtual Machine Specification",1400113342135
java.vm.specification.vendor,sysinfo,,,"Sun Microsystems Inc.",1400113342135
java.vm.specification.version,sysinfo,,,"1.0",1400113342135
java.vm.vendor,sysinfo,,,"Sun Microsystems Inc.",1400113342135
java.vm.version,sysinfo,,,"1.6.0_03-b05",1400113342135
started,bundle,org.eclipse.emf.ecore,2.5.0.v200906151043,"org.eclipse.emf.ecore",1400113342335
started,bundle,org.eclipse.jem.util,2.0.200.v200905140200,"org.eclipse.jem.util",1400113342405
started,bundle,org.eclipse.wst.common.frameworks,1.1.300.v200904160730,"org.eclipse.wst.common.frameworks",1400113342432
started,bundle,org.eclipse.jst.jsf.common,1.1.7.v20090903,"org.eclipse.jst.jsf.common",1400113342617
started,bundle,org.eclipse.jst.jsf.core,1.2.2.v20090903,"org.eclipse.jst.jsf.core",1400113342725
started,bundle,org.eclipse.mylyn.commons.net,3.2.0.v20090617-0100-e3x,"org.eclipse.mylyn.commons.net",1400113343185
started,bundle,org.eclipse.jst.common.project.facet.core,1.4.1.v200908111817,"org.eclipse.jst.common.project.facet.core",1400113344114
