what,kind,bundleId,bundleVersion,description,time
activated,editor,org.eclipse.jdt.ui,3.5.1.r351_v20090821-0800,"org.eclipse.jdt.ui.CompilationUnitEditor",1405999756052
activated,editor,org.eclipse.jdt.ui,3.5.1.r351_v20090821-0800,"org.eclipse.jdt.ui.CompilationUnitEditor",1405999757178
activated,editor,org.eclipse.jdt.ui,3.5.1.r351_v20090821-0800,"org.eclipse.jdt.ui.CompilationUnitEditor",1405999761195
deactivated,workbench,org.eclipse.ui.workbench,3.5.1.M20090826-0800a,"",1405999773203
activated,workbench,org.eclipse.ui.workbench,3.5.1.M20090826-0800a,"",1405999774303
activated,editor,org.eclipse.jdt.ui,3.5.1.r351_v20090821-0800,"org.eclipse.jdt.ui.CompilationUnitEditor",1405999792944
executed,command,org.eclipse.ui,3.5.1.M20090902-1000,"org.eclipse.ui.file.save",1405999801872
activated,perspective,com.android.ide.eclipse.ddms,12.0.0.v201106281929-138431,"com.android.ide.eclipse.ddms.Perspective",1405999804861
activated,view,com.android.ide.eclipse.ddms,12.0.0.v201106281929-138431,"com.android.ide.eclipse.ddms.views.LogCatView",1405999804889
activated,view,com.android.ide.eclipse.ddms,12.0.0.v201106281929-138431,"com.android.ide.eclipse.ddms.views.FileExplorerView",1405999808357
activated,view,com.android.ide.eclipse.ddms,12.0.0.v201106281929-138431,"com.android.ide.eclipse.ddms.views.LogCatView",1405999816338
activated,perspective,org.eclipse.jdt.ui,3.5.1.r351_v20090821-0800,"org.eclipse.jdt.ui.JavaPerspective",1405999817385
activated,editor,org.eclipse.jdt.ui,3.5.1.r351_v20090821-0800,"org.eclipse.jdt.ui.CompilationUnitEditor",1405999817403
activated,view,org.eclipse.jdt.ui,3.5.1.r351_v20090821-0800,"org.eclipse.jdt.ui.PackageExplorer",1405999818298
executed,command,,,"com.android.ide.eclipse.adt.debug.launching.LaunchShortcut.run",1405999820477
activated,view,com.android.ide.eclipse.ddms,12.0.0.v201106281929-138431,"com.android.ide.eclipse.ddms.views.LogCatView",1405999821714
deactivated,workbench,org.eclipse.ui.workbench,3.5.1.M20090826-0800a,"",1405999823205
activated,workbench,org.eclipse.ui.workbench,3.5.1.M20090826-0800a,"",1405999840001
deactivated,workbench,org.eclipse.ui.workbench,3.5.1.M20090826-0800a,"",1405999842543
activated,workbench,org.eclipse.ui.workbench,3.5.1.M20090826-0800a,"",1405999846541
deactivated,workbench,org.eclipse.ui.workbench,3.5.1.M20090826-0800a,"",1405999848849
activated,workbench,org.eclipse.ui.workbench,3.5.1.M20090826-0800a,"",1405999860186
activated,editor,org.eclipse.jdt.ui,3.5.1.r351_v20090821-0800,"org.eclipse.jdt.ui.CompilationUnitEditor",1405999860212
activated,view,com.android.ide.eclipse.ddms,12.0.0.v201106281929-138431,"com.android.ide.eclipse.ddms.views.LogCatView",1405999865045
deactivated,workbench,org.eclipse.ui.workbench,3.5.1.M20090826-0800a,"",1405999872998
