what,kind,bundleId,bundleVersion,description,time
arch,sysinfo,,,"x86",1401239667673
ws,sysinfo,,,"win32",1401239667673
locale,sysinfo,,,"zh_CN",1401239667673
processors,sysinfo,,,"4",1401239667673
java.runtime.name,sysinfo,,,"Java(TM) SE Runtime Environment",1401239667674
java.runtime.version,sysinfo,,,"1.6.0_03-b05",1401239667674
java.specification.name,sysinfo,,,"Java Platform API Specification",1401239667674
java.specification.vendor,sysinfo,,,"Sun Microsystems Inc.",1401239667674
java.specification.version,sysinfo,,,"1.6",1401239667674
java.vendor,sysinfo,,,"Sun Microsystems Inc.",1401239667674
java.version,sysinfo,,,"1.6.0_03",1401239667674
java.vm.info,sysinfo,,,"mixed mode",1401239667674
java.vm.name,sysinfo,,,"Java HotSpot(TM) Client VM",1401239667674
java.vm.specification.name,sysinfo,,,"Java Virtual Machine Specification",1401239667674
java.vm.specification.vendor,sysinfo,,,"Sun Microsystems Inc.",1401239667674
java.vm.specification.version,sysinfo,,,"1.0",1401239667674
java.vm.vendor,sysinfo,,,"Sun Microsystems Inc.",1401239667674
java.vm.version,sysinfo,,,"1.6.0_03-b05",1401239667674
started,bundle,org.eclipse.wst.common.frameworks,1.1.300.v200904160730,"org.eclipse.wst.common.frameworks",1401239667993
started,bundle,org.eclipse.team.cvs.ui,3.3.201.R35x_v20090826-0905,"org.eclipse.team.cvs.ui",1401239668113
started,bundle,org.eclipse.jst.jsf.common,1.1.7.v20090903,"org.eclipse.jst.jsf.common",1401239668212
started,bundle,org.eclipse.jst.jsf.core,1.2.2.v20090903,"org.eclipse.jst.jsf.core",1401239668355
started,bundle,org.eclipse.mylyn.commons.net,3.2.0.v20090617-0100-e3x,"org.eclipse.mylyn.commons.net",1401239668544
started,bundle,org.eclipse.jst.common.project.facet.core,1.4.1.v200908111817,"org.eclipse.jst.common.project.facet.core",1401239668932
started,bundle,org.eclipse.mylyn.commons.ui,3.2.2.v20090912-0400-e3x,"org.eclipse.mylyn.commons.ui",1401239669322
