what,kind,bundleId,bundleVersion,description,time
executed,command,org.eclipse.ui,3.5.1.M20090902-1000,"org.eclipse.ui.file.save",1408080388725
deactivated,workbench,org.eclipse.ui.workbench,3.5.1.M20090826-0800a,"",1408080401579
activated,workbench,org.eclipse.ui.workbench,3.5.1.M20090826-0800a,"",1408080402460
activated,editor,org.eclipse.jdt.ui,3.5.1.r351_v20090821-0800,"org.eclipse.jdt.ui.CompilationUnitEditor",1408080403709
deactivated,workbench,org.eclipse.ui.workbench,3.5.1.M20090826-0800a,"",1408080408515
activated,workbench,org.eclipse.ui.workbench,3.5.1.M20090826-0800a,"",1408080409509
activated,editor,org.eclipse.jdt.ui,3.5.1.r351_v20090821-0800,"org.eclipse.jdt.ui.CompilationUnitEditor",1408080411923
executed,command,org.eclipse.ui,3.5.1.M20090902-1000,"org.eclipse.ui.file.save",1408080429588
activated,editor,org.eclipse.jdt.ui,3.5.1.r351_v20090821-0800,"org.eclipse.jdt.ui.CompilationUnitEditor",1408080434162
activated,editor,org.eclipse.jdt.ui,3.5.1.r351_v20090821-0800,"org.eclipse.jdt.ui.CompilationUnitEditor",1408080437799
executed,command,org.eclipse.ui,3.5.1.M20090902-1000,"org.eclipse.ui.file.save",1408080456614
activated,editor,org.eclipse.jdt.ui,3.5.1.r351_v20090821-0800,"org.eclipse.jdt.ui.CompilationUnitEditor",1408080488859
deactivated,workbench,org.eclipse.ui.workbench,3.5.1.M20090826-0800a,"",1408080530819
activated,workbench,org.eclipse.ui.workbench,3.5.1.M20090826-0800a,"",1408080601481
activated,editor,org.eclipse.jdt.ui,3.5.1.r351_v20090821-0800,"org.eclipse.jdt.ui.CompilationUnitEditor",1408080603169
opened,editor,org.eclipse.jdt.ui,3.5.1.r351_v20090821-0800,"org.eclipse.jdt.ui.CompilationUnitEditor",1408080604071
activated,editor,org.eclipse.jdt.ui,3.5.1.r351_v20090821-0800,"org.eclipse.jdt.ui.CompilationUnitEditor",1408080604159
activated,editor,org.eclipse.jdt.ui,3.5.1.r351_v20090821-0800,"org.eclipse.jdt.ui.CompilationUnitEditor",1408080605556
deactivated,workbench,org.eclipse.ui.workbench,3.5.1.M20090826-0800a,"",1408080717227
activated,workbench,org.eclipse.ui.workbench,3.5.1.M20090826-0800a,"",1408080718212
executed,command,org.eclipse.ui,3.5.1.M20090902-1000,"org.eclipse.ui.edit.text.contentAssist.proposals",1408080740505
deactivated,workbench,org.eclipse.ui.workbench,3.5.1.M20090826-0800a,"",1408080760097
activated,workbench,org.eclipse.ui.workbench,3.5.1.M20090826-0800a,"",1408081034530
deactivated,workbench,org.eclipse.ui.workbench,3.5.1.M20090826-0800a,"",1408081066075
activated,workbench,org.eclipse.ui.workbench,3.5.1.M20090826-0800a,"",1408081068527
