what,kind,bundleId,bundleVersion,description,time
activated,workbench,org.eclipse.ui.workbench,3.5.1.M20090826-0800a,"",1413165609773
deactivated,workbench,org.eclipse.ui.workbench,3.5.1.M20090826-0800a,"",1413165622119
activated,workbench,org.eclipse.ui.workbench,3.5.1.M20090826-0800a,"",1413165626786
deactivated,workbench,org.eclipse.ui.workbench,3.5.1.M20090826-0800a,"",1413165627618
activated,workbench,org.eclipse.ui.workbench,3.5.1.M20090826-0800a,"",1413165629717
deactivated,workbench,org.eclipse.ui.workbench,3.5.1.M20090826-0800a,"",1413165635210
activated,workbench,org.eclipse.ui.workbench,3.5.1.M20090826-0800a,"",1413165638215
deactivated,workbench,org.eclipse.ui.workbench,3.5.1.M20090826-0800a,"",1413165639684
activated,workbench,org.eclipse.ui.workbench,3.5.1.M20090826-0800a,"",1413165641098
deactivated,workbench,org.eclipse.ui.workbench,3.5.1.M20090826-0800a,"",1413165641786
activated,workbench,org.eclipse.ui.workbench,3.5.1.M20090826-0800a,"",1413165642355
deactivated,workbench,org.eclipse.ui.workbench,3.5.1.M20090826-0800a,"",1413165677215
activated,workbench,org.eclipse.ui.workbench,3.5.1.M20090826-0800a,"",1413165683771
executed,command,org.eclipse.ui,3.5.1.M20090902-1000,"org.eclipse.ui.edit.delete",1413165687272
deactivated,workbench,org.eclipse.ui.workbench,3.5.1.M20090826-0800a,"",1413165690579
activated,workbench,org.eclipse.ui.workbench,3.5.1.M20090826-0800a,"",1413165690725
deactivated,workbench,org.eclipse.ui.workbench,3.5.1.M20090826-0800a,"",1413165719913
activated,workbench,org.eclipse.ui.workbench,3.5.1.M20090826-0800a,"",1413165750115
deactivated,workbench,org.eclipse.ui.workbench,3.5.1.M20090826-0800a,"",1413165782521
activated,workbench,org.eclipse.ui.workbench,3.5.1.M20090826-0800a,"",1413165783897
deactivated,workbench,org.eclipse.ui.workbench,3.5.1.M20090826-0800a,"",1413165790854
activated,workbench,org.eclipse.ui.workbench,3.5.1.M20090826-0800a,"",1413165792661
deactivated,workbench,org.eclipse.ui.workbench,3.5.1.M20090826-0800a,"",1413165801536
activated,workbench,org.eclipse.ui.workbench,3.5.1.M20090826-0800a,"",1413165805418
deactivated,workbench,org.eclipse.ui.workbench,3.5.1.M20090826-0800a,"",1413165845801
