what,kind,bundleId,bundleVersion,description,time
deactivated,workbench,org.eclipse.ui.workbench,3.5.1.M20090826-0800a,"",1401093854163
activated,workbench,org.eclipse.ui.workbench,3.5.1.M20090826-0800a,"",1401093855842
deactivated,workbench,org.eclipse.ui.workbench,3.5.1.M20090826-0800a,"",1401093871973
activated,workbench,org.eclipse.ui.workbench,3.5.1.M20090826-0800a,"",1401093873858
deactivated,workbench,org.eclipse.ui.workbench,3.5.1.M20090826-0800a,"",1401093878752
activated,workbench,org.eclipse.ui.workbench,3.5.1.M20090826-0800a,"",1401093886377
deactivated,workbench,org.eclipse.ui.workbench,3.5.1.M20090826-0800a,"",1401093902659
activated,workbench,org.eclipse.ui.workbench,3.5.1.M20090826-0800a,"",1401093902850
deactivated,workbench,org.eclipse.ui.workbench,3.5.1.M20090826-0800a,"",1401093904891
activated,workbench,org.eclipse.ui.workbench,3.5.1.M20090826-0800a,"",1401093906041
executed,command,org.eclipse.ui,3.5.1.M20090902-1000,"org.eclipse.ui.edit.text.contentAssist.proposals",1401093910268
deactivated,workbench,org.eclipse.ui.workbench,3.5.1.M20090826-0800a,"",1401093915728
activated,workbench,org.eclipse.ui.workbench,3.5.1.M20090826-0800a,"",1401093919683
deactivated,workbench,org.eclipse.ui.workbench,3.5.1.M20090826-0800a,"",1401093925391
activated,workbench,org.eclipse.ui.workbench,3.5.1.M20090826-0800a,"",1401093926916
deactivated,workbench,org.eclipse.ui.workbench,3.5.1.M20090826-0800a,"",1401093944259
activated,workbench,org.eclipse.ui.workbench,3.5.1.M20090826-0800a,"",1401093946172
executed,command,org.eclipse.ui.workbench.texteditor,3.5.0.v20090603,"org.eclipse.ui.edit.text.goto.lineEnd",1401093990890
deactivated,workbench,org.eclipse.ui.workbench,3.5.1.M20090826-0800a,"",1401094010904
activated,workbench,org.eclipse.ui.workbench,3.5.1.M20090826-0800a,"",1401094012333
deactivated,workbench,org.eclipse.ui.workbench,3.5.1.M20090826-0800a,"",1401094014746
activated,workbench,org.eclipse.ui.workbench,3.5.1.M20090826-0800a,"",1401094018330
executed,command,org.eclipse.ui,3.5.1.M20090902-1000,"org.eclipse.ui.file.save",1401094032723
executed,command,org.eclipse.ui,3.5.1.M20090902-1000,"org.eclipse.ui.file.save",1401094079669
activated,view,org.eclipse.jdt.ui,3.5.1.r351_v20090821-0800,"org.eclipse.jdt.ui.PackageExplorer",1401094090122
