what,kind,bundleId,bundleVersion,description,time
deactivated,workbench,org.eclipse.ui.workbench,3.5.1.M20090826-0800a,"",1397804651698
activated,workbench,org.eclipse.ui.workbench,3.5.1.M20090826-0800a,"",1397804666703
deactivated,workbench,org.eclipse.ui.workbench,3.5.1.M20090826-0800a,"",1397804667899
activated,workbench,org.eclipse.ui.workbench,3.5.1.M20090826-0800a,"",1397804668765
activated,editor,org.eclipse.jdt.ui,3.5.1.r351_v20090821-0800,"org.eclipse.jdt.ui.CompilationUnitEditor",1397804670157
deactivated,workbench,org.eclipse.ui.workbench,3.5.1.M20090826-0800a,"",1397804671179
activated,workbench,org.eclipse.ui.workbench,3.5.1.M20090826-0800a,"",1397804681425
deactivated,workbench,org.eclipse.ui.workbench,3.5.1.M20090826-0800a,"",1397804682500
activated,workbench,org.eclipse.ui.workbench,3.5.1.M20090826-0800a,"",1397804684089
deactivated,workbench,org.eclipse.ui.workbench,3.5.1.M20090826-0800a,"",1397804684507
activated,workbench,org.eclipse.ui.workbench,3.5.1.M20090826-0800a,"",1397804691284
deactivated,workbench,org.eclipse.ui.workbench,3.5.1.M20090826-0800a,"",1397804701070
activated,workbench,org.eclipse.ui.workbench,3.5.1.M20090826-0800a,"",1397804710503
failed,command,org.eclipse.jdt.ui,3.5.1.r351_v20090821-0800,"org.eclipse.jdt.ui.edit.text.java.override.methods",1397804710512
deactivated,workbench,org.eclipse.ui.workbench,3.5.1.M20090826-0800a,"",1397804723802
activated,workbench,org.eclipse.ui.workbench,3.5.1.M20090826-0800a,"",1397804724033
deactivated,workbench,org.eclipse.ui.workbench,3.5.1.M20090826-0800a,"",1397804737058
activated,workbench,org.eclipse.ui.workbench,3.5.1.M20090826-0800a,"",1397804743089
deactivated,workbench,org.eclipse.ui.workbench,3.5.1.M20090826-0800a,"",1397804774939
activated,workbench,org.eclipse.ui.workbench,3.5.1.M20090826-0800a,"",1397804775181
deactivated,workbench,org.eclipse.ui.workbench,3.5.1.M20090826-0800a,"",1397804788744
activated,workbench,org.eclipse.ui.workbench,3.5.1.M20090826-0800a,"",1397804804913
executed,command,org.eclipse.ui,3.5.1.M20090902-1000,"org.eclipse.ui.file.save",1397804822958
executed,command,org.eclipse.ui,3.5.1.M20090902-1000,"org.eclipse.ui.edit.text.contentAssist.proposals",1397804840979
deactivated,workbench,org.eclipse.ui.workbench,3.5.1.M20090826-0800a,"",1397804944642
