what,kind,bundleId,bundleVersion,description,time
deactivated,workbench,org.eclipse.ui.workbench,3.5.1.M20090826-0800a,"",1396322482704
activated,workbench,org.eclipse.ui.workbench,3.5.1.M20090826-0800a,"",1396331400369
started,bundle,org.eclipse.epp.usagedata.ui,1.1.0.R200906100410,"org.eclipse.epp.usagedata.ui",1396331401091
deactivated,workbench,org.eclipse.ui.workbench,3.5.1.M20090826-0800a,"",1396331403584
activated,workbench,org.eclipse.ui.workbench,3.5.1.M20090826-0800a,"",1396331410108
deactivated,workbench,org.eclipse.ui.workbench,3.5.1.M20090826-0800a,"",1396331411907
activated,workbench,org.eclipse.ui.workbench,3.5.1.M20090826-0800a,"",1396331414755
executed,command,org.eclipse.ui,3.5.1.M20090902-1000,"org.eclipse.ui.file.save",1396331419608
deactivated,workbench,org.eclipse.ui.workbench,3.5.1.M20090826-0800a,"",1396331419795
deactivated,workbench,org.eclipse.ui.workbench,3.5.1.M20090826-0800a,"",1396331425640
deactivated,workbench,org.eclipse.ui.workbench,3.5.1.M20090826-0800a,"",1396331429408
activated,workbench,org.eclipse.ui.workbench,3.5.1.M20090826-0800a,"",1396331429657
deactivated,workbench,org.eclipse.ui.workbench,3.5.1.M20090826-0800a,"",1396331443970
activated,workbench,org.eclipse.ui.workbench,3.5.1.M20090826-0800a,"",1396333259813
deactivated,workbench,org.eclipse.ui.workbench,3.5.1.M20090826-0800a,"",1396333260192
activated,workbench,org.eclipse.ui.workbench,3.5.1.M20090826-0800a,"",1396340365803
activated,view,org.eclipse.jdt.ui,3.5.1.r351_v20090821-0800,"org.eclipse.jdt.ui.PackageExplorer",1396340367133
deactivated,workbench,org.eclipse.ui.workbench,3.5.1.M20090826-0800a,"",1396340368795
started,bundle,org.eclipse.pde.core,3.5.100.v20090821,"org.eclipse.pde.core",1396340400815
started,bundle,org.eclipse.wst.jsdt.core,1.0.201.v200908101420,"org.eclipse.wst.jsdt.core",1396340401342
error,log,,,"Failed to load properties file for project 'FoodAndroidMobile'",1396340402029
error,log,,,"Failed to load properties file for project 'FoodAndroidMobile'",1396340402211
activated,workbench,org.eclipse.ui.workbench,3.5.1.M20090826-0800a,"",1396340403258
executed,command,org.eclipse.ui,3.5.1.M20090902-1000,"org.eclipse.ui.file.import",1396340403274
executed,command,org.eclipse.ui,3.5.1.M20090902-1000,"org.eclipse.ui.file.import",1396340403274
