what,kind,bundleId,bundleVersion,description,time
activated,workbench,org.eclipse.ui.workbench,3.5.1.M20090826-0800a,"",1413429579826
executed,command,org.eclipse.ui,3.5.1.M20090902-1000,"org.eclipse.ui.file.save",1413429591639
executed,command,org.eclipse.jdt.debug.ui,3.4.1.v20090811_r351,"org.eclipse.jdt.debug.ui.localJavaShortcut.run",1413429595597
activated,view,org.eclipse.ui.console,3.4.0.v20090513,"org.eclipse.ui.console.ConsoleView",1413429597004
activated,editor,org.eclipse.jdt.ui,3.5.1.r351_v20090821-0800,"org.eclipse.jdt.ui.CompilationUnitEditor",1413429602375
deactivated,workbench,org.eclipse.ui.workbench,3.5.1.M20090826-0800a,"",1413429608188
activated,workbench,org.eclipse.ui.workbench,3.5.1.M20090826-0800a,"",1413429615089
deactivated,workbench,org.eclipse.ui.workbench,3.5.1.M20090826-0800a,"",1413429648781
activated,workbench,org.eclipse.ui.workbench,3.5.1.M20090826-0800a,"",1413429651409
deactivated,workbench,org.eclipse.ui.workbench,3.5.1.M20090826-0800a,"",1413429654453
activated,workbench,org.eclipse.ui.workbench,3.5.1.M20090826-0800a,"",1413429654612
deactivated,workbench,org.eclipse.ui.workbench,3.5.1.M20090826-0800a,"",1413429690638
activated,workbench,org.eclipse.ui.workbench,3.5.1.M20090826-0800a,"",1413435499562
executed,command,org.eclipse.ui,3.5.1.M20090902-1000,"org.eclipse.ui.file.save",1413435537490
executed,command,org.eclipse.ui,3.5.1.M20090902-1000,"org.eclipse.ui.file.save",1413435550729
executed,command,org.eclipse.ui,3.5.1.M20090902-1000,"org.eclipse.ui.file.save",1413435575831
deactivated,workbench,org.eclipse.ui.workbench,3.5.1.M20090826-0800a,"",1413435581202
activated,workbench,org.eclipse.ui.workbench,3.5.1.M20090826-0800a,"",1413435581351
executed,command,org.eclipse.ui,3.5.1.M20090902-1000,"org.eclipse.ui.file.save",1413435582543
executed,command,org.eclipse.jdt.debug.ui,3.4.1.v20090811_r351,"org.eclipse.jdt.debug.ui.localJavaShortcut.run",1413435589659
activated,view,org.eclipse.ui.console,3.4.0.v20090513,"org.eclipse.ui.console.ConsoleView",1413435590069
activated,editor,org.eclipse.jdt.ui,3.5.1.r351_v20090821-0800,"org.eclipse.jdt.ui.CompilationUnitEditor",1413435592410
deactivated,workbench,org.eclipse.ui.workbench,3.5.1.M20090826-0800a,"",1413435627471
activated,workbench,org.eclipse.ui.workbench,3.5.1.M20090826-0800a,"",1413436164270
deactivated,workbench,org.eclipse.ui.workbench,3.5.1.M20090826-0800a,"",1413436164709
