what,kind,bundleId,bundleVersion,description,time
deactivated,workbench,org.eclipse.ui.workbench,3.5.1.M20090826-0800a,"",1404962312648
activated,workbench,org.eclipse.ui.workbench,3.5.1.M20090826-0800a,"",1404962318577
deactivated,workbench,org.eclipse.ui.workbench,3.5.1.M20090826-0800a,"",1404962319108
activated,workbench,org.eclipse.ui.workbench,3.5.1.M20090826-0800a,"",1404962323138
deactivated,workbench,org.eclipse.ui.workbench,3.5.1.M20090826-0800a,"",1404962341162
activated,workbench,org.eclipse.ui.workbench,3.5.1.M20090826-0800a,"",1404963777195
deactivated,workbench,org.eclipse.ui.workbench,3.5.1.M20090826-0800a,"",1404963857899
activated,workbench,org.eclipse.ui.workbench,3.5.1.M20090826-0800a,"",1404963858813
deactivated,workbench,org.eclipse.ui.workbench,3.5.1.M20090826-0800a,"",1404963859100
activated,workbench,org.eclipse.ui.workbench,3.5.1.M20090826-0800a,"",1404963897885
deactivated,workbench,org.eclipse.ui.workbench,3.5.1.M20090826-0800a,"",1404963906763
activated,workbench,org.eclipse.ui.workbench,3.5.1.M20090826-0800a,"",1404963944622
activated,view,com.android.ide.eclipse.ddms,12.0.0.v201106281929-138431,"com.android.ide.eclipse.ddms.views.LogCatView",1404963957648
deactivated,workbench,org.eclipse.ui.workbench,3.5.1.M20090826-0800a,"",1404963965168
activated,workbench,org.eclipse.ui.workbench,3.5.1.M20090826-0800a,"",1404963966884
activated,editor,org.eclipse.jdt.ui,3.5.1.r351_v20090821-0800,"org.eclipse.jdt.ui.CompilationUnitEditor",1404963971215
deactivated,workbench,org.eclipse.ui.workbench,3.5.1.M20090826-0800a,"",1404964000202
activated,workbench,org.eclipse.ui.workbench,3.5.1.M20090826-0800a,"",1404964002708
deactivated,workbench,org.eclipse.ui.workbench,3.5.1.M20090826-0800a,"",1404964004030
activated,workbench,org.eclipse.ui.workbench,3.5.1.M20090826-0800a,"",1404964005896
deactivated,workbench,org.eclipse.ui.workbench,3.5.1.M20090826-0800a,"",1404964007870
activated,workbench,org.eclipse.ui.workbench,3.5.1.M20090826-0800a,"",1404964009457
deactivated,workbench,org.eclipse.ui.workbench,3.5.1.M20090826-0800a,"",1404964010973
activated,workbench,org.eclipse.ui.workbench,3.5.1.M20090826-0800a,"",1404964011704
deactivated,workbench,org.eclipse.ui.workbench,3.5.1.M20090826-0800a,"",1404964031481
