what,kind,bundleId,bundleVersion,description,time
deactivated,workbench,org.eclipse.ui.workbench,3.5.1.M20090826-0800a,"",1400592327228
activated,workbench,org.eclipse.ui.workbench,3.5.1.M20090826-0800a,"",1400592327970
deactivated,workbench,org.eclipse.ui.workbench,3.5.1.M20090826-0800a,"",1400592327976
activated,workbench,org.eclipse.ui.workbench,3.5.1.M20090826-0800a,"",1400592349391
deactivated,workbench,org.eclipse.ui.workbench,3.5.1.M20090826-0800a,"",1400592349918
activated,workbench,org.eclipse.ui.workbench,3.5.1.M20090826-0800a,"",1400592353618
deactivated,workbench,org.eclipse.ui.workbench,3.5.1.M20090826-0800a,"",1400592357964
activated,workbench,org.eclipse.ui.workbench,3.5.1.M20090826-0800a,"",1400592358971
deactivated,workbench,org.eclipse.ui.workbench,3.5.1.M20090826-0800a,"",1400592371796
activated,workbench,org.eclipse.ui.workbench,3.5.1.M20090826-0800a,"",1400592373177
deactivated,workbench,org.eclipse.ui.workbench,3.5.1.M20090826-0800a,"",1400592375800
activated,workbench,org.eclipse.ui.workbench,3.5.1.M20090826-0800a,"",1400592376423
deactivated,workbench,org.eclipse.ui.workbench,3.5.1.M20090826-0800a,"",1400592376437
activated,workbench,org.eclipse.ui.workbench,3.5.1.M20090826-0800a,"",1400592380435
activated,view,org.eclipse.jdt.ui,3.5.1.r351_v20090821-0800,"org.eclipse.jdt.ui.PackageExplorer",1400592381530
started,bundle,org.eclipse.wst.ws.service.policy,1.0.103.v200905151848,"org.eclipse.wst.ws.service.policy",1400592382321
started,bundle,org.eclipse.wst.command.env,1.0.408.v200903110045,"org.eclipse.wst.command.env",1400592382551
started,bundle,org.eclipse.wst.ws,1.1.103.v200903111822,"org.eclipse.wst.ws",1400592382577
started,bundle,org.eclipse.compare,3.5.0.I20090514-0808,"org.eclipse.compare",1400592383205
started,bundle,org.eclipse.cdt.core,5.1.2.201002161416,"org.eclipse.cdt.core",1400592385725
started,bundle,org.eclipse.cdt.debug.core,6.0.0.201002161416,"org.eclipse.cdt.debug.core",1400592385821
started,bundle,org.eclipse.cdt.debug.ui,6.0.0.201002161416,"org.eclipse.cdt.debug.ui",1400592385964
started,bundle,org.eclipse.cdt.core.tests,5.1.2.201002161416,"org.eclipse.cdt.core.tests",1400592386670
executed,command,,,"com.android.ide.eclipse.adt.debug.launching.LaunchShortcut.run",1400592388270
opened,view,org.eclipse.ui.console,3.4.0.v20090513,"org.eclipse.ui.console.ConsoleView",1400592388741
