what,kind,bundleId,bundleVersion,description,time
deactivated,workbench,org.eclipse.ui.workbench,3.5.1.M20090826-0800a,"",1414028762460
activated,workbench,org.eclipse.ui.workbench,3.5.1.M20090826-0800a,"",1414028764699
executed,command,org.eclipse.debug.ui,3.5.1.v20090811_r351,"org.eclipse.debug.ui.commands.Resume",1414028764819
deactivated,workbench,org.eclipse.ui.workbench,3.5.1.M20090826-0800a,"",1414028765964
activated,workbench,org.eclipse.ui.workbench,3.5.1.M20090826-0800a,"",1414028768206
executed,command,org.eclipse.debug.ui,3.5.1.v20090811_r351,"org.eclipse.debug.ui.commands.StepOver",1414028768347
executed,command,org.eclipse.debug.ui,3.5.1.v20090811_r351,"org.eclipse.debug.ui.commands.StepOver",1414028768835
executed,command,org.eclipse.debug.ui,3.5.1.v20090811_r351,"org.eclipse.debug.ui.commands.StepOver",1414028769388
executed,command,org.eclipse.debug.ui,3.5.1.v20090811_r351,"org.eclipse.debug.ui.commands.StepOver",1414028770027
executed,command,org.eclipse.debug.ui,3.5.1.v20090811_r351,"org.eclipse.debug.ui.commands.StepOver",1414028771163
executed,command,org.eclipse.debug.ui,3.5.1.v20090811_r351,"org.eclipse.debug.ui.commands.StepOver",1414028773179
deactivated,workbench,org.eclipse.ui.workbench,3.5.1.M20090826-0800a,"",1414028774140
activated,workbench,org.eclipse.ui.workbench,3.5.1.M20090826-0800a,"",1414028777556
executed,command,org.eclipse.debug.ui,3.5.1.v20090811_r351,"org.eclipse.debug.ui.commands.Resume",1414028777654
deactivated,workbench,org.eclipse.ui.workbench,3.5.1.M20090826-0800a,"",1414028778601
activated,workbench,org.eclipse.ui.workbench,3.5.1.M20090826-0800a,"",1414028785371
executed,command,org.eclipse.debug.ui,3.5.1.v20090811_r351,"org.eclipse.debug.ui.commands.StepOver",1414028785468
executed,command,org.eclipse.debug.ui,3.5.1.v20090811_r351,"org.eclipse.debug.ui.commands.StepOver",1414028785891
executed,command,org.eclipse.debug.ui,3.5.1.v20090811_r351,"org.eclipse.debug.ui.commands.StepOver",1414028786468
executed,command,org.eclipse.debug.ui,3.5.1.v20090811_r351,"org.eclipse.debug.ui.commands.StepOver",1414028787118
executed,command,org.eclipse.debug.ui,3.5.1.v20090811_r351,"org.eclipse.debug.ui.commands.StepOver",1414028788155
executed,command,org.eclipse.debug.ui,3.5.1.v20090811_r351,"org.eclipse.debug.ui.commands.StepOver",1414028788803
deactivated,workbench,org.eclipse.ui.workbench,3.5.1.M20090826-0800a,"",1414028790446
activated,workbench,org.eclipse.ui.workbench,3.5.1.M20090826-0800a,"",1414028793949
executed,command,org.eclipse.debug.ui,3.5.1.v20090811_r351,"org.eclipse.debug.ui.commands.Resume",1414028794052
