what,kind,bundleId,bundleVersion,description,time
activated,editor,org.eclipse.jdt.ui,3.5.1.r351_v20090821-0800,"org.eclipse.jdt.ui.CompilationUnitEditor",1398261971614
deactivated,workbench,org.eclipse.ui.workbench,3.5.1.M20090826-0800a,"",1398261979444
activated,workbench,org.eclipse.ui.workbench,3.5.1.M20090826-0800a,"",1398261980344
activated,view,com.android.ide.eclipse.ddms,12.0.0.v201106281929-138431,"com.android.ide.eclipse.ddms.views.LogCatView",1398261996635
deactivated,workbench,org.eclipse.ui.workbench,3.5.1.M20090826-0800a,"",1398262010038
activated,workbench,org.eclipse.ui.workbench,3.5.1.M20090826-0800a,"",1398262011290
activated,view,org.eclipse.wst.server.ui,1.1.103.v20090909,"org.eclipse.wst.server.ui.ServersView",1398262014793
deactivated,workbench,org.eclipse.ui.workbench,3.5.1.M20090826-0800a,"",1398262017478
activated,workbench,org.eclipse.ui.workbench,3.5.1.M20090826-0800a,"",1398262019643
opened,view,org.eclipse.debug.ui,3.5.1.v20090811_r351,"org.eclipse.debug.ui.DebugView",1398262019768
activated,view,org.eclipse.debug.ui,3.5.1.v20090811_r351,"org.eclipse.debug.ui.DebugView",1398262019793
executed,command,org.eclipse.debug.ui,3.5.1.v20090811_r351,"org.eclipse.debug.ui.commands.StepOver",1398262029000
executed,command,org.eclipse.debug.ui,3.5.1.v20090811_r351,"org.eclipse.debug.ui.commands.StepOver",1398262032240
error,log,,,"处理异步线程队列时发生了异常",1398262033822
deactivated,workbench,org.eclipse.ui.workbench,3.5.1.M20090826-0800a,"",1398262033948
opened,view,org.eclipse.ui.views.log,1.0.100.v20090731,"org.eclipse.pde.runtime.LogView",1398262040054
activated,workbench,org.eclipse.ui.workbench,3.5.1.M20090826-0800a,"",1398262040098
activated,view,org.eclipse.ui.views.log,1.0.100.v20090731,"org.eclipse.pde.runtime.LogView",1398262040108
deactivated,workbench,org.eclipse.ui.workbench,3.5.1.M20090826-0800a,"",1398262045194
activated,workbench,org.eclipse.ui.workbench,3.5.1.M20090826-0800a,"",1398262052221
activated,view,org.eclipse.debug.ui,3.5.1.v20090811_r351,"org.eclipse.debug.ui.DebugView",1398262055171
deactivated,workbench,org.eclipse.ui.workbench,3.5.1.M20090826-0800a,"",1398262058931
activated,workbench,org.eclipse.ui.workbench,3.5.1.M20090826-0800a,"",1398262061446
deactivated,workbench,org.eclipse.ui.workbench,3.5.1.M20090826-0800a,"",1398262062804
activated,workbench,org.eclipse.ui.workbench,3.5.1.M20090826-0800a,"",1398262066285
