what,kind,bundleId,bundleVersion,description,time
started,bundle,org.eclipse.epp.usagedata.ui,1.1.0.R200906100410,"org.eclipse.epp.usagedata.ui",1392080703662
started,bundle,org.eclipse.mylyn.context.core,3.2.2.v20090912-0400-e3x,"org.eclipse.mylyn.context.core",1392080704005
started,bundle,org.eclipse.mylyn.context.ui,3.2.2.v20090912-0400-e3x,"org.eclipse.mylyn.context.ui",1392080704125
started,bundle,org.eclipse.mylyn.tasks.ui,3.2.2.v20090912-0400-e3x,"org.eclipse.mylyn.tasks.ui",1392080704517
started,bundle,org.eclipse.mylyn.team.ui,3.2.2.v20090912-0400-e3x,"org.eclipse.mylyn.team.ui",1392080704667
started,bundle,org.eclipse.update.scheduler,3.2.200.v20081127,"org.eclipse.update.scheduler",1392080704701
started,bundle,org.eclipse.update.core,3.2.300.v20090525,"org.eclipse.update.core",1392080704815
started,bundle,org.eclipse.wst.ws.service.policy.ui,1.0.102.v200903070248,"org.eclipse.wst.ws.service.policy.ui",1392080704823
deactivated,workbench,org.eclipse.ui.workbench,3.5.1.M20090826-0800a,"",1392080705737
started,bundle,org.eclipse.mylyn.monitor.ui,3.2.2.v20090912-0400-e3x,"org.eclipse.mylyn.monitor.ui",1392080707248
started,bundle,org.eclipse.wst.sse.core,1.1.401.v200909172215,"org.eclipse.wst.sse.core",1392080708386
started,bundle,com.android.ide.eclipse.adt,12.0.0.v201106281929-138431,"com.android.ide.eclipse.adt",1392080708386
started,bundle,com.android.ide.eclipse.traceview,12.0.0.v201106281929-138431,"com.android.ide.eclipse.traceview",1392080713411
activated,workbench,org.eclipse.ui.workbench,3.5.1.M20090826-0800a,"",1392080719757
deactivated,workbench,org.eclipse.ui.workbench,3.5.1.M20090826-0800a,"",1392081787327
activated,workbench,org.eclipse.ui.workbench,3.5.1.M20090826-0800a,"",1392097527049
deactivated,workbench,org.eclipse.ui.workbench,3.5.1.M20090826-0800a,"",1392097528039
activated,workbench,org.eclipse.ui.workbench,3.5.1.M20090826-0800a,"",1392107612102
deactivated,workbench,org.eclipse.ui.workbench,3.5.1.M20090826-0800a,"",1392107612875
closed,workbench,org.eclipse.ui.workbench,3.5.1.M20090826-0800a,"",1392109312169
