what,kind,bundleId,bundleVersion,description,time
started,bundle,org.eclipse.mylyn.context.ui,3.2.2.v20090912-0400-e3x,"org.eclipse.mylyn.context.ui",1400649439585
error,log,,,"Error validating C:\\Users\\acer\\.android\\devices.xml",1400649440042
started,bundle,org.eclipse.mylyn.tasks.ui,3.2.2.v20090912-0400-e3x,"org.eclipse.mylyn.tasks.ui",1400649442582
started,bundle,org.eclipse.mylyn.team.ui,3.2.2.v20090912-0400-e3x,"org.eclipse.mylyn.team.ui",1400649442649
started,bundle,org.eclipse.update.scheduler,3.2.200.v20081127,"org.eclipse.update.scheduler",1400649442955
started,bundle,org.eclipse.update.core,3.2.300.v20090525,"org.eclipse.update.core",1400649443617
started,bundle,org.eclipse.wst.ws.service.policy.ui,1.0.102.v200903070248,"org.eclipse.wst.ws.service.policy.ui",1400649444229
started,bundle,org.eclipse.mylyn.monitor.ui,3.2.2.v20090912-0400-e3x,"org.eclipse.mylyn.monitor.ui",1400649445056
started,bundle,org.eclipse.jpt.core,2.2.1.v200908270220,"org.eclipse.jpt.core",1400649451617
started,bundle,org.eclipse.jpt.eclipselink.core,1.2.0.v200905310000,"org.eclipse.jpt.eclipselink.core",1400649452163
started,bundle,org.eclipse.jdt.junit,3.5.1.r351_v20090708-0800,"org.eclipse.jdt.junit",1400649781451
started,bundle,org.eclipse.mylyn.java.ui,3.2.2.v20090912-0400-e3x,"org.eclipse.mylyn.java.ui",1400649784695
started,bundle,org.eclipse.pde.api.tools,1.0.101.v20090714,"org.eclipse.pde.api.tools",1400649784821
started,bundle,org.eclipse.pde.api.tools.ui,1.0.101.v20090820,"org.eclipse.pde.api.tools.ui",1400649784871
deactivated,workbench,org.eclipse.ui.workbench,3.5.1.M20090826-0800a,"",1400649803082
activated,workbench,org.eclipse.ui.workbench,3.5.1.M20090826-0800a,"",1400649889294
deactivated,workbench,org.eclipse.ui.workbench,3.5.1.M20090826-0800a,"",1400649905576
activated,workbench,org.eclipse.ui.workbench,3.5.1.M20090826-0800a,"",1400649905840
executed,command,org.eclipse.ui,3.5.1.M20090902-1000,"org.eclipse.ui.edit.delete",1400649947146
executed,command,org.eclipse.ui,3.5.1.M20090902-1000,"org.eclipse.ui.file.save",1400649952492
deactivated,workbench,org.eclipse.ui.workbench,3.5.1.M20090826-0800a,"",1400649972692
activated,workbench,org.eclipse.ui.workbench,3.5.1.M20090826-0800a,"",1400650065968
deactivated,workbench,org.eclipse.ui.workbench,3.5.1.M20090826-0800a,"",1400650066898
activated,workbench,org.eclipse.ui.workbench,3.5.1.M20090826-0800a,"",1400650106089
activated,view,org.eclipse.jdt.ui,3.5.1.r351_v20090821-0800,"org.eclipse.jdt.ui.PackageExplorer",1400650138194
