what,kind,bundleId,bundleVersion,description,time
activated,editor,org.eclipse.jdt.ui,3.5.1.r351_v20090821-0800,"org.eclipse.jdt.ui.CompilationUnitEditor",1416892616803
activated,view,org.eclipse.jdt.ui,3.5.1.r351_v20090821-0800,"org.eclipse.jdt.ui.PackageExplorer",1416892621759
closed,editor,org.eclipse.jdt.ui,3.5.1.r351_v20090821-0800,"org.eclipse.jdt.ui.CompilationUnitEditor",1416892621759
deactivated,workbench,org.eclipse.ui.workbench,3.5.1.M20090826-0800a,"",1416892765652
activated,workbench,org.eclipse.ui.workbench,3.5.1.M20090826-0800a,"",1416892767853
opened,editor,org.eclipse.jdt.ui,3.5.1.r351_v20090821-0800,"org.eclipse.jdt.ui.CompilationUnitEditor",1416892771196
activated,editor,org.eclipse.jdt.ui,3.5.1.r351_v20090821-0800,"org.eclipse.jdt.ui.CompilationUnitEditor",1416892771215
deactivated,workbench,org.eclipse.ui.workbench,3.5.1.M20090826-0800a,"",1416892776479
activated,workbench,org.eclipse.ui.workbench,3.5.1.M20090826-0800a,"",1416892776488
executed,command,org.eclipse.jdt.debug.ui,3.4.1.v20090811_r351,"org.eclipse.jdt.debug.ui.localJavaShortcut.run",1416892780345
opened,view,org.eclipse.ui.console,3.4.0.v20090513,"org.eclipse.ui.console.ConsoleView",1416892786383
activated,view,org.eclipse.ui.console,3.4.0.v20090513,"org.eclipse.ui.console.ConsoleView",1416892786424
started,bundle,org.eclipse.cdt.debug.mi.ui,6.0.0.201002161416,"org.eclipse.cdt.debug.mi.ui",1416892786680
started,bundle,org.eclipse.cdt.debug.mi.core,6.0.0.201002161416,"org.eclipse.cdt.debug.mi.core",1416892786742
activated,editor,org.eclipse.jdt.ui,3.5.1.r351_v20090821-0800,"org.eclipse.jdt.ui.CompilationUnitEditor",1416892788704
deactivated,workbench,org.eclipse.ui.workbench,3.5.1.M20090826-0800a,"",1416892863167
activated,workbench,org.eclipse.ui.workbench,3.5.1.M20090826-0800a,"",1416892868306
activated,view,org.eclipse.jdt.ui,3.5.1.r351_v20090821-0800,"org.eclipse.jdt.ui.PackageExplorer",1416892875116
opened,editor,org.eclipse.jdt.ui,3.5.1.r351_v20090821-0800,"org.eclipse.jdt.ui.CompilationUnitEditor",1416892876149
activated,editor,org.eclipse.jdt.ui,3.5.1.r351_v20090821-0800,"org.eclipse.jdt.ui.CompilationUnitEditor",1416892876211
deactivated,workbench,org.eclipse.ui.workbench,3.5.1.M20090826-0800a,"",1416892883396
activated,workbench,org.eclipse.ui.workbench,3.5.1.M20090826-0800a,"",1416892912604
deactivated,workbench,org.eclipse.ui.workbench,3.5.1.M20090826-0800a,"",1416892976232
activated,workbench,org.eclipse.ui.workbench,3.5.1.M20090826-0800a,"",1416894347655
deactivated,workbench,org.eclipse.ui.workbench,3.5.1.M20090826-0800a,"",1416894348789
