what,kind,bundleId,bundleVersion,description,time
started,bundle,org.eclipse.cdt.debug.mi.core,6.0.0.201002161416,"org.eclipse.cdt.debug.mi.core",1392185916263
activated,view,org.eclipse.ui.console,3.4.0.v20090513,"org.eclipse.ui.console.ConsoleView",1392185918275
activated,editor,org.eclipse.jdt.ui,3.5.1.r351_v20090821-0800,"org.eclipse.jdt.ui.CompilationUnitEditor",1392185922854
executed,command,org.eclipse.ui,3.5.1.M20090902-1000,"org.eclipse.ui.file.save",1392185942211
activated,view,org.eclipse.jdt.ui,3.5.1.r351_v20090821-0800,"org.eclipse.jdt.ui.PackageExplorer",1392185944584
executed,command,org.eclipse.jdt.debug.ui,3.4.1.v20090811_r351,"org.eclipse.jdt.debug.ui.localJavaShortcut.run",1392185948068
activated,view,org.eclipse.ui.console,3.4.0.v20090513,"org.eclipse.ui.console.ConsoleView",1392185949814
activated,editor,org.eclipse.jdt.ui,3.5.1.r351_v20090821-0800,"org.eclipse.jdt.ui.CompilationUnitEditor",1392185956695
deactivated,workbench,org.eclipse.ui.workbench,3.5.1.M20090826-0800a,"",1392186062308
activated,workbench,org.eclipse.ui.workbench,3.5.1.M20090826-0800a,"",1392186067200
deactivated,workbench,org.eclipse.ui.workbench,3.5.1.M20090826-0800a,"",1392186135321
activated,workbench,org.eclipse.ui.workbench,3.5.1.M20090826-0800a,"",1392186183647
deactivated,workbench,org.eclipse.ui.workbench,3.5.1.M20090826-0800a,"",1392186202459
activated,workbench,org.eclipse.ui.workbench,3.5.1.M20090826-0800a,"",1392187980138
deactivated,workbench,org.eclipse.ui.workbench,3.5.1.M20090826-0800a,"",1392187990555
activated,workbench,org.eclipse.ui.workbench,3.5.1.M20090826-0800a,"",1392190387997
deactivated,workbench,org.eclipse.ui.workbench,3.5.1.M20090826-0800a,"",1392190392851
activated,workbench,org.eclipse.ui.workbench,3.5.1.M20090826-0800a,"",1392190394892
deactivated,workbench,org.eclipse.ui.workbench,3.5.1.M20090826-0800a,"",1392190396131
deactivated,workbench,org.eclipse.ui.workbench,3.5.1.M20090826-0800a,"",1392191774991
activated,workbench,org.eclipse.ui.workbench,3.5.1.M20090826-0800a,"",1392191776905
executed,command,,,"AUTOGEN:::org.eclipse.jdt.internal.ui.CompilationUnitEditor.ruler.actions/org.eclipse.jdt.internal.ui.javaeditor.JavaSelectRulerAction",1392191800435
executed,command,,,"AUTOGEN:::org.eclipse.jdt.debug.CompilationUnitEditor.BreakpointRulerActions/org.eclipse.jdt.debug.ui.actions.ManageBreakpointRulerAction",1392191800831
started,bundle,org.eclipse.wst.server.core,1.1.102.v20090825,"org.eclipse.wst.server.core",1392191803131
started,bundle,org.eclipse.wst.server.ui,1.1.103.v20090909,"org.eclipse.wst.server.ui",1392191803171
