what,kind,bundleId,bundleVersion,description,time
closed,editor,com.android.ide.eclipse.adt,12.0.0.v201106281929-138431,"com.android.ide.eclipse.editors.layout.LayoutEditor",1407909414483
closed,editor,com.android.ide.eclipse.adt,12.0.0.v201106281929-138431,"com.android.ide.eclipse.editors.layout.LayoutEditor",1407909415299
activated,view,org.eclipse.jdt.ui,3.5.1.r351_v20090821-0800,"org.eclipse.jdt.ui.PackageExplorer",1407909417448
closed,editor,org.eclipse.jdt.ui,3.5.1.r351_v20090821-0800,"org.eclipse.jdt.ui.CompilationUnitEditor",1407909417448
opened,editor,org.eclipse.jdt.ui,3.5.1.r351_v20090821-0800,"org.eclipse.jdt.ui.CompilationUnitEditor",1407909418738
activated,editor,org.eclipse.jdt.ui,3.5.1.r351_v20090821-0800,"org.eclipse.jdt.ui.CompilationUnitEditor",1407909418758
deactivated,workbench,org.eclipse.ui.workbench,3.5.1.M20090826-0800a,"",1407909420513
activated,workbench,org.eclipse.ui.workbench,3.5.1.M20090826-0800a,"",1407909421263
activated,view,org.eclipse.jdt.ui,3.5.1.r351_v20090821-0800,"org.eclipse.jdt.ui.PackageExplorer",1407909423163
opened,editor,com.android.ide.eclipse.adt,12.0.0.v201106281929-138431,"com.android.ide.eclipse.editors.layout.LayoutEditor",1407909423521
activated,editor,com.android.ide.eclipse.adt,12.0.0.v201106281929-138431,"com.android.ide.eclipse.editors.layout.LayoutEditor",1407909423603
executed,command,org.eclipse.ui,3.5.1.M20090902-1000,"org.eclipse.ui.file.save",1407909451453
deactivated,workbench,org.eclipse.ui.workbench,3.5.1.M20090826-0800a,"",1407909460627
activated,workbench,org.eclipse.ui.workbench,3.5.1.M20090826-0800a,"",1407909461297
executed,command,org.eclipse.wst.sse.ui,1.1.101.v200908261807,"org.eclipse.wst.sse.ui.format.document",1407909463113
executed,command,org.eclipse.ui,3.5.1.M20090902-1000,"org.eclipse.ui.file.save",1407909512749
activated,editor,org.eclipse.jdt.ui,3.5.1.r351_v20090821-0800,"org.eclipse.jdt.ui.CompilationUnitEditor",1407909514489
started,bundle,org.eclipse.mylyn.java.ui,3.2.2.v20090912-0400-e3x,"org.eclipse.mylyn.java.ui",1407909522862
started,bundle,org.eclipse.pde.api.tools,1.0.101.v20090714,"org.eclipse.pde.api.tools",1407909522976
started,bundle,org.eclipse.pde.api.tools.ui,1.0.101.v20090820,"org.eclipse.pde.api.tools.ui",1407909522979
executed,command,org.eclipse.ui,3.5.1.M20090902-1000,"org.eclipse.ui.edit.delete",1407909543279
deactivated,workbench,org.eclipse.ui.workbench,3.5.1.M20090826-0800a,"",1407909569363
activated,workbench,org.eclipse.ui.workbench,3.5.1.M20090826-0800a,"",1407909577737
deactivated,workbench,org.eclipse.ui.workbench,3.5.1.M20090826-0800a,"",1407909585305
activated,workbench,org.eclipse.ui.workbench,3.5.1.M20090826-0800a,"",1407909586654
