what,kind,bundleId,bundleVersion,description,time
activated,editor,org.eclipse.jdt.ui,3.5.1.r351_v20090821-0800,"org.eclipse.jdt.ui.CompilationUnitEditor",1405999056073
activated,editor,org.eclipse.jdt.ui,3.5.1.r351_v20090821-0800,"org.eclipse.jdt.ui.CompilationUnitEditor",1405999063855
activated,editor,org.eclipse.jdt.ui,3.5.1.r351_v20090821-0800,"org.eclipse.jdt.ui.CompilationUnitEditor",1405999065351
activated,editor,org.eclipse.jdt.ui,3.5.1.r351_v20090821-0800,"org.eclipse.jdt.ui.CompilationUnitEditor",1405999068495
executed,command,org.eclipse.ui,3.5.1.M20090902-1000,"org.eclipse.ui.file.save",1405999078580
deactivated,workbench,org.eclipse.ui.workbench,3.5.1.M20090826-0800a,"",1405999080353
activated,workbench,org.eclipse.ui.workbench,3.5.1.M20090826-0800a,"",1405999085407
activated,view,org.eclipse.jdt.ui,3.5.1.r351_v20090821-0800,"org.eclipse.jdt.ui.PackageExplorer",1405999086679
executed,command,,,"com.android.ide.eclipse.adt.debug.launching.LaunchShortcut.run",1405999088740
activated,view,com.android.ide.eclipse.ddms,12.0.0.v201106281929-138431,"com.android.ide.eclipse.ddms.views.LogCatView",1405999094071
deactivated,workbench,org.eclipse.ui.workbench,3.5.1.M20090826-0800a,"",1405999096492
activated,workbench,org.eclipse.ui.workbench,3.5.1.M20090826-0800a,"",1405999105440
deactivated,workbench,org.eclipse.ui.workbench,3.5.1.M20090826-0800a,"",1405999108069
activated,workbench,org.eclipse.ui.workbench,3.5.1.M20090826-0800a,"",1405999121768
activated,editor,org.eclipse.jdt.ui,3.5.1.r351_v20090821-0800,"org.eclipse.jdt.ui.CompilationUnitEditor",1405999121795
activated,editor,org.eclipse.jdt.ui,3.5.1.r351_v20090821-0800,"org.eclipse.jdt.ui.CompilationUnitEditor",1405999122685
deactivated,workbench,org.eclipse.ui.workbench,3.5.1.M20090826-0800a,"",1405999158149
activated,workbench,org.eclipse.ui.workbench,3.5.1.M20090826-0800a,"",1405999159009
deactivated,workbench,org.eclipse.ui.workbench,3.5.1.M20090826-0800a,"",1405999159529
activated,workbench,org.eclipse.ui.workbench,3.5.1.M20090826-0800a,"",1405999160174
activated,view,com.android.ide.eclipse.ddms,12.0.0.v201106281929-138431,"com.android.ide.eclipse.ddms.views.LogCatView",1405999161853
activated,editor,org.eclipse.jdt.ui,3.5.1.r351_v20090821-0800,"org.eclipse.jdt.ui.CompilationUnitEditor",1405999167102
activated,editor,org.eclipse.jdt.ui,3.5.1.r351_v20090821-0800,"org.eclipse.jdt.ui.CompilationUnitEditor",1405999180627
activated,editor,org.eclipse.jdt.ui,3.5.1.r351_v20090821-0800,"org.eclipse.jdt.ui.CompilationUnitEditor",1405999195896
activated,editor,org.eclipse.jdt.ui,3.5.1.r351_v20090821-0800,"org.eclipse.jdt.ui.CompilationUnitEditor",1405999241309
