what,kind,bundleId,bundleVersion,description,time
executed,command,org.eclipse.jdt.debug.ui,3.4.1.v20090811_r351,"org.eclipse.jdt.debug.ui.localJavaShortcut.run",1413427335098
activated,view,org.eclipse.ui.console,3.4.0.v20090513,"org.eclipse.ui.console.ConsoleView",1413427336739
activated,editor,org.eclipse.jdt.ui,3.5.1.r351_v20090821-0800,"org.eclipse.jdt.ui.CompilationUnitEditor",1413427346816
deactivated,workbench,org.eclipse.ui.workbench,3.5.1.M20090826-0800a,"",1413427347996
activated,workbench,org.eclipse.ui.workbench,3.5.1.M20090826-0800a,"",1413427372257
executed,command,org.eclipse.ui,3.5.1.M20090902-1000,"org.eclipse.ui.file.save",1413427377394
executed,command,org.eclipse.ui,3.5.1.M20090902-1000,"org.eclipse.ui.file.save",1413427400006
deactivated,workbench,org.eclipse.ui.workbench,3.5.1.M20090826-0800a,"",1413427400932
activated,workbench,org.eclipse.ui.workbench,3.5.1.M20090826-0800a,"",1413427413186
executed,command,org.eclipse.jdt.debug.ui,3.4.1.v20090811_r351,"org.eclipse.jdt.debug.ui.localJavaShortcut.run",1413427416375
started,bundle,org.eclipse.ant.ui,3.4.1.v20090901_r351,"org.eclipse.ant.ui",1413427418856
opened,view,org.eclipse.ant.ui,3.4.1.v20090901_r351,"org.eclipse.ant.ui.views.AntView",1413427418936
activated,view,org.eclipse.ant.ui,3.4.1.v20090901_r351,"org.eclipse.ant.ui.views.AntView",1413427418972
activated,view,org.eclipse.ui.console,3.4.0.v20090513,"org.eclipse.ui.console.ConsoleView",1413427419311
activated,view,org.eclipse.ant.ui,3.4.1.v20090901_r351,"org.eclipse.ant.ui.views.AntView",1413427420396
activated,view,org.eclipse.ui.console,3.4.0.v20090513,"org.eclipse.ui.console.ConsoleView",1413427421476
activated,editor,org.eclipse.jdt.ui,3.5.1.r351_v20090821-0800,"org.eclipse.jdt.ui.CompilationUnitEditor",1413427434925
executed,command,org.eclipse.ui,3.5.1.M20090902-1000,"org.eclipse.ui.file.save",1413427441922
executed,command,org.eclipse.jdt.debug.ui,3.4.1.v20090811_r351,"org.eclipse.jdt.debug.ui.localJavaShortcut.run",1413427444164
activated,view,org.eclipse.ui.console,3.4.0.v20090513,"org.eclipse.ui.console.ConsoleView",1413427446263
activated,editor,org.eclipse.jdt.ui,3.5.1.r351_v20090821-0800,"org.eclipse.jdt.ui.CompilationUnitEditor",1413427454050
executed,command,org.eclipse.jdt.debug.ui,3.4.1.v20090811_r351,"org.eclipse.jdt.debug.ui.localJavaShortcut.run",1413427464972
activated,view,org.eclipse.ui.console,3.4.0.v20090513,"org.eclipse.ui.console.ConsoleView",1413427466868
deactivated,workbench,org.eclipse.ui.workbench,3.5.1.M20090826-0800a,"",1413427468986
activated,workbench,org.eclipse.ui.workbench,3.5.1.M20090826-0800a,"",1413427480410
