what,kind,bundleId,bundleVersion,description,time
deactivated,workbench,org.eclipse.ui.workbench,3.5.1.M20090826-0800a,"",1413880750807
activated,workbench,org.eclipse.ui.workbench,3.5.1.M20090826-0800a,"",1413880758716
executed,command,org.eclipse.jdt.debug.ui,3.4.1.v20090811_r351,"org.eclipse.jdt.debug.ui.localJavaShortcut.run",1413880761475
deactivated,workbench,org.eclipse.ui.workbench,3.5.1.M20090826-0800a,"",1413880762894
activated,workbench,org.eclipse.ui.workbench,3.5.1.M20090826-0800a,"",1413880767885
executed,command,org.eclipse.ui,3.5.1.M20090902-1000,"org.eclipse.ui.file.save",1413880772899
executed,command,org.eclipse.jdt.debug.ui,3.4.1.v20090811_r351,"org.eclipse.jdt.debug.ui.localJavaShortcut.run",1413880776055
deactivated,workbench,org.eclipse.ui.workbench,3.5.1.M20090826-0800a,"",1413880776805
activated,workbench,org.eclipse.ui.workbench,3.5.1.M20090826-0800a,"",1413880797100
activated,view,org.eclipse.jdt.ui,3.5.1.r351_v20090821-0800,"org.eclipse.jdt.ui.PackageExplorer",1413880799569
deactivated,workbench,org.eclipse.ui.workbench,3.5.1.M20090826-0800a,"",1413880804592
activated,workbench,org.eclipse.ui.workbench,3.5.1.M20090826-0800a,"",1413880826321
opened,editor,org.eclipse.jdt.ui,3.5.1.r351_v20090821-0800,"org.eclipse.jdt.ui.CompilationUnitEditor",1413880826748
activated,editor,org.eclipse.jdt.ui,3.5.1.r351_v20090821-0800,"org.eclipse.jdt.ui.CompilationUnitEditor",1413880826820
executed,command,org.eclipse.ui,3.5.1.M20090902-1000,"org.eclipse.ui.file.save",1413880852736
activated,editor,org.eclipse.jdt.ui,3.5.1.r351_v20090821-0800,"org.eclipse.jdt.ui.CompilationUnitEditor",1413880854608
executed,command,org.eclipse.ui,3.5.1.M20090902-1000,"org.eclipse.ui.file.save",1413880871032
activated,editor,org.eclipse.jdt.ui,3.5.1.r351_v20090821-0800,"org.eclipse.jdt.ui.CompilationUnitEditor",1413880872247
deactivated,workbench,org.eclipse.ui.workbench,3.5.1.M20090826-0800a,"",1413880881398
activated,workbench,org.eclipse.ui.workbench,3.5.1.M20090826-0800a,"",1413880883230
executed,command,org.eclipse.jdt.ui,3.5.1.r351_v20090821-0800,"org.eclipse.jdt.ui.edit.text.java.generate.tostring",1413880883299
executed,command,org.eclipse.ui,3.5.1.M20090902-1000,"org.eclipse.ui.file.save",1413880884476
activated,editor,org.eclipse.jdt.ui,3.5.1.r351_v20090821-0800,"org.eclipse.jdt.ui.CompilationUnitEditor",1413880886312
executed,command,org.eclipse.jdt.debug.ui,3.4.1.v20090811_r351,"org.eclipse.jdt.debug.ui.localJavaShortcut.run",1413880888934
deactivated,workbench,org.eclipse.ui.workbench,3.5.1.M20090826-0800a,"",1413880889415
