what,kind,bundleId,bundleVersion,description,time
deactivated,workbench,org.eclipse.ui.workbench,3.5.1.M20090826-0800a,"",1398222581680
activated,workbench,org.eclipse.ui.workbench,3.5.1.M20090826-0800a,"",1398222604999
activated,view,com.android.ide.eclipse.ddms,12.0.0.v201106281929-138431,"com.android.ide.eclipse.ddms.views.LogCatView",1398222607553
activated,editor,org.eclipse.jdt.ui,3.5.1.r351_v20090821-0800,"org.eclipse.jdt.ui.CompilationUnitEditor",1398222614290
deactivated,workbench,org.eclipse.ui.workbench,3.5.1.M20090826-0800a,"",1398222624767
activated,workbench,org.eclipse.ui.workbench,3.5.1.M20090826-0800a,"",1398222887051
deactivated,workbench,org.eclipse.ui.workbench,3.5.1.M20090826-0800a,"",1398222990977
activated,workbench,org.eclipse.ui.workbench,3.5.1.M20090826-0800a,"",1398223073224
deactivated,workbench,org.eclipse.ui.workbench,3.5.1.M20090826-0800a,"",1398223074370
activated,workbench,org.eclipse.ui.workbench,3.5.1.M20090826-0800a,"",1398223343454
deactivated,workbench,org.eclipse.ui.workbench,3.5.1.M20090826-0800a,"",1398223386737
activated,workbench,org.eclipse.ui.workbench,3.5.1.M20090826-0800a,"",1398228882110
deactivated,workbench,org.eclipse.ui.workbench,3.5.1.M20090826-0800a,"",1398228882551
activated,workbench,org.eclipse.ui.workbench,3.5.1.M20090826-0800a,"",1398229191130
activated,view,org.eclipse.jdt.ui,3.5.1.r351_v20090821-0800,"org.eclipse.jdt.ui.PackageExplorer",1398229193444
opened,editor,org.eclipse.jdt.ui,3.5.1.r351_v20090821-0800,"org.eclipse.jdt.ui.CompilationUnitEditor",1398229198323
activated,editor,org.eclipse.jdt.ui,3.5.1.r351_v20090821-0800,"org.eclipse.jdt.ui.CompilationUnitEditor",1398229198428
deactivated,workbench,org.eclipse.ui.workbench,3.5.1.M20090826-0800a,"",1398229211241
activated,workbench,org.eclipse.ui.workbench,3.5.1.M20090826-0800a,"",1398230283102
closed,editor,com.android.ide.eclipse.adt,12.0.0.v201106281929-138431,"com.android.ide.eclipse.editors.layout.LayoutEditor",1398230286275
closed,editor,com.android.ide.eclipse.adt,12.0.0.v201106281929-138431,"com.android.ide.eclipse.editors.layout.LayoutEditor",1398230287037
closed,editor,org.eclipse.jdt.ui,3.5.1.r351_v20090821-0800,"org.eclipse.jdt.ui.CompilationUnitEditor",1398230287902
closed,editor,org.eclipse.jdt.ui,3.5.1.r351_v20090821-0800,"org.eclipse.jdt.ui.CompilationUnitEditor",1398230289022
closed,editor,org.eclipse.jdt.ui,3.5.1.r351_v20090821-0800,"org.eclipse.jdt.ui.CompilationUnitEditor",1398230290222
executed,command,org.eclipse.ui,3.5.1.M20090902-1000,"org.eclipse.ui.file.save",1398230327042
