what,kind,bundleId,bundleVersion,description,time
started,bundle,org.eclipse.jdt.junit,3.5.1.r351_v20090708-0800,"org.eclipse.jdt.junit",1396403546446
started,bundle,org.eclipse.cdt.core,5.1.2.201002161416,"org.eclipse.cdt.core",1396403547370
started,bundle,org.eclipse.cdt.core.tests,5.1.2.201002161416,"org.eclipse.cdt.core.tests",1396403547754
started,bundle,org.eclipse.cdt.debug.core,6.0.0.201002161416,"org.eclipse.cdt.debug.core",1396403547869
started,bundle,org.eclipse.cdt.debug.ui,6.0.0.201002161416,"org.eclipse.cdt.debug.ui",1396403547926
started,bundle,org.eclipse.jdt.debug,3.5.0.v20090526,"org.eclipse.jdt.debug",1396403548814
started,bundle,org.eclipse.jdt.debug.ui,3.4.1.v20090811_r351,"org.eclipse.jdt.debug.ui",1396403549368
deactivated,workbench,org.eclipse.ui.workbench,3.5.1.M20090826-0800a,"",1396403553229
activated,workbench,org.eclipse.ui.workbench,3.5.1.M20090826-0800a,"",1396403561139
deactivated,workbench,org.eclipse.ui.workbench,3.5.1.M20090826-0800a,"",1396403563599
activated,workbench,org.eclipse.ui.workbench,3.5.1.M20090826-0800a,"",1396403567556
deactivated,workbench,org.eclipse.ui.workbench,3.5.1.M20090826-0800a,"",1396405502236
activated,workbench,org.eclipse.ui.workbench,3.5.1.M20090826-0800a,"",1396406757845
deactivated,workbench,org.eclipse.ui.workbench,3.5.1.M20090826-0800a,"",1396406758446
activated,workbench,org.eclipse.ui.workbench,3.5.1.M20090826-0800a,"",1396406759736
deactivated,workbench,org.eclipse.ui.workbench,3.5.1.M20090826-0800a,"",1396406760396
activated,workbench,org.eclipse.ui.workbench,3.5.1.M20090826-0800a,"",1396408458001
deactivated,workbench,org.eclipse.ui.workbench,3.5.1.M20090826-0800a,"",1396408458757
activated,workbench,org.eclipse.ui.workbench,3.5.1.M20090826-0800a,"",1396412290865
started,bundle,org.eclipse.wst.server.core,1.1.102.v20090825,"org.eclipse.wst.server.core",1396412292840
started,bundle,org.eclipse.wst.server.ui,1.1.103.v20090909,"org.eclipse.wst.server.ui",1396412292899
started,bundle,org.eclipse.wst.common.emf,1.1.301.v200908181930,"org.eclipse.wst.common.emf",1396412293202
started,bundle,org.eclipse.jst.j2ee.core,1.1.301.v200908181930,"org.eclipse.jst.j2ee.core",1396412293251
started,bundle,org.eclipse.jem,2.0.300.v200901272200,"org.eclipse.jem",1396412293342
started,bundle,org.eclipse.emf.ecore.xmi,2.5.0.v200906151043,"org.eclipse.emf.ecore.xmi",1396412293403
