what,kind,bundleId,bundleVersion,description,time
activated,view,org.eclipse.ui.console,3.4.0.v20090513,"org.eclipse.ui.console.ConsoleView",1396590806931
deactivated,workbench,org.eclipse.ui.workbench,3.5.1.M20090826-0800a,"",1396590819000
activated,workbench,org.eclipse.ui.workbench,3.5.1.M20090826-0800a,"",1396590868102
activated,view,com.android.ide.eclipse.ddms,12.0.0.v201106281929-138431,"com.android.ide.eclipse.ddms.views.LogCatView",1396590869726
deactivated,workbench,org.eclipse.ui.workbench,3.5.1.M20090826-0800a,"",1396590876445
activated,workbench,org.eclipse.ui.workbench,3.5.1.M20090826-0800a,"",1396590878228
activated,editor,com.android.ide.eclipse.adt,12.0.0.v201106281929-138431,"com.android.ide.eclipse.editors.layout.LayoutEditor",1396590885610
deactivated,workbench,org.eclipse.ui.workbench,3.5.1.M20090826-0800a,"",1396590886822
activated,workbench,org.eclipse.ui.workbench,3.5.1.M20090826-0800a,"",1396590887887
deactivated,workbench,org.eclipse.ui.workbench,3.5.1.M20090826-0800a,"",1396590889433
activated,workbench,org.eclipse.ui.workbench,3.5.1.M20090826-0800a,"",1396593830221
deactivated,workbench,org.eclipse.ui.workbench,3.5.1.M20090826-0800a,"",1396593833437
activated,workbench,org.eclipse.ui.workbench,3.5.1.M20090826-0800a,"",1396594726619
deactivated,workbench,org.eclipse.ui.workbench,3.5.1.M20090826-0800a,"",1396594727428
activated,workbench,org.eclipse.ui.workbench,3.5.1.M20090826-0800a,"",1396594728243
activated,editor,org.eclipse.jdt.ui,3.5.1.r351_v20090821-0800,"org.eclipse.jdt.ui.CompilationUnitEditor",1396594731055
activated,editor,com.android.ide.eclipse.adt,12.0.0.v201106281929-138431,"com.android.ide.eclipse.editors.layout.LayoutEditor",1396594731953
closed,editor,org.eclipse.jdt.ui,3.5.1.r351_v20090821-0800,"org.eclipse.jdt.ui.CompilationUnitEditor",1396594731954
activated,view,org.eclipse.jdt.ui,3.5.1.r351_v20090821-0800,"org.eclipse.jdt.ui.PackageExplorer",1396594733471
closed,editor,com.android.ide.eclipse.adt,12.0.0.v201106281929-138431,"com.android.ide.eclipse.editors.layout.LayoutEditor",1396594733471
opened,editor,org.eclipse.jdt.ui,3.5.1.r351_v20090821-0800,"org.eclipse.jdt.ui.CompilationUnitEditor",1396594735844
activated,editor,org.eclipse.jdt.ui,3.5.1.r351_v20090821-0800,"org.eclipse.jdt.ui.CompilationUnitEditor",1396594735928
deactivated,workbench,org.eclipse.ui.workbench,3.5.1.M20090826-0800a,"",1396594738790
activated,workbench,org.eclipse.ui.workbench,3.5.1.M20090826-0800a,"",1396594996211
deactivated,workbench,org.eclipse.ui.workbench,3.5.1.M20090826-0800a,"",1396595009510
