what,kind,bundleId,bundleVersion,description,time
started,bundle,org.eclipse.mylyn.bugzilla.core,3.2.2.v20090912-0400-e3x,"org.eclipse.mylyn.bugzilla.core",1406506721896
started,bundle,org.eclipse.mylyn.bugzilla.ui,3.2.2.v20090912-0400-e3x,"org.eclipse.mylyn.bugzilla.ui",1406506723035
started,bundle,org.eclipse.mylyn.context.core,3.2.2.v20090912-0400-e3x,"org.eclipse.mylyn.context.core",1406506724316
started,bundle,org.eclipse.mylyn.context.ui,3.2.2.v20090912-0400-e3x,"org.eclipse.mylyn.context.ui",1406506724504
started,bundle,org.eclipse.mylyn.tasks.ui,3.2.2.v20090912-0400-e3x,"org.eclipse.mylyn.tasks.ui",1406506726093
started,bundle,org.eclipse.mylyn.team.ui,3.2.2.v20090912-0400-e3x,"org.eclipse.mylyn.team.ui",1406506726172
started,bundle,org.eclipse.update.scheduler,3.2.200.v20081127,"org.eclipse.update.scheduler",1406506726356
error,log,,,"Error validating C:\\Users\\acer\\.android\\devices.xml",1406506726437
started,bundle,org.eclipse.update.core,3.2.300.v20090525,"org.eclipse.update.core",1406506726857
started,bundle,org.eclipse.wst.ws.service.policy.ui,1.0.102.v200903070248,"org.eclipse.wst.ws.service.policy.ui",1406506727002
started,bundle,org.eclipse.mylyn.monitor.ui,3.2.2.v20090912-0400-e3x,"org.eclipse.mylyn.monitor.ui",1406506728008
deactivated,workbench,org.eclipse.ui.workbench,3.5.1.M20090826-0800a,"",1406506805203
activated,workbench,org.eclipse.ui.workbench,3.5.1.M20090826-0800a,"",1406506805214
activated,editor,org.eclipse.jdt.ui,3.5.1.r351_v20090821-0800,"org.eclipse.jdt.ui.CompilationUnitEditor",1406506805938
deactivated,workbench,org.eclipse.ui.workbench,3.5.1.M20090826-0800a,"",1406506829428
activated,workbench,org.eclipse.ui.workbench,3.5.1.M20090826-0800a,"",1406506861343
opened,editor,org.eclipse.jdt.ui,3.5.1.r351_v20090821-0800,"org.eclipse.jdt.ui.CompilationUnitEditor",1406506934695
activated,editor,org.eclipse.jdt.ui,3.5.1.r351_v20090821-0800,"org.eclipse.jdt.ui.CompilationUnitEditor",1406506934753
deactivated,workbench,org.eclipse.ui.workbench,3.5.1.M20090826-0800a,"",1406506960835
activated,workbench,org.eclipse.ui.workbench,3.5.1.M20090826-0800a,"",1406506969478
deactivated,workbench,org.eclipse.ui.workbench,3.5.1.M20090826-0800a,"",1406506970931
activated,workbench,org.eclipse.ui.workbench,3.5.1.M20090826-0800a,"",1406506970942
deactivated,workbench,org.eclipse.ui.workbench,3.5.1.M20090826-0800a,"",1406506971960
activated,workbench,org.eclipse.ui.workbench,3.5.1.M20090826-0800a,"",1406506973047
deactivated,workbench,org.eclipse.ui.workbench,3.5.1.M20090826-0800a,"",1406506973180
