what,kind,bundleId,bundleVersion,description,time
started,bundle,com.android.ide.eclipse.ddms,12.0.0.v201106281929-138431,"com.android.ide.eclipse.ddms",1410751433731
os,sysinfo,,,"win32",1410751433738
arch,sysinfo,,,"x86",1410751433738
ws,sysinfo,,,"win32",1410751433738
locale,sysinfo,,,"zh_CN",1410751433738
processors,sysinfo,,,"4",1410751433738
java.runtime.name,sysinfo,,,"Java(TM) SE Runtime Environment",1410751433738
java.runtime.version,sysinfo,,,"1.6.0_03-b05",1410751433738
java.specification.name,sysinfo,,,"Java Platform API Specification",1410751433738
java.specification.vendor,sysinfo,,,"Sun Microsystems Inc.",1410751433738
java.specification.version,sysinfo,,,"1.6",1410751433738
java.vendor,sysinfo,,,"Sun Microsystems Inc.",1410751433738
java.version,sysinfo,,,"1.6.0_03",1410751433738
java.vm.info,sysinfo,,,"mixed mode",1410751433738
java.vm.name,sysinfo,,,"Java HotSpot(TM) Client VM",1410751433738
java.vm.specification.name,sysinfo,,,"Java Virtual Machine Specification",1410751433738
java.vm.specification.vendor,sysinfo,,,"Sun Microsystems Inc.",1410751433738
java.vm.specification.version,sysinfo,,,"1.0",1410751433738
java.vm.vendor,sysinfo,,,"Sun Microsystems Inc.",1410751433738
java.vm.version,sysinfo,,,"1.6.0_03-b05",1410751433738
started,bundle,org.eclipse.mylyn.commons.ui,3.2.2.v20090912-0400-e3x,"org.eclipse.mylyn.commons.ui",1410751434162
started,bundle,org.eclipse.mylyn.bugzilla.core,3.2.2.v20090912-0400-e3x,"org.eclipse.mylyn.bugzilla.core",1410751434736
started,bundle,org.eclipse.jst.common.project.facet.core,1.4.1.v200908111817,"org.eclipse.jst.common.project.facet.core",1410751434817
opened,editor,org.eclipse.jdt.ui,3.5.1.r351_v20090821-0800,"org.eclipse.jdt.ui.CompilationUnitEditor",1410751435087
activated,editor,org.eclipse.jdt.ui,3.5.1.r351_v20090821-0800,"org.eclipse.jdt.ui.CompilationUnitEditor",1410751435300
