what,kind,bundleId,bundleVersion,description,time
deactivated,workbench,org.eclipse.ui.workbench,3.5.1.M20090826-0800a,"",1412580177545
activated,workbench,org.eclipse.ui.workbench,3.5.1.M20090826-0800a,"",1412580185552
executed,command,org.eclipse.ui,3.5.1.M20090902-1000,"org.eclipse.ui.edit.copy",1412580189899
deactivated,workbench,org.eclipse.ui.workbench,3.5.1.M20090826-0800a,"",1412580190592
activated,workbench,org.eclipse.ui.workbench,3.5.1.M20090826-0800a,"",1412580194821
deactivated,workbench,org.eclipse.ui.workbench,3.5.1.M20090826-0800a,"",1412580195711
activated,workbench,org.eclipse.ui.workbench,3.5.1.M20090826-0800a,"",1412580197769
executed,command,org.eclipse.ui,3.5.1.M20090902-1000,"org.eclipse.ui.edit.copy",1412580202995
deactivated,workbench,org.eclipse.ui.workbench,3.5.1.M20090826-0800a,"",1412580203605
deactivated,workbench,org.eclipse.ui.workbench,3.5.1.M20090826-0800a,"",1412580204530
activated,workbench,org.eclipse.ui.workbench,3.5.1.M20090826-0800a,"",1412580220057
executed,command,org.eclipse.ui,3.5.1.M20090902-1000,"org.eclipse.ui.edit.copy",1412580224224
deactivated,workbench,org.eclipse.ui.workbench,3.5.1.M20090826-0800a,"",1412580224787
deactivated,workbench,org.eclipse.ui.workbench,3.5.1.M20090826-0800a,"",1412580226884
activated,workbench,org.eclipse.ui.workbench,3.5.1.M20090826-0800a,"",1412580241346
executed,command,org.eclipse.ui,3.5.1.M20090902-1000,"org.eclipse.ui.edit.copy",1412580242553
deactivated,workbench,org.eclipse.ui.workbench,3.5.1.M20090826-0800a,"",1412580244068
deactivated,workbench,org.eclipse.ui.workbench,3.5.1.M20090826-0800a,"",1412580245060
activated,workbench,org.eclipse.ui.workbench,3.5.1.M20090826-0800a,"",1412580319858
activated,view,org.eclipse.jdt.ui,3.5.1.r351_v20090821-0800,"org.eclipse.jdt.ui.PackageExplorer",1412580321518
started,bundle,org.eclipse.wst.ws.service.policy,1.0.103.v200905151848,"org.eclipse.wst.ws.service.policy",1412580324319
started,bundle,org.eclipse.wst.command.env,1.0.408.v200903110045,"org.eclipse.wst.command.env",1412580324677
started,bundle,org.eclipse.wst.ws,1.1.103.v200903111822,"org.eclipse.wst.ws",1412580324819
deactivated,workbench,org.eclipse.ui.workbench,3.5.1.M20090826-0800a,"",1412580328269
activated,workbench,org.eclipse.ui.workbench,3.5.1.M20090826-0800a,"",1412580329286
