what,kind,bundleId,bundleVersion,description,time
activated,view,org.eclipse.jdt.ui,3.5.1.r351_v20090821-0800,"org.eclipse.jdt.ui.PackageExplorer",1404977413659
closed,editor,com.android.ide.eclipse.adt,12.0.0.v201106281929-138431,"com.android.ide.eclipse.editors.layout.LayoutEditor",1404977413660
opened,editor,org.eclipse.jdt.ui,3.5.1.r351_v20090821-0800,"org.eclipse.jdt.ui.CompilationUnitEditor",1404977417865
activated,editor,org.eclipse.jdt.ui,3.5.1.r351_v20090821-0800,"org.eclipse.jdt.ui.CompilationUnitEditor",1404977417918
activated,view,org.eclipse.jdt.ui,3.5.1.r351_v20090821-0800,"org.eclipse.jdt.ui.PackageExplorer",1404977420458
closed,editor,org.eclipse.jdt.ui,3.5.1.r351_v20090821-0800,"org.eclipse.jdt.ui.CompilationUnitEditor",1404977420458
opened,editor,org.eclipse.jdt.ui,3.5.1.r351_v20090821-0800,"org.eclipse.jdt.ui.CompilationUnitEditor",1404977426899
activated,editor,org.eclipse.jdt.ui,3.5.1.r351_v20090821-0800,"org.eclipse.jdt.ui.CompilationUnitEditor",1404977426922
deactivated,workbench,org.eclipse.ui.workbench,3.5.1.M20090826-0800a,"",1404977430217
activated,workbench,org.eclipse.ui.workbench,3.5.1.M20090826-0800a,"",1404977449946
deactivated,workbench,org.eclipse.ui.workbench,3.5.1.M20090826-0800a,"",1404977451735
activated,workbench,org.eclipse.ui.workbench,3.5.1.M20090826-0800a,"",1404977451750
deactivated,workbench,org.eclipse.ui.workbench,3.5.1.M20090826-0800a,"",1404977457930
activated,workbench,org.eclipse.ui.workbench,3.5.1.M20090826-0800a,"",1404977508638
executed,command,org.eclipse.jdt.ui,3.5.1.r351_v20090821-0800,"org.eclipse.jdt.ui.edit.text.java.override.methods",1404977508721
deactivated,workbench,org.eclipse.ui.workbench,3.5.1.M20090826-0800a,"",1404977513250
activated,workbench,org.eclipse.ui.workbench,3.5.1.M20090826-0800a,"",1404977523728
activated,view,org.eclipse.jdt.ui,3.5.1.r351_v20090821-0800,"org.eclipse.jdt.ui.PackageExplorer",1404977523756
activated,editor,org.eclipse.jdt.ui,3.5.1.r351_v20090821-0800,"org.eclipse.jdt.ui.CompilationUnitEditor",1404977526798
executed,command,org.eclipse.ui,3.5.1.M20090902-1000,"org.eclipse.ui.edit.copy",1404977527851
executed,command,org.eclipse.ui,3.5.1.M20090902-1000,"org.eclipse.ui.edit.copy",1404977530477
executed,command,org.eclipse.ui,3.5.1.M20090902-1000,"org.eclipse.ui.edit.delete",1404977531042
deactivated,workbench,org.eclipse.ui.workbench,3.5.1.M20090826-0800a,"",1404977536843
activated,workbench,org.eclipse.ui.workbench,3.5.1.M20090826-0800a,"",1404977544999
executed,command,org.eclipse.jdt.ui,3.5.1.r351_v20090821-0800,"org.eclipse.jdt.ui.edit.text.java.override.methods",1404977545043
