what,kind,bundleId,bundleVersion,description,time
executed,command,org.eclipse.ui,3.5.1.M20090902-1000,"org.eclipse.ui.file.save",1399275335064
activated,editor,org.eclipse.jdt.ui,3.5.1.r351_v20090821-0800,"org.eclipse.jdt.ui.CompilationUnitEditor",1399275336525
executed,command,org.eclipse.ui,3.5.1.M20090902-1000,"org.eclipse.ui.file.save",1399275346732
activated,view,com.android.ide.eclipse.ddms,12.0.0.v201106281929-138431,"com.android.ide.eclipse.ddms.views.LogCatView",1399275351285
deactivated,workbench,org.eclipse.ui.workbench,3.5.1.M20090826-0800a,"",1399275355955
activated,workbench,org.eclipse.ui.workbench,3.5.1.M20090826-0800a,"",1399275361700
activated,editor,org.eclipse.jdt.ui,3.5.1.r351_v20090821-0800,"org.eclipse.jdt.ui.CompilationUnitEditor",1399275378051
activated,editor,org.eclipse.jdt.ui,3.5.1.r351_v20090821-0800,"org.eclipse.jdt.ui.CompilationUnitEditor",1399275381922
executed,command,org.eclipse.ui,3.5.1.M20090902-1000,"org.eclipse.ui.edit.copy",1399275387048
executed,command,org.eclipse.ui,3.5.1.M20090902-1000,"org.eclipse.ui.edit.paste",1399275390630
executed,command,org.eclipse.ui,3.5.1.M20090902-1000,"org.eclipse.ui.file.save",1399275392061
activated,view,com.android.ide.eclipse.ddms,12.0.0.v201106281929-138431,"com.android.ide.eclipse.ddms.views.LogCatView",1399275397680
deactivated,workbench,org.eclipse.ui.workbench,3.5.1.M20090826-0800a,"",1399275401227
activated,workbench,org.eclipse.ui.workbench,3.5.1.M20090826-0800a,"",1399275405297
deactivated,workbench,org.eclipse.ui.workbench,3.5.1.M20090826-0800a,"",1399275407157
activated,workbench,org.eclipse.ui.workbench,3.5.1.M20090826-0800a,"",1399275476511
activated,editor,org.eclipse.jdt.ui,3.5.1.r351_v20090821-0800,"org.eclipse.jdt.ui.CompilationUnitEditor",1399275476536
deactivated,workbench,org.eclipse.ui.workbench,3.5.1.M20090826-0800a,"",1399275478153
activated,workbench,org.eclipse.ui.workbench,3.5.1.M20090826-0800a,"",1399277545844
executed,command,org.eclipse.ui,3.5.1.M20090902-1000,"org.eclipse.ui.edit.copy",1399277551943
activated,editor,org.eclipse.jdt.ui,3.5.1.r351_v20090821-0800,"org.eclipse.jdt.ui.CompilationUnitEditor",1399277553007
executed,command,org.eclipse.ui,3.5.1.M20090902-1000,"org.eclipse.ui.edit.paste",1399277556432
executed,command,org.eclipse.ui,3.5.1.M20090902-1000,"org.eclipse.ui.file.save",1399277559888
activated,editor,org.eclipse.jdt.ui,3.5.1.r351_v20090821-0800,"org.eclipse.jdt.ui.CompilationUnitEditor",1399277560645
executed,command,org.eclipse.ui,3.5.1.M20090902-1000,"org.eclipse.ui.edit.copy",1399277564915
