what,kind,bundleId,bundleVersion,description,time
executed,command,org.eclipse.ui.workbench.texteditor,3.5.0.v20090603,"org.eclipse.ui.edit.text.goto.lineEnd",1398232995728
deactivated,workbench,org.eclipse.ui.workbench,3.5.1.M20090826-0800a,"",1398233005562
activated,workbench,org.eclipse.ui.workbench,3.5.1.M20090826-0800a,"",1398233005750
deactivated,workbench,org.eclipse.ui.workbench,3.5.1.M20090826-0800a,"",1398233006051
activated,workbench,org.eclipse.ui.workbench,3.5.1.M20090826-0800a,"",1398233006861
deactivated,workbench,org.eclipse.ui.workbench,3.5.1.M20090826-0800a,"",1398233040715
activated,workbench,org.eclipse.ui.workbench,3.5.1.M20090826-0800a,"",1398233057193
executed,command,org.eclipse.ui,3.5.1.M20090902-1000,"org.eclipse.ui.file.save",1398233071352
deactivated,workbench,org.eclipse.ui.workbench,3.5.1.M20090826-0800a,"",1398233076511
activated,workbench,org.eclipse.ui.workbench,3.5.1.M20090826-0800a,"",1398233100865
activated,view,com.android.ide.eclipse.ddms,12.0.0.v201106281929-138431,"com.android.ide.eclipse.ddms.views.LogCatView",1398233102211
deactivated,workbench,org.eclipse.ui.workbench,3.5.1.M20090826-0800a,"",1398233104882
activated,workbench,org.eclipse.ui.workbench,3.5.1.M20090826-0800a,"",1398233109588
deactivated,workbench,org.eclipse.ui.workbench,3.5.1.M20090826-0800a,"",1398233116147
activated,workbench,org.eclipse.ui.workbench,3.5.1.M20090826-0800a,"",1398233122359
deactivated,workbench,org.eclipse.ui.workbench,3.5.1.M20090826-0800a,"",1398233123802
activated,workbench,org.eclipse.ui.workbench,3.5.1.M20090826-0800a,"",1398233126528
deactivated,workbench,org.eclipse.ui.workbench,3.5.1.M20090826-0800a,"",1398233144161
activated,workbench,org.eclipse.ui.workbench,3.5.1.M20090826-0800a,"",1398233155518
activated,editor,org.eclipse.jdt.ui,3.5.1.r351_v20090821-0800,"org.eclipse.jdt.ui.CompilationUnitEditor",1398233155543
deactivated,workbench,org.eclipse.ui.workbench,3.5.1.M20090826-0800a,"",1398233195515
activated,workbench,org.eclipse.ui.workbench,3.5.1.M20090826-0800a,"",1398233244074
executed,command,org.eclipse.ui,3.5.1.M20090902-1000,"org.eclipse.ui.file.save",1398233299858
executed,command,org.eclipse.ui,3.5.1.M20090902-1000,"org.eclipse.ui.edit.cut",1398233324654
executed,command,org.eclipse.ui,3.5.1.M20090902-1000,"org.eclipse.ui.file.save",1398233357301
