what,kind,bundleId,bundleVersion,description,time
java.specification.vendor,sysinfo,,,"Sun Microsystems Inc.",1416912865561
java.specification.version,sysinfo,,,"1.6",1416912865561
java.vendor,sysinfo,,,"Sun Microsystems Inc.",1416912865561
java.version,sysinfo,,,"1.6.0_03",1416912865561
java.vm.info,sysinfo,,,"mixed mode",1416912865561
java.vm.name,sysinfo,,,"Java HotSpot(TM) Client VM",1416912865561
java.vm.specification.name,sysinfo,,,"Java Virtual Machine Specification",1416912865561
java.vm.specification.vendor,sysinfo,,,"Sun Microsystems Inc.",1416912865561
java.vm.specification.version,sysinfo,,,"1.0",1416912865561
java.vm.vendor,sysinfo,,,"Sun Microsystems Inc.",1416912865561
java.vm.version,sysinfo,,,"1.6.0_03-b05",1416912865561
started,bundle,org.eclipse.mylyn.commons.ui,3.2.2.v20090912-0400-e3x,"org.eclipse.mylyn.commons.ui",1416912865754
started,bundle,org.eclipse.mylyn.bugzilla.core,3.2.2.v20090912-0400-e3x,"org.eclipse.mylyn.bugzilla.core",1416912867203
started,bundle,org.eclipse.mylyn.bugzilla.ui,3.2.2.v20090912-0400-e3x,"org.eclipse.mylyn.bugzilla.ui",1416912867819
started,bundle,org.eclipse.ui.forms,3.4.1.v20090714_35x,"org.eclipse.ui.forms",1416912868201
started,bundle,org.eclipse.mylyn.context.core,3.2.2.v20090912-0400-e3x,"org.eclipse.mylyn.context.core",1416912868321
started,bundle,org.eclipse.mylyn.context.ui,3.2.2.v20090912-0400-e3x,"org.eclipse.mylyn.context.ui",1416912868355
started,bundle,org.eclipse.mylyn.tasks.ui,3.2.2.v20090912-0400-e3x,"org.eclipse.mylyn.tasks.ui",1416912868703
started,bundle,org.eclipse.mylyn.team.ui,3.2.2.v20090912-0400-e3x,"org.eclipse.mylyn.team.ui",1416912868735
started,bundle,org.eclipse.update.scheduler,3.2.200.v20081127,"org.eclipse.update.scheduler",1416912868749
started,bundle,org.eclipse.update.core,3.2.300.v20090525,"org.eclipse.update.core",1416912868927
started,bundle,org.eclipse.wst.ws.service.policy.ui,1.0.102.v200903070248,"org.eclipse.wst.ws.service.policy.ui",1416912868973
started,bundle,org.eclipse.mylyn.monitor.ui,3.2.2.v20090912-0400-e3x,"org.eclipse.mylyn.monitor.ui",1416912869050
started,bundle,org.eclipse.wst.sse.core,1.1.401.v200909172215,"org.eclipse.wst.sse.core",1416912874890
started,bundle,com.android.ide.eclipse.adt,12.0.0.v201106281929-138431,"com.android.ide.eclipse.adt",1416912874890
