what,kind,bundleId,bundleVersion,description,time
started,bundle,org.eclipse.wst.server.ui,1.1.103.v20090909,"org.eclipse.wst.server.ui",1398676757601
started,bundle,org.eclipse.cdt.core,5.1.2.201002161416,"org.eclipse.cdt.core",1398676757989
started,bundle,org.eclipse.cdt.debug.core,6.0.0.201002161416,"org.eclipse.cdt.debug.core",1398676758054
started,bundle,org.eclipse.cdt.debug.ui,6.0.0.201002161416,"org.eclipse.cdt.debug.ui",1398676758157
started,bundle,org.eclipse.cdt.core.tests,5.1.2.201002161416,"org.eclipse.cdt.core.tests",1398676758235
executed,command,org.eclipse.ui,3.5.1.M20090902-1000,"org.eclipse.ui.edit.text.contentAssist.proposals",1398676789406
executed,command,org.eclipse.ui,3.5.1.M20090902-1000,"org.eclipse.ui.edit.delete",1398676827487
executed,command,org.eclipse.ui,3.5.1.M20090902-1000,"org.eclipse.ui.file.save",1398676829883
deactivated,workbench,org.eclipse.ui.workbench,3.5.1.M20090826-0800a,"",1398676831467
activated,workbench,org.eclipse.ui.workbench,3.5.1.M20090826-0800a,"",1398676893651
deactivated,workbench,org.eclipse.ui.workbench,3.5.1.M20090826-0800a,"",1398677112581
activated,workbench,org.eclipse.ui.workbench,3.5.1.M20090826-0800a,"",1398677116416
deactivated,workbench,org.eclipse.ui.workbench,3.5.1.M20090826-0800a,"",1398677123229
activated,workbench,org.eclipse.ui.workbench,3.5.1.M20090826-0800a,"",1398677124515
deactivated,workbench,org.eclipse.ui.workbench,3.5.1.M20090826-0800a,"",1398677127700
activated,workbench,org.eclipse.ui.workbench,3.5.1.M20090826-0800a,"",1398677128972
deactivated,workbench,org.eclipse.ui.workbench,3.5.1.M20090826-0800a,"",1398677136681
activated,workbench,org.eclipse.ui.workbench,3.5.1.M20090826-0800a,"",1398677139270
deactivated,workbench,org.eclipse.ui.workbench,3.5.1.M20090826-0800a,"",1398677146793
activated,workbench,org.eclipse.ui.workbench,3.5.1.M20090826-0800a,"",1398677148524
deactivated,workbench,org.eclipse.ui.workbench,3.5.1.M20090826-0800a,"",1398677149076
activated,workbench,org.eclipse.ui.workbench,3.5.1.M20090826-0800a,"",1398677151110
deactivated,workbench,org.eclipse.ui.workbench,3.5.1.M20090826-0800a,"",1398677153406
activated,workbench,org.eclipse.ui.workbench,3.5.1.M20090826-0800a,"",1398677155229
executed,command,org.eclipse.ui,3.5.1.M20090902-1000,"org.eclipse.ui.file.save",1398677162704
