what,kind,bundleId,bundleVersion,description,time
activated,workbench,org.eclipse.ui.workbench,3.5.1.M20090826-0800a,"",1398236899827
activated,view,com.android.ide.eclipse.ddms,12.0.0.v201106281929-138431,"com.android.ide.eclipse.ddms.views.LogCatView",1398236899993
deactivated,workbench,org.eclipse.ui.workbench,3.5.1.M20090826-0800a,"",1398236901308
activated,workbench,org.eclipse.ui.workbench,3.5.1.M20090826-0800a,"",1398236926415
activated,view,org.eclipse.ui.console,3.4.0.v20090513,"org.eclipse.ui.console.ConsoleView",1398236930170
deactivated,workbench,org.eclipse.ui.workbench,3.5.1.M20090826-0800a,"",1398236931403
activated,workbench,org.eclipse.ui.workbench,3.5.1.M20090826-0800a,"",1398236933958
activated,editor,org.eclipse.jdt.ui,3.5.1.r351_v20090821-0800,"org.eclipse.jdt.ui.CompilationUnitEditor",1398236939002
activated,view,com.android.ide.eclipse.ddms,12.0.0.v201106281929-138431,"com.android.ide.eclipse.ddms.views.LogCatView",1398236944187
activated,view,org.eclipse.ui.console,3.4.0.v20090513,"org.eclipse.ui.console.ConsoleView",1398236945134
activated,editor,org.eclipse.jdt.ui,3.5.1.r351_v20090821-0800,"org.eclipse.jdt.ui.CompilationUnitEditor",1398236945502
activated,view,org.eclipse.ui.console,3.4.0.v20090513,"org.eclipse.ui.console.ConsoleView",1398236946309
deactivated,workbench,org.eclipse.ui.workbench,3.5.1.M20090826-0800a,"",1398236952050
activated,workbench,org.eclipse.ui.workbench,3.5.1.M20090826-0800a,"",1398236958270
activated,editor,org.eclipse.jdt.ui,3.5.1.r351_v20090821-0800,"org.eclipse.jdt.ui.CompilationUnitEditor",1398236958293
deactivated,workbench,org.eclipse.ui.workbench,3.5.1.M20090826-0800a,"",1398236961759
activated,workbench,org.eclipse.ui.workbench,3.5.1.M20090826-0800a,"",1398236964682
activated,view,org.eclipse.ui.console,3.4.0.v20090513,"org.eclipse.ui.console.ConsoleView",1398236964849
deactivated,workbench,org.eclipse.ui.workbench,3.5.1.M20090826-0800a,"",1398236967324
activated,workbench,org.eclipse.ui.workbench,3.5.1.M20090826-0800a,"",1398236968896
activated,view,com.android.ide.eclipse.ddms,12.0.0.v201106281929-138431,"com.android.ide.eclipse.ddms.views.LogCatView",1398236969865
deactivated,workbench,org.eclipse.ui.workbench,3.5.1.M20090826-0800a,"",1398236970708
activated,workbench,org.eclipse.ui.workbench,3.5.1.M20090826-0800a,"",1398236980186
activated,editor,org.eclipse.jdt.ui,3.5.1.r351_v20090821-0800,"org.eclipse.jdt.ui.CompilationUnitEditor",1398236981054
activated,editor,org.eclipse.jdt.ui,3.5.1.r351_v20090821-0800,"org.eclipse.jdt.ui.CompilationUnitEditor",1398236985253
