what,kind,bundleId,bundleVersion,description,time
started,bundle,org.eclipse.mylyn.context.ui,3.2.2.v20090912-0400-e3x,"org.eclipse.mylyn.context.ui",1413642332515
started,bundle,org.eclipse.mylyn.tasks.ui,3.2.2.v20090912-0400-e3x,"org.eclipse.mylyn.tasks.ui",1413642333590
started,bundle,org.eclipse.mylyn.team.ui,3.2.2.v20090912-0400-e3x,"org.eclipse.mylyn.team.ui",1413642333659
started,bundle,org.eclipse.update.scheduler,3.2.200.v20081127,"org.eclipse.update.scheduler",1413642333778
started,bundle,org.eclipse.update.core,3.2.300.v20090525,"org.eclipse.update.core",1413642334191
started,bundle,org.eclipse.wst.ws.service.policy.ui,1.0.102.v200903070248,"org.eclipse.wst.ws.service.policy.ui",1413642334391
started,bundle,org.eclipse.mylyn.monitor.ui,3.2.2.v20090912-0400-e3x,"org.eclipse.mylyn.monitor.ui",1413642334974
started,bundle,org.eclipse.wst.sse.core,1.1.401.v200909172215,"org.eclipse.wst.sse.core",1413642343662
started,bundle,com.android.ide.eclipse.adt,12.0.0.v201106281929-138431,"com.android.ide.eclipse.adt",1413642343734
started,bundle,com.android.ide.eclipse.traceview,12.0.0.v201106281929-138431,"com.android.ide.eclipse.traceview",1413642344517
error,log,,,"Failed to load properties file for project 'FoodAndroidMobile'",1413642345702
opened,view,org.eclipse.ui.console,3.4.0.v20090513,"org.eclipse.ui.console.ConsoleView",1413642347082
activated,view,org.eclipse.ui.console,3.4.0.v20090513,"org.eclipse.ui.console.ConsoleView",1413642347168
deactivated,workbench,org.eclipse.ui.workbench,3.5.1.M20090826-0800a,"",1413642360733
activated,workbench,org.eclipse.ui.workbench,3.5.1.M20090826-0800a,"",1413642364553
activated,editor,org.eclipse.jdt.ui,3.5.1.r351_v20090821-0800,"org.eclipse.jdt.ui.CompilationUnitEditor",1413642365710
deactivated,workbench,org.eclipse.ui.workbench,3.5.1.M20090826-0800a,"",1413642368254
error,log,,,"Failed to load properties file for project 'FoodAndroidMobile'",1413642383719
error,log,,,"Error validating C:\\Users\\acer\\.android\\devices.xml",1413642402065
started,bundle,org.eclipse.epp.usagedata.ui,1.1.0.R200906100410,"org.eclipse.epp.usagedata.ui",1413642449500
deactivated,workbench,org.eclipse.ui.workbench,3.5.1.M20090826-0800a,"",1413647595249
activated,workbench,org.eclipse.ui.workbench,3.5.1.M20090826-0800a,"",1413647595525
activated,view,org.eclipse.jdt.ui,3.5.1.r351_v20090821-0800,"org.eclipse.jdt.ui.PackageExplorer",1413647597207
activated,editor,org.eclipse.jdt.ui,3.5.1.r351_v20090821-0800,"org.eclipse.jdt.ui.CompilationUnitEditor",1413647598892
activated,view,org.eclipse.jdt.ui,3.5.1.r351_v20090821-0800,"org.eclipse.jdt.ui.PackageExplorer",1413647600825
