what,kind,bundleId,bundleVersion,description,time
deactivated,workbench,org.eclipse.ui.workbench,3.5.1.M20090826-0800a,"",1407379956643
activated,workbench,org.eclipse.ui.workbench,3.5.1.M20090826-0800a,"",1407379995181
deactivated,workbench,org.eclipse.ui.workbench,3.5.1.M20090826-0800a,"",1407380003660
activated,workbench,org.eclipse.ui.workbench,3.5.1.M20090826-0800a,"",1407380005368
executed,command,org.eclipse.ui,3.5.1.M20090902-1000,"org.eclipse.ui.file.save",1407380012894
activated,view,org.eclipse.jdt.ui,3.5.1.r351_v20090821-0800,"org.eclipse.jdt.ui.PackageExplorer",1407380019907
closed,editor,com.android.ide.eclipse.adt,12.0.0.v201106281929-138431,"com.android.ide.eclipse.editors.manifest.ManifestEditor",1407380019907
opened,editor,com.android.ide.eclipse.adt,12.0.0.v201106281929-138431,"com.android.ide.eclipse.editors.layout.LayoutEditor",1407380024032
activated,editor,com.android.ide.eclipse.adt,12.0.0.v201106281929-138431,"com.android.ide.eclipse.editors.layout.LayoutEditor",1407380024044
deactivated,workbench,org.eclipse.ui.workbench,3.5.1.M20090826-0800a,"",1407380028046
started,bundle,org.eclipse.draw2d,3.5.1.v20090813-1341,"org.eclipse.draw2d",1407380062804
activated,workbench,org.eclipse.ui.workbench,3.5.1.M20090826-0800a,"",1407380150374
activated,view,org.eclipse.jdt.ui,3.5.1.r351_v20090821-0800,"org.eclipse.jdt.ui.PackageExplorer",1407380150390
activated,editor,com.android.ide.eclipse.adt,12.0.0.v201106281929-138431,"com.android.ide.eclipse.editors.layout.LayoutEditor",1407380155319
executed,command,org.eclipse.ui,3.5.1.M20090902-1000,"org.eclipse.ui.edit.delete",1407380257405
deactivated,workbench,org.eclipse.ui.workbench,3.5.1.M20090826-0800a,"",1407380271940
activated,workbench,org.eclipse.ui.workbench,3.5.1.M20090826-0800a,"",1407380279831
deactivated,workbench,org.eclipse.ui.workbench,3.5.1.M20090826-0800a,"",1407380280542
activated,workbench,org.eclipse.ui.workbench,3.5.1.M20090826-0800a,"",1407380289041
executed,command,org.eclipse.ui,3.5.1.M20090902-1000,"org.eclipse.ui.edit.selectAll",1407380297927
deactivated,workbench,org.eclipse.ui.workbench,3.5.1.M20090826-0800a,"",1407380302451
activated,workbench,org.eclipse.ui.workbench,3.5.1.M20090826-0800a,"",1407380302810
executed,command,org.eclipse.wst.sse.ui,1.1.101.v200908261807,"org.eclipse.wst.sse.ui.format.document",1407380307266
executed,command,org.eclipse.ui,3.5.1.M20090902-1000,"org.eclipse.ui.file.save",1407380355150
deactivated,workbench,org.eclipse.ui.workbench,3.5.1.M20090826-0800a,"",1407380357010
