what,kind,bundleId,bundleVersion,description,time
activated,editor,com.android.ide.eclipse.adt,12.0.0.v201106281929-138431,"com.android.ide.eclipse.editors.layout.LayoutEditor",1407484061011
closed,editor,org.eclipse.jdt.ui,3.5.1.r351_v20090821-0800,"org.eclipse.jdt.ui.CompilationUnitEditor",1407484061011
deactivated,workbench,org.eclipse.ui.workbench,3.5.1.M20090826-0800a,"",1407484061041
activated,workbench,org.eclipse.ui.workbench,3.5.1.M20090826-0800a,"",1407484061074
started,bundle,org.eclipse.wst.wsdl.validation,1.1.401.v200902271605,"org.eclipse.wst.wsdl.validation",1407484061411
started,bundle,org.eclipse.jst.j2ee.web,1.1.301.v200908270924,"org.eclipse.jst.j2ee.web",1407484061628
started,bundle,org.eclipse.jst.j2ee.jca,1.1.300.v200903120000,"org.eclipse.jst.j2ee.jca",1407484061659
started,bundle,org.eclipse.wst.xsd.core,1.1.401.v200903020335,"org.eclipse.wst.xsd.core",1407484061703
started,bundle,org.eclipse.wst.jsdt.core,1.0.201.v200908101420,"org.eclipse.wst.jsdt.core",1407484062575
started,bundle,org.eclipse.wst.jsdt.web.core,1.0.200.v200905120445,"org.eclipse.wst.jsdt.web.core",1407484062644
started,bundle,org.eclipse.wst.html.ui,1.0.401.v200908111935,"org.eclipse.wst.html.ui",1407484062650
started,bundle,org.eclipse.wst.dtd.core,1.1.300.v200904181727,"org.eclipse.wst.dtd.core",1407484062730
started,bundle,org.eclipse.wst.internet.cache,1.0.301.v200805140020,"org.eclipse.wst.internet.cache",1407484062852
activated,view,org.eclipse.jdt.ui,3.5.1.r351_v20090821-0800,"org.eclipse.jdt.ui.PackageExplorer",1407484062895
closed,editor,com.android.ide.eclipse.adt,12.0.0.v201106281929-138431,"com.android.ide.eclipse.editors.layout.LayoutEditor",1407484062895
deactivated,workbench,org.eclipse.ui.workbench,3.5.1.M20090826-0800a,"",1407484066183
activated,workbench,org.eclipse.ui.workbench,3.5.1.M20090826-0800a,"",1407484069758
deactivated,workbench,org.eclipse.ui.workbench,3.5.1.M20090826-0800a,"",1407484070488
activated,workbench,org.eclipse.ui.workbench,3.5.1.M20090826-0800a,"",1407484178084
deactivated,workbench,org.eclipse.ui.workbench,3.5.1.M20090826-0800a,"",1407484178596
activated,workbench,org.eclipse.ui.workbench,3.5.1.M20090826-0800a,"",1407485531543
deactivated,workbench,org.eclipse.ui.workbench,3.5.1.M20090826-0800a,"",1407485539187
activated,workbench,org.eclipse.ui.workbench,3.5.1.M20090826-0800a,"",1407485540401
executed,command,org.eclipse.ui.ide,3.5.1.M20090826-0800,"org.eclipse.ui.project.openProject",1407485540437
opened,editor,org.eclipse.jdt.ui,3.5.1.r351_v20090821-0800,"org.eclipse.jdt.ui.CompilationUnitEditor",1407485544727
