what,kind,bundleId,bundleVersion,description,time
error,log,,,"Error validating C:\\Users\\acer\\.android\\devices.xml",1400076276826
started,bundle,org.eclipse.mylyn.context.core,3.2.2.v20090912-0400-e3x,"org.eclipse.mylyn.context.core",1400076281031
started,bundle,org.eclipse.mylyn.context.ui,3.2.2.v20090912-0400-e3x,"org.eclipse.mylyn.context.ui",1400076281793
started,bundle,org.eclipse.mylyn.tasks.ui,3.2.2.v20090912-0400-e3x,"org.eclipse.mylyn.tasks.ui",1400076283822
started,bundle,org.eclipse.mylyn.team.ui,3.2.2.v20090912-0400-e3x,"org.eclipse.mylyn.team.ui",1400076283905
started,bundle,org.eclipse.update.scheduler,3.2.200.v20081127,"org.eclipse.update.scheduler",1400076284127
started,bundle,org.eclipse.update.core,3.2.300.v20090525,"org.eclipse.update.core",1400076284794
started,bundle,org.eclipse.wst.ws.service.policy.ui,1.0.102.v200903070248,"org.eclipse.wst.ws.service.policy.ui",1400076284994
started,bundle,org.eclipse.mylyn.monitor.ui,3.2.2.v20090912-0400-e3x,"org.eclipse.mylyn.monitor.ui",1400076285283
started,bundle,org.eclipse.jpt.core,2.2.1.v200908270220,"org.eclipse.jpt.core",1400076287649
started,bundle,org.eclipse.jpt.eclipselink.core,1.2.0.v200905310000,"org.eclipse.jpt.eclipselink.core",1400076287819
deactivated,workbench,org.eclipse.ui.workbench,3.5.1.M20090826-0800a,"",1400076528047
activated,workbench,org.eclipse.ui.workbench,3.5.1.M20090826-0800a,"",1400076533833
deactivated,workbench,org.eclipse.ui.workbench,3.5.1.M20090826-0800a,"",1400076541157
activated,workbench,org.eclipse.ui.workbench,3.5.1.M20090826-0800a,"",1400076544497
deactivated,workbench,org.eclipse.ui.workbench,3.5.1.M20090826-0800a,"",1400076544528
activated,workbench,org.eclipse.ui.workbench,3.5.1.M20090826-0800a,"",1400076545672
deactivated,workbench,org.eclipse.ui.workbench,3.5.1.M20090826-0800a,"",1400076545825
activated,workbench,org.eclipse.ui.workbench,3.5.1.M20090826-0800a,"",1400076553190
opened,editor,org.eclipse.jdt.ui,3.5.1.r351_v20090821-0800,"org.eclipse.jdt.ui.CompilationUnitEditor",1400076558829
activated,editor,org.eclipse.jdt.ui,3.5.1.r351_v20090821-0800,"org.eclipse.jdt.ui.CompilationUnitEditor",1400076559259
started,bundle,org.eclipse.jdt.junit,3.5.1.r351_v20090708-0800,"org.eclipse.jdt.junit",1400076559686
deactivated,workbench,org.eclipse.ui.workbench,3.5.1.M20090826-0800a,"",1400076604164
activated,workbench,org.eclipse.ui.workbench,3.5.1.M20090826-0800a,"",1400076608123
deactivated,workbench,org.eclipse.ui.workbench,3.5.1.M20090826-0800a,"",1400076612090
