what,kind,bundleId,bundleVersion,description,time
activated,workbench,org.eclipse.ui.workbench,3.5.1.M20090826-0800a,"",1378879376261
deactivated,workbench,org.eclipse.ui.workbench,3.5.1.M20090826-0800a,"",1378879382526
activated,workbench,org.eclipse.ui.workbench,3.5.1.M20090826-0800a,"",1378879383339
error,log,,,"缺少“Media_Scan”的项目描述文件（.project）。此文件包含有关项目的重要信息。项目将在复原此文件之后才能正常工作。",1378879383396
error,log,,,"打开选择的资源时发生了问题。",1378879383407
deactivated,workbench,org.eclipse.ui.workbench,3.5.1.M20090826-0800a,"",1378879383901
activated,workbench,org.eclipse.ui.workbench,3.5.1.M20090826-0800a,"",1378879387723
deactivated,workbench,org.eclipse.ui.workbench,3.5.1.M20090826-0800a,"",1378879389782
activated,workbench,org.eclipse.ui.workbench,3.5.1.M20090826-0800a,"",1378879401155
started,bundle,org.eclipse.debug.ui,3.5.1.v20090811_r351,"org.eclipse.debug.ui",1378879407325
started,bundle,org.eclipse.cdt.debug.core,6.0.0.201002161416,"org.eclipse.cdt.debug.core",1378879411809
started,bundle,org.eclipse.cdt.debug.ui,6.0.0.201002161416,"org.eclipse.cdt.debug.ui",1378879412391
deactivated,workbench,org.eclipse.ui.workbench,3.5.1.M20090826-0800a,"",1378879413218
activated,workbench,org.eclipse.ui.workbench,3.5.1.M20090826-0800a,"",1378879413237
started,bundle,org.eclipse.jdt.debug,3.5.0.v20090526,"org.eclipse.jdt.debug",1378879417092
closed,workbench,org.eclipse.ui.workbench,3.5.1.M20090826-0800a,"",1378879420784
