what,kind,bundleId,bundleVersion,description,time
executed,command,org.eclipse.ui,3.5.1.M20090902-1000,"org.eclipse.ui.edit.copy",1405506048844
deactivated,workbench,org.eclipse.ui.workbench,3.5.1.M20090826-0800a,"",1405506089481
activated,workbench,org.eclipse.ui.workbench,3.5.1.M20090826-0800a,"",1405506094972
executed,command,org.eclipse.ui,3.5.1.M20090902-1000,"org.eclipse.ui.edit.copy",1405506110284
executed,command,org.eclipse.ui,3.5.1.M20090902-1000,"org.eclipse.ui.file.save",1405506119881
deactivated,workbench,org.eclipse.ui.workbench,3.5.1.M20090826-0800a,"",1405506122852
activated,workbench,org.eclipse.ui.workbench,3.5.1.M20090826-0800a,"",1405506144317
deactivated,workbench,org.eclipse.ui.workbench,3.5.1.M20090826-0800a,"",1405506154975
activated,workbench,org.eclipse.ui.workbench,3.5.1.M20090826-0800a,"",1405506312442
deactivated,workbench,org.eclipse.ui.workbench,3.5.1.M20090826-0800a,"",1405506313244
activated,workbench,org.eclipse.ui.workbench,3.5.1.M20090826-0800a,"",1405506314095
activated,view,org.eclipse.jdt.ui,3.5.1.r351_v20090821-0800,"org.eclipse.jdt.ui.PackageExplorer",1405506315111
executed,command,,,"com.android.ide.eclipse.adt.debug.launching.LaunchShortcut.run",1405506317227
activated,view,com.android.ide.eclipse.ddms,12.0.0.v201106281929-138431,"com.android.ide.eclipse.ddms.views.LogCatView",1405506318322
deactivated,workbench,org.eclipse.ui.workbench,3.5.1.M20090826-0800a,"",1405506321471
activated,workbench,org.eclipse.ui.workbench,3.5.1.M20090826-0800a,"",1405506368157
activated,editor,org.eclipse.jdt.ui,3.5.1.r351_v20090821-0800,"org.eclipse.jdt.ui.CompilationUnitEditor",1405506372008
deactivated,workbench,org.eclipse.ui.workbench,3.5.1.M20090826-0800a,"",1405506373479
activated,workbench,org.eclipse.ui.workbench,3.5.1.M20090826-0800a,"",1405506413791
executed,command,org.eclipse.ui,3.5.1.M20090902-1000,"org.eclipse.ui.edit.copy",1405506432415
activated,view,org.eclipse.jdt.ui,3.5.1.r351_v20090821-0800,"org.eclipse.jdt.ui.PackageExplorer",1405506437751
activated,editor,org.eclipse.jdt.ui,3.5.1.r351_v20090821-0800,"org.eclipse.jdt.ui.CompilationUnitEditor",1405506439582
activated,editor,org.eclipse.jdt.ui,3.5.1.r351_v20090821-0800,"org.eclipse.jdt.ui.CompilationUnitEditor",1405506440764
executed,command,org.eclipse.ui,3.5.1.M20090902-1000,"org.eclipse.ui.edit.copy",1405506481364
executed,command,org.eclipse.ui,3.5.1.M20090902-1000,"org.eclipse.ui.edit.copy",1405506488523
