what,kind,bundleId,bundleVersion,description,time
executed,command,org.eclipse.ui.ide,3.5.1.M20090826-0800,"org.eclipse.ui.project.openProject",1406179279157
error,log,,,"打开选择的资源时发生了问题。",1406179279253
error,log,,,"缺少“UI_Of_Player”的项目描述文件（.project）。此文件包含有关项目的重要信息。项目将在复原此文件之后才能正常工作。",1406179279254
deactivated,workbench,org.eclipse.ui.workbench,3.5.1.M20090826-0800a,"",1406179279910
activated,workbench,org.eclipse.ui.workbench,3.5.1.M20090826-0800a,"",1406179281604
deactivated,workbench,org.eclipse.ui.workbench,3.5.1.M20090826-0800a,"",1406179285635
activated,workbench,org.eclipse.ui.workbench,3.5.1.M20090826-0800a,"",1406179286826
error,log,,,"缺少“UI_Of_Player”的项目描述文件（.project）。此文件包含有关项目的重要信息。项目将在复原此文件之后才能正常工作。",1406179286840
executed,command,org.eclipse.ui.ide,3.5.1.M20090826-0800,"org.eclipse.ui.project.openProject",1406179286841
error,log,,,"打开选择的资源时发生了问题。",1406179286845
deactivated,workbench,org.eclipse.ui.workbench,3.5.1.M20090826-0800a,"",1406179287150
activated,workbench,org.eclipse.ui.workbench,3.5.1.M20090826-0800a,"",1406179289183
deactivated,workbench,org.eclipse.ui.workbench,3.5.1.M20090826-0800a,"",1406179307936
activated,workbench,org.eclipse.ui.workbench,3.5.1.M20090826-0800a,"",1406179308951
executed,command,org.eclipse.ui.ide,3.5.1.M20090826-0800,"org.eclipse.ui.project.openProject",1406179308962
executed,command,org.eclipse.ui.ide,3.5.1.M20090826-0800,"org.eclipse.ui.project.closeProject",1406179316503
deactivated,workbench,org.eclipse.ui.workbench,3.5.1.M20090826-0800a,"",1406179316845
activated,workbench,org.eclipse.ui.workbench,3.5.1.M20090826-0800a,"",1406179316912
deactivated,workbench,org.eclipse.ui.workbench,3.5.1.M20090826-0800a,"",1406179321712
activated,workbench,org.eclipse.ui.workbench,3.5.1.M20090826-0800a,"",1406179322643
executed,command,org.eclipse.ui.ide,3.5.1.M20090826-0800,"org.eclipse.ui.project.openProject",1406179322656
executed,command,org.eclipse.ui.ide,3.5.1.M20090826-0800,"org.eclipse.ui.project.closeProject",1406179331078
opened,editor,org.eclipse.jdt.ui,3.5.1.r351_v20090821-0800,"org.eclipse.jdt.ui.CompilationUnitEditor",1406179401994
activated,editor,org.eclipse.jdt.ui,3.5.1.r351_v20090821-0800,"org.eclipse.jdt.ui.CompilationUnitEditor",1406179402062
activated,view,org.eclipse.jdt.ui,3.5.1.r351_v20090821-0800,"org.eclipse.jdt.ui.PackageExplorer",1406179410259
