what,kind,bundleId,bundleVersion,description,time
activated,workbench,org.eclipse.ui.workbench,3.5.1.M20090826-0800a,"",1396578855501
deactivated,workbench,org.eclipse.ui.workbench,3.5.1.M20090826-0800a,"",1396578856346
activated,workbench,org.eclipse.ui.workbench,3.5.1.M20090826-0800a,"",1396578873416
activated,editor,com.android.ide.eclipse.adt,12.0.0.v201106281929-138431,"com.android.ide.eclipse.editors.layout.LayoutEditor",1396578874299
activated,view,org.eclipse.jdt.ui,3.5.1.r351_v20090821-0800,"org.eclipse.jdt.ui.PackageExplorer",1396578877458
started,bundle,org.eclipse.wst.ws.service.policy,1.0.103.v200905151848,"org.eclipse.wst.ws.service.policy",1396578877708
started,bundle,org.eclipse.wst.command.env,1.0.408.v200903110045,"org.eclipse.wst.command.env",1396578877793
started,bundle,org.eclipse.wst.ws,1.1.103.v200903111822,"org.eclipse.wst.ws",1396578877819
started,bundle,org.eclipse.compare,3.5.0.I20090514-0808,"org.eclipse.compare",1396578878535
executed,command,org.eclipse.ui.ide,3.5.1.M20090826-0800,"org.eclipse.ui.project.closeProject",1396578887615
deactivated,workbench,org.eclipse.ui.workbench,3.5.1.M20090826-0800a,"",1396578899008
activated,workbench,org.eclipse.ui.workbench,3.5.1.M20090826-0800a,"",1396578915902
executed,command,org.eclipse.ui.ide,3.5.1.M20090826-0800,"org.eclipse.ui.project.cleanAction",1396578915910
deactivated,workbench,org.eclipse.ui.workbench,3.5.1.M20090826-0800a,"",1396578916303
activated,workbench,org.eclipse.ui.workbench,3.5.1.M20090826-0800a,"",1396578917027
deactivated,workbench,org.eclipse.ui.workbench,3.5.1.M20090826-0800a,"",1396578945040
activated,workbench,org.eclipse.ui.workbench,3.5.1.M20090826-0800a,"",1396578948134
activated,editor,com.android.ide.eclipse.adt,12.0.0.v201106281929-138431,"com.android.ide.eclipse.editors.layout.LayoutEditor",1396578948947
opened,editor,org.eclipse.jdt.ui,3.5.1.r351_v20090821-0800,"org.eclipse.jdt.ui.CompilationUnitEditor",1396578952458
activated,editor,org.eclipse.jdt.ui,3.5.1.r351_v20090821-0800,"org.eclipse.jdt.ui.CompilationUnitEditor",1396578952745
activated,view,org.eclipse.jdt.ui,3.5.1.r351_v20090821-0800,"org.eclipse.jdt.ui.PackageExplorer",1396578955804
activated,editor,com.android.ide.eclipse.adt,12.0.0.v201106281929-138431,"com.android.ide.eclipse.editors.layout.LayoutEditor",1396578971824
activated,view,org.eclipse.ui.console,3.4.0.v20090513,"org.eclipse.ui.console.ConsoleView",1396578987100
activated,editor,com.android.ide.eclipse.adt,12.0.0.v201106281929-138431,"com.android.ide.eclipse.editors.layout.LayoutEditor",1396578987186
activated,view,org.eclipse.jdt.ui,3.5.1.r351_v20090821-0800,"org.eclipse.jdt.ui.PackageExplorer",1396579069963
