what,kind,bundleId,bundleVersion,description,time
deactivated,workbench,org.eclipse.ui.workbench,3.5.1.M20090826-0800a,"",1397711587653
activated,workbench,org.eclipse.ui.workbench,3.5.1.M20090826-0800a,"",1397711588472
activated,editor,org.eclipse.jdt.ui,3.5.1.r351_v20090821-0800,"org.eclipse.jdt.ui.CompilationUnitEditor",1397711589788
deactivated,workbench,org.eclipse.ui.workbench,3.5.1.M20090826-0800a,"",1397712757411
activated,workbench,org.eclipse.ui.workbench,3.5.1.M20090826-0800a,"",1397712760108
activated,view,org.eclipse.jdt.ui,3.5.1.r351_v20090821-0800,"org.eclipse.jdt.ui.PackageExplorer",1397712763939
deactivated,workbench,org.eclipse.ui.workbench,3.5.1.M20090826-0800a,"",1397712774862
activated,workbench,org.eclipse.ui.workbench,3.5.1.M20090826-0800a,"",1397715140083
activated,editor,org.eclipse.jdt.ui,3.5.1.r351_v20090821-0800,"org.eclipse.jdt.ui.CompilationUnitEditor",1397715140900
activated,view,org.eclipse.jdt.ui,3.5.1.r351_v20090821-0800,"org.eclipse.jdt.ui.PackageExplorer",1397715149018
opened,editor,org.eclipse.jdt.ui,3.5.1.r351_v20090821-0800,"org.eclipse.jdt.ui.CompilationUnitEditor",1397715149357
activated,editor,org.eclipse.jdt.ui,3.5.1.r351_v20090821-0800,"org.eclipse.jdt.ui.CompilationUnitEditor",1397715149420
activated,view,org.eclipse.jdt.ui,3.5.1.r351_v20090821-0800,"org.eclipse.jdt.ui.PackageExplorer",1397715153261
opened,editor,org.eclipse.jdt.ui,3.5.1.r351_v20090821-0800,"org.eclipse.jdt.ui.CompilationUnitEditor",1397715153567
activated,editor,org.eclipse.jdt.ui,3.5.1.r351_v20090821-0800,"org.eclipse.jdt.ui.CompilationUnitEditor",1397715153616
deactivated,workbench,org.eclipse.ui.workbench,3.5.1.M20090826-0800a,"",1397716108199
activated,workbench,org.eclipse.ui.workbench,3.5.1.M20090826-0800a,"",1397716125978
deactivated,workbench,org.eclipse.ui.workbench,3.5.1.M20090826-0800a,"",1397716129791
activated,workbench,org.eclipse.ui.workbench,3.5.1.M20090826-0800a,"",1397716136393
started,bundle,org.eclipse.mylyn.java.tasks,3.2.2.v20090912-0400-e3x,"org.eclipse.mylyn.java.tasks",1397716137120
executed,command,org.eclipse.ui,3.5.1.M20090902-1000,"org.eclipse.ui.edit.paste",1397716137146
started,bundle,org.eclipse.jdt.debug,3.5.0.v20090526,"org.eclipse.jdt.debug",1397716149474
started,bundle,org.eclipse.debug.ui,3.5.1.v20090811_r351,"org.eclipse.debug.ui",1397716149724
started,bundle,org.eclipse.jdt.debug.ui,3.4.1.v20090811_r351,"org.eclipse.jdt.debug.ui",1397716149874
executed,command,org.eclipse.ui,3.5.1.M20090902-1000,"org.eclipse.ui.file.save",1397716151126
