what,kind,bundleId,bundleVersion,description,time
activated,editor,org.eclipse.jdt.ui,3.5.1.r351_v20090821-0800,"org.eclipse.jdt.ui.CompilationUnitEditor",1389578049723
activated,editor,org.eclipse.jdt.ui,3.5.1.r351_v20090821-0800,"org.eclipse.jdt.ui.CompilationUnitEditor",1389578062001
closed,editor,org.eclipse.jdt.ui,3.5.1.r351_v20090821-0800,"org.eclipse.jdt.ui.CompilationUnitEditor",1389578062001
activated,view,org.eclipse.jdt.ui,3.5.1.r351_v20090821-0800,"org.eclipse.jdt.ui.PackageExplorer",1389578073681
opened,editor,org.eclipse.jdt.ui,3.5.1.r351_v20090821-0800,"org.eclipse.jdt.ui.CompilationUnitEditor",1389578073967
activated,editor,org.eclipse.jdt.ui,3.5.1.r351_v20090821-0800,"org.eclipse.jdt.ui.CompilationUnitEditor",1389578074016
activated,editor,org.eclipse.jdt.ui,3.5.1.r351_v20090821-0800,"org.eclipse.jdt.ui.CompilationUnitEditor",1389578088105
deactivated,workbench,org.eclipse.ui.workbench,3.5.1.M20090826-0800a,"",1389578838887
activated,workbench,org.eclipse.ui.workbench,3.5.1.M20090826-0800a,"",1389578840120
deactivated,workbench,org.eclipse.ui.workbench,3.5.1.M20090826-0800a,"",1389578948951
activated,workbench,org.eclipse.ui.workbench,3.5.1.M20090826-0800a,"",1389578949845
deactivated,workbench,org.eclipse.ui.workbench,3.5.1.M20090826-0800a,"",1389578950166
activated,workbench,org.eclipse.ui.workbench,3.5.1.M20090826-0800a,"",1389580443564
started,bundle,org.eclipse.epp.usagedata.ui,1.1.0.R200906100410,"org.eclipse.epp.usagedata.ui",1389580443634
deactivated,workbench,org.eclipse.ui.workbench,3.5.1.M20090826-0800a,"",1389580444096
activated,workbench,org.eclipse.ui.workbench,3.5.1.M20090826-0800a,"",1389581301359
deactivated,workbench,org.eclipse.ui.workbench,3.5.1.M20090826-0800a,"",1389581303269
activated,workbench,org.eclipse.ui.workbench,3.5.1.M20090826-0800a,"",1389581305626
deactivated,workbench,org.eclipse.ui.workbench,3.5.1.M20090826-0800a,"",1389584357901
activated,workbench,org.eclipse.ui.workbench,3.5.1.M20090826-0800a,"",1389592851767
started,bundle,org.eclipse.wst.server.core,1.1.102.v20090825,"org.eclipse.wst.server.core",1389592855566
deactivated,workbench,org.eclipse.ui.workbench,3.5.1.M20090826-0800a,"",1389592855577
started,bundle,org.eclipse.wst.server.ui,1.1.103.v20090909,"org.eclipse.wst.server.ui",1389592855626
activated,workbench,org.eclipse.ui.workbench,3.5.1.M20090826-0800a,"",1389603754600
closed,workbench,org.eclipse.ui.workbench,3.5.1.M20090826-0800a,"",1389603755953
