what,kind,bundleId,bundleVersion,description,time
activated,editor,org.eclipse.jdt.ui,3.5.1.r351_v20090821-0800,"org.eclipse.jdt.ui.CompilationUnitEditor",1399192350733
activated,editor,org.eclipse.jdt.ui,3.5.1.r351_v20090821-0800,"org.eclipse.jdt.ui.CompilationUnitEditor",1399192364206
deactivated,workbench,org.eclipse.ui.workbench,3.5.1.M20090826-0800a,"",1399192366322
activated,workbench,org.eclipse.ui.workbench,3.5.1.M20090826-0800a,"",1399192434341
deactivated,workbench,org.eclipse.ui.workbench,3.5.1.M20090826-0800a,"",1399192435343
activated,workbench,org.eclipse.ui.workbench,3.5.1.M20090826-0800a,"",1399192475044
activated,editor,org.eclipse.jdt.ui,3.5.1.r351_v20090821-0800,"org.eclipse.jdt.ui.CompilationUnitEditor",1399192476613
deactivated,workbench,org.eclipse.ui.workbench,3.5.1.M20090826-0800a,"",1399192483822
activated,workbench,org.eclipse.ui.workbench,3.5.1.M20090826-0800a,"",1399192807870
started,bundle,org.eclipse.wst.server.core,1.1.102.v20090825,"org.eclipse.wst.server.core",1399192811686
started,bundle,org.eclipse.wst.server.ui,1.1.103.v20090909,"org.eclipse.wst.server.ui",1399192811724
started,bundle,org.eclipse.cdt.core,5.1.2.201002161416,"org.eclipse.cdt.core",1399192812144
started,bundle,org.eclipse.cdt.debug.core,6.0.0.201002161416,"org.eclipse.cdt.debug.core",1399192812223
started,bundle,org.eclipse.cdt.debug.ui,6.0.0.201002161416,"org.eclipse.cdt.debug.ui",1399192812312
started,bundle,org.eclipse.cdt.core.tests,5.1.2.201002161416,"org.eclipse.cdt.core.tests",1399192812381
activated,editor,org.eclipse.jdt.ui,3.5.1.r351_v20090821-0800,"org.eclipse.jdt.ui.CompilationUnitEditor",1399192814152
executed,command,org.eclipse.ui,3.5.1.M20090902-1000,"org.eclipse.ui.edit.text.contentAssist.proposals",1399192945254
deactivated,workbench,org.eclipse.ui.workbench,3.5.1.M20090826-0800a,"",1399192980887
activated,workbench,org.eclipse.ui.workbench,3.5.1.M20090826-0800a,"",1399193030566
deactivated,workbench,org.eclipse.ui.workbench,3.5.1.M20090826-0800a,"",1399193033856
activated,workbench,org.eclipse.ui.workbench,3.5.1.M20090826-0800a,"",1399193064108
executed,command,org.eclipse.ui,3.5.1.M20090902-1000,"org.eclipse.ui.file.save",1399193082632
deactivated,workbench,org.eclipse.ui.workbench,3.5.1.M20090826-0800a,"",1399193084156
activated,workbench,org.eclipse.ui.workbench,3.5.1.M20090826-0800a,"",1399193163826
deactivated,workbench,org.eclipse.ui.workbench,3.5.1.M20090826-0800a,"",1399193170669
