what,kind,bundleId,bundleVersion,description,time
deactivated,workbench,org.eclipse.ui.workbench,3.5.1.M20090826-0800a,"",1398263294071
activated,workbench,org.eclipse.ui.workbench,3.5.1.M20090826-0800a,"",1398263300386
executed,command,org.eclipse.ui,3.5.1.M20090902-1000,"org.eclipse.ui.edit.paste",1398263304725
deactivated,workbench,org.eclipse.ui.workbench,3.5.1.M20090826-0800a,"",1398263470507
activated,workbench,org.eclipse.ui.workbench,3.5.1.M20090826-0800a,"",1398263473285
activated,perspective,com.android.ide.eclipse.ddms,12.0.0.v201106281929-138431,"com.android.ide.eclipse.ddms.Perspective",1398263474597
activated,view,com.android.ide.eclipse.ddms,12.0.0.v201106281929-138431,"com.android.ide.eclipse.ddms.views.LogCatView",1398263474616
activated,perspective,org.eclipse.jdt.ui,3.5.1.r351_v20090821-0800,"org.eclipse.jdt.ui.JavaPerspective",1398263480515
activated,editor,org.eclipse.jdt.ui,3.5.1.r351_v20090821-0800,"org.eclipse.jdt.ui.CompilationUnitEditor",1398263480534
deactivated,workbench,org.eclipse.ui.workbench,3.5.1.M20090826-0800a,"",1398263498143
activated,workbench,org.eclipse.ui.workbench,3.5.1.M20090826-0800a,"",1398263502317
activated,view,com.android.ide.eclipse.ddms,12.0.0.v201106281929-138431,"com.android.ide.eclipse.ddms.views.LogCatView",1398263503446
deactivated,workbench,org.eclipse.ui.workbench,3.5.1.M20090826-0800a,"",1398263504607
activated,workbench,org.eclipse.ui.workbench,3.5.1.M20090826-0800a,"",1398263512843
activated,editor,org.eclipse.jdt.ui,3.5.1.r351_v20090821-0800,"org.eclipse.jdt.ui.CompilationUnitEditor",1398263512880
deactivated,workbench,org.eclipse.ui.workbench,3.5.1.M20090826-0800a,"",1398263521995
activated,workbench,org.eclipse.ui.workbench,3.5.1.M20090826-0800a,"",1398263524324
activated,view,com.android.ide.eclipse.ddms,12.0.0.v201106281929-138431,"com.android.ide.eclipse.ddms.views.LogCatView",1398263525570
deactivated,workbench,org.eclipse.ui.workbench,3.5.1.M20090826-0800a,"",1398263526968
activated,workbench,org.eclipse.ui.workbench,3.5.1.M20090826-0800a,"",1398263541638
activated,editor,org.eclipse.jdt.ui,3.5.1.r351_v20090821-0800,"org.eclipse.jdt.ui.CompilationUnitEditor",1398263541665
executed,command,org.eclipse.ui,3.5.1.M20090902-1000,"org.eclipse.ui.edit.cut",1398263555289
executed,command,org.eclipse.ui,3.5.1.M20090902-1000,"org.eclipse.ui.edit.paste",1398263558460
deactivated,workbench,org.eclipse.ui.workbench,3.5.1.M20090826-0800a,"",1398263591613
activated,workbench,org.eclipse.ui.workbench,3.5.1.M20090826-0800a,"",1398263592462
