what,kind,bundleId,bundleVersion,description,time
started,bundle,org.eclipse.wst.common.emf,1.1.301.v200908181930,"org.eclipse.wst.common.emf",1413249591690
started,bundle,org.eclipse.jst.j2ee.core,1.1.301.v200908181930,"org.eclipse.jst.j2ee.core",1413249591691
started,bundle,org.eclipse.jem,2.0.300.v200901272200,"org.eclipse.jem",1413249591722
started,bundle,org.eclipse.emf.ecore.xmi,2.5.0.v200906151043,"org.eclipse.emf.ecore.xmi",1413249591776
started,bundle,org.eclipse.jst.jee,1.0.201.v200909030330,"org.eclipse.jst.jee",1413249591821
started,bundle,org.eclipse.jst.common.project.facet.core,1.4.1.v200908111817,"org.eclipse.jst.common.project.facet.core",1413249591823
started,bundle,org.eclipse.jpt.core,2.2.1.v200908270220,"org.eclipse.jpt.core",1413249591836
started,bundle,org.eclipse.jpt.eclipselink.core,1.2.0.v200905310000,"org.eclipse.jpt.eclipselink.core",1413249591839
started,bundle,org.eclipse.wst.common.frameworks.ui,1.1.301.v200908101600,"org.eclipse.wst.common.frameworks.ui",1413249591864
started,bundle,org.eclipse.wst.xml.core,1.1.401.v200908242115,"org.eclipse.wst.xml.core",1413249591868
started,bundle,org.eclipse.wst.common.emfworkbench.integration,1.1.301.v200908101600,"org.eclipse.wst.common.emfworkbench.integration",1413249591960
started,bundle,org.eclipse.wst.common.modulecore,1.1.301.v200908101600,"org.eclipse.wst.common.modulecore",1413249591992
started,bundle,org.eclipse.wst.validation,1.2.102.v200905201610,"org.eclipse.wst.validation",1413249591993
started,bundle,org.eclipse.jst.j2ee,1.1.301.v200909030330,"org.eclipse.jst.j2ee",1413249592005
started,bundle,org.eclipse.compare,3.5.0.I20090514-0808,"org.eclipse.compare",1413249593220
deactivated,workbench,org.eclipse.ui.workbench,3.5.1.M20090826-0800a,"",1413249598231
activated,workbench,org.eclipse.ui.workbench,3.5.1.M20090826-0800a,"",1413249621732
deactivated,workbench,org.eclipse.ui.workbench,3.5.1.M20090826-0800a,"",1413249627864
activated,workbench,org.eclipse.ui.workbench,3.5.1.M20090826-0800a,"",1413249647886
started,bundle,org.eclipse.compare.core,3.5.0.I20090430-0408,"org.eclipse.compare.core",1413249650199
opened,editor,org.eclipse.jdt.ui,3.5.1.r351_v20090821-0800,"org.eclipse.jdt.ui.CompilationUnitEditor",1413249650359
started,bundle,org.eclipse.core.variables,3.2.200.v20090521,"org.eclipse.core.variables",1413249650362
activated,editor,org.eclipse.jdt.ui,3.5.1.r351_v20090821-0800,"org.eclipse.jdt.ui.CompilationUnitEditor",1413249650446
started,bundle,org.eclipse.mylyn.java.ui,3.2.2.v20090912-0400-e3x,"org.eclipse.mylyn.java.ui",1413249674789
started,bundle,org.eclipse.pde.api.tools,1.0.101.v20090714,"org.eclipse.pde.api.tools",1413249674870
