what,kind,bundleId,bundleVersion,description,time
executed,command,,,"com.android.ide.eclipse.adt.debug.launching.LaunchShortcut.run",1405169538797
deactivated,workbench,org.eclipse.ui.workbench,3.5.1.M20090826-0800a,"",1405169544105
activated,workbench,org.eclipse.ui.workbench,3.5.1.M20090826-0800a,"",1405169545404
activated,view,com.android.ide.eclipse.ddms,12.0.0.v201106281929-138431,"com.android.ide.eclipse.ddms.views.LogCatView",1405169545564
deactivated,workbench,org.eclipse.ui.workbench,3.5.1.M20090826-0800a,"",1405169547617
activated,workbench,org.eclipse.ui.workbench,3.5.1.M20090826-0800a,"",1405169553400
deactivated,workbench,org.eclipse.ui.workbench,3.5.1.M20090826-0800a,"",1405169556162
activated,workbench,org.eclipse.ui.workbench,3.5.1.M20090826-0800a,"",1405169558233
deactivated,workbench,org.eclipse.ui.workbench,3.5.1.M20090826-0800a,"",1405169559449
activated,workbench,org.eclipse.ui.workbench,3.5.1.M20090826-0800a,"",1405169560872
deactivated,workbench,org.eclipse.ui.workbench,3.5.1.M20090826-0800a,"",1405169562871
activated,workbench,org.eclipse.ui.workbench,3.5.1.M20090826-0800a,"",1405169564697
deactivated,workbench,org.eclipse.ui.workbench,3.5.1.M20090826-0800a,"",1405169565560
activated,workbench,org.eclipse.ui.workbench,3.5.1.M20090826-0800a,"",1405169567050
activated,editor,org.eclipse.jdt.ui,3.5.1.r351_v20090821-0800,"org.eclipse.jdt.ui.CompilationUnitEditor",1405169572702
deactivated,workbench,org.eclipse.ui.workbench,3.5.1.M20090826-0800a,"",1405169577993
activated,workbench,org.eclipse.ui.workbench,3.5.1.M20090826-0800a,"",1405169579015
activated,editor,com.android.ide.eclipse.adt,12.0.0.v201106281929-138431,"com.android.ide.eclipse.editors.manifest.ManifestEditor",1405169581641
activated,editor,org.eclipse.jdt.ui,3.5.1.r351_v20090821-0800,"org.eclipse.jdt.ui.CompilationUnitEditor",1405169583137
activated,editor,org.eclipse.jdt.ui,3.5.1.r351_v20090821-0800,"org.eclipse.jdt.ui.CompilationUnitEditor",1405169585528
activated,editor,org.eclipse.jdt.ui,3.5.1.r351_v20090821-0800,"org.eclipse.jdt.ui.CompilationUnitEditor",1405169586513
deactivated,workbench,org.eclipse.ui.workbench,3.5.1.M20090826-0800a,"",1405169588153
activated,workbench,org.eclipse.ui.workbench,3.5.1.M20090826-0800a,"",1405169589062
activated,editor,org.eclipse.jdt.ui,3.5.1.r351_v20090821-0800,"org.eclipse.jdt.ui.CompilationUnitEditor",1405169590376
activated,editor,org.eclipse.jdt.ui,3.5.1.r351_v20090821-0800,"org.eclipse.jdt.ui.CompilationUnitEditor",1405169592124
