what,kind,bundleId,bundleVersion,description,time
activated,workbench,org.eclipse.ui.workbench,3.5.1.M20090826-0800a,"",1416916255927
activated,view,org.eclipse.jdt.ui,3.5.1.r351_v20090821-0800,"org.eclipse.jdt.ui.PackageExplorer",1416916255950
activated,editor,org.eclipse.jdt.ui,3.5.1.r351_v20090821-0800,"org.eclipse.jdt.ui.CompilationUnitEditor",1416916260364
activated,view,org.eclipse.jdt.ui,3.5.1.r351_v20090821-0800,"org.eclipse.jdt.ui.PackageExplorer",1416916260421
closed,editor,org.eclipse.jdt.ui,3.5.1.r351_v20090821-0800,"org.eclipse.jdt.ui.CompilationUnitEditor",1416916260421
opened,editor,org.eclipse.jdt.ui,3.5.1.r351_v20090821-0800,"org.eclipse.jdt.ui.CompilationUnitEditor",1416916271302
activated,editor,org.eclipse.jdt.ui,3.5.1.r351_v20090821-0800,"org.eclipse.jdt.ui.CompilationUnitEditor",1416916271323
deactivated,workbench,org.eclipse.ui.workbench,3.5.1.M20090826-0800a,"",1416916292947
activated,workbench,org.eclipse.ui.workbench,3.5.1.M20090826-0800a,"",1416916293882
deactivated,workbench,org.eclipse.ui.workbench,3.5.1.M20090826-0800a,"",1416916294094
activated,workbench,org.eclipse.ui.workbench,3.5.1.M20090826-0800a,"",1416917051110
activated,view,org.eclipse.jdt.ui,3.5.1.r351_v20090821-0800,"org.eclipse.jdt.ui.PackageExplorer",1416917052806
deactivated,workbench,org.eclipse.ui.workbench,3.5.1.M20090826-0800a,"",1416917058871
activated,workbench,org.eclipse.ui.workbench,3.5.1.M20090826-0800a,"",1416917065481
deactivated,workbench,org.eclipse.ui.workbench,3.5.1.M20090826-0800a,"",1416917074668
started,bundle,org.eclipse.wst.common.project.facet.ui,1.4.1.v200908111817,"org.eclipse.wst.common.project.facet.ui",1416917084609
started,bundle,org.eclipse.wst.web.ui,1.1.300.v200905242131,"org.eclipse.wst.web.ui",1416917084624
started,bundle,org.eclipse.jst.servlet.ui,1.1.301.v200908101600,"org.eclipse.jst.servlet.ui",1416917084661
started,bundle,org.eclipse.jst.j2ee.web,1.1.301.v200908270924,"org.eclipse.jst.j2ee.web",1416917084775
started,bundle,org.eclipse.jst.common.frameworks,1.1.300.v200904132230,"org.eclipse.jst.common.frameworks",1416917084978
started,bundle,org.eclipse.jst.j2ee.ui,1.1.301.v200909020100,"org.eclipse.jst.j2ee.ui",1416917085180
started,bundle,org.eclipse.jst.common.project.facet.ui,1.4.1.v200908111817,"org.eclipse.jst.common.project.facet.ui",1416917086126
activated,workbench,org.eclipse.ui.workbench,3.5.1.M20090826-0800a,"",1416917741165
executed,command,org.eclipse.ui,3.5.1.M20090902-1000,"org.eclipse.ui.newWizard",1416917741178
deactivated,workbench,org.eclipse.ui.workbench,3.5.1.M20090826-0800a,"",1416917742543
