what,kind,bundleId,bundleVersion,description,time
activated,workbench,org.eclipse.ui.workbench,3.5.1.M20090826-0800a,"",1399123523889
deactivated,workbench,org.eclipse.ui.workbench,3.5.1.M20090826-0800a,"",1399123526168
activated,workbench,org.eclipse.ui.workbench,3.5.1.M20090826-0800a,"",1399123569650
deactivated,workbench,org.eclipse.ui.workbench,3.5.1.M20090826-0800a,"",1399123585232
activated,workbench,org.eclipse.ui.workbench,3.5.1.M20090826-0800a,"",1399123585281
deactivated,workbench,org.eclipse.ui.workbench,3.5.1.M20090826-0800a,"",1399123595659
activated,workbench,org.eclipse.ui.workbench,3.5.1.M20090826-0800a,"",1399123595819
deactivated,workbench,org.eclipse.ui.workbench,3.5.1.M20090826-0800a,"",1399123603388
activated,workbench,org.eclipse.ui.workbench,3.5.1.M20090826-0800a,"",1399123796920
deactivated,workbench,org.eclipse.ui.workbench,3.5.1.M20090826-0800a,"",1399123797370
activated,workbench,org.eclipse.ui.workbench,3.5.1.M20090826-0800a,"",1399123850573
executed,command,org.eclipse.ui,3.5.1.M20090902-1000,"org.eclipse.ui.edit.undo",1399123880036
executed,command,org.eclipse.ui,3.5.1.M20090902-1000,"org.eclipse.ui.edit.undo",1399123880611
executed,command,org.eclipse.ui,3.5.1.M20090902-1000,"org.eclipse.ui.edit.undo",1399123881343
executed,command,org.eclipse.ui,3.5.1.M20090902-1000,"org.eclipse.ui.edit.undo",1399123881730
executed,command,org.eclipse.ui,3.5.1.M20090902-1000,"org.eclipse.ui.edit.undo",1399123882144
executed,command,org.eclipse.ui,3.5.1.M20090902-1000,"org.eclipse.ui.edit.undo",1399123882616
executed,command,org.eclipse.ui,3.5.1.M20090902-1000,"org.eclipse.ui.edit.undo",1399123883420
executed,command,org.eclipse.ui,3.5.1.M20090902-1000,"org.eclipse.ui.file.save",1399123909168
activated,editor,org.eclipse.jdt.ui,3.5.1.r351_v20090821-0800,"org.eclipse.jdt.ui.CompilationUnitEditor",1399123917578
activated,editor,org.eclipse.jdt.ui,3.5.1.r351_v20090821-0800,"org.eclipse.jdt.ui.CompilationUnitEditor",1399123918528
activated,editor,org.eclipse.jdt.ui,3.5.1.r351_v20090821-0800,"org.eclipse.jdt.ui.CompilationUnitEditor",1399123919291
activated,editor,org.eclipse.jdt.ui,3.5.1.r351_v20090821-0800,"org.eclipse.jdt.ui.CompilationUnitEditor",1399123920158
activated,editor,org.eclipse.jdt.ui,3.5.1.r351_v20090821-0800,"org.eclipse.jdt.ui.CompilationUnitEditor",1399123920711
activated,view,org.eclipse.jdt.ui,3.5.1.r351_v20090821-0800,"org.eclipse.jdt.ui.PackageExplorer",1399123923021
