what,kind,bundleId,bundleVersion,description,time
deactivated,workbench,org.eclipse.ui.workbench,3.5.1.M20090826-0800a,"",1406179742876
activated,workbench,org.eclipse.ui.workbench,3.5.1.M20090826-0800a,"",1406179743017
deactivated,workbench,org.eclipse.ui.workbench,3.5.1.M20090826-0800a,"",1406179743127
activated,workbench,org.eclipse.ui.workbench,3.5.1.M20090826-0800a,"",1406179744439
activated,view,org.eclipse.jdt.ui,3.5.1.r351_v20090821-0800,"org.eclipse.jdt.ui.PackageExplorer",1406179803479
error,log,,,"Failed to load properties file for project 'FoodAndroidMobile'",1406179839863
error,log,,,"Failed to load properties file for project 'FoodAndroidMobile'",1406179839872
error,log,,,"Failed to load properties file for project 'FoodAndroidMobile'",1406179839873
error,log,,,"Failed to load properties file for project 'FoodAndroidMobile'",1406179839876
error,log,,,"Failed to load properties file for project 'FoodAndroidMobile'",1406179839877
error,log,,,"Failed to load properties file for project 'FoodAndroidMobile'",1406179839878
error,log,,,"Failed to load properties file for project 'FoodAndroidMobile'",1406179839879
error,log,,,"Failed to load properties file for project 'FoodAndroidMobile'",1406179839882
opened,editor,com.android.ide.eclipse.adt,12.0.0.v201106281929-138431,"com.android.ide.eclipse.editors.layout.LayoutEditor",1406179839885
activated,editor,com.android.ide.eclipse.adt,12.0.0.v201106281929-138431,"com.android.ide.eclipse.editors.layout.LayoutEditor",1406179839961
activated,editor,org.eclipse.jdt.ui,3.5.1.r351_v20090821-0800,"org.eclipse.jdt.ui.CompilationUnitEditor",1406179855772
closed,editor,com.android.ide.eclipse.adt,12.0.0.v201106281929-138431,"com.android.ide.eclipse.editors.layout.LayoutEditor",1406179855772
activated,view,org.eclipse.jdt.ui,3.5.1.r351_v20090821-0800,"org.eclipse.jdt.ui.PackageExplorer",1406179857540
error,log,,,"Failed to load properties file for project 'FoodAndroidMobile'",1406179862705
error,log,,,"Failed to load properties file for project 'FoodAndroidMobile'",1406179862712
error,log,,,"Failed to load properties file for project 'FoodAndroidMobile'",1406179862712
error,log,,,"Failed to load properties file for project 'FoodAndroidMobile'",1406179862713
error,log,,,"Failed to load properties file for project 'FoodAndroidMobile'",1406179862713
error,log,,,"Failed to load properties file for project 'FoodAndroidMobile'",1406179862714
error,log,,,"Failed to load properties file for project 'FoodAndroidMobile'",1406179862715
