what,kind,bundleId,bundleVersion,description,time
deactivated,workbench,org.eclipse.ui.workbench,3.5.1.M20090826-0800a,"",1407996564903
deactivated,workbench,org.eclipse.ui.workbench,3.5.1.M20090826-0800a,"",1407996599670
activated,workbench,org.eclipse.ui.workbench,3.5.1.M20090826-0800a,"",1407996712135
deactivated,workbench,org.eclipse.ui.workbench,3.5.1.M20090826-0800a,"",1407996800675
activated,workbench,org.eclipse.ui.workbench,3.5.1.M20090826-0800a,"",1407996801436
deactivated,workbench,org.eclipse.ui.workbench,3.5.1.M20090826-0800a,"",1407996802586
activated,workbench,org.eclipse.ui.workbench,3.5.1.M20090826-0800a,"",1407996807310
deactivated,workbench,org.eclipse.ui.workbench,3.5.1.M20090826-0800a,"",1407996814503
activated,workbench,org.eclipse.ui.workbench,3.5.1.M20090826-0800a,"",1407996820592
deactivated,workbench,org.eclipse.ui.workbench,3.5.1.M20090826-0800a,"",1407997150776
activated,workbench,org.eclipse.ui.workbench,3.5.1.M20090826-0800a,"",1407997151962
activated,view,org.eclipse.jdt.ui,3.5.1.r351_v20090821-0800,"org.eclipse.jdt.ui.PackageExplorer",1407997152742
activated,editor,org.eclipse.jdt.ui,3.5.1.r351_v20090821-0800,"org.eclipse.jdt.ui.CompilationUnitEditor",1407997159986
activated,editor,org.eclipse.jdt.ui,3.5.1.r351_v20090821-0800,"org.eclipse.jdt.ui.CompilationUnitEditor",1407997161235
activated,editor,org.eclipse.jdt.ui,3.5.1.r351_v20090821-0800,"org.eclipse.jdt.ui.CompilationUnitEditor",1407997163137
activated,editor,org.eclipse.jdt.ui,3.5.1.r351_v20090821-0800,"org.eclipse.jdt.ui.CompilationUnitEditor",1407997166551
activated,editor,org.eclipse.jdt.ui,3.5.1.r351_v20090821-0800,"org.eclipse.jdt.ui.CompilationUnitEditor",1407997175205
activated,editor,org.eclipse.jdt.ui,3.5.1.r351_v20090821-0800,"org.eclipse.jdt.ui.CompilationUnitEditor",1407997202506
activated,editor,org.eclipse.jdt.ui,3.5.1.r351_v20090821-0800,"org.eclipse.jdt.ui.CompilationUnitEditor",1407997228962
activated,editor,org.eclipse.jdt.ui,3.5.1.r351_v20090821-0800,"org.eclipse.jdt.ui.CompilationUnitEditor",1407997241662
activated,editor,org.eclipse.jdt.ui,3.5.1.r351_v20090821-0800,"org.eclipse.jdt.ui.CompilationUnitEditor",1407997269198
deactivated,workbench,org.eclipse.ui.workbench,3.5.1.M20090826-0800a,"",1407997287382
activated,workbench,org.eclipse.ui.workbench,3.5.1.M20090826-0800a,"",1407997290991
deactivated,workbench,org.eclipse.ui.workbench,3.5.1.M20090826-0800a,"",1407999507524
activated,workbench,org.eclipse.ui.workbench,3.5.1.M20090826-0800a,"",1408000401242
