what,kind,bundleId,bundleVersion,description,time
executed,command,org.eclipse.debug.ui,3.5.1.v20090811_r351,"org.eclipse.debug.ui.commands.StepOver",1400391008871
activated,view,org.eclipse.debug.ui,3.5.1.v20090811_r351,"org.eclipse.debug.ui.VariableView",1400391010598
error,log,,,"处理异步线程队列时发生了异常",1400391013963
deactivated,workbench,org.eclipse.ui.workbench,3.5.1.M20090826-0800a,"",1400391014047
activated,workbench,org.eclipse.ui.workbench,3.5.1.M20090826-0800a,"",1400391020745
deactivated,workbench,org.eclipse.ui.workbench,3.5.1.M20090826-0800a,"",1400391021617
activated,workbench,org.eclipse.ui.workbench,3.5.1.M20090826-0800a,"",1400391022437
activated,view,org.eclipse.debug.ui,3.5.1.v20090811_r351,"org.eclipse.debug.ui.DebugView",1400391025641
executed,command,org.eclipse.debug.ui,3.5.1.v20090811_r351,"org.eclipse.debug.ui.commands.StepOver",1400391025813
error,log,,,"处理异步线程队列时发生了异常",1400391026336
deactivated,workbench,org.eclipse.ui.workbench,3.5.1.M20090826-0800a,"",1400391026353
activated,workbench,org.eclipse.ui.workbench,3.5.1.M20090826-0800a,"",1400391027947
executed,command,org.eclipse.debug.ui,3.5.1.v20090811_r351,"org.eclipse.debug.ui.commands.StepOver",1400391030277
executed,command,org.eclipse.debug.ui,3.5.1.v20090811_r351,"org.eclipse.debug.ui.commands.StepOver",1400391032813
executed,command,org.eclipse.debug.ui,3.5.1.v20090811_r351,"org.eclipse.debug.ui.commands.StepOver",1400391044622
executed,command,org.eclipse.debug.ui,3.5.1.v20090811_r351,"org.eclipse.debug.ui.commands.StepOver",1400391052221
error,log,,,"Unable to create editor ID org.eclipse.jdt.ui.ClassFileEditor: Unmatched braces in the pattern.",1400391053377
opened,editor,org.eclipse.jdt.ui,3.5.1.r351_v20090821-0800,"org.eclipse.jdt.ui.ClassFileEditor",1400391053385
opened,editor,org.eclipse.jdt.ui,3.5.1.r351_v20090821-0800,"org.eclipse.jdt.ui.ClassFileEditor",1400391053387
activated,editor,org.eclipse.jdt.ui,3.5.1.r351_v20090821-0800,"org.eclipse.jdt.ui.ClassFileEditor",1400391058929
activated,editor,org.eclipse.jdt.ui,3.5.1.r351_v20090821-0800,"org.eclipse.jdt.ui.CompilationUnitEditor",1400391058975
closed,editor,org.eclipse.jdt.ui,3.5.1.r351_v20090821-0800,"org.eclipse.jdt.ui.ClassFileEditor",1400391058975
activated,view,org.eclipse.debug.ui,3.5.1.v20090811_r351,"org.eclipse.debug.ui.DebugView",1400391062573
executed,command,org.eclipse.debug.ui,3.5.1.v20090811_r351,"org.eclipse.debug.ui.commands.Resume",1400391062677
opened,editor,org.eclipse.debug.ui,3.5.1.v20090811_r351,"org.eclipse.debug.ui.sourcelookup.CommonSourceNotFoundEditor",1400391063147
