what,kind,bundleId,bundleVersion,description,time
activated,workbench,org.eclipse.ui.workbench,3.5.1.M20090826-0800a,"",1398062528118
activated,editor,org.eclipse.jdt.ui,3.5.1.r351_v20090821-0800,"org.eclipse.jdt.ui.CompilationUnitEditor",1398062530734
deactivated,workbench,org.eclipse.ui.workbench,3.5.1.M20090826-0800a,"",1398062531750
activated,workbench,org.eclipse.ui.workbench,3.5.1.M20090826-0800a,"",1398064801848
deactivated,workbench,org.eclipse.ui.workbench,3.5.1.M20090826-0800a,"",1398064803190
activated,workbench,org.eclipse.ui.workbench,3.5.1.M20090826-0800a,"",1398064810605
deactivated,workbench,org.eclipse.ui.workbench,3.5.1.M20090826-0800a,"",1398064811109
activated,workbench,org.eclipse.ui.workbench,3.5.1.M20090826-0800a,"",1398066898838
deactivated,workbench,org.eclipse.ui.workbench,3.5.1.M20090826-0800a,"",1398066899381
activated,workbench,org.eclipse.ui.workbench,3.5.1.M20090826-0800a,"",1398067970439
deactivated,workbench,org.eclipse.ui.workbench,3.5.1.M20090826-0800a,"",1398067970967
activated,view,org.eclipse.ui.console,3.4.0.v20090513,"org.eclipse.ui.console.ConsoleView",1398069149202
activated,workbench,org.eclipse.ui.workbench,3.5.1.M20090826-0800a,"",1398069161889
deactivated,workbench,org.eclipse.ui.workbench,3.5.1.M20090826-0800a,"",1398069163868
activated,workbench,org.eclipse.ui.workbench,3.5.1.M20090826-0800a,"",1398069164534
deactivated,workbench,org.eclipse.ui.workbench,3.5.1.M20090826-0800a,"",1398069165403
activated,workbench,org.eclipse.ui.workbench,3.5.1.M20090826-0800a,"",1398069337781
deactivated,workbench,org.eclipse.ui.workbench,3.5.1.M20090826-0800a,"",1398069341063
activated,workbench,org.eclipse.ui.workbench,3.5.1.M20090826-0800a,"",1398069693200
deactivated,workbench,org.eclipse.ui.workbench,3.5.1.M20090826-0800a,"",1398069695088
activated,workbench,org.eclipse.ui.workbench,3.5.1.M20090826-0800a,"",1398069700301
deactivated,workbench,org.eclipse.ui.workbench,3.5.1.M20090826-0800a,"",1398069702071
activated,workbench,org.eclipse.ui.workbench,3.5.1.M20090826-0800a,"",1398069702097
deactivated,workbench,org.eclipse.ui.workbench,3.5.1.M20090826-0800a,"",1398069703426
deactivated,workbench,org.eclipse.ui.workbench,3.5.1.M20090826-0800a,"",1398069705004
