what,kind,bundleId,bundleVersion,description,time
activated,view,com.android.ide.eclipse.ddms,12.0.0.v201106281929-138431,"com.android.ide.eclipse.ddms.views.LogCatView",1387335842073
opened,view,org.eclipse.jdt.ui,3.5.1.r351_v20090821-0800,"org.eclipse.jdt.ui.SourceView",1387335842827
activated,view,org.eclipse.jdt.ui,3.5.1.r351_v20090821-0800,"org.eclipse.jdt.ui.SourceView",1387335842842
opened,view,org.eclipse.jdt.ui,3.5.1.r351_v20090821-0800,"org.eclipse.jdt.ui.JavadocView",1387335845885
activated,view,org.eclipse.jdt.ui,3.5.1.r351_v20090821-0800,"org.eclipse.jdt.ui.JavadocView",1387335845901
opened,view,org.eclipse.ui.ide,3.5.1.M20090826-0800,"org.eclipse.ui.views.ProblemView",1387335847070
activated,view,org.eclipse.ui.ide,3.5.1.M20090826-0800,"org.eclipse.ui.views.ProblemView",1387335847106
deactivated,workbench,org.eclipse.ui.workbench,3.5.1.M20090826-0800a,"",1387335850415
activated,workbench,org.eclipse.ui.workbench,3.5.1.M20090826-0800a,"",1387335852281
executed,command,org.eclipse.ui,3.5.1.M20090902-1000,"org.eclipse.ui.views.showView",1387335852305
executed,command,org.eclipse.ui,3.5.1.M20090902-1000,"org.eclipse.ui.views.showView",1387335852305
activated,view,org.eclipse.jdt.ui,3.5.1.r351_v20090821-0800,"org.eclipse.jdt.ui.JavadocView",1387335853276
activated,view,org.eclipse.jdt.ui,3.5.1.r351_v20090821-0800,"org.eclipse.jdt.ui.SourceView",1387335855672
activated,view,org.eclipse.ui.console,3.4.0.v20090513,"org.eclipse.ui.console.ConsoleView",1387335856752
activated,view,com.android.ide.eclipse.ddms,12.0.0.v201106281929-138431,"com.android.ide.eclipse.ddms.views.LogCatView",1387335857603
activated,editor,org.eclipse.jdt.ui,3.5.1.r351_v20090821-0800,"org.eclipse.jdt.ui.CompilationUnitEditor",1387335859062
deactivated,workbench,org.eclipse.ui.workbench,3.5.1.M20090826-0800a,"",1387335866509
activated,workbench,org.eclipse.ui.workbench,3.5.1.M20090826-0800a,"",1387335867102
deactivated,workbench,org.eclipse.ui.workbench,3.5.1.M20090826-0800a,"",1387335867200
activated,workbench,org.eclipse.ui.workbench,3.5.1.M20090826-0800a,"",1387335867664
activated,editor,com.android.ide.eclipse.adt,12.0.0.v201106281929-138431,"com.android.ide.eclipse.editors.layout.LayoutEditor",1387335872018
activated,editor,org.eclipse.jdt.ui,3.5.1.r351_v20090821-0800,"org.eclipse.jdt.ui.CompilationUnitEditor",1387335872929
deactivated,workbench,org.eclipse.ui.workbench,3.5.1.M20090826-0800a,"",1387335875401
activated,workbench,org.eclipse.ui.workbench,3.5.1.M20090826-0800a,"",1387335876181
deactivated,workbench,org.eclipse.ui.workbench,3.5.1.M20090826-0800a,"",1387335876315
