what,kind,bundleId,bundleVersion,description,time
deactivated,workbench,org.eclipse.ui.workbench,3.5.1.M20090826-0800a,"",1406183109462
activated,workbench,org.eclipse.ui.workbench,3.5.1.M20090826-0800a,"",1406183119996
deactivated,workbench,org.eclipse.ui.workbench,3.5.1.M20090826-0800a,"",1406183164670
activated,workbench,org.eclipse.ui.workbench,3.5.1.M20090826-0800a,"",1406183165369
deactivated,workbench,org.eclipse.ui.workbench,3.5.1.M20090826-0800a,"",1406183166742
activated,workbench,org.eclipse.ui.workbench,3.5.1.M20090826-0800a,"",1406183172944
deactivated,workbench,org.eclipse.ui.workbench,3.5.1.M20090826-0800a,"",1406183187830
activated,workbench,org.eclipse.ui.workbench,3.5.1.M20090826-0800a,"",1406183189804
deactivated,workbench,org.eclipse.ui.workbench,3.5.1.M20090826-0800a,"",1406183219272
activated,workbench,org.eclipse.ui.workbench,3.5.1.M20090826-0800a,"",1406183223122
deactivated,workbench,org.eclipse.ui.workbench,3.5.1.M20090826-0800a,"",1406183224287
activated,workbench,org.eclipse.ui.workbench,3.5.1.M20090826-0800a,"",1406183225447
deactivated,workbench,org.eclipse.ui.workbench,3.5.1.M20090826-0800a,"",1406183247336
activated,workbench,org.eclipse.ui.workbench,3.5.1.M20090826-0800a,"",1406183254537
deactivated,workbench,org.eclipse.ui.workbench,3.5.1.M20090826-0800a,"",1406183258891
activated,workbench,org.eclipse.ui.workbench,3.5.1.M20090826-0800a,"",1406183272673
deactivated,workbench,org.eclipse.ui.workbench,3.5.1.M20090826-0800a,"",1406183291248
activated,workbench,org.eclipse.ui.workbench,3.5.1.M20090826-0800a,"",1406183291998
deactivated,workbench,org.eclipse.ui.workbench,3.5.1.M20090826-0800a,"",1406183292403
activated,workbench,org.eclipse.ui.workbench,3.5.1.M20090826-0800a,"",1406183294432
deactivated,workbench,org.eclipse.ui.workbench,3.5.1.M20090826-0800a,"",1406183309837
activated,workbench,org.eclipse.ui.workbench,3.5.1.M20090826-0800a,"",1406183310970
executed,command,org.eclipse.ui,3.5.1.M20090902-1000,"org.eclipse.ui.file.save",1406183315849
executed,command,org.eclipse.ui,3.5.1.M20090902-1000,"org.eclipse.ui.file.save",1406183321541
activated,editor,org.eclipse.jdt.ui,3.5.1.r351_v20090821-0800,"org.eclipse.jdt.ui.CompilationUnitEditor",1406183323222
