what,kind,bundleId,bundleVersion,description,time
executed,command,org.eclipse.ui,3.5.1.M20090902-1000,"org.eclipse.ui.edit.paste",1400115646903
started,bundle,org.eclipse.jdt.debug,3.5.0.v20090526,"org.eclipse.jdt.debug",1400115652294
started,bundle,org.eclipse.debug.ui,3.5.1.v20090811_r351,"org.eclipse.debug.ui",1400115652633
started,bundle,org.eclipse.jdt.debug.ui,3.4.1.v20090811_r351,"org.eclipse.jdt.debug.ui",1400115652842
executed,command,org.eclipse.ui,3.5.1.M20090902-1000,"org.eclipse.ui.file.save",1400115654383
deactivated,workbench,org.eclipse.ui.workbench,3.5.1.M20090826-0800a,"",1400115655562
activated,workbench,org.eclipse.ui.workbench,3.5.1.M20090826-0800a,"",1400115664464
deactivated,workbench,org.eclipse.ui.workbench,3.5.1.M20090826-0800a,"",1400115666852
activated,workbench,org.eclipse.ui.workbench,3.5.1.M20090826-0800a,"",1400115668116
deactivated,workbench,org.eclipse.ui.workbench,3.5.1.M20090826-0800a,"",1400115668441
activated,workbench,org.eclipse.ui.workbench,3.5.1.M20090826-0800a,"",1400115670853
deactivated,workbench,org.eclipse.ui.workbench,3.5.1.M20090826-0800a,"",1400115671144
activated,workbench,org.eclipse.ui.workbench,3.5.1.M20090826-0800a,"",1400115672267
deactivated,workbench,org.eclipse.ui.workbench,3.5.1.M20090826-0800a,"",1400115672423
activated,workbench,org.eclipse.ui.workbench,3.5.1.M20090826-0800a,"",1400115678590
started,bundle,org.eclipse.ui.browser,3.2.300.v20090526,"org.eclipse.ui.browser",1400115681346
opened,editor,org.eclipse.ui.browser,3.2.300.v20090526,"org.eclipse.ui.browser.editor",1400115683255
activated,editor,org.eclipse.ui.browser,3.2.300.v20090526,"org.eclipse.ui.browser.editor",1400115683338
activated,editor,org.eclipse.jdt.ui,3.5.1.r351_v20090821-0800,"org.eclipse.jdt.ui.CompilationUnitEditor",1400115686214
closed,editor,org.eclipse.ui.browser,3.2.300.v20090526,"org.eclipse.ui.browser.editor",1400115686234
executed,command,org.eclipse.ui,3.5.1.M20090902-1000,"org.eclipse.ui.file.save",1400115692248
opened,editor,org.eclipse.ui.browser,3.2.300.v20090526,"org.eclipse.ui.browser.editor",1400115694724
activated,editor,org.eclipse.ui.browser,3.2.300.v20090526,"org.eclipse.ui.browser.editor",1400115694797
activated,editor,org.eclipse.jdt.ui,3.5.1.r351_v20090821-0800,"org.eclipse.jdt.ui.CompilationUnitEditor",1400115697409
closed,editor,org.eclipse.ui.browser,3.2.300.v20090526,"org.eclipse.ui.browser.editor",1400115697409
