what,kind,bundleId,bundleVersion,description,time
os,sysinfo,,,"win32",1399340238074
arch,sysinfo,,,"x86",1399340238074
ws,sysinfo,,,"win32",1399340238074
locale,sysinfo,,,"zh_CN",1399340238074
processors,sysinfo,,,"4",1399340238074
java.runtime.name,sysinfo,,,"Java(TM) SE Runtime Environment",1399340238074
java.runtime.version,sysinfo,,,"1.6.0_03-b05",1399340238074
java.specification.name,sysinfo,,,"Java Platform API Specification",1399340238074
java.specification.vendor,sysinfo,,,"Sun Microsystems Inc.",1399340238074
java.specification.version,sysinfo,,,"1.6",1399340238074
java.vendor,sysinfo,,,"Sun Microsystems Inc.",1399340238074
java.version,sysinfo,,,"1.6.0_03",1399340238074
java.vm.info,sysinfo,,,"mixed mode",1399340238074
java.vm.name,sysinfo,,,"Java HotSpot(TM) Client VM",1399340238074
java.vm.specification.name,sysinfo,,,"Java Virtual Machine Specification",1399340238074
java.vm.specification.vendor,sysinfo,,,"Sun Microsystems Inc.",1399340238074
java.vm.specification.version,sysinfo,,,"1.0",1399340238074
java.vm.vendor,sysinfo,,,"Sun Microsystems Inc.",1399340238074
java.vm.version,sysinfo,,,"1.6.0_03-b05",1399340238074
started,bundle,org.eclipse.jst.jsf.common,1.1.7.v20090903,"org.eclipse.jst.jsf.common",1399340238264
started,bundle,org.eclipse.jst.jsf.core,1.2.2.v20090903,"org.eclipse.jst.jsf.core",1399340238880
started,bundle,org.eclipse.mylyn.commons.net,3.2.0.v20090617-0100-e3x,"org.eclipse.mylyn.commons.net",1399340239534
started,bundle,org.eclipse.jst.common.project.facet.core,1.4.1.v200908111817,"org.eclipse.jst.common.project.facet.core",1399340240172
started,bundle,org.eclipse.mylyn.commons.ui,3.2.2.v20090912-0400-e3x,"org.eclipse.mylyn.commons.ui",1399340241107
started,bundle,org.eclipse.mylyn.bugzilla.core,3.2.2.v20090912-0400-e3x,"org.eclipse.mylyn.bugzilla.core",1399340242031
