what,kind,bundleId,bundleVersion,description,time
activated,editor,org.eclipse.jdt.ui,3.5.1.r351_v20090821-0800,"org.eclipse.jdt.ui.CompilationUnitEditor",1403508019343
activated,view,org.eclipse.jdt.ui,3.5.1.r351_v20090821-0800,"org.eclipse.jdt.ui.PackageExplorer",1403508020950
closed,editor,org.eclipse.jdt.ui,3.5.1.r351_v20090821-0800,"org.eclipse.jdt.ui.CompilationUnitEditor",1403508020950
closed,editor,org.eclipse.jdt.ui,3.5.1.r351_v20090821-0800,"org.eclipse.jdt.ui.CompilationUnitEditor",1403508020962
closed,editor,org.eclipse.jdt.ui,3.5.1.r351_v20090821-0800,"org.eclipse.jdt.ui.CompilationUnitEditor",1403508020971
opened,editor,org.eclipse.jdt.ui,3.5.1.r351_v20090821-0800,"org.eclipse.jdt.ui.CompilationUnitEditor",1403508029587
activated,editor,org.eclipse.jdt.ui,3.5.1.r351_v20090821-0800,"org.eclipse.jdt.ui.CompilationUnitEditor",1403508029607
started,bundle,org.eclipse.wst.server.core,1.1.102.v20090825,"org.eclipse.wst.server.core",1403508046889
started,bundle,org.eclipse.wst.server.ui,1.1.103.v20090909,"org.eclipse.wst.server.ui",1403508046917
deactivated,workbench,org.eclipse.ui.workbench,3.5.1.M20090826-0800a,"",1403508048996
activated,workbench,org.eclipse.ui.workbench,3.5.1.M20090826-0800a,"",1403508256748
deactivated,workbench,org.eclipse.ui.workbench,3.5.1.M20090826-0800a,"",1403508257893
activated,workbench,org.eclipse.ui.workbench,3.5.1.M20090826-0800a,"",1403508258024
deactivated,workbench,org.eclipse.ui.workbench,3.5.1.M20090826-0800a,"",1403508261634
activated,workbench,org.eclipse.ui.workbench,3.5.1.M20090826-0800a,"",1403508289119
opened,view,org.eclipse.ui.console,3.4.0.v20090513,"org.eclipse.ui.console.ConsoleView",1403508289345
activated,view,org.eclipse.ui.console,3.4.0.v20090513,"org.eclipse.ui.console.ConsoleView",1403508289396
opened,view,com.android.ide.eclipse.ddms,12.0.0.v201106281929-138431,"com.android.ide.eclipse.ddms.views.LogCatView",1403508291870
activated,view,com.android.ide.eclipse.ddms,12.0.0.v201106281929-138431,"com.android.ide.eclipse.ddms.views.LogCatView",1403508291914
deactivated,workbench,org.eclipse.ui.workbench,3.5.1.M20090826-0800a,"",1403508297774
activated,workbench,org.eclipse.ui.workbench,3.5.1.M20090826-0800a,"",1403508455721
deactivated,workbench,org.eclipse.ui.workbench,3.5.1.M20090826-0800a,"",1403508457943
activated,workbench,org.eclipse.ui.workbench,3.5.1.M20090826-0800a,"",1403508495198
activated,editor,org.eclipse.jdt.ui,3.5.1.r351_v20090821-0800,"org.eclipse.jdt.ui.CompilationUnitEditor",1403508495232
deactivated,workbench,org.eclipse.ui.workbench,3.5.1.M20090826-0800a,"",1403508502020
