what,kind,bundleId,bundleVersion,description,time
activated,workbench,org.eclipse.ui.workbench,3.5.1.M20090826-0800a,"",1399902579987
deactivated,workbench,org.eclipse.ui.workbench,3.5.1.M20090826-0800a,"",1399902608711
activated,workbench,org.eclipse.ui.workbench,3.5.1.M20090826-0800a,"",1399902609333
deactivated,workbench,org.eclipse.ui.workbench,3.5.1.M20090826-0800a,"",1399902609340
activated,workbench,org.eclipse.ui.workbench,3.5.1.M20090826-0800a,"",1399902623009
deactivated,workbench,org.eclipse.ui.workbench,3.5.1.M20090826-0800a,"",1399902625268
activated,workbench,org.eclipse.ui.workbench,3.5.1.M20090826-0800a,"",1399902626643
deactivated,workbench,org.eclipse.ui.workbench,3.5.1.M20090826-0800a,"",1399902633200
activated,workbench,org.eclipse.ui.workbench,3.5.1.M20090826-0800a,"",1399902634713
deactivated,workbench,org.eclipse.ui.workbench,3.5.1.M20090826-0800a,"",1399902639859
activated,workbench,org.eclipse.ui.workbench,3.5.1.M20090826-0800a,"",1399902640086
deactivated,workbench,org.eclipse.ui.workbench,3.5.1.M20090826-0800a,"",1399902641923
activated,workbench,org.eclipse.ui.workbench,3.5.1.M20090826-0800a,"",1399902643384
deactivated,workbench,org.eclipse.ui.workbench,3.5.1.M20090826-0800a,"",1399902651615
activated,workbench,org.eclipse.ui.workbench,3.5.1.M20090826-0800a,"",1399902653052
deactivated,workbench,org.eclipse.ui.workbench,3.5.1.M20090826-0800a,"",1399902660657
activated,workbench,org.eclipse.ui.workbench,3.5.1.M20090826-0800a,"",1399902662115
deactivated,workbench,org.eclipse.ui.workbench,3.5.1.M20090826-0800a,"",1399902667116
activated,workbench,org.eclipse.ui.workbench,3.5.1.M20090826-0800a,"",1399902667914
deactivated,workbench,org.eclipse.ui.workbench,3.5.1.M20090826-0800a,"",1399902669220
activated,workbench,org.eclipse.ui.workbench,3.5.1.M20090826-0800a,"",1399902747597
deactivated,workbench,org.eclipse.ui.workbench,3.5.1.M20090826-0800a,"",1399902758008
activated,workbench,org.eclipse.ui.workbench,3.5.1.M20090826-0800a,"",1399902762862
executed,command,org.eclipse.ui,3.5.1.M20090902-1000,"org.eclipse.ui.file.save",1399902775436
deactivated,workbench,org.eclipse.ui.workbench,3.5.1.M20090826-0800a,"",1399902778018
