what,kind,bundleId,bundleVersion,description,time
deactivated,workbench,org.eclipse.ui.workbench,3.5.1.M20090826-0800a,"",1409583921969
activated,workbench,org.eclipse.ui.workbench,3.5.1.M20090826-0800a,"",1409583923344
deactivated,workbench,org.eclipse.ui.workbench,3.5.1.M20090826-0800a,"",1409583923736
activated,workbench,org.eclipse.ui.workbench,3.5.1.M20090826-0800a,"",1409583925331
deactivated,workbench,org.eclipse.ui.workbench,3.5.1.M20090826-0800a,"",1409583944747
activated,workbench,org.eclipse.ui.workbench,3.5.1.M20090826-0800a,"",1409584211967
deactivated,workbench,org.eclipse.ui.workbench,3.5.1.M20090826-0800a,"",1409584212942
activated,workbench,org.eclipse.ui.workbench,3.5.1.M20090826-0800a,"",1409584219467
deactivated,workbench,org.eclipse.ui.workbench,3.5.1.M20090826-0800a,"",1409584244989
activated,workbench,org.eclipse.ui.workbench,3.5.1.M20090826-0800a,"",1409584290894
deactivated,workbench,org.eclipse.ui.workbench,3.5.1.M20090826-0800a,"",1409584323534
activated,workbench,org.eclipse.ui.workbench,3.5.1.M20090826-0800a,"",1409584326516
deactivated,workbench,org.eclipse.ui.workbench,3.5.1.M20090826-0800a,"",1409584338717
activated,workbench,org.eclipse.ui.workbench,3.5.1.M20090826-0800a,"",1409584341201
deactivated,workbench,org.eclipse.ui.workbench,3.5.1.M20090826-0800a,"",1409584348368
activated,workbench,org.eclipse.ui.workbench,3.5.1.M20090826-0800a,"",1409584352171
deactivated,workbench,org.eclipse.ui.workbench,3.5.1.M20090826-0800a,"",1409584371007
activated,workbench,org.eclipse.ui.workbench,3.5.1.M20090826-0800a,"",1409584373635
deactivated,workbench,org.eclipse.ui.workbench,3.5.1.M20090826-0800a,"",1409584379694
activated,workbench,org.eclipse.ui.workbench,3.5.1.M20090826-0800a,"",1409584381512
deactivated,workbench,org.eclipse.ui.workbench,3.5.1.M20090826-0800a,"",1409584394245
activated,workbench,org.eclipse.ui.workbench,3.5.1.M20090826-0800a,"",1409584396837
executed,command,org.eclipse.ui,3.5.1.M20090902-1000,"org.eclipse.ui.file.save",1409584408814
deactivated,workbench,org.eclipse.ui.workbench,3.5.1.M20090826-0800a,"",1409584418301
activated,workbench,org.eclipse.ui.workbench,3.5.1.M20090826-0800a,"",1409584424763
