what,kind,bundleId,bundleVersion,description,time
activated,view,org.eclipse.jdt.ui,3.5.1.r351_v20090821-0800,"org.eclipse.jdt.ui.PackageExplorer",1412662923309
closed,editor,org.eclipse.jdt.ui,3.5.1.r351_v20090821-0800,"org.eclipse.jdt.ui.CompilationUnitEditor",1412662923310
started,bundle,org.eclipse.compare,3.5.0.I20090514-0808,"org.eclipse.compare",1412662934339
deactivated,workbench,org.eclipse.ui.workbench,3.5.1.M20090826-0800a,"",1412662940529
activated,workbench,org.eclipse.ui.workbench,3.5.1.M20090826-0800a,"",1412662955232
deactivated,workbench,org.eclipse.ui.workbench,3.5.1.M20090826-0800a,"",1412662964663
activated,workbench,org.eclipse.ui.workbench,3.5.1.M20090826-0800a,"",1412662976363
opened,editor,org.eclipse.jdt.ui,3.5.1.r351_v20090821-0800,"org.eclipse.jdt.ui.CompilationUnitEditor",1412662976973
activated,editor,org.eclipse.jdt.ui,3.5.1.r351_v20090821-0800,"org.eclipse.jdt.ui.CompilationUnitEditor",1412662977000
started,bundle,org.eclipse.mylyn.java.ui,3.2.2.v20090912-0400-e3x,"org.eclipse.mylyn.java.ui",1412662982075
started,bundle,org.eclipse.pde.api.tools,1.0.101.v20090714,"org.eclipse.pde.api.tools",1412662982179
started,bundle,org.eclipse.pde.api.tools.ui,1.0.101.v20090820,"org.eclipse.pde.api.tools.ui",1412662982195
started,bundle,org.eclipse.jdt.junit,3.5.1.r351_v20090708-0800,"org.eclipse.jdt.junit",1412662983133
executed,command,org.eclipse.ui,3.5.1.M20090902-1000,"org.eclipse.ui.edit.delete",1412663133070
executed,command,org.eclipse.ui,3.5.1.M20090902-1000,"org.eclipse.ui.edit.delete",1412663133503
executed,command,org.eclipse.ui,3.5.1.M20090902-1000,"org.eclipse.ui.edit.delete",1412663133671
executed,command,org.eclipse.ui,3.5.1.M20090902-1000,"org.eclipse.ui.edit.delete",1412663133830
executed,command,org.eclipse.ui,3.5.1.M20090902-1000,"org.eclipse.ui.edit.delete",1412663134110
started,bundle,org.eclipse.mylyn.java.tasks,3.2.2.v20090912-0400-e3x,"org.eclipse.mylyn.java.tasks",1412663140219
executed,command,org.eclipse.ui,3.5.1.M20090902-1000,"org.eclipse.ui.edit.copy",1412663140244
executed,command,org.eclipse.ui,3.5.1.M20090902-1000,"org.eclipse.ui.edit.paste",1412663142233
executed,command,org.eclipse.ui,3.5.1.M20090902-1000,"org.eclipse.ui.edit.paste",1412663151077
executed,command,org.eclipse.ui,3.5.1.M20090902-1000,"org.eclipse.ui.file.save",1412663157231
executed,command,org.eclipse.ui,3.5.1.M20090902-1000,"org.eclipse.ui.file.save",1412663183369
started,bundle,org.eclipse.debug.ui,3.5.1.v20090811_r351,"org.eclipse.debug.ui",1412663184866
