what,kind,bundleId,bundleVersion,description,time
executed,command,,,"com.android.ide.eclipse.adt.debug.launching.LaunchShortcut.run",1378889992620
deactivated,workbench,org.eclipse.ui.workbench,3.5.1.M20090826-0800a,"",1378889994979
activated,workbench,org.eclipse.ui.workbench,3.5.1.M20090826-0800a,"",1378890011909
activated,editor,org.eclipse.jdt.ui,3.5.1.r351_v20090821-0800,"org.eclipse.jdt.ui.CompilationUnitEditor",1378890016416
activated,editor,org.eclipse.jdt.ui,3.5.1.r351_v20090821-0800,"org.eclipse.jdt.ui.CompilationUnitEditor",1378890021829
executed,command,,,"AUTOGEN:::org.eclipse.jdt.internal.ui.CompilationUnitEditor.ruler.actions/org.eclipse.jdt.internal.ui.javaeditor.JavaSelectRulerAction",1378890035025
activated,editor,org.eclipse.jdt.ui,3.5.1.r351_v20090821-0800,"org.eclipse.jdt.ui.CompilationUnitEditor",1378890045816
activated,editor,org.eclipse.jdt.ui,3.5.1.r351_v20090821-0800,"org.eclipse.jdt.ui.CompilationUnitEditor",1378890061536
deactivated,workbench,org.eclipse.ui.workbench,3.5.1.M20090826-0800a,"",1378890066444
activated,workbench,org.eclipse.ui.workbench,3.5.1.M20090826-0800a,"",1378890068222
executed,command,org.eclipse.ui,3.5.1.M20090902-1000,"org.eclipse.ui.file.save",1378890070428
deactivated,workbench,org.eclipse.ui.workbench,3.5.1.M20090826-0800a,"",1378890082814
activated,workbench,org.eclipse.ui.workbench,3.5.1.M20090826-0800a,"",1378890085036
deactivated,workbench,org.eclipse.ui.workbench,3.5.1.M20090826-0800a,"",1378890092028
deactivated,workbench,org.eclipse.ui.workbench,3.5.1.M20090826-0800a,"",1378890092665
activated,workbench,org.eclipse.ui.workbench,3.5.1.M20090826-0800a,"",1378890092969
deactivated,workbench,org.eclipse.ui.workbench,3.5.1.M20090826-0800a,"",1378890093445
activated,workbench,org.eclipse.ui.workbench,3.5.1.M20090826-0800a,"",1378890098468
activated,editor,org.eclipse.jdt.ui,3.5.1.r351_v20090821-0800,"org.eclipse.jdt.ui.CompilationUnitEditor",1378890098643
closed,editor,org.eclipse.jdt.ui,3.5.1.r351_v20090821-0800,"org.eclipse.jdt.ui.CompilationUnitEditor",1378890098644
activated,editor,org.eclipse.jdt.ui,3.5.1.r351_v20090821-0800,"org.eclipse.jdt.ui.CompilationUnitEditor",1378890099521
closed,editor,org.eclipse.jdt.ui,3.5.1.r351_v20090821-0800,"org.eclipse.jdt.ui.CompilationUnitEditor",1378890099522
closed,editor,org.eclipse.jdt.ui,3.5.1.r351_v20090821-0800,"org.eclipse.jdt.ui.CompilationUnitEditor",1378890100530
activated,view,org.eclipse.jdt.ui,3.5.1.r351_v20090821-0800,"org.eclipse.jdt.ui.PackageExplorer",1378890101469
closed,editor,org.eclipse.jdt.ui,3.5.1.r351_v20090821-0800,"org.eclipse.jdt.ui.CompilationUnitEditor",1378890101469
