what,kind,bundleId,bundleVersion,description,time
deactivated,workbench,org.eclipse.ui.workbench,3.5.1.M20090826-0800a,"",1407995921460
activated,workbench,org.eclipse.ui.workbench,3.5.1.M20090826-0800a,"",1407995922576
executed,command,org.eclipse.ui.ide,3.5.1.M20090826-0800,"org.eclipse.ui.project.openProject",1407995922585
error,log,,,"Failed to load properties file for project 'FoodAndroidMobile'",1407995922680
error,log,,,"Failed to load properties file for project 'FoodAndroidMobile'",1407995922942
opened,view,org.eclipse.ui.console,3.4.0.v20090513,"org.eclipse.ui.console.ConsoleView",1407995923698
deactivated,workbench,org.eclipse.ui.workbench,3.5.1.M20090826-0800a,"",1407995923720
error,log,,,"Failed to load properties file for project 'FoodAndroidMobile'",1407995923740
activated,workbench,org.eclipse.ui.workbench,3.5.1.M20090826-0800a,"",1407995924143
activated,view,org.eclipse.ui.console,3.4.0.v20090513,"org.eclipse.ui.console.ConsoleView",1407995924201
activated,view,org.eclipse.jdt.ui,3.5.1.r351_v20090821-0800,"org.eclipse.jdt.ui.PackageExplorer",1407995926252
opened,editor,org.eclipse.jdt.ui,3.5.1.r351_v20090821-0800,"org.eclipse.jdt.ui.CompilationUnitEditor",1407995931656
activated,editor,org.eclipse.jdt.ui,3.5.1.r351_v20090821-0800,"org.eclipse.jdt.ui.CompilationUnitEditor",1407995931824
activated,view,org.eclipse.jdt.ui,3.5.1.r351_v20090821-0800,"org.eclipse.jdt.ui.PackageExplorer",1407996260177
opened,editor,org.eclipse.jdt.ui,3.5.1.r351_v20090821-0800,"org.eclipse.jdt.ui.CompilationUnitEditor",1407996264993
activated,editor,org.eclipse.jdt.ui,3.5.1.r351_v20090821-0800,"org.eclipse.jdt.ui.CompilationUnitEditor",1407996265057
activated,editor,org.eclipse.jdt.ui,3.5.1.r351_v20090821-0800,"org.eclipse.jdt.ui.CompilationUnitEditor",1407996470117
closed,editor,org.eclipse.jdt.ui,3.5.1.r351_v20090821-0800,"org.eclipse.jdt.ui.CompilationUnitEditor",1407996470117
activated,view,org.eclipse.jdt.ui,3.5.1.r351_v20090821-0800,"org.eclipse.jdt.ui.PackageExplorer",1407996471467
opened,editor,org.eclipse.jdt.ui,3.5.1.r351_v20090821-0800,"org.eclipse.jdt.ui.CompilationUnitEditor",1407996471803
activated,editor,org.eclipse.jdt.ui,3.5.1.r351_v20090821-0800,"org.eclipse.jdt.ui.CompilationUnitEditor",1407996471873
deactivated,workbench,org.eclipse.ui.workbench,3.5.1.M20090826-0800a,"",1407996550026
activated,workbench,org.eclipse.ui.workbench,3.5.1.M20090826-0800a,"",1407996554899
deactivated,workbench,org.eclipse.ui.workbench,3.5.1.M20090826-0800a,"",1407996556827
activated,workbench,org.eclipse.ui.workbench,3.5.1.M20090826-0800a,"",1407996562781
