what,kind,bundleId,bundleVersion,description,time
deactivated,workbench,org.eclipse.ui.workbench,3.5.1.M20090826-0800a,"",1400737154798
activated,workbench,org.eclipse.ui.workbench,3.5.1.M20090826-0800a,"",1400737156070
deactivated,workbench,org.eclipse.ui.workbench,3.5.1.M20090826-0800a,"",1400737156765
activated,workbench,org.eclipse.ui.workbench,3.5.1.M20090826-0800a,"",1400737157976
deactivated,workbench,org.eclipse.ui.workbench,3.5.1.M20090826-0800a,"",1400737158736
activated,workbench,org.eclipse.ui.workbench,3.5.1.M20090826-0800a,"",1400737159810
activated,editor,org.eclipse.jdt.ui,3.5.1.r351_v20090821-0800,"org.eclipse.jdt.ui.CompilationUnitEditor",1400737189415
activated,view,org.eclipse.debug.ui,3.5.1.v20090811_r351,"org.eclipse.debug.ui.VariableView",1400737195714
activated,editor,org.eclipse.jdt.ui,3.5.1.r351_v20090821-0800,"org.eclipse.jdt.ui.CompilationUnitEditor",1400737201518
activated,view,org.eclipse.debug.ui,3.5.1.v20090811_r351,"org.eclipse.debug.ui.DebugView",1400737214382
executed,command,org.eclipse.debug.ui,3.5.1.v20090811_r351,"org.eclipse.debug.ui.commands.StepOver",1400737214530
activated,perspective,org.eclipse.jdt.ui,3.5.1.r351_v20090821-0800,"org.eclipse.jdt.ui.JavaPerspective",1400737243492
activated,editor,org.eclipse.jdt.ui,3.5.1.r351_v20090821-0800,"org.eclipse.jdt.ui.CompilationUnitEditor",1400737243519
activated,editor,com.android.ide.eclipse.adt,12.0.0.v201106281929-138431,"com.android.ide.eclipse.editors.layout.LayoutEditor",1400737254237
activated,editor,org.eclipse.jdt.ui,3.5.1.r351_v20090821-0800,"org.eclipse.jdt.ui.CompilationUnitEditor",1400737280761
activated,editor,com.android.ide.eclipse.adt,12.0.0.v201106281929-138431,"com.android.ide.eclipse.editors.layout.LayoutEditor",1400737286522
executed,command,org.eclipse.ui,3.5.1.M20090902-1000,"org.eclipse.ui.edit.delete",1400737289646
executed,command,org.eclipse.ui,3.5.1.M20090902-1000,"org.eclipse.ui.file.save",1400737291785
deactivated,workbench,org.eclipse.ui.workbench,3.5.1.M20090826-0800a,"",1400737292798
activated,workbench,org.eclipse.ui.workbench,3.5.1.M20090826-0800a,"",1400737293365
deactivated,workbench,org.eclipse.ui.workbench,3.5.1.M20090826-0800a,"",1400737357920
activated,workbench,org.eclipse.ui.workbench,3.5.1.M20090826-0800a,"",1400737370552
activated,editor,org.eclipse.jdt.ui,3.5.1.r351_v20090821-0800,"org.eclipse.jdt.ui.CompilationUnitEditor",1400737404992
executed,command,org.eclipse.ui,3.5.1.M20090902-1000,"org.eclipse.ui.file.save",1400737417161
activated,view,org.eclipse.jdt.ui,3.5.1.r351_v20090821-0800,"org.eclipse.jdt.ui.PackageExplorer",1400737490078
