what,kind,bundleId,bundleVersion,description,time
started,bundle,org.eclipse.wst.web,1.1.301.v200909021400,"org.eclipse.wst.web",1396314869069
started,bundle,com.android.ide.eclipse.ddms,12.0.0.v201106281929-138431,"com.android.ide.eclipse.ddms",1396314869097
os,sysinfo,,,"win32",1396314869105
arch,sysinfo,,,"x86",1396314869105
ws,sysinfo,,,"win32",1396314869105
locale,sysinfo,,,"zh_CN",1396314869105
processors,sysinfo,,,"4",1396314869105
java.runtime.name,sysinfo,,,"Java(TM) SE Runtime Environment",1396314869105
java.runtime.version,sysinfo,,,"1.6.0_03-b05",1396314869105
java.specification.name,sysinfo,,,"Java Platform API Specification",1396314869105
java.specification.vendor,sysinfo,,,"Sun Microsystems Inc.",1396314869105
java.specification.version,sysinfo,,,"1.6",1396314869105
java.vendor,sysinfo,,,"Sun Microsystems Inc.",1396314869105
java.version,sysinfo,,,"1.6.0_03",1396314869105
java.vm.info,sysinfo,,,"mixed mode",1396314869105
java.vm.name,sysinfo,,,"Java HotSpot(TM) Client VM",1396314869105
java.vm.specification.name,sysinfo,,,"Java Virtual Machine Specification",1396314869105
java.vm.specification.vendor,sysinfo,,,"Sun Microsystems Inc.",1396314869105
java.vm.specification.version,sysinfo,,,"1.0",1396314869105
java.vm.vendor,sysinfo,,,"Sun Microsystems Inc.",1396314869105
java.vm.version,sysinfo,,,"1.6.0_03-b05",1396314869105
started,bundle,org.eclipse.mylyn.commons.ui,3.2.2.v20090912-0400-e3x,"org.eclipse.mylyn.commons.ui",1396314869806
started,bundle,org.eclipse.jst.common.project.facet.core,1.4.1.v200908111817,"org.eclipse.jst.common.project.facet.core",1396314870041
started,bundle,org.eclipse.mylyn.bugzilla.core,3.2.2.v20090912-0400-e3x,"org.eclipse.mylyn.bugzilla.core",1396314870821
started,bundle,org.eclipse.mylyn.bugzilla.ui,3.2.2.v20090912-0400-e3x,"org.eclipse.mylyn.bugzilla.ui",1396314871352
