what,kind,bundleId,bundleVersion,description,time
activated,workbench,org.eclipse.ui.workbench,3.5.1.M20090826-0800a,"",1406007095656
executed,command,org.eclipse.debug.ui,3.5.1.v20090811_r351,"org.eclipse.debug.ui.commands.StepOver",1406007097623
deactivated,workbench,org.eclipse.ui.workbench,3.5.1.M20090826-0800a,"",1406007101500
activated,workbench,org.eclipse.ui.workbench,3.5.1.M20090826-0800a,"",1406007102642
executed,command,org.eclipse.debug.ui,3.5.1.v20090811_r351,"org.eclipse.debug.ui.commands.StepOver",1406007106247
executed,command,org.eclipse.debug.ui,3.5.1.v20090811_r351,"org.eclipse.debug.ui.commands.StepOver",1406007106729
executed,command,org.eclipse.debug.ui,3.5.1.v20090811_r351,"org.eclipse.debug.ui.commands.StepOver",1406007108159
executed,command,org.eclipse.debug.ui,3.5.1.v20090811_r351,"org.eclipse.debug.ui.commands.Resume",1406007112127
deactivated,workbench,org.eclipse.ui.workbench,3.5.1.M20090826-0800a,"",1406007113914
activated,workbench,org.eclipse.ui.workbench,3.5.1.M20090826-0800a,"",1406007131740
activated,editor,org.eclipse.jdt.ui,3.5.1.r351_v20090821-0800,"org.eclipse.jdt.ui.CompilationUnitEditor",1406007132660
deactivated,workbench,org.eclipse.ui.workbench,3.5.1.M20090826-0800a,"",1406007133628
activated,workbench,org.eclipse.ui.workbench,3.5.1.M20090826-0800a,"",1406007135901
activated,view,org.eclipse.debug.ui,3.5.1.v20090811_r351,"org.eclipse.debug.ui.DebugView",1406007135916
activated,perspective,org.eclipse.jdt.ui,3.5.1.r351_v20090821-0800,"org.eclipse.jdt.ui.JavaPerspective",1406007141284
activated,editor,org.eclipse.jdt.ui,3.5.1.r351_v20090821-0800,"org.eclipse.jdt.ui.CompilationUnitEditor",1406007141303
deactivated,workbench,org.eclipse.ui.workbench,3.5.1.M20090826-0800a,"",1406007143192
activated,workbench,org.eclipse.ui.workbench,3.5.1.M20090826-0800a,"",1406007144794
deactivated,workbench,org.eclipse.ui.workbench,3.5.1.M20090826-0800a,"",1406007145153
activated,workbench,org.eclipse.ui.workbench,3.5.1.M20090826-0800a,"",1406007179666
executed,command,,,"AUTOGEN:::org.eclipse.jdt.debug.CompilationUnitEditor.BreakpointRulerActions/org.eclipse.jdt.debug.ui.actions.ManageBreakpointRulerAction",1406007185923
executed,command,org.eclipse.ui,3.5.1.M20090902-1000,"org.eclipse.ui.file.save",1406007197797
activated,editor,org.eclipse.jdt.ui,3.5.1.r351_v20090821-0800,"org.eclipse.jdt.ui.CompilationUnitEditor",1406007212206
activated,editor,org.eclipse.jdt.ui,3.5.1.r351_v20090821-0800,"org.eclipse.jdt.ui.CompilationUnitEditor",1406007228142
activated,editor,org.eclipse.jdt.ui,3.5.1.r351_v20090821-0800,"org.eclipse.jdt.ui.CompilationUnitEditor",1406007342536
