what,kind,bundleId,bundleVersion,description,time
deactivated,workbench,org.eclipse.ui.workbench,3.5.1.M20090826-0800a,"",1374887063563
activated,workbench,org.eclipse.ui.workbench,3.5.1.M20090826-0800a,"",1374887223177
started,bundle,org.eclipse.wst.ws.service.policy,1.0.103.v200905151848,"org.eclipse.wst.ws.service.policy",1374887226177
started,bundle,org.eclipse.wst.command.env,1.0.408.v200903110045,"org.eclipse.wst.command.env",1374887226256
started,bundle,org.eclipse.wst.ws,1.1.103.v200903111822,"org.eclipse.wst.ws",1374887226272
started,bundle,org.eclipse.search,3.5.1.r351_v20090708-0800,"org.eclipse.search",1374887226504
started,bundle,org.eclipse.compare,3.5.0.I20090514-0808,"org.eclipse.compare",1374887226856
started,bundle,org.eclipse.jdt.junit,3.5.1.r351_v20090708-0800,"org.eclipse.jdt.junit",1374887228044
started,bundle,org.eclipse.cdt.debug.core,6.0.0.201002161416,"org.eclipse.cdt.debug.core",1374887228284
started,bundle,org.eclipse.cdt.debug.ui,6.0.0.201002161416,"org.eclipse.cdt.debug.ui",1374887228320
executed,command,,,"com.android.ide.eclipse.adt.debug.launching.LaunchShortcut.run",1374887233626
started,bundle,org.eclipse.wst.server.core,1.1.102.v20090825,"org.eclipse.wst.server.core",1374887237525
started,bundle,org.eclipse.wst.server.ui,1.1.103.v20090909,"org.eclipse.wst.server.ui",1374887237592
opened,view,org.eclipse.wst.server.ui,1.1.103.v20090909,"org.eclipse.wst.server.ui.ServersView",1374887237615
activated,view,org.eclipse.wst.server.ui,1.1.103.v20090909,"org.eclipse.wst.server.ui.ServersView",1374887237656
started,bundle,org.eclipse.ui.views.properties.tabbed,3.5.0.I20090429-1800,"org.eclipse.ui.views.properties.tabbed",1374887239398
opened,view,org.eclipse.ui.views,3.4.1.M20090826-0800,"org.eclipse.ui.views.PropertySheet",1374887239403
activated,view,org.eclipse.ui.views,3.4.1.M20090826-0800,"org.eclipse.ui.views.PropertySheet",1374887239433
started,bundle,org.eclipse.datatools.connectivity,1.1.2.v200908180040,"org.eclipse.datatools.connectivity",1374887241091
started,bundle,org.eclipse.datatools.connectivity.ui,1.1.4.v200908130540,"org.eclipse.datatools.connectivity.ui",1374887241135
started,bundle,org.eclipse.datatools.connectivity.ui.dse,1.1.3.v200906020553,"org.eclipse.datatools.connectivity.ui.dse",1374887241159
started,bundle,org.eclipse.datatools.enablement.ingres.ui,1.0.0.v200906111150,"org.eclipse.datatools.enablement.ingres.ui",1374887241199
started,bundle,org.eclipse.datatools.connectivity.sqm.core,1.1.0.v200906020553,"org.eclipse.datatools.connectivity.sqm.core",1374887241370
started,bundle,org.eclipse.datatools.connectivity.sqm.core.ui,1.1.100.v200906020553,"org.eclipse.datatools.connectivity.sqm.core.ui",1374887241385
opened,view,org.eclipse.datatools.connectivity.ui.dse,1.1.3.v200906020553,"org.eclipse.datatools.connectivity.DataSourceExplorerNavigator",1374887241483
