what,kind,bundleId,bundleVersion,description,time
deactivated,workbench,org.eclipse.ui.workbench,3.5.1.M20090826-0800a,"",1400048806619
activated,workbench,org.eclipse.ui.workbench,3.5.1.M20090826-0800a,"",1400048820814
opened,editor,org.eclipse.jdt.ui,3.5.1.r351_v20090821-0800,"org.eclipse.jdt.ui.CompilationUnitEditor",1400048832347
activated,editor,org.eclipse.jdt.ui,3.5.1.r351_v20090821-0800,"org.eclipse.jdt.ui.CompilationUnitEditor",1400048832421
deactivated,workbench,org.eclipse.ui.workbench,3.5.1.M20090826-0800a,"",1400048834785
activated,workbench,org.eclipse.ui.workbench,3.5.1.M20090826-0800a,"",1400048837477
activated,view,org.eclipse.jdt.ui,3.5.1.r351_v20090821-0800,"org.eclipse.jdt.ui.PackageExplorer",1400048837507
activated,editor,org.eclipse.jdt.ui,3.5.1.r351_v20090821-0800,"org.eclipse.jdt.ui.CompilationUnitEditor",1400048839438
activated,view,org.eclipse.jdt.ui,3.5.1.r351_v20090821-0800,"org.eclipse.jdt.ui.PackageExplorer",1400048864515
executed,command,,,"com.android.ide.eclipse.adt.debug.launching.LaunchShortcut.run",1400048866792
deactivated,workbench,org.eclipse.ui.workbench,3.5.1.M20090826-0800a,"",1400048868661
activated,workbench,org.eclipse.ui.workbench,3.5.1.M20090826-0800a,"",1400048869847
deactivated,workbench,org.eclipse.ui.workbench,3.5.1.M20090826-0800a,"",1400048870374
activated,workbench,org.eclipse.ui.workbench,3.5.1.M20090826-0800a,"",1400048871557
deactivated,workbench,org.eclipse.ui.workbench,3.5.1.M20090826-0800a,"",1400048871827
activated,workbench,org.eclipse.ui.workbench,3.5.1.M20090826-0800a,"",1400048874939
activated,view,org.eclipse.ui.console,3.4.0.v20090513,"org.eclipse.ui.console.ConsoleView",1400048875100
deactivated,workbench,org.eclipse.ui.workbench,3.5.1.M20090826-0800a,"",1400048877055
activated,workbench,org.eclipse.ui.workbench,3.5.1.M20090826-0800a,"",1400048889742
opened,view,com.android.ide.eclipse.ddms,12.0.0.v201106281929-138431,"com.android.ide.eclipse.ddms.views.LogCatView",1400048890186
activated,view,com.android.ide.eclipse.ddms,12.0.0.v201106281929-138431,"com.android.ide.eclipse.ddms.views.LogCatView",1400048890238
deactivated,workbench,org.eclipse.ui.workbench,3.5.1.M20090826-0800a,"",1400048893874
activated,workbench,org.eclipse.ui.workbench,3.5.1.M20090826-0800a,"",1400048895070
deactivated,workbench,org.eclipse.ui.workbench,3.5.1.M20090826-0800a,"",1400048902022
activated,workbench,org.eclipse.ui.workbench,3.5.1.M20090826-0800a,"",1400048907609
