what,kind,bundleId,bundleVersion,description,time
deactivated,workbench,org.eclipse.ui.workbench,3.5.1.M20090826-0800a,"",1398750949480
activated,workbench,org.eclipse.ui.workbench,3.5.1.M20090826-0800a,"",1398751176548
deactivated,workbench,org.eclipse.ui.workbench,3.5.1.M20090826-0800a,"",1398751178348
activated,workbench,org.eclipse.ui.workbench,3.5.1.M20090826-0800a,"",1398751697915
activated,view,org.eclipse.jdt.ui,3.5.1.r351_v20090821-0800,"org.eclipse.jdt.ui.PackageExplorer",1398751700259
opened,editor,org.eclipse.jdt.ui,3.5.1.r351_v20090821-0800,"org.eclipse.jdt.ui.CompilationUnitEditor",1398751702376
activated,editor,org.eclipse.jdt.ui,3.5.1.r351_v20090821-0800,"org.eclipse.jdt.ui.CompilationUnitEditor",1398751702433
activated,editor,org.eclipse.jdt.ui,3.5.1.r351_v20090821-0800,"org.eclipse.jdt.ui.CompilationUnitEditor",1398751710729
closed,editor,org.eclipse.jdt.ui,3.5.1.r351_v20090821-0800,"org.eclipse.jdt.ui.CompilationUnitEditor",1398751710730
deactivated,workbench,org.eclipse.ui.workbench,3.5.1.M20090826-0800a,"",1398751713688
activated,workbench,org.eclipse.ui.workbench,3.5.1.M20090826-0800a,"",1398751772635
activated,view,org.eclipse.jdt.ui,3.5.1.r351_v20090821-0800,"org.eclipse.jdt.ui.PackageExplorer",1398751774910
opened,editor,org.eclipse.jdt.ui,3.5.1.r351_v20090821-0800,"org.eclipse.jdt.ui.CompilationUnitEditor",1398751775158
activated,editor,org.eclipse.jdt.ui,3.5.1.r351_v20090821-0800,"org.eclipse.jdt.ui.CompilationUnitEditor",1398751775222
deactivated,workbench,org.eclipse.ui.workbench,3.5.1.M20090826-0800a,"",1398751783683
activated,workbench,org.eclipse.ui.workbench,3.5.1.M20090826-0800a,"",1398751944373
deactivated,workbench,org.eclipse.ui.workbench,3.5.1.M20090826-0800a,"",1398751944830
activated,workbench,org.eclipse.ui.workbench,3.5.1.M20090826-0800a,"",1398751997143
deactivated,workbench,org.eclipse.ui.workbench,3.5.1.M20090826-0800a,"",1398751997618
activated,workbench,org.eclipse.ui.workbench,3.5.1.M20090826-0800a,"",1398752794546
deactivated,workbench,org.eclipse.ui.workbench,3.5.1.M20090826-0800a,"",1398752795998
activated,workbench,org.eclipse.ui.workbench,3.5.1.M20090826-0800a,"",1398752799714
deactivated,workbench,org.eclipse.ui.workbench,3.5.1.M20090826-0800a,"",1398752801259
activated,workbench,org.eclipse.ui.workbench,3.5.1.M20090826-0800a,"",1398752810813
deactivated,workbench,org.eclipse.ui.workbench,3.5.1.M20090826-0800a,"",1398752811413
