what,kind,bundleId,bundleVersion,description,time
error,log,,,"Error validating C:\\Users\\acer\\.android\\devices.xml",1415799023026
started,bundle,org.eclipse.mylyn.context.core,3.2.2.v20090912-0400-e3x,"org.eclipse.mylyn.context.core",1415799025128
deactivated,workbench,org.eclipse.ui.workbench,3.5.1.M20090826-0800a,"",1415799025597
started,bundle,org.eclipse.mylyn.context.ui,3.2.2.v20090912-0400-e3x,"org.eclipse.mylyn.context.ui",1415799025723
started,bundle,org.eclipse.mylyn.tasks.ui,3.2.2.v20090912-0400-e3x,"org.eclipse.mylyn.tasks.ui",1415799027485
started,bundle,org.eclipse.mylyn.team.ui,3.2.2.v20090912-0400-e3x,"org.eclipse.mylyn.team.ui",1415799027752
started,bundle,org.eclipse.update.scheduler,3.2.200.v20081127,"org.eclipse.update.scheduler",1415799027901
started,bundle,org.eclipse.update.core,3.2.300.v20090525,"org.eclipse.update.core",1415799029065
started,bundle,org.eclipse.wst.ws.service.policy.ui,1.0.102.v200903070248,"org.eclipse.wst.ws.service.policy.ui",1415799029213
started,bundle,org.eclipse.jst.common.project.facet.core,1.4.1.v200908111817,"org.eclipse.jst.common.project.facet.core",1415799031349
started,bundle,org.eclipse.mylyn.monitor.ui,3.2.2.v20090912-0400-e3x,"org.eclipse.mylyn.monitor.ui",1415799033401
activated,workbench,org.eclipse.ui.workbench,3.5.1.M20090826-0800a,"",1415799048736
deactivated,workbench,org.eclipse.ui.workbench,3.5.1.M20090826-0800a,"",1415799050202
activated,workbench,org.eclipse.ui.workbench,3.5.1.M20090826-0800a,"",1415799051183
activated,editor,org.eclipse.jdt.ui,3.5.1.r351_v20090821-0800,"org.eclipse.jdt.ui.CompilationUnitEditor",1415799052629
deactivated,workbench,org.eclipse.ui.workbench,3.5.1.M20090826-0800a,"",1415799055551
activated,workbench,org.eclipse.ui.workbench,3.5.1.M20090826-0800a,"",1415799057001
deactivated,workbench,org.eclipse.ui.workbench,3.5.1.M20090826-0800a,"",1415799057321
activated,workbench,org.eclipse.ui.workbench,3.5.1.M20090826-0800a,"",1415799058536
deactivated,workbench,org.eclipse.ui.workbench,3.5.1.M20090826-0800a,"",1415799059440
started,bundle,org.eclipse.epp.usagedata.ui,1.1.0.R200906100410,"org.eclipse.epp.usagedata.ui",1415799071819
activated,workbench,org.eclipse.ui.workbench,3.5.1.M20090826-0800a,"",1415799082269
deactivated,workbench,org.eclipse.ui.workbench,3.5.1.M20090826-0800a,"",1415799084435
activated,workbench,org.eclipse.ui.workbench,3.5.1.M20090826-0800a,"",1415799100481
deactivated,workbench,org.eclipse.ui.workbench,3.5.1.M20090826-0800a,"",1415799100521
