what,kind,bundleId,bundleVersion,description,time
activated,view,org.eclipse.jdt.ui,3.5.1.r351_v20090821-0800,"org.eclipse.jdt.ui.PackageExplorer",1407483944326
activated,editor,org.eclipse.jdt.ui,3.5.1.r351_v20090821-0800,"org.eclipse.jdt.ui.CompilationUnitEditor",1407483992824
deactivated,workbench,org.eclipse.ui.workbench,3.5.1.M20090826-0800a,"",1407484021979
activated,workbench,org.eclipse.ui.workbench,3.5.1.M20090826-0800a,"",1407484024153
deactivated,workbench,org.eclipse.ui.workbench,3.5.1.M20090826-0800a,"",1407484024794
activated,workbench,org.eclipse.ui.workbench,3.5.1.M20090826-0800a,"",1407484047861
deactivated,workbench,org.eclipse.ui.workbench,3.5.1.M20090826-0800a,"",1407484050544
activated,workbench,org.eclipse.ui.workbench,3.5.1.M20090826-0800a,"",1407484051930
deactivated,workbench,org.eclipse.ui.workbench,3.5.1.M20090826-0800a,"",1407484052653
activated,workbench,org.eclipse.ui.workbench,3.5.1.M20090826-0800a,"",1407484052682
activated,editor,org.eclipse.jdt.ui,3.5.1.r351_v20090821-0800,"org.eclipse.jdt.ui.CompilationUnitEditor",1407484055723
closed,editor,org.eclipse.jdt.ui,3.5.1.r351_v20090821-0800,"org.eclipse.jdt.ui.CompilationUnitEditor",1407484055723
started,bundle,org.eclipse.wst.sse.ui,1.1.101.v200908261807,"org.eclipse.wst.sse.ui",1407484058152
started,bundle,org.eclipse.wst.common.uriresolver,1.1.301.v200805140415,"org.eclipse.wst.common.uriresolver",1407484058878
started,bundle,org.eclipse.wst.xml.ui,1.1.1.v200908242115,"org.eclipse.wst.xml.ui",1407484058952
started,bundle,org.eclipse.wst.xsl.core,1.0.1.v200908101420,"org.eclipse.wst.xsl.core",1407484059192
started,bundle,org.eclipse.jst.jsp.ui,1.1.401.v200908111935,"org.eclipse.jst.jsp.ui",1407484059438
started,bundle,org.eclipse.jst.jsp.core,1.2.203.v200908241513,"org.eclipse.jst.jsp.core",1407484059540
started,bundle,org.eclipse.wst.dtd.ui,1.0.400.v200904300717,"org.eclipse.wst.dtd.ui",1407484059690
opened,editor,com.android.ide.eclipse.adt,12.0.0.v201106281929-138431,"com.android.ide.eclipse.editors.layout.LayoutEditor",1407484060367
started,bundle,org.eclipse.jem.workbench,2.0.201.v200908271530,"org.eclipse.jem.workbench",1407484060638
started,bundle,org.eclipse.jst.jsf.ui,1.2.1.v20090827,"org.eclipse.jst.jsf.ui",1407484060762
started,bundle,org.eclipse.jst.j2ee.ejb,1.1.300.v200904230730,"org.eclipse.jst.j2ee.ejb",1407484060804
started,bundle,org.eclipse.jst.common.frameworks,1.1.300.v200904132230,"org.eclipse.jst.common.frameworks",1407484060892
started,bundle,org.eclipse.wst.wsi.ui,1.0.500.v200901141851,"org.eclipse.wst.wsi.ui",1407484060953
