what,kind,bundleId,bundleVersion,description,time
executed,command,org.eclipse.ui,3.5.1.M20090902-1000,"org.eclipse.ui.edit.selectAll",1405095993660
executed,command,org.eclipse.ui,3.5.1.M20090902-1000,"org.eclipse.ui.edit.copy",1405095994590
activated,view,org.eclipse.jdt.ui,3.5.1.r351_v20090821-0800,"org.eclipse.jdt.ui.PackageExplorer",1405095995952
deactivated,workbench,org.eclipse.ui.workbench,3.5.1.M20090826-0800a,"",1405095999371
activated,workbench,org.eclipse.ui.workbench,3.5.1.M20090826-0800a,"",1405096026953
opened,editor,org.eclipse.jdt.ui,3.5.1.r351_v20090821-0800,"org.eclipse.jdt.ui.CompilationUnitEditor",1405096027475
activated,editor,org.eclipse.jdt.ui,3.5.1.r351_v20090821-0800,"org.eclipse.jdt.ui.CompilationUnitEditor",1405096027558
activated,view,org.eclipse.jdt.ui,3.5.1.r351_v20090821-0800,"org.eclipse.jdt.ui.PackageExplorer",1405096030350
activated,editor,org.eclipse.jdt.ui,3.5.1.r351_v20090821-0800,"org.eclipse.jdt.ui.CompilationUnitEditor",1405096033708
executed,command,org.eclipse.ui,3.5.1.M20090902-1000,"org.eclipse.ui.edit.paste",1405096035794
started,bundle,org.eclipse.mylyn.java.tasks,3.2.2.v20090912-0400-e3x,"org.eclipse.mylyn.java.tasks",1405096036042
started,bundle,org.eclipse.jdt.junit,3.5.1.r351_v20090708-0800,"org.eclipse.jdt.junit",1405096036809
deactivated,workbench,org.eclipse.ui.workbench,3.5.1.M20090826-0800a,"",1405096046248
activated,workbench,org.eclipse.ui.workbench,3.5.1.M20090826-0800a,"",1405096048595
started,bundle,org.eclipse.mylyn.java.ui,3.2.2.v20090912-0400-e3x,"org.eclipse.mylyn.java.ui",1405096052848
started,bundle,org.eclipse.pde.api.tools,1.0.101.v20090714,"org.eclipse.pde.api.tools",1405096052949
started,bundle,org.eclipse.pde.api.tools.ui,1.0.101.v20090820,"org.eclipse.pde.api.tools.ui",1405096052968
deactivated,workbench,org.eclipse.ui.workbench,3.5.1.M20090826-0800a,"",1405096058810
activated,workbench,org.eclipse.ui.workbench,3.5.1.M20090826-0800a,"",1405096060438
deactivated,workbench,org.eclipse.ui.workbench,3.5.1.M20090826-0800a,"",1405096061413
activated,workbench,org.eclipse.ui.workbench,3.5.1.M20090826-0800a,"",1405096063847
deactivated,workbench,org.eclipse.ui.workbench,3.5.1.M20090826-0800a,"",1405096078647
activated,workbench,org.eclipse.ui.workbench,3.5.1.M20090826-0800a,"",1405096087976
deactivated,workbench,org.eclipse.ui.workbench,3.5.1.M20090826-0800a,"",1405096093984
activated,workbench,org.eclipse.ui.workbench,3.5.1.M20090826-0800a,"",1405096096982
