what,kind,bundleId,bundleVersion,description,time
started,bundle,org.eclipse.wst.web,1.1.301.v200909021400,"org.eclipse.wst.web",1415235338405
started,bundle,com.android.ide.eclipse.adt,12.0.0.v201106281929-138431,"com.android.ide.eclipse.adt",1415235338405
started,bundle,com.android.ide.eclipse.ddms,12.0.0.v201106281929-138431,"com.android.ide.eclipse.ddms",1415235338445
started,bundle,com.android.ide.eclipse.traceview,12.0.0.v201106281929-138431,"com.android.ide.eclipse.traceview",1415235338445
os,sysinfo,,,"win32",1415235338452
arch,sysinfo,,,"x86",1415235338452
ws,sysinfo,,,"win32",1415235338452
locale,sysinfo,,,"zh_CN",1415235338452
processors,sysinfo,,,"4",1415235338452
java.runtime.name,sysinfo,,,"Java(TM) SE Runtime Environment",1415235338452
java.runtime.version,sysinfo,,,"1.6.0_03-b05",1415235338452
java.specification.name,sysinfo,,,"Java Platform API Specification",1415235338452
java.specification.vendor,sysinfo,,,"Sun Microsystems Inc.",1415235338452
java.specification.version,sysinfo,,,"1.6",1415235338452
java.vendor,sysinfo,,,"Sun Microsystems Inc.",1415235338452
java.version,sysinfo,,,"1.6.0_03",1415235338453
java.vm.info,sysinfo,,,"mixed mode",1415235338453
java.vm.name,sysinfo,,,"Java HotSpot(TM) Client VM",1415235338453
java.vm.specification.name,sysinfo,,,"Java Virtual Machine Specification",1415235338453
java.vm.specification.vendor,sysinfo,,,"Sun Microsystems Inc.",1415235338453
java.vm.specification.version,sysinfo,,,"1.0",1415235338453
java.vm.vendor,sysinfo,,,"Sun Microsystems Inc.",1415235338453
java.vm.version,sysinfo,,,"1.6.0_03-b05",1415235338453
error,log,,,"Failed to load properties file for project 'FoodAndroidMobile'",1415235338583
started,bundle,org.eclipse.mylyn.commons.net,3.2.0.v20090617-0100-e3x,"org.eclipse.mylyn.commons.net",1415235338879
