what,kind,bundleId,bundleVersion,description,time
activated,view,com.android.ide.eclipse.ddms,12.0.0.v201106281929-138431,"com.android.ide.eclipse.ddms.views.LogCatView",1396948119964
activated,editor,org.eclipse.jdt.ui,3.5.1.r351_v20090821-0800,"org.eclipse.jdt.ui.CompilationUnitEditor",1396948127583
deactivated,workbench,org.eclipse.ui.workbench,3.5.1.M20090826-0800a,"",1396948187268
activated,workbench,org.eclipse.ui.workbench,3.5.1.M20090826-0800a,"",1396948188139
deactivated,workbench,org.eclipse.ui.workbench,3.5.1.M20090826-0800a,"",1396948188901
activated,workbench,org.eclipse.ui.workbench,3.5.1.M20090826-0800a,"",1396948253544
activated,view,org.eclipse.jdt.ui,3.5.1.r351_v20090821-0800,"org.eclipse.jdt.ui.PackageExplorer",1396948255820
closed,editor,org.eclipse.jdt.ui,3.5.1.r351_v20090821-0800,"org.eclipse.jdt.ui.CompilationUnitEditor",1396948255820
opened,editor,org.eclipse.jdt.ui,3.5.1.r351_v20090821-0800,"org.eclipse.jdt.ui.CompilationUnitEditor",1396948259618
activated,editor,org.eclipse.jdt.ui,3.5.1.r351_v20090821-0800,"org.eclipse.jdt.ui.CompilationUnitEditor",1396948259688
executed,command,org.eclipse.ui,3.5.1.M20090902-1000,"org.eclipse.ui.edit.cut",1396948266229
executed,command,org.eclipse.ui,3.5.1.M20090902-1000,"org.eclipse.ui.edit.paste",1396948270717
deactivated,workbench,org.eclipse.ui.workbench,3.5.1.M20090826-0800a,"",1396948289357
activated,workbench,org.eclipse.ui.workbench,3.5.1.M20090826-0800a,"",1396948294763
deactivated,workbench,org.eclipse.ui.workbench,3.5.1.M20090826-0800a,"",1396948296326
activated,workbench,org.eclipse.ui.workbench,3.5.1.M20090826-0800a,"",1396948299703
deactivated,workbench,org.eclipse.ui.workbench,3.5.1.M20090826-0800a,"",1396948302148
activated,workbench,org.eclipse.ui.workbench,3.5.1.M20090826-0800a,"",1396948304112
deactivated,workbench,org.eclipse.ui.workbench,3.5.1.M20090826-0800a,"",1396948304331
activated,workbench,org.eclipse.ui.workbench,3.5.1.M20090826-0800a,"",1396948305636
executed,command,org.eclipse.ui,3.5.1.M20090902-1000,"org.eclipse.ui.file.save",1396948310264
deactivated,workbench,org.eclipse.ui.workbench,3.5.1.M20090826-0800a,"",1396948311471
activated,workbench,org.eclipse.ui.workbench,3.5.1.M20090826-0800a,"",1396948312553
deactivated,workbench,org.eclipse.ui.workbench,3.5.1.M20090826-0800a,"",1396948312757
activated,workbench,org.eclipse.ui.workbench,3.5.1.M20090826-0800a,"",1396948313575
