what,kind,bundleId,bundleVersion,description,time
activated,workbench,org.eclipse.ui.workbench,3.5.1.M20090826-0800a,"",1400651645246
executed,command,org.eclipse.ui,3.5.1.M20090902-1000,"org.eclipse.ui.edit.delete",1400651645284
deactivated,workbench,org.eclipse.ui.workbench,3.5.1.M20090826-0800a,"",1400651650375
activated,workbench,org.eclipse.ui.workbench,3.5.1.M20090826-0800a,"",1400651671770
opened,editor,org.eclipse.jdt.ui,3.5.1.r351_v20090821-0800,"org.eclipse.jdt.ui.CompilationUnitEditor",1400651672264
activated,editor,org.eclipse.jdt.ui,3.5.1.r351_v20090821-0800,"org.eclipse.jdt.ui.CompilationUnitEditor",1400651672320
deactivated,workbench,org.eclipse.ui.workbench,3.5.1.M20090826-0800a,"",1400651678485
activated,workbench,org.eclipse.ui.workbench,3.5.1.M20090826-0800a,"",1400651685926
executed,command,org.eclipse.jdt.ui,3.5.1.r351_v20090821-0800,"org.eclipse.jdt.ui.edit.text.java.override.methods",1400651685977
executed,command,org.eclipse.ui,3.5.1.M20090902-1000,"org.eclipse.ui.edit.paste",1400651688725
activated,view,org.eclipse.jdt.ui,3.5.1.r351_v20090821-0800,"org.eclipse.jdt.ui.PackageExplorer",1400651693881
deactivated,workbench,org.eclipse.ui.workbench,3.5.1.M20090826-0800a,"",1400651696276
activated,workbench,org.eclipse.ui.workbench,3.5.1.M20090826-0800a,"",1400651698429
started,bundle,org.eclipse.pde.core,3.5.100.v20090821,"org.eclipse.pde.core",1400651699379
activated,editor,org.eclipse.jdt.ui,3.5.1.r351_v20090821-0800,"org.eclipse.jdt.ui.CompilationUnitEditor",1400651703659
activated,editor,org.eclipse.jdt.ui,3.5.1.r351_v20090821-0800,"org.eclipse.jdt.ui.CompilationUnitEditor",1400651704455
deactivated,workbench,org.eclipse.ui.workbench,3.5.1.M20090826-0800a,"",1400651711755
activated,workbench,org.eclipse.ui.workbench,3.5.1.M20090826-0800a,"",1400651711976
executed,command,org.eclipse.ui,3.5.1.M20090902-1000,"org.eclipse.ui.file.save",1400651713786
activated,view,org.eclipse.jdt.ui,3.5.1.r351_v20090821-0800,"org.eclipse.jdt.ui.PackageExplorer",1400651716901
activated,editor,org.eclipse.jdt.ui,3.5.1.r351_v20090821-0800,"org.eclipse.jdt.ui.CompilationUnitEditor",1400651717093
deactivated,workbench,org.eclipse.ui.workbench,3.5.1.M20090826-0800a,"",1400651764233
activated,workbench,org.eclipse.ui.workbench,3.5.1.M20090826-0800a,"",1400651764453
deactivated,workbench,org.eclipse.ui.workbench,3.5.1.M20090826-0800a,"",1400651769328
activated,workbench,org.eclipse.ui.workbench,3.5.1.M20090826-0800a,"",1400651769496
