what,kind,bundleId,bundleVersion,description,time
deactivated,workbench,org.eclipse.ui.workbench,3.5.1.M20090826-0800a,"",1405386545048
activated,workbench,org.eclipse.ui.workbench,3.5.1.M20090826-0800a,"",1405387171634
executed,command,org.eclipse.ui,3.5.1.M20090902-1000,"org.eclipse.ui.file.save",1405387222265
deactivated,workbench,org.eclipse.ui.workbench,3.5.1.M20090826-0800a,"",1405387233476
activated,workbench,org.eclipse.ui.workbench,3.5.1.M20090826-0800a,"",1405387238145
executed,command,org.eclipse.ui.workbench.texteditor,3.5.0.v20090603,"org.eclipse.ui.edit.text.goto.lineEnd",1405387248341
deactivated,workbench,org.eclipse.ui.workbench,3.5.1.M20090826-0800a,"",1405387277383
activated,workbench,org.eclipse.ui.workbench,3.5.1.M20090826-0800a,"",1405387281819
deactivated,workbench,org.eclipse.ui.workbench,3.5.1.M20090826-0800a,"",1405387289589
activated,workbench,org.eclipse.ui.workbench,3.5.1.M20090826-0800a,"",1405387290930
deactivated,workbench,org.eclipse.ui.workbench,3.5.1.M20090826-0800a,"",1405387296961
activated,workbench,org.eclipse.ui.workbench,3.5.1.M20090826-0800a,"",1405387300541
deactivated,workbench,org.eclipse.ui.workbench,3.5.1.M20090826-0800a,"",1405387312608
activated,workbench,org.eclipse.ui.workbench,3.5.1.M20090826-0800a,"",1405387319943
executed,command,org.eclipse.ui,3.5.1.M20090902-1000,"org.eclipse.ui.edit.copy",1405387350768
started,bundle,org.eclipse.mylyn.java.tasks,3.2.2.v20090912-0400-e3x,"org.eclipse.mylyn.java.tasks",1405387350923
executed,command,org.eclipse.ui,3.5.1.M20090902-1000,"org.eclipse.ui.edit.paste",1405387352698
deactivated,workbench,org.eclipse.ui.workbench,3.5.1.M20090826-0800a,"",1405387354499
activated,workbench,org.eclipse.ui.workbench,3.5.1.M20090826-0800a,"",1405387355239
executed,command,org.eclipse.ui,3.5.1.M20090902-1000,"org.eclipse.ui.file.save",1405387357335
executed,command,org.eclipse.ui,3.5.1.M20090902-1000,"org.eclipse.ui.file.save",1405387374486
deactivated,workbench,org.eclipse.ui.workbench,3.5.1.M20090826-0800a,"",1405388792100
activated,workbench,org.eclipse.ui.workbench,3.5.1.M20090826-0800a,"",1405388951548
deactivated,workbench,org.eclipse.ui.workbench,3.5.1.M20090826-0800a,"",1405388979257
activated,workbench,org.eclipse.ui.workbench,3.5.1.M20090826-0800a,"",1405388981059
