what,kind,bundleId,bundleVersion,description,time
executed,command,org.eclipse.ui,3.5.1.M20090902-1000,"org.eclipse.ui.file.save",1400595704785
activated,view,org.eclipse.jdt.ui,3.5.1.r351_v20090821-0800,"org.eclipse.jdt.ui.PackageExplorer",1400595706029
executed,command,,,"com.android.ide.eclipse.adt.debug.launching.LaunchShortcut.run",1400595708916
deactivated,workbench,org.eclipse.ui.workbench,3.5.1.M20090826-0800a,"",1400595709598
activated,workbench,org.eclipse.ui.workbench,3.5.1.M20090826-0800a,"",1400595726687
deactivated,workbench,org.eclipse.ui.workbench,3.5.1.M20090826-0800a,"",1400595729088
activated,workbench,org.eclipse.ui.workbench,3.5.1.M20090826-0800a,"",1400595823210
activated,editor,org.eclipse.jdt.ui,3.5.1.r351_v20090821-0800,"org.eclipse.jdt.ui.CompilationUnitEditor",1400595823968
deactivated,workbench,org.eclipse.ui.workbench,3.5.1.M20090826-0800a,"",1400596168982
activated,workbench,org.eclipse.ui.workbench,3.5.1.M20090826-0800a,"",1400596169642
deactivated,workbench,org.eclipse.ui.workbench,3.5.1.M20090826-0800a,"",1400596170100
activated,workbench,org.eclipse.ui.workbench,3.5.1.M20090826-0800a,"",1400596192881
deactivated,workbench,org.eclipse.ui.workbench,3.5.1.M20090826-0800a,"",1400596192888
activated,workbench,org.eclipse.ui.workbench,3.5.1.M20090826-0800a,"",1400596194564
deactivated,workbench,org.eclipse.ui.workbench,3.5.1.M20090826-0800a,"",1400596197930
deactivated,workbench,org.eclipse.ui.workbench,3.5.1.M20090826-0800a,"",1400596198985
activated,workbench,org.eclipse.ui.workbench,3.5.1.M20090826-0800a,"",1400597049949
closed,workbench,org.eclipse.ui.workbench,3.5.1.M20090826-0800a,"",1400597052479
stopped,bundle,org.eclipse.jst.ws.axis.creation.ui,1.0.406.v200903031852,"org.eclipse.jst.ws.axis.creation.ui",1400597089278
