what,kind,bundleId,bundleVersion,description,time
deactivated,workbench,org.eclipse.ui.workbench,3.5.1.M20090826-0800a,"",1398480631317
activated,workbench,org.eclipse.ui.workbench,3.5.1.M20090826-0800a,"",1398480707551
activated,view,com.android.ide.eclipse.ddms,12.0.0.v201106281929-138431,"com.android.ide.eclipse.ddms.views.LogCatView",1398480708864
deactivated,workbench,org.eclipse.ui.workbench,3.5.1.M20090826-0800a,"",1398480718556
activated,workbench,org.eclipse.ui.workbench,3.5.1.M20090826-0800a,"",1398480719550
deactivated,workbench,org.eclipse.ui.workbench,3.5.1.M20090826-0800a,"",1398480751569
activated,workbench,org.eclipse.ui.workbench,3.5.1.M20090826-0800a,"",1398481085210
deactivated,workbench,org.eclipse.ui.workbench,3.5.1.M20090826-0800a,"",1398481085666
activated,workbench,org.eclipse.ui.workbench,3.5.1.M20090826-0800a,"",1398481505958
deactivated,workbench,org.eclipse.ui.workbench,3.5.1.M20090826-0800a,"",1398481542810
activated,workbench,org.eclipse.ui.workbench,3.5.1.M20090826-0800a,"",1398481647904
activated,editor,org.eclipse.jdt.ui,3.5.1.r351_v20090821-0800,"org.eclipse.jdt.ui.CompilationUnitEditor",1398481650499
activated,view,org.eclipse.jdt.ui,3.5.1.r351_v20090821-0800,"org.eclipse.jdt.ui.PackageExplorer",1398481653140
opened,editor,org.eclipse.jdt.ui,3.5.1.r351_v20090821-0800,"org.eclipse.jdt.ui.CompilationUnitEditor",1398481663936
activated,editor,org.eclipse.jdt.ui,3.5.1.r351_v20090821-0800,"org.eclipse.jdt.ui.CompilationUnitEditor",1398481663999
activated,view,org.eclipse.jdt.ui,3.5.1.r351_v20090821-0800,"org.eclipse.jdt.ui.PackageExplorer",1398481955403
started,bundle,org.eclipse.wst.sse.ui,1.1.101.v200908261807,"org.eclipse.wst.sse.ui",1398481963167
started,bundle,org.eclipse.wst.common.uriresolver,1.1.301.v200805140415,"org.eclipse.wst.common.uriresolver",1398481963859
started,bundle,org.eclipse.wst.xml.ui,1.1.1.v200908242115,"org.eclipse.wst.xml.ui",1398481963960
started,bundle,org.eclipse.wst.xsl.core,1.0.1.v200908101420,"org.eclipse.wst.xsl.core",1398481964284
started,bundle,org.eclipse.jst.jsp.ui,1.1.401.v200908111935,"org.eclipse.jst.jsp.ui",1398481964463
started,bundle,org.eclipse.jst.jsp.core,1.2.203.v200908241513,"org.eclipse.jst.jsp.core",1398481964540
started,bundle,org.eclipse.wst.dtd.ui,1.0.400.v200904300717,"org.eclipse.wst.dtd.ui",1398481964732
opened,editor,com.android.ide.eclipse.adt,12.0.0.v201106281929-138431,"com.android.ide.eclipse.editors.layout.LayoutEditor",1398481965007
activated,editor,com.android.ide.eclipse.adt,12.0.0.v201106281929-138431,"com.android.ide.eclipse.editors.layout.LayoutEditor",1398481965057
