what,kind,bundleId,bundleVersion,description,time
executed,command,org.eclipse.ui,3.5.1.M20090902-1000,"org.eclipse.ui.edit.text.contentAssist.proposals",1413880340423
executed,command,org.eclipse.ui,3.5.1.M20090902-1000,"org.eclipse.ui.file.save",1413880371058
deactivated,workbench,org.eclipse.ui.workbench,3.5.1.M20090826-0800a,"",1413880503236
activated,workbench,org.eclipse.ui.workbench,3.5.1.M20090826-0800a,"",1413880528453
executed,command,org.eclipse.ui,3.5.1.M20090902-1000,"org.eclipse.ui.file.save",1413880567751
deactivated,workbench,org.eclipse.ui.workbench,3.5.1.M20090826-0800a,"",1413880570895
activated,workbench,org.eclipse.ui.workbench,3.5.1.M20090826-0800a,"",1413880571717
deactivated,workbench,org.eclipse.ui.workbench,3.5.1.M20090826-0800a,"",1413880572177
activated,workbench,org.eclipse.ui.workbench,3.5.1.M20090826-0800a,"",1413880580387
executed,command,org.eclipse.ui,3.5.1.M20090902-1000,"org.eclipse.ui.file.save",1413880602140
deactivated,workbench,org.eclipse.ui.workbench,3.5.1.M20090826-0800a,"",1413880604505
activated,workbench,org.eclipse.ui.workbench,3.5.1.M20090826-0800a,"",1413880673280
executed,command,org.eclipse.ui,3.5.1.M20090902-1000,"org.eclipse.ui.file.save",1413880686531
executed,command,org.eclipse.ui,3.5.1.M20090902-1000,"org.eclipse.ui.file.save",1413880705376
deactivated,workbench,org.eclipse.ui.workbench,3.5.1.M20090826-0800a,"",1413880707232
activated,workbench,org.eclipse.ui.workbench,3.5.1.M20090826-0800a,"",1413880707241
executed,command,org.eclipse.jdt.debug.ui,3.4.1.v20090811_r351,"org.eclipse.jdt.debug.ui.localJavaShortcut.run",1413880710451
deactivated,workbench,org.eclipse.ui.workbench,3.5.1.M20090826-0800a,"",1413880711287
activated,workbench,org.eclipse.ui.workbench,3.5.1.M20090826-0800a,"",1413880713811
deactivated,workbench,org.eclipse.ui.workbench,3.5.1.M20090826-0800a,"",1413880714362
activated,workbench,org.eclipse.ui.workbench,3.5.1.M20090826-0800a,"",1413880734805
deactivated,workbench,org.eclipse.ui.workbench,3.5.1.M20090826-0800a,"",1413880736940
activated,workbench,org.eclipse.ui.workbench,3.5.1.M20090826-0800a,"",1413880739687
executed,command,org.eclipse.ui,3.5.1.M20090902-1000,"org.eclipse.ui.file.save",1413880747427
executed,command,org.eclipse.jdt.debug.ui,3.4.1.v20090811_r351,"org.eclipse.jdt.debug.ui.localJavaShortcut.run",1413880750032
