what,kind,bundleId,bundleVersion,description,time
started,bundle,org.eclipse.cdt.debug.core,6.0.0.201002161416,"org.eclipse.cdt.debug.core",1414028296543
started,bundle,org.eclipse.cdt.debug.ui,6.0.0.201002161416,"org.eclipse.cdt.debug.ui",1414028296592
started,bundle,org.eclipse.cdt.core.tests,5.1.2.201002161416,"org.eclipse.cdt.core.tests",1414028296786
executed,command,,,"com.android.ide.eclipse.adt.debug.launching.LaunchShortcut.run",1414028298336
deactivated,workbench,org.eclipse.ui.workbench,3.5.1.M20090826-0800a,"",1414028298863
activated,workbench,org.eclipse.ui.workbench,3.5.1.M20090826-0800a,"",1414028300332
activated,view,org.eclipse.ui.console,3.4.0.v20090513,"org.eclipse.ui.console.ConsoleView",1414028300482
deactivated,workbench,org.eclipse.ui.workbench,3.5.1.M20090826-0800a,"",1414028306287
activated,workbench,org.eclipse.ui.workbench,3.5.1.M20090826-0800a,"",1414028312681
deactivated,workbench,org.eclipse.ui.workbench,3.5.1.M20090826-0800a,"",1414028315956
activated,workbench,org.eclipse.ui.workbench,3.5.1.M20090826-0800a,"",1414028325474
activated,editor,org.eclipse.jdt.ui,3.5.1.r351_v20090821-0800,"org.eclipse.jdt.ui.CompilationUnitEditor",1414028325507
opened,view,com.android.ide.eclipse.ddms,12.0.0.v201106281929-138431,"com.android.ide.eclipse.ddms.views.LogCatView",1414028327193
activated,view,com.android.ide.eclipse.ddms,12.0.0.v201106281929-138431,"com.android.ide.eclipse.ddms.views.LogCatView",1414028327246
deactivated,workbench,org.eclipse.ui.workbench,3.5.1.M20090826-0800a,"",1414028330864
activated,workbench,org.eclipse.ui.workbench,3.5.1.M20090826-0800a,"",1414028343545
activated,editor,org.eclipse.jdt.ui,3.5.1.r351_v20090821-0800,"org.eclipse.jdt.ui.CompilationUnitEditor",1414028344812
deactivated,workbench,org.eclipse.ui.workbench,3.5.1.M20090826-0800a,"",1414028367914
activated,workbench,org.eclipse.ui.workbench,3.5.1.M20090826-0800a,"",1414028368687
activated,view,com.android.ide.eclipse.ddms,12.0.0.v201106281929-138431,"com.android.ide.eclipse.ddms.views.LogCatView",1414028370143
activated,editor,org.eclipse.jdt.ui,3.5.1.r351_v20090821-0800,"org.eclipse.jdt.ui.CompilationUnitEditor",1414028373274
deactivated,workbench,org.eclipse.ui.workbench,3.5.1.M20090826-0800a,"",1414028379835
activated,workbench,org.eclipse.ui.workbench,3.5.1.M20090826-0800a,"",1414028382625
activated,editor,org.eclipse.jdt.ui,3.5.1.r351_v20090821-0800,"org.eclipse.jdt.ui.CompilationUnitEditor",1414028382793
activated,editor,org.eclipse.jdt.ui,3.5.1.r351_v20090821-0800,"org.eclipse.jdt.ui.CompilationUnitEditor",1414028391780
