what,kind,bundleId,bundleVersion,description,time
started,bundle,org.eclipse.wst.jsdt.ui,1.0.200.v200905242047,"org.eclipse.wst.jsdt.ui",1396340515421
activated,workbench,org.eclipse.ui.workbench,3.5.1.M20090826-0800a,"",1396340516445
executed,command,org.eclipse.ltk.ui.refactoring,3.4.100.v20090604,"org.eclipse.ltk.ui.refactoring.commands.deleteResources",1396340516484
executed,command,org.eclipse.ui,3.5.1.M20090902-1000,"org.eclipse.ui.edit.delete",1396340516484
deactivated,workbench,org.eclipse.ui.workbench,3.5.1.M20090826-0800a,"",1396340518657
activated,workbench,org.eclipse.ui.workbench,3.5.1.M20090826-0800a,"",1396341022941
opened,editor,org.eclipse.jdt.ui,3.5.1.r351_v20090821-0800,"org.eclipse.jdt.ui.CompilationUnitEditor",1396341037118
activated,editor,org.eclipse.jdt.ui,3.5.1.r351_v20090821-0800,"org.eclipse.jdt.ui.CompilationUnitEditor",1396341037138
error,log,,,"Unable to create editor ID org.eclipse.jdt.ui.ClassFileEditor: Unmatched braces in the pattern.",1396341096320
opened,editor,org.eclipse.jdt.ui,3.5.1.r351_v20090821-0800,"org.eclipse.jdt.ui.ClassFileEditor",1396341096356
opened,editor,org.eclipse.jdt.ui,3.5.1.r351_v20090821-0800,"org.eclipse.jdt.ui.ClassFileEditor",1396341096358
activated,editor,org.eclipse.jdt.ui,3.5.1.r351_v20090821-0800,"org.eclipse.jdt.ui.ClassFileEditor",1396341096380
executed,command,org.eclipse.jdt.ui,3.5.1.r351_v20090821-0800,"org.eclipse.jdt.ui.edit.text.java.open.editor",1396341096397
activated,editor,org.eclipse.jdt.ui,3.5.1.r351_v20090821-0800,"org.eclipse.jdt.ui.CompilationUnitEditor",1396341098654
closed,editor,org.eclipse.jdt.ui,3.5.1.r351_v20090821-0800,"org.eclipse.jdt.ui.ClassFileEditor",1396341098654
deactivated,workbench,org.eclipse.ui.workbench,3.5.1.M20090826-0800a,"",1396341107663
activated,workbench,org.eclipse.ui.workbench,3.5.1.M20090826-0800a,"",1396341108483
deactivated,workbench,org.eclipse.ui.workbench,3.5.1.M20090826-0800a,"",1396341109913
activated,workbench,org.eclipse.ui.workbench,3.5.1.M20090826-0800a,"",1396341114472
deactivated,workbench,org.eclipse.ui.workbench,3.5.1.M20090826-0800a,"",1396341122559
activated,workbench,org.eclipse.ui.workbench,3.5.1.M20090826-0800a,"",1396341144216
started,bundle,org.eclipse.wst.server.core,1.1.102.v20090825,"org.eclipse.wst.server.core",1396341154425
started,bundle,org.eclipse.wst.server.ui,1.1.103.v20090909,"org.eclipse.wst.server.ui",1396341154485
started,bundle,org.eclipse.cdt.core,5.1.2.201002161416,"org.eclipse.cdt.core",1396341154871
started,bundle,org.eclipse.cdt.debug.core,6.0.0.201002161416,"org.eclipse.cdt.debug.core",1396341154933
