what,kind,bundleId,bundleVersion,description,time
activated,view,org.eclipse.jdt.ui,3.5.1.r351_v20090821-0800,"org.eclipse.jdt.ui.PackageExplorer",1398825108226
closed,editor,org.eclipse.jdt.ui,3.5.1.r351_v20090821-0800,"org.eclipse.jdt.ui.CompilationUnitEditor",1398825108226
opened,editor,org.eclipse.jdt.ui,3.5.1.r351_v20090821-0800,"org.eclipse.jdt.ui.CompilationUnitEditor",1398825116756
activated,editor,org.eclipse.jdt.ui,3.5.1.r351_v20090821-0800,"org.eclipse.jdt.ui.CompilationUnitEditor",1398825116798
activated,view,org.eclipse.jdt.ui,3.5.1.r351_v20090821-0800,"org.eclipse.jdt.ui.PackageExplorer",1398825119100
activated,editor,org.eclipse.jdt.ui,3.5.1.r351_v20090821-0800,"org.eclipse.jdt.ui.CompilationUnitEditor",1398825121088
activated,view,org.eclipse.jdt.ui,3.5.1.r351_v20090821-0800,"org.eclipse.jdt.ui.PackageExplorer",1398825121151
closed,editor,org.eclipse.jdt.ui,3.5.1.r351_v20090821-0800,"org.eclipse.jdt.ui.CompilationUnitEditor",1398825121151
opened,editor,org.eclipse.jdt.ui,3.5.1.r351_v20090821-0800,"org.eclipse.jdt.ui.CompilationUnitEditor",1398825122882
activated,editor,org.eclipse.jdt.ui,3.5.1.r351_v20090821-0800,"org.eclipse.jdt.ui.CompilationUnitEditor",1398825122903
started,bundle,org.eclipse.jdt.junit,3.5.1.r351_v20090708-0800,"org.eclipse.jdt.junit",1398825133826
deactivated,workbench,org.eclipse.ui.workbench,3.5.1.M20090826-0800a,"",1398825141547
activated,workbench,org.eclipse.ui.workbench,3.5.1.M20090826-0800a,"",1398825207831
deactivated,workbench,org.eclipse.ui.workbench,3.5.1.M20090826-0800a,"",1398825213875
activated,workbench,org.eclipse.ui.workbench,3.5.1.M20090826-0800a,"",1398825216494
deactivated,workbench,org.eclipse.ui.workbench,3.5.1.M20090826-0800a,"",1398825217059
deactivated,workbench,org.eclipse.ui.workbench,3.5.1.M20090826-0800a,"",1398825219958
activated,workbench,org.eclipse.ui.workbench,3.5.1.M20090826-0800a,"",1398825244108
deactivated,workbench,org.eclipse.ui.workbench,3.5.1.M20090826-0800a,"",1398825244837
activated,workbench,org.eclipse.ui.workbench,3.5.1.M20090826-0800a,"",1398825314084
deactivated,workbench,org.eclipse.ui.workbench,3.5.1.M20090826-0800a,"",1398825326411
activated,workbench,org.eclipse.ui.workbench,3.5.1.M20090826-0800a,"",1398826885692
deactivated,workbench,org.eclipse.ui.workbench,3.5.1.M20090826-0800a,"",1398826886291
activated,workbench,org.eclipse.ui.workbench,3.5.1.M20090826-0800a,"",1398827257899
deactivated,workbench,org.eclipse.ui.workbench,3.5.1.M20090826-0800a,"",1398827258691
