what,kind,bundleId,bundleVersion,description,time
java.vm.info,sysinfo,,,"mixed mode",1413249573218
java.vm.name,sysinfo,,,"Java HotSpot(TM) Client VM",1413249573218
java.vm.specification.name,sysinfo,,,"Java Virtual Machine Specification",1413249573218
java.vm.specification.vendor,sysinfo,,,"Sun Microsystems Inc.",1413249573218
java.vm.specification.version,sysinfo,,,"1.0",1413249573218
java.vm.vendor,sysinfo,,,"Sun Microsystems Inc.",1413249573218
java.vm.version,sysinfo,,,"1.6.0_03-b05",1413249573218
started,bundle,org.eclipse.wst.sse.core,1.1.401.v200909172215,"org.eclipse.wst.sse.core",1413249573747
started,bundle,com.android.ide.eclipse.adt,12.0.0.v201106281929-138431,"com.android.ide.eclipse.adt",1413249573750
started,bundle,org.eclipse.ltk.core.refactoring,3.5.0.v20090513-2000,"org.eclipse.ltk.core.refactoring",1413249573785
started,bundle,org.eclipse.ltk.ui.refactoring,3.4.100.v20090604,"org.eclipse.ltk.ui.refactoring",1413249573787
error,log,,,"Failed to load properties file for project 'FoodAndroidMobile'",1413249573859
started,bundle,com.android.ide.eclipse.traceview,12.0.0.v201106281929-138431,"com.android.ide.eclipse.traceview",1413249574153
opened,view,org.eclipse.ui.console,3.4.0.v20090513,"org.eclipse.ui.console.ConsoleView",1413249574170
error,log,,,"Failed to load properties file for project 'FoodAndroidMobile'",1413249575856
error,log,,,"Error validating C:\\Users\\acer\\.android\\devices.xml",1413249575935
started,bundle,org.eclipse.jdt.apt.core,3.3.201.R35x_v20090818-0235,"org.eclipse.jdt.apt.core",1413249578624
activated,workbench,org.eclipse.ui.workbench,3.5.1.M20090826-0800a,"",1413249579786
deactivated,workbench,org.eclipse.ui.workbench,3.5.1.M20090826-0800a,"",1413249580183
activated,workbench,org.eclipse.ui.workbench,3.5.1.M20090826-0800a,"",1413249580882
deactivated,workbench,org.eclipse.ui.workbench,3.5.1.M20090826-0800a,"",1413249581696
activated,workbench,org.eclipse.ui.workbench,3.5.1.M20090826-0800a,"",1413249582416
started,bundle,org.eclipse.wst.ws.service.policy,1.0.103.v200905151848,"org.eclipse.wst.ws.service.policy",1413249591497
started,bundle,org.eclipse.wst.command.env,1.0.408.v200903110045,"org.eclipse.wst.command.env",1413249591604
started,bundle,org.eclipse.wst.ws,1.1.103.v200903111822,"org.eclipse.wst.ws",1413249591653
