what,kind,bundleId,bundleVersion,description,time
started,bundle,org.eclipse.wst.jsdt.web.core,1.0.200.v200905120445,"org.eclipse.wst.jsdt.web.core",1406383053089
started,bundle,org.eclipse.jst.j2ee.ejb,1.1.300.v200904230730,"org.eclipse.jst.j2ee.ejb",1406383053600
started,bundle,org.eclipse.jst.common.frameworks,1.1.300.v200904132230,"org.eclipse.jst.common.frameworks",1406383053820
started,bundle,org.eclipse.jst.j2ee.web,1.1.301.v200908270924,"org.eclipse.jst.j2ee.web",1406383054126
started,bundle,org.eclipse.wst.wsdl.validation,1.1.401.v200902271605,"org.eclipse.wst.wsdl.validation",1406383054817
started,bundle,org.eclipse.wst.dtd.core,1.1.300.v200904181727,"org.eclipse.wst.dtd.core",1406383055016
started,bundle,org.eclipse.wst.internet.cache,1.0.301.v200805140020,"org.eclipse.wst.internet.cache",1406383055461
activated,workbench,org.eclipse.ui.workbench,3.5.1.M20090826-0800a,"",1406383064405
activated,view,org.eclipse.jdt.ui,3.5.1.r351_v20090821-0800,"org.eclipse.jdt.ui.PackageExplorer",1406383068418
closed,editor,org.eclipse.jdt.ui,3.5.1.r351_v20090821-0800,"org.eclipse.jdt.ui.CompilationUnitEditor",1406383068418
closed,editor,com.android.ide.eclipse.adt,12.0.0.v201106281929-138431,"com.android.ide.eclipse.editors.layout.LayoutEditor",1406383068499
deactivated,workbench,org.eclipse.ui.workbench,3.5.1.M20090826-0800a,"",1406383165575
activated,workbench,org.eclipse.ui.workbench,3.5.1.M20090826-0800a,"",1406383253749
deactivated,workbench,org.eclipse.ui.workbench,3.5.1.M20090826-0800a,"",1406383258238
activated,workbench,org.eclipse.ui.workbench,3.5.1.M20090826-0800a,"",1406383258373
deactivated,workbench,org.eclipse.ui.workbench,3.5.1.M20090826-0800a,"",1406383263380
activated,workbench,org.eclipse.ui.workbench,3.5.1.M20090826-0800a,"",1406383263943
deactivated,workbench,org.eclipse.ui.workbench,3.5.1.M20090826-0800a,"",1406383265240
activated,workbench,org.eclipse.ui.workbench,3.5.1.M20090826-0800a,"",1406383279009
deactivated,workbench,org.eclipse.ui.workbench,3.5.1.M20090826-0800a,"",1406383281565
activated,workbench,org.eclipse.ui.workbench,3.5.1.M20090826-0800a,"",1406383414557
started,bundle,org.eclipse.wst.ws.service.policy,1.0.103.v200905151848,"org.eclipse.wst.ws.service.policy",1406383417743
started,bundle,org.eclipse.wst.command.env,1.0.408.v200903110045,"org.eclipse.wst.command.env",1406383417906
started,bundle,org.eclipse.wst.ws,1.1.103.v200903111822,"org.eclipse.wst.ws",1406383417932
started,bundle,org.eclipse.compare,3.5.0.I20090514-0808,"org.eclipse.compare",1406383420302
