what,kind,bundleId,bundleVersion,description,time
executed,command,,,"com.android.ide.eclipse.adt.debug.launching.LaunchShortcut.run",1400737497685
deactivated,workbench,org.eclipse.ui.workbench,3.5.1.M20090826-0800a,"",1400737509560
activated,workbench,org.eclipse.ui.workbench,3.5.1.M20090826-0800a,"",1400737510660
deactivated,workbench,org.eclipse.ui.workbench,3.5.1.M20090826-0800a,"",1400737519754
activated,workbench,org.eclipse.ui.workbench,3.5.1.M20090826-0800a,"",1400737521593
activated,view,com.android.ide.eclipse.ddms,12.0.0.v201106281929-138431,"com.android.ide.eclipse.ddms.views.LogCatView",1400737521770
deactivated,workbench,org.eclipse.ui.workbench,3.5.1.M20090826-0800a,"",1400737526157
activated,workbench,org.eclipse.ui.workbench,3.5.1.M20090826-0800a,"",1400737528655
deactivated,workbench,org.eclipse.ui.workbench,3.5.1.M20090826-0800a,"",1400737551847
activated,workbench,org.eclipse.ui.workbench,3.5.1.M20090826-0800a,"",1400737624535
deactivated,workbench,org.eclipse.ui.workbench,3.5.1.M20090826-0800a,"",1400737631293
activated,workbench,org.eclipse.ui.workbench,3.5.1.M20090826-0800a,"",1400737632271
activated,editor,org.eclipse.jdt.ui,3.5.1.r351_v20090821-0800,"org.eclipse.jdt.ui.CompilationUnitEditor",1400737642834
activated,view,com.android.ide.eclipse.ddms,12.0.0.v201106281929-138431,"com.android.ide.eclipse.ddms.views.LogCatView",1400737659157
deactivated,workbench,org.eclipse.ui.workbench,3.5.1.M20090826-0800a,"",1400737663249
activated,workbench,org.eclipse.ui.workbench,3.5.1.M20090826-0800a,"",1400737670093
activated,editor,org.eclipse.jdt.ui,3.5.1.r351_v20090821-0800,"org.eclipse.jdt.ui.CompilationUnitEditor",1400737671197
activated,view,org.eclipse.jdt.ui,3.5.1.r351_v20090821-0800,"org.eclipse.jdt.ui.PackageExplorer",1400737675369
deactivated,workbench,org.eclipse.ui.workbench,3.5.1.M20090826-0800a,"",1400737678406
activated,workbench,org.eclipse.ui.workbench,3.5.1.M20090826-0800a,"",1400737709147
opened,editor,org.eclipse.jdt.ui,3.5.1.r351_v20090821-0800,"org.eclipse.jdt.ui.CompilationUnitEditor",1400737709604
activated,editor,org.eclipse.jdt.ui,3.5.1.r351_v20090821-0800,"org.eclipse.jdt.ui.CompilationUnitEditor",1400737709659
activated,editor,org.eclipse.jdt.ui,3.5.1.r351_v20090821-0800,"org.eclipse.jdt.ui.CompilationUnitEditor",1400737727591
deactivated,workbench,org.eclipse.ui.workbench,3.5.1.M20090826-0800a,"",1400737832529
activated,workbench,org.eclipse.ui.workbench,3.5.1.M20090826-0800a,"",1400738129936
