what,kind,bundleId,bundleVersion,description,time
started,bundle,org.eclipse.cdt.core.tests,5.1.2.201002161416,"org.eclipse.cdt.core.tests",1389576360198
executed,command,,,"com.android.ide.eclipse.adt.debug.launching.LaunchShortcut.run",1389576361431
deactivated,workbench,org.eclipse.ui.workbench,3.5.1.M20090826-0800a,"",1389576362595
activated,workbench,org.eclipse.ui.workbench,3.5.1.M20090826-0800a,"",1389576364491
deactivated,workbench,org.eclipse.ui.workbench,3.5.1.M20090826-0800a,"",1389576368697
activated,workbench,org.eclipse.ui.workbench,3.5.1.M20090826-0800a,"",1389577748827
opened,editor,org.eclipse.jdt.ui,3.5.1.r351_v20090821-0800,"org.eclipse.jdt.ui.CompilationUnitEditor",1389577750996
started,bundle,org.eclipse.jdt.debug.ui,3.4.1.v20090811_r351,"org.eclipse.jdt.debug.ui",1389577751245
activated,editor,org.eclipse.jdt.ui,3.5.1.r351_v20090821-0800,"org.eclipse.jdt.ui.CompilationUnitEditor",1389577751325
deactivated,workbench,org.eclipse.ui.workbench,3.5.1.M20090826-0800a,"",1389577758854
deactivated,workbench,org.eclipse.ui.workbench,3.5.1.M20090826-0800a,"",1389577963971
activated,workbench,org.eclipse.ui.workbench,3.5.1.M20090826-0800a,"",1389577967005
deactivated,workbench,org.eclipse.ui.workbench,3.5.1.M20090826-0800a,"",1389577972238
activated,workbench,org.eclipse.ui.workbench,3.5.1.M20090826-0800a,"",1389577973148
opened,view,com.android.ide.eclipse.ddms,12.0.0.v201106281929-138431,"com.android.ide.eclipse.ddms.views.LogCatView",1389577974114
activated,view,com.android.ide.eclipse.ddms,12.0.0.v201106281929-138431,"com.android.ide.eclipse.ddms.views.LogCatView",1389577974137
started,bundle,org.eclipse.ant.ui,3.4.1.v20090901_r351,"org.eclipse.ant.ui",1389577975034
opened,view,org.eclipse.ant.ui,3.4.1.v20090901_r351,"org.eclipse.ant.ui.views.AntView",1389577975131
activated,view,org.eclipse.ant.ui,3.4.1.v20090901_r351,"org.eclipse.ant.ui.views.AntView",1389577975140
activated,view,com.android.ide.eclipse.ddms,12.0.0.v201106281929-138431,"com.android.ide.eclipse.ddms.views.LogCatView",1389577975891
activated,editor,org.eclipse.jdt.ui,3.5.1.r351_v20090821-0800,"org.eclipse.jdt.ui.CompilationUnitEditor",1389577990251
deactivated,workbench,org.eclipse.ui.workbench,3.5.1.M20090826-0800a,"",1389577996576
activated,workbench,org.eclipse.ui.workbench,3.5.1.M20090826-0800a,"",1389578006278
activated,view,org.eclipse.jdt.ui,3.5.1.r351_v20090821-0800,"org.eclipse.jdt.ui.PackageExplorer",1389578048089
opened,editor,org.eclipse.jdt.ui,3.5.1.r351_v20090821-0800,"org.eclipse.jdt.ui.CompilationUnitEditor",1389578049674
