what,kind,bundleId,bundleVersion,description,time
deactivated,workbench,org.eclipse.ui.workbench,3.5.1.M20090826-0800a,"",1398263592735
activated,workbench,org.eclipse.ui.workbench,3.5.1.M20090826-0800a,"",1398263604861
deactivated,workbench,org.eclipse.ui.workbench,3.5.1.M20090826-0800a,"",1398263617149
activated,workbench,org.eclipse.ui.workbench,3.5.1.M20090826-0800a,"",1398263742159
activated,perspective,com.android.ide.eclipse.ddms,12.0.0.v201106281929-138431,"com.android.ide.eclipse.ddms.Perspective",1398263743723
activated,view,com.android.ide.eclipse.ddms,12.0.0.v201106281929-138431,"com.android.ide.eclipse.ddms.views.LogCatView",1398263743748
activated,view,com.android.ide.eclipse.ddms,12.0.0.v201106281929-138431,"com.android.ide.eclipse.ddms.views.FileExplorerView",1398263748019
deactivated,workbench,org.eclipse.ui.workbench,3.5.1.M20090826-0800a,"",1398263750741
activated,workbench,org.eclipse.ui.workbench,3.5.1.M20090826-0800a,"",1398263752169
deactivated,workbench,org.eclipse.ui.workbench,3.5.1.M20090826-0800a,"",1398263752376
activated,workbench,org.eclipse.ui.workbench,3.5.1.M20090826-0800a,"",1398263752489
deactivated,workbench,org.eclipse.ui.workbench,3.5.1.M20090826-0800a,"",1398263754266
deactivated,workbench,org.eclipse.ui.workbench,3.5.1.M20090826-0800a,"",1398264564287
deactivated,workbench,org.eclipse.ui.workbench,3.5.1.M20090826-0800a,"",1398264567578
activated,workbench,org.eclipse.ui.workbench,3.5.1.M20090826-0800a,"",1398264567858
activated,perspective,org.eclipse.jdt.ui,3.5.1.r351_v20090821-0800,"org.eclipse.jdt.ui.JavaPerspective",1398264569668
activated,editor,org.eclipse.jdt.ui,3.5.1.r351_v20090821-0800,"org.eclipse.jdt.ui.CompilationUnitEditor",1398264569686
executed,command,org.eclipse.ui,3.5.1.M20090902-1000,"org.eclipse.ui.file.save",1398264572680
closed,workbench,org.eclipse.ui.workbench,3.5.1.M20090826-0800a,"",1398264574068
stopped,bundle,org.eclipse.jst.ws.axis.creation.ui,1.0.406.v200903031852,"org.eclipse.jst.ws.axis.creation.ui",1398264576346
stopped,bundle,org.eclipse.jst.ws.axis.consumption.ui,1.0.405.v200901261650,"org.eclipse.jst.ws.axis.consumption.ui",1398264576375
