what,kind,bundleId,bundleVersion,description,time
activated,editor,org.eclipse.jdt.ui,3.5.1.r351_v20090821-0800,"org.eclipse.jdt.ui.CompilationUnitEditor",1399518399724
executed,command,org.eclipse.ui,3.5.1.M20090902-1000,"org.eclipse.ui.file.save",1399518414681
deactivated,workbench,org.eclipse.ui.workbench,3.5.1.M20090826-0800a,"",1399518431492
activated,workbench,org.eclipse.ui.workbench,3.5.1.M20090826-0800a,"",1399518521435
activated,view,org.eclipse.jdt.ui,3.5.1.r351_v20090821-0800,"org.eclipse.jdt.ui.PackageExplorer",1399519050320
opened,editor,org.eclipse.jdt.ui,3.5.1.r351_v20090821-0800,"org.eclipse.jdt.ui.CompilationUnitEditor",1399519059146
activated,editor,org.eclipse.jdt.ui,3.5.1.r351_v20090821-0800,"org.eclipse.jdt.ui.CompilationUnitEditor",1399519059228
started,bundle,org.eclipse.jdt.apt.pluggable.core,1.0.201.R35x_v20090818-0225,"org.eclipse.jdt.apt.pluggable.core",1399519059657
closed,editor,org.eclipse.jdt.ui,3.5.1.r351_v20090821-0800,"org.eclipse.jdt.ui.CompilationUnitEditor",1399519063150
activated,view,org.eclipse.jdt.ui,3.5.1.r351_v20090821-0800,"org.eclipse.jdt.ui.PackageExplorer",1399519083768
executed,command,org.eclipse.jdt.debug.ui,3.4.1.v20090811_r351,"org.eclipse.jdt.debug.ui.localJavaShortcut.run",1399519086823
started,bundle,org.eclipse.cdt.debug.mi.ui,6.0.0.201002161416,"org.eclipse.cdt.debug.mi.ui",1399519087751
started,bundle,org.eclipse.cdt.debug.mi.core,6.0.0.201002161416,"org.eclipse.cdt.debug.mi.core",1399519087804
activated,view,org.eclipse.ui.console,3.4.0.v20090513,"org.eclipse.ui.console.ConsoleView",1399519088029
activated,editor,org.eclipse.jdt.ui,3.5.1.r351_v20090821-0800,"org.eclipse.jdt.ui.CompilationUnitEditor",1399519103254
activated,view,org.eclipse.ui.console,3.4.0.v20090513,"org.eclipse.ui.console.ConsoleView",1399519145297
activated,editor,org.eclipse.jdt.ui,3.5.1.r351_v20090821-0800,"org.eclipse.jdt.ui.CompilationUnitEditor",1399519154103
deactivated,workbench,org.eclipse.ui.workbench,3.5.1.M20090826-0800a,"",1399519314801
activated,workbench,org.eclipse.ui.workbench,3.5.1.M20090826-0800a,"",1399519325491
deactivated,workbench,org.eclipse.ui.workbench,3.5.1.M20090826-0800a,"",1399519327179
activated,workbench,org.eclipse.ui.workbench,3.5.1.M20090826-0800a,"",1399519339163
deactivated,workbench,org.eclipse.ui.workbench,3.5.1.M20090826-0800a,"",1399519340262
activated,workbench,org.eclipse.ui.workbench,3.5.1.M20090826-0800a,"",1399526480568
deactivated,workbench,org.eclipse.ui.workbench,3.5.1.M20090826-0800a,"",1399526496005
activated,workbench,org.eclipse.ui.workbench,3.5.1.M20090826-0800a,"",1399527402407
