what,kind,bundleId,bundleVersion,description,time
executed,command,org.eclipse.ui,3.5.1.M20090902-1000,"org.eclipse.ui.file.import",1399552064590
deactivated,workbench,org.eclipse.ui.workbench,3.5.1.M20090826-0800a,"",1399552067024
activated,workbench,org.eclipse.ui.workbench,3.5.1.M20090826-0800a,"",1399552076864
executed,command,org.eclipse.ui,3.5.1.M20090902-1000,"org.eclipse.ui.file.import",1399552076873
executed,command,org.eclipse.ui,3.5.1.M20090902-1000,"org.eclipse.ui.file.import",1399552076873
deactivated,workbench,org.eclipse.ui.workbench,3.5.1.M20090826-0800a,"",1399552081038
activated,workbench,org.eclipse.ui.workbench,3.5.1.M20090826-0800a,"",1399552083019
executed,command,org.eclipse.ui,3.5.1.M20090902-1000,"org.eclipse.ui.file.import",1399552083030
executed,command,org.eclipse.ui,3.5.1.M20090902-1000,"org.eclipse.ui.file.import",1399552083030
deactivated,workbench,org.eclipse.ui.workbench,3.5.1.M20090826-0800a,"",1399552089677
activated,workbench,org.eclipse.ui.workbench,3.5.1.M20090826-0800a,"",1399552091815
executed,command,org.eclipse.ui,3.5.1.M20090902-1000,"org.eclipse.ui.file.export",1399552091834
executed,command,org.eclipse.ui,3.5.1.M20090902-1000,"org.eclipse.ui.file.export",1399552091834
deactivated,workbench,org.eclipse.ui.workbench,3.5.1.M20090826-0800a,"",1399552093655
activated,workbench,org.eclipse.ui.workbench,3.5.1.M20090826-0800a,"",1399552104042
executed,command,org.eclipse.ui,3.5.1.M20090902-1000,"org.eclipse.ui.file.import",1399552104061
executed,command,org.eclipse.ui,3.5.1.M20090902-1000,"org.eclipse.ui.file.import",1399552104061
deactivated,workbench,org.eclipse.ui.workbench,3.5.1.M20090826-0800a,"",1399552107562
activated,workbench,org.eclipse.ui.workbench,3.5.1.M20090826-0800a,"",1399552112652
executed,command,org.eclipse.ui,3.5.1.M20090902-1000,"org.eclipse.ui.file.export",1399552112661
executed,command,org.eclipse.ui,3.5.1.M20090902-1000,"org.eclipse.ui.file.export",1399552112661
started,bundle,org.eclipse.wst.ws.service.policy,1.0.103.v200905151848,"org.eclipse.wst.ws.service.policy",1399552120755
started,bundle,org.eclipse.wst.command.env,1.0.408.v200903110045,"org.eclipse.wst.command.env",1399552120819
started,bundle,org.eclipse.wst.ws,1.1.103.v200903111822,"org.eclipse.wst.ws",1399552120844
started,bundle,org.eclipse.wst.common.emf,1.1.301.v200908181930,"org.eclipse.wst.common.emf",1399552121098
