what,kind,bundleId,bundleVersion,description,time
java.version,sysinfo,,,"1.6.0_03",1395890518396
java.vm.info,sysinfo,,,"mixed mode",1395890518396
java.vm.name,sysinfo,,,"Java HotSpot(TM) Client VM",1395890518396
java.vm.specification.name,sysinfo,,,"Java Virtual Machine Specification",1395890518396
java.vm.specification.vendor,sysinfo,,,"Sun Microsystems Inc.",1395890518396
java.vm.specification.version,sysinfo,,,"1.0",1395890518396
java.vm.vendor,sysinfo,,,"Sun Microsystems Inc.",1395890518396
java.vm.version,sysinfo,,,"1.6.0_03-b05",1395890518396
started,bundle,org.eclipse.jst.common.project.facet.core,1.4.1.v200908111817,"org.eclipse.jst.common.project.facet.core",1395890519743
started,bundle,org.eclipse.team.cvs.ui,3.3.201.R35x_v20090826-0905,"org.eclipse.team.cvs.ui",1395890520739
started,bundle,org.eclipse.mylyn.monitor.ui,3.2.2.v20090912-0400-e3x,"org.eclipse.mylyn.monitor.ui",1395890521929
started,bundle,org.eclipse.epp.usagedata.ui,1.1.0.R200906100410,"org.eclipse.epp.usagedata.ui",1395890528637
deactivated,workbench,org.eclipse.ui.workbench,3.5.1.M20090826-0800a,"",1395890535980
started,bundle,org.eclipse.wst.sse.core,1.1.401.v200909172215,"org.eclipse.wst.sse.core",1395890536899
started,bundle,com.android.ide.eclipse.adt,12.0.0.v201106281929-138431,"com.android.ide.eclipse.adt",1395890546866
started,bundle,com.android.ide.eclipse.traceview,12.0.0.v201106281929-138431,"com.android.ide.eclipse.traceview",1395890561600
activated,workbench,org.eclipse.ui.workbench,3.5.1.M20090826-0800a,"",1395897202600
deactivated,workbench,org.eclipse.ui.workbench,3.5.1.M20090826-0800a,"",1395897203378
activated,workbench,org.eclipse.ui.workbench,3.5.1.M20090826-0800a,"",1395897207806
deactivated,workbench,org.eclipse.ui.workbench,3.5.1.M20090826-0800a,"",1395897207993
activated,workbench,org.eclipse.ui.workbench,3.5.1.M20090826-0800a,"",1395897326388
activated,view,org.eclipse.jdt.ui,3.5.1.r351_v20090821-0800,"org.eclipse.jdt.ui.PackageExplorer",1395897330671
deactivated,workbench,org.eclipse.ui.workbench,3.5.1.M20090826-0800a,"",1395897345425
started,bundle,org.eclipse.jdt.apt.pluggable.core,1.0.201.R35x_v20090818-0225,"org.eclipse.jdt.apt.pluggable.core",1395897839928
activated,workbench,org.eclipse.ui.workbench,3.5.1.M20090826-0800a,"",1395897839951
