what,kind,bundleId,bundleVersion,description,time
activated,editor,org.eclipse.jdt.ui,3.5.1.r351_v20090821-0800,"org.eclipse.jdt.ui.CompilationUnitEditor",1397455076206
deactivated,workbench,org.eclipse.ui.workbench,3.5.1.M20090826-0800a,"",1397455120726
activated,workbench,org.eclipse.ui.workbench,3.5.1.M20090826-0800a,"",1397465016781
activated,view,org.eclipse.jdt.ui,3.5.1.r351_v20090821-0800,"org.eclipse.jdt.ui.PackageExplorer",1397465025939
deactivated,workbench,org.eclipse.ui.workbench,3.5.1.M20090826-0800a,"",1397465029838
activated,workbench,org.eclipse.ui.workbench,3.5.1.M20090826-0800a,"",1397465039989
opened,editor,org.eclipse.jdt.ui,3.5.1.r351_v20090821-0800,"org.eclipse.jdt.ui.CompilationUnitEditor",1397465040416
activated,editor,org.eclipse.jdt.ui,3.5.1.r351_v20090821-0800,"org.eclipse.jdt.ui.CompilationUnitEditor",1397465040486
deactivated,workbench,org.eclipse.ui.workbench,3.5.1.M20090826-0800a,"",1397465130561
activated,workbench,org.eclipse.ui.workbench,3.5.1.M20090826-0800a,"",1397465130683
deactivated,workbench,org.eclipse.ui.workbench,3.5.1.M20090826-0800a,"",1397465229838
activated,workbench,org.eclipse.ui.workbench,3.5.1.M20090826-0800a,"",1397465232251
executed,command,org.eclipse.ui,3.5.1.M20090902-1000,"org.eclipse.ui.edit.text.contentAssist.proposals",1397465246600
executed,command,org.eclipse.ui,3.5.1.M20090902-1000,"org.eclipse.ui.edit.copy",1397465287802
executed,command,org.eclipse.ui,3.5.1.M20090902-1000,"org.eclipse.ui.edit.paste",1397465289508
executed,command,org.eclipse.ui,3.5.1.M20090902-1000,"org.eclipse.ui.edit.paste",1397465290455
executed,command,org.eclipse.ui,3.5.1.M20090902-1000,"org.eclipse.ui.edit.paste",1397465291184
executed,command,org.eclipse.ui,3.5.1.M20090902-1000,"org.eclipse.ui.file.save",1397465307567
deactivated,workbench,org.eclipse.ui.workbench,3.5.1.M20090826-0800a,"",1397465402810
activated,workbench,org.eclipse.ui.workbench,3.5.1.M20090826-0800a,"",1397465403311
executed,command,org.eclipse.ui,3.5.1.M20090902-1000,"org.eclipse.ui.file.save",1397465506474
activated,view,org.eclipse.jdt.ui,3.5.1.r351_v20090821-0800,"org.eclipse.jdt.ui.PackageExplorer",1397465511257
executed,command,org.eclipse.jdt.debug.ui,3.4.1.v20090811_r351,"org.eclipse.jdt.debug.ui.localJavaShortcut.run",1397465516252
activated,editor,org.eclipse.jdt.ui,3.5.1.r351_v20090821-0800,"org.eclipse.jdt.ui.CompilationUnitEditor",1397465516324
activated,view,org.eclipse.ui.console,3.4.0.v20090513,"org.eclipse.ui.console.ConsoleView",1397465517162
