what,kind,bundleId,bundleVersion,description,time
activated,editor,org.eclipse.jdt.ui,3.5.1.r351_v20090821-0800,"org.eclipse.jdt.ui.CompilationUnitEditor",1405385415503
activated,editor,org.eclipse.jdt.ui,3.5.1.r351_v20090821-0800,"org.eclipse.jdt.ui.CompilationUnitEditor",1405385417039
activated,editor,org.eclipse.jdt.ui,3.5.1.r351_v20090821-0800,"org.eclipse.jdt.ui.CompilationUnitEditor",1405385418963
activated,editor,org.eclipse.jdt.ui,3.5.1.r351_v20090821-0800,"org.eclipse.jdt.ui.CompilationUnitEditor",1405385419612
activated,view,org.eclipse.jdt.ui,3.5.1.r351_v20090821-0800,"org.eclipse.jdt.ui.PackageExplorer",1405385420967
opened,editor,org.eclipse.jdt.ui,3.5.1.r351_v20090821-0800,"org.eclipse.jdt.ui.CompilationUnitEditor",1405385425515
activated,editor,org.eclipse.jdt.ui,3.5.1.r351_v20090821-0800,"org.eclipse.jdt.ui.CompilationUnitEditor",1405385425599
activated,editor,org.eclipse.jdt.ui,3.5.1.r351_v20090821-0800,"org.eclipse.jdt.ui.CompilationUnitEditor",1405385467473
deactivated,workbench,org.eclipse.ui.workbench,3.5.1.M20090826-0800a,"",1405385487459
activated,workbench,org.eclipse.ui.workbench,3.5.1.M20090826-0800a,"",1405385490658
executed,command,org.eclipse.ui,3.5.1.M20090902-1000,"org.eclipse.ui.file.save",1405385494906
activated,view,org.eclipse.jdt.ui,3.5.1.r351_v20090821-0800,"org.eclipse.jdt.ui.PackageExplorer",1405385499838
executed,command,,,"com.android.ide.eclipse.adt.debug.launching.LaunchShortcut.run",1405385503907
deactivated,workbench,org.eclipse.ui.workbench,3.5.1.M20090826-0800a,"",1405385505803
activated,workbench,org.eclipse.ui.workbench,3.5.1.M20090826-0800a,"",1405385508065
activated,view,com.android.ide.eclipse.ddms,12.0.0.v201106281929-138431,"com.android.ide.eclipse.ddms.views.LogCatView",1405385508222
deactivated,workbench,org.eclipse.ui.workbench,3.5.1.M20090826-0800a,"",1405385514285
activated,workbench,org.eclipse.ui.workbench,3.5.1.M20090826-0800a,"",1405385515978
deactivated,workbench,org.eclipse.ui.workbench,3.5.1.M20090826-0800a,"",1405385516288
activated,workbench,org.eclipse.ui.workbench,3.5.1.M20090826-0800a,"",1405385522479
deactivated,workbench,org.eclipse.ui.workbench,3.5.1.M20090826-0800a,"",1405385526371
activated,workbench,org.eclipse.ui.workbench,3.5.1.M20090826-0800a,"",1405385527403
activated,editor,org.eclipse.jdt.ui,3.5.1.r351_v20090821-0800,"org.eclipse.jdt.ui.CompilationUnitEditor",1405385577607
deactivated,workbench,org.eclipse.ui.workbench,3.5.1.M20090826-0800a,"",1405385590099
activated,workbench,org.eclipse.ui.workbench,3.5.1.M20090826-0800a,"",1405385609833
