what,kind,bundleId,bundleVersion,description,time
deactivated,workbench,org.eclipse.ui.workbench,3.5.1.M20090826-0800a,"",1392255664910
started,bundle,org.eclipse.jpt.core,2.2.1.v200908270220,"org.eclipse.jpt.core",1392255665732
started,bundle,org.eclipse.jpt.eclipselink.core,1.2.0.v200905310000,"org.eclipse.jpt.eclipselink.core",1392255665812
activated,workbench,org.eclipse.ui.workbench,3.5.1.M20090826-0800a,"",1392255671957
deactivated,workbench,org.eclipse.ui.workbench,3.5.1.M20090826-0800a,"",1392255681699
activated,workbench,org.eclipse.ui.workbench,3.5.1.M20090826-0800a,"",1392255681849
deactivated,workbench,org.eclipse.ui.workbench,3.5.1.M20090826-0800a,"",1392257483563
activated,workbench,org.eclipse.ui.workbench,3.5.1.M20090826-0800a,"",1392260088264
opened,editor,org.eclipse.jdt.ui,3.5.1.r351_v20090821-0800,"org.eclipse.jdt.ui.ClassFileEditor",1392260116279
activated,editor,org.eclipse.jdt.ui,3.5.1.r351_v20090821-0800,"org.eclipse.jdt.ui.ClassFileEditor",1392260116349
activated,editor,org.eclipse.jdt.ui,3.5.1.r351_v20090821-0800,"org.eclipse.jdt.ui.CompilationUnitEditor",1392260118505
closed,editor,org.eclipse.jdt.ui,3.5.1.r351_v20090821-0800,"org.eclipse.jdt.ui.ClassFileEditor",1392260118505
executed,command,,,"AUTOGEN:::org.eclipse.jdt.internal.ui.CompilationUnitEditor.ruler.actions/org.eclipse.jdt.internal.ui.javaeditor.JavaSelectRulerAction",1392260126949
executed,command,org.eclipse.jdt.ui,3.5.1.r351_v20090821-0800,"org.eclipse.jdt.ui.edit.text.java.add.block.comment",1392260248868
executed,command,org.eclipse.ui,3.5.1.M20090902-1000,"org.eclipse.ui.file.save",1392260253369
error,log,,,"JavaBuilder handling CoreException",1392260253607
activated,view,org.eclipse.ui.console,3.4.0.v20090513,"org.eclipse.ui.console.ConsoleView",1392260280374
activated,view,com.android.ide.eclipse.ddms,12.0.0.v201106281929-138431,"com.android.ide.eclipse.ddms.views.LogCatView",1392260281372
started,bundle,org.eclipse.ant.ui,3.4.1.v20090901_r351,"org.eclipse.ant.ui",1392260286822
opened,view,org.eclipse.ant.ui,3.4.1.v20090901_r351,"org.eclipse.ant.ui.views.AntView",1392260286912
activated,view,org.eclipse.ant.ui,3.4.1.v20090901_r351,"org.eclipse.ant.ui.views.AntView",1392260286920
activated,view,org.eclipse.ui.console,3.4.0.v20090513,"org.eclipse.ui.console.ConsoleView",1392260288161
activated,view,org.eclipse.jdt.ui,3.5.1.r351_v20090821-0800,"org.eclipse.jdt.ui.PackageExplorer",1392260290509
started,bundle,org.eclipse.cdt.core,5.1.2.201002161416,"org.eclipse.cdt.core",1392260293714
started,bundle,org.eclipse.cdt.debug.core,6.0.0.201002161416,"org.eclipse.cdt.debug.core",1392260293817
