what,kind,bundleId,bundleVersion,description,time
activated,workbench,org.eclipse.ui.workbench,3.5.1.M20090826-0800a,"",1407381241815
deactivated,workbench,org.eclipse.ui.workbench,3.5.1.M20090826-0800a,"",1407381270402
activated,workbench,org.eclipse.ui.workbench,3.5.1.M20090826-0800a,"",1407381270636
deactivated,workbench,org.eclipse.ui.workbench,3.5.1.M20090826-0800a,"",1407381278280
activated,workbench,org.eclipse.ui.workbench,3.5.1.M20090826-0800a,"",1407381278530
deactivated,workbench,org.eclipse.ui.workbench,3.5.1.M20090826-0800a,"",1407381289445
activated,workbench,org.eclipse.ui.workbench,3.5.1.M20090826-0800a,"",1407381289592
executed,command,org.eclipse.ui,3.5.1.M20090902-1000,"org.eclipse.ui.file.save",1407381316536
deactivated,workbench,org.eclipse.ui.workbench,3.5.1.M20090826-0800a,"",1407381406470
activated,workbench,org.eclipse.ui.workbench,3.5.1.M20090826-0800a,"",1407381406642
executed,command,org.eclipse.ui,3.5.1.M20090902-1000,"org.eclipse.ui.file.save",1407381419775
deactivated,workbench,org.eclipse.ui.workbench,3.5.1.M20090826-0800a,"",1407381427942
activated,workbench,org.eclipse.ui.workbench,3.5.1.M20090826-0800a,"",1407381431007
deactivated,workbench,org.eclipse.ui.workbench,3.5.1.M20090826-0800a,"",1407381465629
activated,workbench,org.eclipse.ui.workbench,3.5.1.M20090826-0800a,"",1407381483977
deactivated,workbench,org.eclipse.ui.workbench,3.5.1.M20090826-0800a,"",1407381489286
activated,workbench,org.eclipse.ui.workbench,3.5.1.M20090826-0800a,"",1407381491424
deactivated,workbench,org.eclipse.ui.workbench,3.5.1.M20090826-0800a,"",1407381500385
activated,workbench,org.eclipse.ui.workbench,3.5.1.M20090826-0800a,"",1407381500609
executed,command,org.eclipse.ui,3.5.1.M20090902-1000,"org.eclipse.ui.file.save",1407381518341
activated,view,org.eclipse.jdt.ui,3.5.1.r351_v20090821-0800,"org.eclipse.jdt.ui.PackageExplorer",1407381533739
started,bundle,org.eclipse.wst.ws.service.policy,1.0.103.v200905151848,"org.eclipse.wst.ws.service.policy",1407381534457
started,bundle,org.eclipse.wst.command.env,1.0.408.v200903110045,"org.eclipse.wst.command.env",1407381534542
started,bundle,org.eclipse.wst.ws,1.1.103.v200903111822,"org.eclipse.wst.ws",1407381534568
executed,command,,,"com.android.ide.eclipse.adt.debug.launching.LaunchShortcut.run",1407381538399
