what,kind,bundleId,bundleVersion,description,time
ws,sysinfo,,,"win32",1403743934099
locale,sysinfo,,,"zh_CN",1403743934099
processors,sysinfo,,,"4",1403743934100
java.runtime.name,sysinfo,,,"Java(TM) SE Runtime Environment",1403743934100
java.runtime.version,sysinfo,,,"1.6.0_03-b05",1403743934100
java.specification.name,sysinfo,,,"Java Platform API Specification",1403743934100
java.specification.vendor,sysinfo,,,"Sun Microsystems Inc.",1403743934100
java.specification.version,sysinfo,,,"1.6",1403743934100
java.vendor,sysinfo,,,"Sun Microsystems Inc.",1403743934100
java.version,sysinfo,,,"1.6.0_03",1403743934100
java.vm.info,sysinfo,,,"mixed mode",1403743934100
java.vm.name,sysinfo,,,"Java HotSpot(TM) Client VM",1403743934100
java.vm.specification.name,sysinfo,,,"Java Virtual Machine Specification",1403743934100
java.vm.specification.vendor,sysinfo,,,"Sun Microsystems Inc.",1403743934100
java.vm.specification.version,sysinfo,,,"1.0",1403743934100
java.vm.vendor,sysinfo,,,"Sun Microsystems Inc.",1403743934100
java.vm.version,sysinfo,,,"1.6.0_03-b05",1403743934100
started,bundle,org.eclipse.mylyn.commons.net,3.2.0.v20090617-0100-e3x,"org.eclipse.mylyn.commons.net",1403743934272
started,bundle,org.eclipse.mylyn.commons.ui,3.2.2.v20090912-0400-e3x,"org.eclipse.mylyn.commons.ui",1403743934537
started,bundle,org.eclipse.jst.common.project.facet.core,1.4.1.v200908111817,"org.eclipse.jst.common.project.facet.core",1403743934625
started,bundle,org.eclipse.mylyn.bugzilla.core,3.2.2.v20090912-0400-e3x,"org.eclipse.mylyn.bugzilla.core",1403743934893
started,bundle,org.eclipse.mylyn.bugzilla.ui,3.2.2.v20090912-0400-e3x,"org.eclipse.mylyn.bugzilla.ui",1403743935279
started,bundle,org.eclipse.ui.forms,3.4.1.v20090714_35x,"org.eclipse.ui.forms",1403743936028
started,bundle,org.eclipse.mylyn.context.core,3.2.2.v20090912-0400-e3x,"org.eclipse.mylyn.context.core",1403743936671
started,bundle,org.eclipse.mylyn.context.ui,3.2.2.v20090912-0400-e3x,"org.eclipse.mylyn.context.ui",1403743936843
