what,kind,bundleId,bundleVersion,description,time
executed,command,org.eclipse.ui,3.5.1.M20090902-1000,"org.eclipse.ui.edit.paste",1397553311814
executed,command,org.eclipse.ui,3.5.1.M20090902-1000,"org.eclipse.ui.file.save",1397553319055
executed,command,org.eclipse.ui,3.5.1.M20090902-1000,"org.eclipse.ui.file.save",1397553332130
deactivated,workbench,org.eclipse.ui.workbench,3.5.1.M20090826-0800a,"",1397553347334
activated,workbench,org.eclipse.ui.workbench,3.5.1.M20090826-0800a,"",1397553367270
executed,command,org.eclipse.ui,3.5.1.M20090902-1000,"org.eclipse.ui.file.save",1397553376476
deactivated,workbench,org.eclipse.ui.workbench,3.5.1.M20090826-0800a,"",1397553379787
activated,workbench,org.eclipse.ui.workbench,3.5.1.M20090826-0800a,"",1397553394765
executed,command,org.eclipse.ui,3.5.1.M20090902-1000,"org.eclipse.ui.file.save",1397553410600
activated,editor,org.eclipse.jdt.ui,3.5.1.r351_v20090821-0800,"org.eclipse.jdt.ui.CompilationUnitEditor",1397553411712
executed,command,org.eclipse.ui,3.5.1.M20090902-1000,"org.eclipse.ui.edit.copy",1397553415232
activated,editor,org.eclipse.jdt.ui,3.5.1.r351_v20090821-0800,"org.eclipse.jdt.ui.CompilationUnitEditor",1397553417049
executed,command,org.eclipse.ui,3.5.1.M20090902-1000,"org.eclipse.ui.edit.paste",1397553417924
executed,command,org.eclipse.ui,3.5.1.M20090902-1000,"org.eclipse.ui.file.save",1397553419604
executed,command,org.eclipse.ui,3.5.1.M20090902-1000,"org.eclipse.ui.file.save",1397553429663
deactivated,workbench,org.eclipse.ui.workbench,3.5.1.M20090826-0800a,"",1397553435654
activated,workbench,org.eclipse.ui.workbench,3.5.1.M20090826-0800a,"",1397553447511
executed,command,org.eclipse.ui,3.5.1.M20090902-1000,"org.eclipse.ui.file.save",1397553454051
deactivated,workbench,org.eclipse.ui.workbench,3.5.1.M20090826-0800a,"",1397553461870
activated,workbench,org.eclipse.ui.workbench,3.5.1.M20090826-0800a,"",1397553496559
deactivated,workbench,org.eclipse.ui.workbench,3.5.1.M20090826-0800a,"",1397553542992
activated,workbench,org.eclipse.ui.workbench,3.5.1.M20090826-0800a,"",1397553547789
executed,command,org.eclipse.ui,3.5.1.M20090902-1000,"org.eclipse.ui.edit.cut",1397553573812
executed,command,org.eclipse.ui,3.5.1.M20090902-1000,"org.eclipse.ui.edit.paste",1397553579575
executed,command,org.eclipse.ui,3.5.1.M20090902-1000,"org.eclipse.ui.file.save",1397553582128
