what,kind,bundleId,bundleVersion,description,time
executed,command,org.eclipse.ui,3.5.1.M20090902-1000,"org.eclipse.ui.file.save",1413531459048
deactivated,workbench,org.eclipse.ui.workbench,3.5.1.M20090826-0800a,"",1413531463564
activated,workbench,org.eclipse.ui.workbench,3.5.1.M20090826-0800a,"",1413531731031
deactivated,workbench,org.eclipse.ui.workbench,3.5.1.M20090826-0800a,"",1413531735026
activated,workbench,org.eclipse.ui.workbench,3.5.1.M20090826-0800a,"",1413531735891
deactivated,workbench,org.eclipse.ui.workbench,3.5.1.M20090826-0800a,"",1413531737421
activated,workbench,org.eclipse.ui.workbench,3.5.1.M20090826-0800a,"",1413531743871
deactivated,workbench,org.eclipse.ui.workbench,3.5.1.M20090826-0800a,"",1413531760357
activated,workbench,org.eclipse.ui.workbench,3.5.1.M20090826-0800a,"",1413531760491
executed,command,org.eclipse.ui,3.5.1.M20090902-1000,"org.eclipse.ui.edit.copy",1413531768131
executed,command,org.eclipse.ui,3.5.1.M20090902-1000,"org.eclipse.ui.edit.paste",1413531770324
executed,command,org.eclipse.ui,3.5.1.M20090902-1000,"org.eclipse.ui.file.save",1413531771298
activated,view,org.eclipse.jdt.ui,3.5.1.r351_v20090821-0800,"org.eclipse.jdt.ui.PackageExplorer",1413531773233
deactivated,workbench,org.eclipse.ui.workbench,3.5.1.M20090826-0800a,"",1413531776456
activated,workbench,org.eclipse.ui.workbench,3.5.1.M20090826-0800a,"",1413531921082
opened,editor,org.eclipse.jdt.ui,3.5.1.r351_v20090821-0800,"org.eclipse.jdt.ui.CompilationUnitEditor",1413531921538
activated,editor,org.eclipse.jdt.ui,3.5.1.r351_v20090821-0800,"org.eclipse.jdt.ui.CompilationUnitEditor",1413531921597
executed,command,org.eclipse.ui.workbench.texteditor,3.5.0.v20090603,"org.eclipse.ui.edit.text.goto.lineStart",1413531955826
executed,command,org.eclipse.ui,3.5.1.M20090902-1000,"org.eclipse.ui.edit.delete",1413531956620
deactivated,workbench,org.eclipse.ui.workbench,3.5.1.M20090826-0800a,"",1413531964795
activated,workbench,org.eclipse.ui.workbench,3.5.1.M20090826-0800a,"",1413531986336
activated,editor,org.eclipse.jdt.ui,3.5.1.r351_v20090821-0800,"org.eclipse.jdt.ui.CompilationUnitEditor",1413531988225
activated,editor,org.eclipse.jdt.ui,3.5.1.r351_v20090821-0800,"org.eclipse.jdt.ui.CompilationUnitEditor",1413531990646
deactivated,workbench,org.eclipse.ui.workbench,3.5.1.M20090826-0800a,"",1413532015154
activated,workbench,org.eclipse.ui.workbench,3.5.1.M20090826-0800a,"",1413532015899
