what,kind,bundleId,bundleVersion,description,time
deactivated,workbench,org.eclipse.ui.workbench,3.5.1.M20090826-0800a,"",1398735201570
closed,editor,org.eclipse.jdt.ui,3.5.1.r351_v20090821-0800,"org.eclipse.jdt.ui.CompilationUnitEditor",1398735204853
error,log,,,"抛出意外异常。",1398735204860
error,log,,,"内部错误",1398735204864
closed,editor,org.eclipse.jdt.ui,3.5.1.r351_v20090821-0800,"org.eclipse.jdt.ui.CompilationUnitEditor",1398735204887
activated,workbench,org.eclipse.ui.workbench,3.5.1.M20090826-0800a,"",1398735204934
executed,command,org.eclipse.ltk.ui.refactoring,3.4.100.v20090604,"org.eclipse.ltk.ui.refactoring.commands.deleteResources",1398735204941
executed,command,org.eclipse.ui,3.5.1.M20090902-1000,"org.eclipse.ui.edit.delete",1398735204941
deactivated,workbench,org.eclipse.ui.workbench,3.5.1.M20090826-0800a,"",1398735206817
activated,workbench,org.eclipse.ui.workbench,3.5.1.M20090826-0800a,"",1398735207964
deactivated,workbench,org.eclipse.ui.workbench,3.5.1.M20090826-0800a,"",1398735208869
activated,workbench,org.eclipse.ui.workbench,3.5.1.M20090826-0800a,"",1398735222588
deactivated,workbench,org.eclipse.ui.workbench,3.5.1.M20090826-0800a,"",1398735228786
error,log,,,"Failed to load properties file for project '8.Broadcast2'",1398735283566
activated,workbench,org.eclipse.ui.workbench,3.5.1.M20090826-0800a,"",1398735283724
activated,editor,com.android.ide.eclipse.adt,12.0.0.v201106281929-138431,"com.android.ide.eclipse.editors.manifest.ManifestEditor",1398735297342
activated,view,org.eclipse.jdt.ui,3.5.1.r351_v20090821-0800,"org.eclipse.jdt.ui.PackageExplorer",1398735297402
closed,editor,com.android.ide.eclipse.adt,12.0.0.v201106281929-138431,"com.android.ide.eclipse.editors.manifest.ManifestEditor",1398735297402
opened,editor,com.android.ide.eclipse.adt,12.0.0.v201106281929-138431,"com.android.ide.eclipse.editors.manifest.ManifestEditor",1398735299709
activated,editor,com.android.ide.eclipse.adt,12.0.0.v201106281929-138431,"com.android.ide.eclipse.editors.manifest.ManifestEditor",1398735299723
activated,view,org.eclipse.jdt.ui,3.5.1.r351_v20090821-0800,"org.eclipse.jdt.ui.PackageExplorer",1398735304251
executed,command,org.eclipse.jdt.ui,3.5.1.r351_v20090821-0800,"org.eclipse.jdt.ui.edit.text.java.organize.imports",1398735321912
activated,editor,com.android.ide.eclipse.adt,12.0.0.v201106281929-138431,"com.android.ide.eclipse.editors.manifest.ManifestEditor",1398735325438
activated,view,org.eclipse.jdt.ui,3.5.1.r351_v20090821-0800,"org.eclipse.jdt.ui.PackageExplorer",1398735329998
deactivated,workbench,org.eclipse.ui.workbench,3.5.1.M20090826-0800a,"",1398735333086
