what,kind,bundleId,bundleVersion,description,time
activated,workbench,org.eclipse.ui.workbench,3.5.1.M20090826-0800a,"",1387335877011
deactivated,workbench,org.eclipse.ui.workbench,3.5.1.M20090826-0800a,"",1387335982200
activated,workbench,org.eclipse.ui.workbench,3.5.1.M20090826-0800a,"",1387336061667
executed,command,org.eclipse.jdt.ui,3.5.1.r351_v20090821-0800,"org.eclipse.jdt.ui.edit.text.java.gotoBreadcrumb",1387336068991
deactivated,workbench,org.eclipse.ui.workbench,3.5.1.M20090826-0800a,"",1387336079335
activated,workbench,org.eclipse.ui.workbench,3.5.1.M20090826-0800a,"",1387336079894
deactivated,workbench,org.eclipse.ui.workbench,3.5.1.M20090826-0800a,"",1387336079975
activated,workbench,org.eclipse.ui.workbench,3.5.1.M20090826-0800a,"",1387336081060
activated,editor,com.android.ide.eclipse.adt,12.0.0.v201106281929-138431,"com.android.ide.eclipse.editors.layout.LayoutEditor",1387336084695
activated,editor,org.eclipse.jdt.ui,3.5.1.r351_v20090821-0800,"org.eclipse.jdt.ui.CompilationUnitEditor",1387336085507
activated,editor,com.android.ide.eclipse.adt,12.0.0.v201106281929-138431,"com.android.ide.eclipse.editors.layout.LayoutEditor",1387336087929
closed,editor,org.eclipse.jdt.ui,3.5.1.r351_v20090821-0800,"org.eclipse.jdt.ui.CompilationUnitEditor",1387336087929
activated,view,org.eclipse.jdt.ui,3.5.1.r351_v20090821-0800,"org.eclipse.jdt.ui.PackageExplorer",1387336089737
opened,editor,org.eclipse.jdt.ui,3.5.1.r351_v20090821-0800,"org.eclipse.jdt.ui.CompilationUnitEditor",1387336091364
activated,editor,org.eclipse.jdt.ui,3.5.1.r351_v20090821-0800,"org.eclipse.jdt.ui.CompilationUnitEditor",1387336091441
activated,editor,com.android.ide.eclipse.adt,12.0.0.v201106281929-138431,"com.android.ide.eclipse.editors.layout.LayoutEditor",1387336100285
activated,editor,org.eclipse.jdt.ui,3.5.1.r351_v20090821-0800,"org.eclipse.jdt.ui.CompilationUnitEditor",1387336102128
activated,editor,com.android.ide.eclipse.adt,12.0.0.v201106281929-138431,"com.android.ide.eclipse.editors.layout.LayoutEditor",1387336103693
deactivated,workbench,org.eclipse.ui.workbench,3.5.1.M20090826-0800a,"",1387336129335
activated,workbench,org.eclipse.ui.workbench,3.5.1.M20090826-0800a,"",1387336139108
deactivated,workbench,org.eclipse.ui.workbench,3.5.1.M20090826-0800a,"",1387336144553
activated,workbench,org.eclipse.ui.workbench,3.5.1.M20090826-0800a,"",1387336150938
deactivated,workbench,org.eclipse.ui.workbench,3.5.1.M20090826-0800a,"",1387336150946
activated,workbench,org.eclipse.ui.workbench,3.5.1.M20090826-0800a,"",1387336154193
deactivated,workbench,org.eclipse.ui.workbench,3.5.1.M20090826-0800a,"",1387336155944
