what,kind,bundleId,bundleVersion,description,time
java.runtime.name,sysinfo,,,"Java(TM) SE Runtime Environment",1405038021165
java.runtime.version,sysinfo,,,"1.6.0_03-b05",1405038021165
java.specification.name,sysinfo,,,"Java Platform API Specification",1405038021165
java.specification.vendor,sysinfo,,,"Sun Microsystems Inc.",1405038021165
java.specification.version,sysinfo,,,"1.6",1405038021165
java.vendor,sysinfo,,,"Sun Microsystems Inc.",1405038021165
java.version,sysinfo,,,"1.6.0_03",1405038021165
java.vm.info,sysinfo,,,"mixed mode",1405038021165
java.vm.name,sysinfo,,,"Java HotSpot(TM) Client VM",1405038021165
java.vm.specification.name,sysinfo,,,"Java Virtual Machine Specification",1405038021165
java.vm.specification.vendor,sysinfo,,,"Sun Microsystems Inc.",1405038021165
java.vm.specification.version,sysinfo,,,"1.0",1405038021165
java.vm.vendor,sysinfo,,,"Sun Microsystems Inc.",1405038021165
java.vm.version,sysinfo,,,"1.6.0_03-b05",1405038021165
started,bundle,org.eclipse.wst.sse.core,1.1.401.v200909172215,"org.eclipse.wst.sse.core",1405038021476
started,bundle,com.android.ide.eclipse.adt,12.0.0.v201106281929-138431,"com.android.ide.eclipse.adt",1405038021476
started,bundle,org.eclipse.mylyn.bugzilla.core,3.2.2.v20090912-0400-e3x,"org.eclipse.mylyn.bugzilla.core",1405038021627
started,bundle,org.eclipse.ltk.core.refactoring,3.5.0.v20090513-2000,"org.eclipse.ltk.core.refactoring",1405038021909
started,bundle,org.eclipse.ltk.ui.refactoring,3.4.100.v20090604,"org.eclipse.ltk.ui.refactoring",1405038022060
started,bundle,org.eclipse.mylyn.bugzilla.ui,3.2.2.v20090912-0400-e3x,"org.eclipse.mylyn.bugzilla.ui",1405038022095
started,bundle,org.eclipse.ui.forms,3.4.1.v20090714_35x,"org.eclipse.ui.forms",1405038022584
started,bundle,org.eclipse.mylyn.context.core,3.2.2.v20090912-0400-e3x,"org.eclipse.mylyn.context.core",1405038022769
started,bundle,org.eclipse.mylyn.context.ui,3.2.2.v20090912-0400-e3x,"org.eclipse.mylyn.context.ui",1405038022877
started,bundle,org.eclipse.mylyn.tasks.ui,3.2.2.v20090912-0400-e3x,"org.eclipse.mylyn.tasks.ui",1405038023394
started,bundle,org.eclipse.mylyn.team.ui,3.2.2.v20090912-0400-e3x,"org.eclipse.mylyn.team.ui",1405038023406
