what,kind,bundleId,bundleVersion,description,time
activated,workbench,org.eclipse.ui.workbench,3.5.1.M20090826-0800a,"",1400391930247
deactivated,workbench,org.eclipse.ui.workbench,3.5.1.M20090826-0800a,"",1400391930566
activated,workbench,org.eclipse.ui.workbench,3.5.1.M20090826-0800a,"",1400391935785
deactivated,workbench,org.eclipse.ui.workbench,3.5.1.M20090826-0800a,"",1400391936109
activated,workbench,org.eclipse.ui.workbench,3.5.1.M20090826-0800a,"",1400391937044
executed,command,org.eclipse.jdt.ui,3.5.1.r351_v20090821-0800,"org.eclipse.jdt.ui.edit.text.java.toggle.comment",1400391948607
executed,command,org.eclipse.ui,3.5.1.M20090902-1000,"org.eclipse.ui.file.save",1400391950621
activated,view,org.eclipse.jdt.ui,3.5.1.r351_v20090821-0800,"org.eclipse.jdt.ui.PackageExplorer",1400391952055
executed,command,,,"com.android.ide.eclipse.adt.debug.launching.LaunchShortcut.run",1400391954253
deactivated,workbench,org.eclipse.ui.workbench,3.5.1.M20090826-0800a,"",1400391957460
activated,workbench,org.eclipse.ui.workbench,3.5.1.M20090826-0800a,"",1400391957638
deactivated,workbench,org.eclipse.ui.workbench,3.5.1.M20090826-0800a,"",1400391957879
activated,workbench,org.eclipse.ui.workbench,3.5.1.M20090826-0800a,"",1400391964224
activated,view,com.android.ide.eclipse.ddms,12.0.0.v201106281929-138431,"com.android.ide.eclipse.ddms.views.LogCatView",1400391964383
deactivated,workbench,org.eclipse.ui.workbench,3.5.1.M20090826-0800a,"",1400391965689
activated,workbench,org.eclipse.ui.workbench,3.5.1.M20090826-0800a,"",1400391971269
deactivated,workbench,org.eclipse.ui.workbench,3.5.1.M20090826-0800a,"",1400391976704
activated,workbench,org.eclipse.ui.workbench,3.5.1.M20090826-0800a,"",1400391988327
deactivated,workbench,org.eclipse.ui.workbench,3.5.1.M20090826-0800a,"",1400391998193
activated,workbench,org.eclipse.ui.workbench,3.5.1.M20090826-0800a,"",1400392006242
activated,editor,org.eclipse.jdt.ui,3.5.1.r351_v20090821-0800,"org.eclipse.jdt.ui.CompilationUnitEditor",1400392008526
executed,command,org.eclipse.jdt.ui,3.5.1.r351_v20090821-0800,"org.eclipse.jdt.ui.edit.text.java.toggle.comment",1400392016006
executed,command,org.eclipse.jdt.ui,3.5.1.r351_v20090821-0800,"org.eclipse.jdt.ui.edit.text.java.toggle.comment",1400392018496
executed,command,org.eclipse.jdt.ui,3.5.1.r351_v20090821-0800,"org.eclipse.jdt.ui.edit.text.java.toggle.comment",1400392018960
executed,command,org.eclipse.jdt.ui,3.5.1.r351_v20090821-0800,"org.eclipse.jdt.ui.edit.text.java.toggle.comment",1400392019354
