what,kind,bundleId,bundleVersion,description,time
arch,sysinfo,,,"x86",1392776126597
ws,sysinfo,,,"win32",1392776126597
locale,sysinfo,,,"zh_CN",1392776126597
processors,sysinfo,,,"4",1392776126597
java.runtime.name,sysinfo,,,"Java(TM) SE Runtime Environment",1392776126597
java.runtime.version,sysinfo,,,"1.6.0_03-b05",1392776126597
java.specification.name,sysinfo,,,"Java Platform API Specification",1392776126597
java.specification.vendor,sysinfo,,,"Sun Microsystems Inc.",1392776126597
java.specification.version,sysinfo,,,"1.6",1392776126597
java.vendor,sysinfo,,,"Sun Microsystems Inc.",1392776126597
java.version,sysinfo,,,"1.6.0_03",1392776126597
java.vm.info,sysinfo,,,"mixed mode",1392776126597
java.vm.name,sysinfo,,,"Java HotSpot(TM) Client VM",1392776126597
java.vm.specification.name,sysinfo,,,"Java Virtual Machine Specification",1392776126597
java.vm.specification.vendor,sysinfo,,,"Sun Microsystems Inc.",1392776126597
java.vm.specification.version,sysinfo,,,"1.0",1392776126597
java.vm.vendor,sysinfo,,,"Sun Microsystems Inc.",1392776126597
java.vm.version,sysinfo,,,"1.6.0_03-b05",1392776126597
started,bundle,org.eclipse.mylyn.bugzilla.core,3.2.2.v20090912-0400-e3x,"org.eclipse.mylyn.bugzilla.core",1392776126998
started,bundle,org.eclipse.jst.common.project.facet.core,1.4.1.v200908111817,"org.eclipse.jst.common.project.facet.core",1392776127144
started,bundle,org.eclipse.mylyn.bugzilla.ui,3.2.2.v20090912-0400-e3x,"org.eclipse.mylyn.bugzilla.ui",1392776127322
started,bundle,org.eclipse.ui.forms,3.4.1.v20090714_35x,"org.eclipse.ui.forms",1392776127748
started,bundle,org.eclipse.mylyn.context.core,3.2.2.v20090912-0400-e3x,"org.eclipse.mylyn.context.core",1392776128068
started,bundle,org.eclipse.mylyn.context.ui,3.2.2.v20090912-0400-e3x,"org.eclipse.mylyn.context.ui",1392776128125
started,bundle,org.eclipse.epp.usagedata.ui,1.1.0.R200906100410,"org.eclipse.epp.usagedata.ui",1392776128314
