what,kind,bundleId,bundleVersion,description,time
activated,workbench,org.eclipse.ui.workbench,3.5.1.M20090826-0800a,"",1401637556190
activated,editor,org.eclipse.jdt.ui,3.5.1.r351_v20090821-0800,"org.eclipse.jdt.ui.CompilationUnitEditor",1401637868379
activated,editor,org.eclipse.jdt.ui,3.5.1.r351_v20090821-0800,"org.eclipse.jdt.ui.CompilationUnitEditor",1401637869872
activated,editor,org.eclipse.jdt.ui,3.5.1.r351_v20090821-0800,"org.eclipse.jdt.ui.CompilationUnitEditor",1401637871283
activated,editor,org.eclipse.jdt.ui,3.5.1.r351_v20090821-0800,"org.eclipse.jdt.ui.CompilationUnitEditor",1401637873999
deactivated,workbench,org.eclipse.ui.workbench,3.5.1.M20090826-0800a,"",1401637877732
activated,workbench,org.eclipse.ui.workbench,3.5.1.M20090826-0800a,"",1401637878553
deactivated,workbench,org.eclipse.ui.workbench,3.5.1.M20090826-0800a,"",1401637878982
activated,workbench,org.eclipse.ui.workbench,3.5.1.M20090826-0800a,"",1401637879642
deactivated,workbench,org.eclipse.ui.workbench,3.5.1.M20090826-0800a,"",1401637880443
activated,workbench,org.eclipse.ui.workbench,3.5.1.M20090826-0800a,"",1401637902350
activated,editor,org.eclipse.jdt.ui,3.5.1.r351_v20090821-0800,"org.eclipse.jdt.ui.CompilationUnitEditor",1401637904634
activated,editor,org.eclipse.jdt.ui,3.5.1.r351_v20090821-0800,"org.eclipse.jdt.ui.CompilationUnitEditor",1401637906869
deactivated,workbench,org.eclipse.ui.workbench,3.5.1.M20090826-0800a,"",1401637908205
activated,workbench,org.eclipse.ui.workbench,3.5.1.M20090826-0800a,"",1401640571012
executed,command,org.eclipse.ui,3.5.1.M20090902-1000,"org.eclipse.ui.file.save",1401640577124
activated,view,org.eclipse.jdt.ui,3.5.1.r351_v20090821-0800,"org.eclipse.jdt.ui.PackageExplorer",1401640586177
started,bundle,org.eclipse.compare,3.5.0.I20090514-0808,"org.eclipse.compare",1401640591034
deactivated,workbench,org.eclipse.ui.workbench,3.5.1.M20090826-0800a,"",1401640594941
activated,workbench,org.eclipse.ui.workbench,3.5.1.M20090826-0800a,"",1401640614297
started,bundle,org.eclipse.debug.ui,3.5.1.v20090811_r351,"org.eclipse.debug.ui",1401640616091
started,bundle,org.eclipse.cdt.core,5.1.2.201002161416,"org.eclipse.cdt.core",1401640616600
started,bundle,org.eclipse.cdt.core.tests,5.1.2.201002161416,"org.eclipse.cdt.core.tests",1401640616995
started,bundle,org.eclipse.cdt.debug.core,6.0.0.201002161416,"org.eclipse.cdt.debug.core",1401640617150
started,bundle,org.eclipse.cdt.debug.ui,6.0.0.201002161416,"org.eclipse.cdt.debug.ui",1401640617189
