what,kind,bundleId,bundleVersion,description,time
activated,workbench,org.eclipse.ui.workbench,3.5.1.M20090826-0800a,"",1405041608028
executed,command,org.eclipse.ui,3.5.1.M20090902-1000,"org.eclipse.ui.edit.delete",1405041773695
deactivated,workbench,org.eclipse.ui.workbench,3.5.1.M20090826-0800a,"",1405041835862
activated,workbench,org.eclipse.ui.workbench,3.5.1.M20090826-0800a,"",1405041844056
executed,command,org.eclipse.ui,3.5.1.M20090902-1000,"org.eclipse.ui.edit.delete",1405041858252
deactivated,workbench,org.eclipse.ui.workbench,3.5.1.M20090826-0800a,"",1405041862057
activated,workbench,org.eclipse.ui.workbench,3.5.1.M20090826-0800a,"",1405041921280
deactivated,workbench,org.eclipse.ui.workbench,3.5.1.M20090826-0800a,"",1405041932211
activated,workbench,org.eclipse.ui.workbench,3.5.1.M20090826-0800a,"",1405041933582
deactivated,workbench,org.eclipse.ui.workbench,3.5.1.M20090826-0800a,"",1405041960064
activated,workbench,org.eclipse.ui.workbench,3.5.1.M20090826-0800a,"",1405041962050
executed,command,org.eclipse.ui.workbench.texteditor,3.5.0.v20090603,"org.eclipse.ui.edit.text.goto.lineEnd",1405041966997
deactivated,workbench,org.eclipse.ui.workbench,3.5.1.M20090826-0800a,"",1405042010805
activated,workbench,org.eclipse.ui.workbench,3.5.1.M20090826-0800a,"",1405042011815
executed,command,org.eclipse.ui,3.5.1.M20090902-1000,"org.eclipse.ui.edit.copy",1405042023120
executed,command,org.eclipse.ui,3.5.1.M20090902-1000,"org.eclipse.ui.edit.paste",1405042025163
executed,command,org.eclipse.ui,3.5.1.M20090902-1000,"org.eclipse.ui.edit.paste",1405042034401
executed,command,org.eclipse.ui,3.5.1.M20090902-1000,"org.eclipse.ui.file.save",1405042064278
deactivated,workbench,org.eclipse.ui.workbench,3.5.1.M20090826-0800a,"",1405042086262
executed,command,org.eclipse.ui.workbench.texteditor,3.5.0.v20090603,"org.eclipse.ui.edit.text.showInformation",1405042086279
activated,workbench,org.eclipse.ui.workbench,3.5.1.M20090826-0800a,"",1405042097536
executed,command,org.eclipse.ui,3.5.1.M20090902-1000,"org.eclipse.ui.file.save",1405042119254
deactivated,workbench,org.eclipse.ui.workbench,3.5.1.M20090826-0800a,"",1405042121841
activated,workbench,org.eclipse.ui.workbench,3.5.1.M20090826-0800a,"",1405042123063
deactivated,workbench,org.eclipse.ui.workbench,3.5.1.M20090826-0800a,"",1405042131233
