what,kind,bundleId,bundleVersion,description,time
activated,editor,org.eclipse.jdt.ui,3.5.1.r351_v20090821-0800,"org.eclipse.jdt.ui.CompilationUnitEditor",1413773998273
deactivated,workbench,org.eclipse.ui.workbench,3.5.1.M20090826-0800a,"",1413774000061
activated,workbench,org.eclipse.ui.workbench,3.5.1.M20090826-0800a,"",1413774005020
executed,command,org.eclipse.jdt.debug.ui,3.4.1.v20090811_r351,"org.eclipse.jdt.debug.ui.localJavaShortcut.run",1413774008559
activated,view,org.eclipse.ui.console,3.4.0.v20090513,"org.eclipse.ui.console.ConsoleView",1413774010438
deactivated,workbench,org.eclipse.ui.workbench,3.5.1.M20090826-0800a,"",1413774012311
activated,workbench,org.eclipse.ui.workbench,3.5.1.M20090826-0800a,"",1413774015700
activated,editor,org.eclipse.jdt.ui,3.5.1.r351_v20090821-0800,"org.eclipse.jdt.ui.CompilationUnitEditor",1413774016187
deactivated,workbench,org.eclipse.ui.workbench,3.5.1.M20090826-0800a,"",1413774033359
activated,workbench,org.eclipse.ui.workbench,3.5.1.M20090826-0800a,"",1413774058646
activated,view,org.eclipse.jdt.ui,3.5.1.r351_v20090821-0800,"org.eclipse.jdt.ui.PackageExplorer",1413774063704
deactivated,workbench,org.eclipse.ui.workbench,3.5.1.M20090826-0800a,"",1413774068377
started,bundle,org.eclipse.wst.common.emf,1.1.301.v200908181930,"org.eclipse.wst.common.emf",1413774069842
started,bundle,org.eclipse.jst.j2ee.core,1.1.301.v200908181930,"org.eclipse.jst.j2ee.core",1413774069880
started,bundle,org.eclipse.jem,2.0.300.v200901272200,"org.eclipse.jem",1413774069959
started,bundle,org.eclipse.emf.ecore.xmi,2.5.0.v200906151043,"org.eclipse.emf.ecore.xmi",1413774069991
started,bundle,org.eclipse.jst.jee,1.0.201.v200909030330,"org.eclipse.jst.jee",1413774070103
started,bundle,org.eclipse.jpt.core,2.2.1.v200908270220,"org.eclipse.jpt.core",1413774070251
started,bundle,org.eclipse.jpt.eclipselink.core,1.2.0.v200905310000,"org.eclipse.jpt.eclipselink.core",1413774070297
started,bundle,org.eclipse.wst.common.frameworks.ui,1.1.301.v200908101600,"org.eclipse.wst.common.frameworks.ui",1413774070437
started,bundle,org.eclipse.wst.xml.core,1.1.401.v200908242115,"org.eclipse.wst.xml.core",1413774070504
started,bundle,org.eclipse.wst.common.emfworkbench.integration,1.1.301.v200908101600,"org.eclipse.wst.common.emfworkbench.integration",1413774070742
started,bundle,org.eclipse.wst.common.modulecore,1.1.301.v200908101600,"org.eclipse.wst.common.modulecore",1413774070797
started,bundle,org.eclipse.wst.validation,1.2.102.v200905201610,"org.eclipse.wst.validation",1413774070850
started,bundle,org.eclipse.jst.j2ee,1.1.301.v200909030330,"org.eclipse.jst.j2ee",1413774070925
