what,kind,bundleId,bundleVersion,description,time
ws,sysinfo,,,"win32",1416405042297
locale,sysinfo,,,"zh_CN",1416405042297
processors,sysinfo,,,"4",1416405042297
java.runtime.name,sysinfo,,,"Java(TM) SE Runtime Environment",1416405042297
java.runtime.version,sysinfo,,,"1.6.0_03-b05",1416405042297
java.specification.name,sysinfo,,,"Java Platform API Specification",1416405042297
java.specification.vendor,sysinfo,,,"Sun Microsystems Inc.",1416405042297
java.specification.version,sysinfo,,,"1.6",1416405042297
java.vendor,sysinfo,,,"Sun Microsystems Inc.",1416405042297
java.version,sysinfo,,,"1.6.0_03",1416405042297
java.vm.info,sysinfo,,,"mixed mode",1416405042297
java.vm.name,sysinfo,,,"Java HotSpot(TM) Client VM",1416405042297
java.vm.specification.name,sysinfo,,,"Java Virtual Machine Specification",1416405042297
java.vm.specification.vendor,sysinfo,,,"Sun Microsystems Inc.",1416405042297
java.vm.specification.version,sysinfo,,,"1.0",1416405042297
java.vm.vendor,sysinfo,,,"Sun Microsystems Inc.",1416405042297
java.vm.version,sysinfo,,,"1.6.0_03-b05",1416405042297
started,bundle,org.eclipse.team.cvs.ui,3.3.201.R35x_v20090826-0905,"org.eclipse.team.cvs.ui",1416405042753
started,bundle,org.eclipse.emf.ecore,2.5.0.v200906151043,"org.eclipse.emf.ecore",1416405043149
started,bundle,org.eclipse.jem.util,2.0.200.v200905140200,"org.eclipse.jem.util",1416405043218
started,bundle,org.eclipse.wst.common.frameworks,1.1.300.v200904160730,"org.eclipse.wst.common.frameworks",1416405043260
started,bundle,org.eclipse.jst.jsf.common,1.1.7.v20090903,"org.eclipse.jst.jsf.common",1416405043331
started,bundle,org.eclipse.jst.jsf.core,1.2.2.v20090903,"org.eclipse.jst.jsf.core",1416405043721
started,bundle,org.eclipse.mylyn.commons.net,3.2.0.v20090617-0100-e3x,"org.eclipse.mylyn.commons.net",1416405044451
started,bundle,org.eclipse.jst.common.project.facet.core,1.4.1.v200908111817,"org.eclipse.jst.common.project.facet.core",1416405045237
