what,kind,bundleId,bundleVersion,description,time
started,bundle,com.android.ide.eclipse.adt,12.0.0.v201106281929-138431,"com.android.ide.eclipse.adt",1400027961842
started,bundle,com.android.ide.eclipse.ddms,12.0.0.v201106281929-138431,"com.android.ide.eclipse.ddms",1400027961892
started,bundle,com.android.ide.eclipse.traceview,12.0.0.v201106281929-138431,"com.android.ide.eclipse.traceview",1400027961893
os,sysinfo,,,"win32",1400027961920
arch,sysinfo,,,"x86",1400027961920
ws,sysinfo,,,"win32",1400027961920
locale,sysinfo,,,"zh_CN",1400027961920
processors,sysinfo,,,"4",1400027961921
java.runtime.name,sysinfo,,,"Java(TM) SE Runtime Environment",1400027961921
java.runtime.version,sysinfo,,,"1.6.0_03-b05",1400027961921
java.specification.name,sysinfo,,,"Java Platform API Specification",1400027961921
java.specification.vendor,sysinfo,,,"Sun Microsystems Inc.",1400027961921
java.specification.version,sysinfo,,,"1.6",1400027961921
java.vendor,sysinfo,,,"Sun Microsystems Inc.",1400027961921
java.version,sysinfo,,,"1.6.0_03",1400027961921
java.vm.info,sysinfo,,,"mixed mode",1400027961921
java.vm.name,sysinfo,,,"Java HotSpot(TM) Client VM",1400027961921
java.vm.specification.name,sysinfo,,,"Java Virtual Machine Specification",1400027961921
java.vm.specification.vendor,sysinfo,,,"Sun Microsystems Inc.",1400027961921
java.vm.specification.version,sysinfo,,,"1.0",1400027961921
java.vm.vendor,sysinfo,,,"Sun Microsystems Inc.",1400027961921
java.vm.version,sysinfo,,,"1.6.0_03-b05",1400027961921
started,bundle,org.eclipse.wst.common.frameworks,1.1.300.v200904160730,"org.eclipse.wst.common.frameworks",1400027961946
started,bundle,org.eclipse.jst.jsf.common,1.1.7.v20090903,"org.eclipse.jst.jsf.common",1400027962028
started,bundle,org.eclipse.jst.jsf.core,1.2.2.v20090903,"org.eclipse.jst.jsf.core",1400027962119
