what,kind,bundleId,bundleVersion,description,time
deactivated,workbench,org.eclipse.ui.workbench,3.5.1.M20090826-0800a,"",1399947149913
activated,workbench,org.eclipse.ui.workbench,3.5.1.M20090826-0800a,"",1399947151374
deactivated,workbench,org.eclipse.ui.workbench,3.5.1.M20090826-0800a,"",1399947151905
activated,workbench,org.eclipse.ui.workbench,3.5.1.M20090826-0800a,"",1399947153874
deactivated,workbench,org.eclipse.ui.workbench,3.5.1.M20090826-0800a,"",1399947154800
activated,workbench,org.eclipse.ui.workbench,3.5.1.M20090826-0800a,"",1399947160061
deactivated,workbench,org.eclipse.ui.workbench,3.5.1.M20090826-0800a,"",1399947160424
activated,workbench,org.eclipse.ui.workbench,3.5.1.M20090826-0800a,"",1399947161729
deactivated,workbench,org.eclipse.ui.workbench,3.5.1.M20090826-0800a,"",1399947219283
activated,workbench,org.eclipse.ui.workbench,3.5.1.M20090826-0800a,"",1399947219455
executed,command,org.eclipse.ui,3.5.1.M20090902-1000,"org.eclipse.ui.file.save",1399947228540
executed,command,org.eclipse.ui,3.5.1.M20090902-1000,"org.eclipse.ui.edit.delete",1399947311822
deactivated,workbench,org.eclipse.ui.workbench,3.5.1.M20090826-0800a,"",1399947402481
activated,workbench,org.eclipse.ui.workbench,3.5.1.M20090826-0800a,"",1399947402570
executed,command,org.eclipse.ui,3.5.1.M20090902-1000,"org.eclipse.ui.file.save",1399947435091
deactivated,workbench,org.eclipse.ui.workbench,3.5.1.M20090826-0800a,"",1399949119536
activated,workbench,org.eclipse.ui.workbench,3.5.1.M20090826-0800a,"",1399949224380
deactivated,workbench,org.eclipse.ui.workbench,3.5.1.M20090826-0800a,"",1399949225373
activated,workbench,org.eclipse.ui.workbench,3.5.1.M20090826-0800a,"",1399950125513
executed,command,org.eclipse.jdt.ui,3.5.1.r351_v20090821-0800,"org.eclipse.jdt.ui.edit.text.java.toggle.comment",1399950171347
executed,command,org.eclipse.ui,3.5.1.M20090902-1000,"org.eclipse.ui.file.save",1399950173412
deactivated,workbench,org.eclipse.ui.workbench,3.5.1.M20090826-0800a,"",1399950308262
activated,workbench,org.eclipse.ui.workbench,3.5.1.M20090826-0800a,"",1399950311879
deactivated,workbench,org.eclipse.ui.workbench,3.5.1.M20090826-0800a,"",1399950384984
activated,workbench,org.eclipse.ui.workbench,3.5.1.M20090826-0800a,"",1399950889353
