what,kind,bundleId,bundleVersion,description,time
deactivated,workbench,org.eclipse.ui.workbench,3.5.1.M20090826-0800a,"",1389166313450
activated,workbench,org.eclipse.ui.workbench,3.5.1.M20090826-0800a,"",1389166319230
deactivated,workbench,org.eclipse.ui.workbench,3.5.1.M20090826-0800a,"",1389166319598
activated,workbench,org.eclipse.ui.workbench,3.5.1.M20090826-0800a,"",1389166325841
deactivated,workbench,org.eclipse.ui.workbench,3.5.1.M20090826-0800a,"",1389166327652
activated,workbench,org.eclipse.ui.workbench,3.5.1.M20090826-0800a,"",1389166336061
deactivated,workbench,org.eclipse.ui.workbench,3.5.1.M20090826-0800a,"",1389166347208
executed,command,org.eclipse.ui.workbench.texteditor,3.5.0.v20090603,"org.eclipse.ui.edit.text.showInformation",1389166347226
no handler,command,org.eclipse.ui,3.5.1.M20090902-1000,"org.eclipse.ui.edit.copy",1389166351115
no handler,command,org.eclipse.ui,3.5.1.M20090902-1000,"org.eclipse.ui.edit.copy",1389166351115
no handler,command,org.eclipse.ui,3.5.1.M20090902-1000,"org.eclipse.ui.edit.copy",1389166353659
no handler,command,org.eclipse.ui,3.5.1.M20090902-1000,"org.eclipse.ui.edit.copy",1389166353660
activated,workbench,org.eclipse.ui.workbench,3.5.1.M20090826-0800a,"",1389166357825
activated,editor,org.eclipse.jdt.ui,3.5.1.r351_v20090821-0800,"org.eclipse.jdt.ui.CompilationUnitEditor",1389166367901
deactivated,workbench,org.eclipse.ui.workbench,3.5.1.M20090826-0800a,"",1389166378704
activated,workbench,org.eclipse.ui.workbench,3.5.1.M20090826-0800a,"",1389166420121
deactivated,workbench,org.eclipse.ui.workbench,3.5.1.M20090826-0800a,"",1389166499568
activated,workbench,org.eclipse.ui.workbench,3.5.1.M20090826-0800a,"",1389166546540
deactivated,workbench,org.eclipse.ui.workbench,3.5.1.M20090826-0800a,"",1389166550946
activated,workbench,org.eclipse.ui.workbench,3.5.1.M20090826-0800a,"",1389166557445
activated,view,org.eclipse.jdt.ui,3.5.1.r351_v20090821-0800,"org.eclipse.jdt.ui.PackageExplorer",1389166564828
deactivated,workbench,org.eclipse.ui.workbench,3.5.1.M20090826-0800a,"",1389166569306
activated,workbench,org.eclipse.ui.workbench,3.5.1.M20090826-0800a,"",1389166570275
executed,command,org.eclipse.ui.ide,3.5.1.M20090826-0800,"org.eclipse.ui.project.openProject",1389166570290
activated,editor,org.eclipse.jdt.ui,3.5.1.r351_v20090821-0800,"org.eclipse.jdt.ui.CompilationUnitEditor",1389166571891
