what,kind,bundleId,bundleVersion,description,time
started,bundle,org.eclipse.team.core,3.5.0.I20090527-0620,"org.eclipse.team.core",1414670892333
started,bundle,org.eclipse.team.cvs.core,3.3.200.I20090430-0408,"org.eclipse.team.cvs.core",1414670892455
started,bundle,org.eclipse.team.ui,3.5.0.I20090430-0408,"org.eclipse.team.ui",1414670892594
started,bundle,org.eclipse.ui,3.5.1.M20090902-1000,"org.eclipse.ui",1414670892746
started,bundle,org.eclipse.ui.console,3.4.0.v20090513,"org.eclipse.ui.console",1414670892844
started,bundle,org.eclipse.ui.editors,3.5.0.v20090527-2000,"org.eclipse.ui.editors",1414670893037
started,bundle,org.eclipse.ui.ide,3.5.1.M20090826-0800,"org.eclipse.ui.ide",1414670893118
started,bundle,org.eclipse.ui.net,1.2.1.r35x_20090812-1200,"org.eclipse.ui.net",1414670893186
started,bundle,org.eclipse.ui.views,3.4.1.M20090826-0800,"org.eclipse.ui.views",1414670893238
started,bundle,org.eclipse.ui.views.log,1.0.100.v20090731,"org.eclipse.ui.views.log",1414670893352
started,bundle,org.eclipse.ui.workbench,3.5.1.M20090826-0800a,"org.eclipse.ui.workbench",1414670893471
started,bundle,org.eclipse.ui.workbench.texteditor,3.5.0.v20090603,"org.eclipse.ui.workbench.texteditor",1414670893630
started,bundle,org.eclipse.update.configurator,3.3.0.v20090312,"org.eclipse.update.configurator",1414670893708
started,bundle,org.eclipse.wst.common.frameworks,1.1.300.v200904160730,"org.eclipse.wst.common.frameworks",1414670893735
started,bundle,org.eclipse.wst.common.project.facet.core,1.4.1.v200908111817,"org.eclipse.wst.common.project.facet.core",1414670893952
started,bundle,org.eclipse.wst.web,1.1.301.v200909021400,"org.eclipse.wst.web",1414670894020
started,bundle,com.android.ide.eclipse.ddms,12.0.0.v201106281929-138431,"com.android.ide.eclipse.ddms",1414670894093
os,sysinfo,,,"win32",1414670894265
arch,sysinfo,,,"x86",1414670894265
ws,sysinfo,,,"win32",1414670894265
locale,sysinfo,,,"zh_CN",1414670894265
processors,sysinfo,,,"4",1414670894265
java.runtime.name,sysinfo,,,"Java(TM) SE Runtime Environment",1414670894265
java.runtime.version,sysinfo,,,"1.6.0_03-b05",1414670894265
java.specification.name,sysinfo,,,"Java Platform API Specification",1414670894265
