what,kind,bundleId,bundleVersion,description,time
activated,editor,com.android.ide.eclipse.adt,12.0.0.v201106281929-138431,"com.android.ide.eclipse.editors.layout.LayoutEditor",1396580409399
activated,editor,org.eclipse.jdt.ui,3.5.1.r351_v20090821-0800,"org.eclipse.jdt.ui.CompilationUnitEditor",1396580412742
executed,command,org.eclipse.ui.workbench.texteditor,3.5.0.v20090603,"org.eclipse.ui.edit.text.goto.lineEnd",1396580426470
deactivated,workbench,org.eclipse.ui.workbench,3.5.1.M20090826-0800a,"",1396580437446
activated,workbench,org.eclipse.ui.workbench,3.5.1.M20090826-0800a,"",1396580439999
activated,editor,com.android.ide.eclipse.adt,12.0.0.v201106281929-138431,"com.android.ide.eclipse.editors.layout.LayoutEditor",1396580443315
activated,editor,org.eclipse.jdt.ui,3.5.1.r351_v20090821-0800,"org.eclipse.jdt.ui.CompilationUnitEditor",1396580456666
executed,command,org.eclipse.ui,3.5.1.M20090902-1000,"org.eclipse.ui.file.save",1396580462070
activated,editor,com.android.ide.eclipse.adt,12.0.0.v201106281929-138431,"com.android.ide.eclipse.editors.layout.LayoutEditor",1396580464497
executed,command,org.eclipse.ui,3.5.1.M20090902-1000,"org.eclipse.ui.file.save",1396580465567
activated,editor,org.eclipse.jdt.ui,3.5.1.r351_v20090821-0800,"org.eclipse.jdt.ui.CompilationUnitEditor",1396580466832
deactivated,workbench,org.eclipse.ui.workbench,3.5.1.M20090826-0800a,"",1396580491783
activated,workbench,org.eclipse.ui.workbench,3.5.1.M20090826-0800a,"",1396580554366
deactivated,workbench,org.eclipse.ui.workbench,3.5.1.M20090826-0800a,"",1396580559942
activated,workbench,org.eclipse.ui.workbench,3.5.1.M20090826-0800a,"",1396580628001
deactivated,workbench,org.eclipse.ui.workbench,3.5.1.M20090826-0800a,"",1396580628793
activated,workbench,org.eclipse.ui.workbench,3.5.1.M20090826-0800a,"",1396580635296
deactivated,workbench,org.eclipse.ui.workbench,3.5.1.M20090826-0800a,"",1396580635824
activated,workbench,org.eclipse.ui.workbench,3.5.1.M20090826-0800a,"",1396580637240
deactivated,workbench,org.eclipse.ui.workbench,3.5.1.M20090826-0800a,"",1396580702581
activated,workbench,org.eclipse.ui.workbench,3.5.1.M20090826-0800a,"",1396580799204
deactivated,workbench,org.eclipse.ui.workbench,3.5.1.M20090826-0800a,"",1396580803071
started,bundle,org.eclipse.pde.core,3.5.100.v20090821,"org.eclipse.pde.core",1396580859703
started,bundle,org.eclipse.pde,3.4.100.v200909170800,"org.eclipse.pde",1396580859787
started,bundle,org.eclipse.jst.j2ee.ui,1.1.301.v200909020100,"org.eclipse.jst.j2ee.ui",1396580887657
