what,kind,bundleId,bundleVersion,description,time
started,bundle,org.eclipse.wst.web,1.1.301.v200909021400,"org.eclipse.wst.web",1413562308568
started,bundle,com.android.ide.eclipse.ddms,12.0.0.v201106281929-138431,"com.android.ide.eclipse.ddms",1413562308619
os,sysinfo,,,"win32",1413562308627
arch,sysinfo,,,"x86",1413562308627
ws,sysinfo,,,"win32",1413562308627
locale,sysinfo,,,"zh_CN",1413562308627
processors,sysinfo,,,"4",1413562308627
java.runtime.name,sysinfo,,,"Java(TM) SE Runtime Environment",1413562308627
java.runtime.version,sysinfo,,,"1.6.0_03-b05",1413562308627
java.specification.name,sysinfo,,,"Java Platform API Specification",1413562308627
java.specification.vendor,sysinfo,,,"Sun Microsystems Inc.",1413562308627
java.specification.version,sysinfo,,,"1.6",1413562308627
java.vendor,sysinfo,,,"Sun Microsystems Inc.",1413562308627
java.version,sysinfo,,,"1.6.0_03",1413562308627
java.vm.info,sysinfo,,,"mixed mode",1413562308627
java.vm.name,sysinfo,,,"Java HotSpot(TM) Client VM",1413562308627
java.vm.specification.name,sysinfo,,,"Java Virtual Machine Specification",1413562308627
java.vm.specification.vendor,sysinfo,,,"Sun Microsystems Inc.",1413562308627
java.vm.specification.version,sysinfo,,,"1.0",1413562308627
java.vm.vendor,sysinfo,,,"Sun Microsystems Inc.",1413562308627
java.vm.version,sysinfo,,,"1.6.0_03-b05",1413562308627
started,bundle,org.eclipse.mylyn.commons.ui,3.2.2.v20090912-0400-e3x,"org.eclipse.mylyn.commons.ui",1413562309286
started,bundle,org.eclipse.jst.common.project.facet.core,1.4.1.v200908111817,"org.eclipse.jst.common.project.facet.core",1413562309429
started,bundle,org.eclipse.mylyn.bugzilla.core,3.2.2.v20090912-0400-e3x,"org.eclipse.mylyn.bugzilla.core",1413562309935
started,bundle,org.eclipse.mylyn.bugzilla.ui,3.2.2.v20090912-0400-e3x,"org.eclipse.mylyn.bugzilla.ui",1413562310575
