what,kind,bundleId,bundleVersion,description,time
deactivated,workbench,org.eclipse.ui.workbench,3.5.1.M20090826-0800a,"",1399345249112
activated,workbench,org.eclipse.ui.workbench,3.5.1.M20090826-0800a,"",1399345731796
activated,view,org.eclipse.jdt.ui,3.5.1.r351_v20090821-0800,"org.eclipse.jdt.ui.PackageExplorer",1399345735968
deactivated,workbench,org.eclipse.ui.workbench,3.5.1.M20090826-0800a,"",1399345743532
error,log,,,"Failed to load properties file for project '11.Service2'",1399345782154
activated,workbench,org.eclipse.ui.workbench,3.5.1.M20090826-0800a,"",1399345782330
activated,editor,org.eclipse.jdt.ui,3.5.1.r351_v20090821-0800,"org.eclipse.jdt.ui.CompilationUnitEditor",1399345790419
activated,view,org.eclipse.jdt.ui,3.5.1.r351_v20090821-0800,"org.eclipse.jdt.ui.PackageExplorer",1399345791947
closed,editor,org.eclipse.jdt.ui,3.5.1.r351_v20090821-0800,"org.eclipse.jdt.ui.CompilationUnitEditor",1399345791970
started,bundle,org.eclipse.compare,3.5.0.I20090514-0808,"org.eclipse.compare",1399345796235
deactivated,workbench,org.eclipse.ui.workbench,3.5.1.M20090826-0800a,"",1399345802354
activated,workbench,org.eclipse.ui.workbench,3.5.1.M20090826-0800a,"",1399345843389
opened,editor,org.eclipse.jdt.ui,3.5.1.r351_v20090821-0800,"org.eclipse.jdt.ui.CompilationUnitEditor",1399345843905
activated,editor,org.eclipse.jdt.ui,3.5.1.r351_v20090821-0800,"org.eclipse.jdt.ui.CompilationUnitEditor",1399345843928
started,bundle,org.eclipse.mylyn.java.ui,3.2.2.v20090912-0400-e3x,"org.eclipse.mylyn.java.ui",1399345859405
started,bundle,org.eclipse.pde.api.tools,1.0.101.v20090714,"org.eclipse.pde.api.tools",1399345859508
started,bundle,org.eclipse.pde.api.tools.ui,1.0.101.v20090820,"org.eclipse.pde.api.tools.ui",1399345859511
started,bundle,org.eclipse.jdt.junit,3.5.1.r351_v20090708-0800,"org.eclipse.jdt.junit",1399345860223
deactivated,workbench,org.eclipse.ui.workbench,3.5.1.M20090826-0800a,"",1399345890408
activated,workbench,org.eclipse.ui.workbench,3.5.1.M20090826-0800a,"",1399345898574
executed,command,org.eclipse.jdt.ui,3.5.1.r351_v20090821-0800,"org.eclipse.jdt.ui.edit.text.java.override.methods",1399345898658
started,bundle,org.eclipse.mylyn.java.tasks,3.2.2.v20090912-0400-e3x,"org.eclipse.mylyn.java.tasks",1399345912416
executed,command,org.eclipse.ui,3.5.1.M20090902-1000,"org.eclipse.ui.edit.paste",1399345913414
executed,command,org.eclipse.ui,3.5.1.M20090902-1000,"org.eclipse.ui.edit.copy",1399345917464
executed,command,org.eclipse.ui,3.5.1.M20090902-1000,"org.eclipse.ui.edit.paste",1399345918257
