what,kind,bundleId,bundleVersion,description,time
activated,editor,org.eclipse.jdt.ui,3.5.1.r351_v20090821-0800,"org.eclipse.jdt.ui.CompilationUnitEditor",1405039822150
activated,view,org.eclipse.jdt.ui,3.5.1.r351_v20090821-0800,"org.eclipse.jdt.ui.PackageExplorer",1405039823979
opened,editor,org.eclipse.jdt.ui,3.5.1.r351_v20090821-0800,"org.eclipse.jdt.ui.CompilationUnitEditor",1405039825777
activated,editor,org.eclipse.jdt.ui,3.5.1.r351_v20090821-0800,"org.eclipse.jdt.ui.CompilationUnitEditor",1405039825857
activated,editor,org.eclipse.jdt.ui,3.5.1.r351_v20090821-0800,"org.eclipse.jdt.ui.CompilationUnitEditor",1405039877093
executed,command,org.eclipse.ui,3.5.1.M20090902-1000,"org.eclipse.ui.edit.copy",1405039924762
executed,command,org.eclipse.ui,3.5.1.M20090902-1000,"org.eclipse.ui.edit.paste",1405039930598
deactivated,workbench,org.eclipse.ui.workbench,3.5.1.M20090826-0800a,"",1405039939428
activated,workbench,org.eclipse.ui.workbench,3.5.1.M20090826-0800a,"",1405039941878
started,bundle,org.eclipse.mylyn.java.ui,3.2.2.v20090912-0400-e3x,"org.eclipse.mylyn.java.ui",1405039955597
started,bundle,org.eclipse.pde.api.tools,1.0.101.v20090714,"org.eclipse.pde.api.tools",1405039955715
started,bundle,org.eclipse.pde.api.tools.ui,1.0.101.v20090820,"org.eclipse.pde.api.tools.ui",1405039955718
executed,command,org.eclipse.ui,3.5.1.M20090902-1000,"org.eclipse.ui.file.save",1405040008028
deactivated,workbench,org.eclipse.ui.workbench,3.5.1.M20090826-0800a,"",1405040026438
activated,workbench,org.eclipse.ui.workbench,3.5.1.M20090826-0800a,"",1405040422617
deactivated,workbench,org.eclipse.ui.workbench,3.5.1.M20090826-0800a,"",1405040443246
activated,workbench,org.eclipse.ui.workbench,3.5.1.M20090826-0800a,"",1405040453641
deactivated,workbench,org.eclipse.ui.workbench,3.5.1.M20090826-0800a,"",1405040457695
activated,workbench,org.eclipse.ui.workbench,3.5.1.M20090826-0800a,"",1405040458459
deactivated,workbench,org.eclipse.ui.workbench,3.5.1.M20090826-0800a,"",1405040458676
activated,workbench,org.eclipse.ui.workbench,3.5.1.M20090826-0800a,"",1405040480232
activated,view,org.eclipse.jdt.ui,3.5.1.r351_v20090821-0800,"org.eclipse.jdt.ui.PackageExplorer",1405040480251
activated,editor,org.eclipse.jdt.ui,3.5.1.r351_v20090821-0800,"org.eclipse.jdt.ui.CompilationUnitEditor",1405040481366
deactivated,workbench,org.eclipse.ui.workbench,3.5.1.M20090826-0800a,"",1405040550051
activated,workbench,org.eclipse.ui.workbench,3.5.1.M20090826-0800a,"",1405040554128
