what,kind,bundleId,bundleVersion,description,time
arch,sysinfo,,,"x86",1409658242348
ws,sysinfo,,,"win32",1409658242348
locale,sysinfo,,,"zh_CN",1409658242348
processors,sysinfo,,,"4",1409658242348
java.runtime.name,sysinfo,,,"Java(TM) SE Runtime Environment",1409658242348
java.runtime.version,sysinfo,,,"1.6.0_03-b05",1409658242348
java.specification.name,sysinfo,,,"Java Platform API Specification",1409658242348
java.specification.vendor,sysinfo,,,"Sun Microsystems Inc.",1409658242348
java.specification.version,sysinfo,,,"1.6",1409658242348
java.vendor,sysinfo,,,"Sun Microsystems Inc.",1409658242348
java.version,sysinfo,,,"1.6.0_03",1409658242348
java.vm.info,sysinfo,,,"mixed mode",1409658242348
java.vm.name,sysinfo,,,"Java HotSpot(TM) Client VM",1409658242348
java.vm.specification.name,sysinfo,,,"Java Virtual Machine Specification",1409658242348
java.vm.specification.vendor,sysinfo,,,"Sun Microsystems Inc.",1409658242348
java.vm.specification.version,sysinfo,,,"1.0",1409658242348
java.vm.vendor,sysinfo,,,"Sun Microsystems Inc.",1409658242348
java.vm.version,sysinfo,,,"1.6.0_03-b05",1409658242348
started,bundle,org.eclipse.mylyn.commons.ui,3.2.2.v20090912-0400-e3x,"org.eclipse.mylyn.commons.ui",1409658242379
started,bundle,org.eclipse.mylyn.bugzilla.core,3.2.2.v20090912-0400-e3x,"org.eclipse.mylyn.bugzilla.core",1409658243081
started,bundle,org.eclipse.mylyn.bugzilla.ui,3.2.2.v20090912-0400-e3x,"org.eclipse.mylyn.bugzilla.ui",1409658243297
started,bundle,org.eclipse.ui.forms,3.4.1.v20090714_35x,"org.eclipse.ui.forms",1409658243946
started,bundle,org.eclipse.mylyn.context.core,3.2.2.v20090912-0400-e3x,"org.eclipse.mylyn.context.core",1409658244277
started,bundle,org.eclipse.mylyn.context.ui,3.2.2.v20090912-0400-e3x,"org.eclipse.mylyn.context.ui",1409658244432
started,bundle,org.eclipse.mylyn.tasks.ui,3.2.2.v20090912-0400-e3x,"org.eclipse.mylyn.tasks.ui",1409658245061
