what,kind,bundleId,bundleVersion,description,time
activated,editor,com.android.ide.eclipse.adt,12.0.0.v201106281929-138431,"com.android.ide.eclipse.editors.layout.LayoutEditor",1398086921061
activated,view,org.eclipse.jdt.ui,3.5.1.r351_v20090821-0800,"org.eclipse.jdt.ui.PackageExplorer",1398086956048
opened,editor,org.eclipse.jdt.ui,3.5.1.r351_v20090821-0800,"org.eclipse.jdt.ui.CompilationUnitEditor",1398086957675
activated,editor,org.eclipse.jdt.ui,3.5.1.r351_v20090821-0800,"org.eclipse.jdt.ui.CompilationUnitEditor",1398086957752
deactivated,workbench,org.eclipse.ui.workbench,3.5.1.M20090826-0800a,"",1398086974335
activated,workbench,org.eclipse.ui.workbench,3.5.1.M20090826-0800a,"",1398086987663
deactivated,workbench,org.eclipse.ui.workbench,3.5.1.M20090826-0800a,"",1398086991255
activated,workbench,org.eclipse.ui.workbench,3.5.1.M20090826-0800a,"",1398087096836
activated,editor,com.android.ide.eclipse.adt,12.0.0.v201106281929-138431,"com.android.ide.eclipse.editors.layout.LayoutEditor",1398087099485
executed,command,org.eclipse.ui,3.5.1.M20090902-1000,"org.eclipse.ui.edit.delete",1398087102482
executed,command,org.eclipse.ui,3.5.1.M20090902-1000,"org.eclipse.ui.file.save",1398087105357
activated,editor,org.eclipse.jdt.ui,3.5.1.r351_v20090821-0800,"org.eclipse.jdt.ui.CompilationUnitEditor",1398087107318
activated,editor,com.android.ide.eclipse.adt,12.0.0.v201106281929-138431,"com.android.ide.eclipse.editors.layout.LayoutEditor",1398087108199
activated,view,org.eclipse.jdt.ui,3.5.1.r351_v20090821-0800,"org.eclipse.jdt.ui.PackageExplorer",1398087110980
opened,editor,org.eclipse.jdt.ui,3.5.1.r351_v20090821-0800,"org.eclipse.jdt.ui.CompilationUnitEditor",1398087111285
activated,editor,org.eclipse.jdt.ui,3.5.1.r351_v20090821-0800,"org.eclipse.jdt.ui.CompilationUnitEditor",1398087111363
started,bundle,org.eclipse.mylyn.java.ui,3.2.2.v20090912-0400-e3x,"org.eclipse.mylyn.java.ui",1398087126386
started,bundle,org.eclipse.pde.api.tools,1.0.101.v20090714,"org.eclipse.pde.api.tools",1398087127103
started,bundle,org.eclipse.pde.api.tools.ui,1.0.101.v20090820,"org.eclipse.pde.api.tools.ui",1398087127116
executed,command,org.eclipse.ui,3.5.1.M20090902-1000,"org.eclipse.ui.edit.text.contentAssist.proposals",1398087144461
deactivated,workbench,org.eclipse.ui.workbench,3.5.1.M20090826-0800a,"",1398087196229
activated,workbench,org.eclipse.ui.workbench,3.5.1.M20090826-0800a,"",1398087207929
deactivated,workbench,org.eclipse.ui.workbench,3.5.1.M20090826-0800a,"",1398087208422
activated,workbench,org.eclipse.ui.workbench,3.5.1.M20090826-0800a,"",1398087209226
deactivated,workbench,org.eclipse.ui.workbench,3.5.1.M20090826-0800a,"",1398087214358
