what,kind,bundleId,bundleVersion,description,time
executed,command,org.eclipse.ui,3.5.1.M20090902-1000,"org.eclipse.ui.edit.cut",1400730306975
deactivated,workbench,org.eclipse.ui.workbench,3.5.1.M20090826-0800a,"",1400730317173
activated,workbench,org.eclipse.ui.workbench,3.5.1.M20090826-0800a,"",1400730325185
executed,command,org.eclipse.ui,3.5.1.M20090902-1000,"org.eclipse.ui.edit.paste",1400730349495
executed,command,org.eclipse.ui,3.5.1.M20090902-1000,"org.eclipse.ui.file.save",1400730365628
started,bundle,org.eclipse.wst.server.core,1.1.102.v20090825,"org.eclipse.wst.server.core",1400730366129
started,bundle,org.eclipse.wst.server.ui,1.1.103.v20090909,"org.eclipse.wst.server.ui",1400730366205
activated,view,org.eclipse.jdt.ui,3.5.1.r351_v20090821-0800,"org.eclipse.jdt.ui.PackageExplorer",1400730367233
executed,command,,,"com.android.ide.eclipse.adt.debug.launching.LaunchShortcut.run",1400730370685
deactivated,workbench,org.eclipse.ui.workbench,3.5.1.M20090826-0800a,"",1400730371576
activated,workbench,org.eclipse.ui.workbench,3.5.1.M20090826-0800a,"",1400730374282
activated,view,com.android.ide.eclipse.ddms,12.0.0.v201106281929-138431,"com.android.ide.eclipse.ddms.views.LogCatView",1400730374449
deactivated,workbench,org.eclipse.ui.workbench,3.5.1.M20090826-0800a,"",1400730378515
activated,workbench,org.eclipse.ui.workbench,3.5.1.M20090826-0800a,"",1400730381219
activated,editor,org.eclipse.jdt.ui,3.5.1.r351_v20090821-0800,"org.eclipse.jdt.ui.CompilationUnitEditor",1400730385509
deactivated,workbench,org.eclipse.ui.workbench,3.5.1.M20090826-0800a,"",1400730405324
activated,workbench,org.eclipse.ui.workbench,3.5.1.M20090826-0800a,"",1400730408870
deactivated,workbench,org.eclipse.ui.workbench,3.5.1.M20090826-0800a,"",1400730409152
activated,workbench,org.eclipse.ui.workbench,3.5.1.M20090826-0800a,"",1400730418720
deactivated,workbench,org.eclipse.ui.workbench,3.5.1.M20090826-0800a,"",1400730430892
activated,workbench,org.eclipse.ui.workbench,3.5.1.M20090826-0800a,"",1400730453787
executed,command,org.eclipse.ui,3.5.1.M20090902-1000,"org.eclipse.ui.edit.paste",1400730457601
executed,command,org.eclipse.ui,3.5.1.M20090902-1000,"org.eclipse.ui.file.save",1400730459770
activated,view,org.eclipse.jdt.ui,3.5.1.r351_v20090821-0800,"org.eclipse.jdt.ui.PackageExplorer",1400730461184
executed,command,,,"com.android.ide.eclipse.adt.debug.launching.LaunchShortcut.run",1400730471095
