what,kind,bundleId,bundleVersion,description,time
activated,workbench,org.eclipse.ui.workbench,3.5.1.M20090826-0800a,"",1413442798399
deactivated,workbench,org.eclipse.ui.workbench,3.5.1.M20090826-0800a,"",1413442798541
activated,workbench,org.eclipse.ui.workbench,3.5.1.M20090826-0800a,"",1413442799468
deactivated,workbench,org.eclipse.ui.workbench,3.5.1.M20090826-0800a,"",1413443092304
activated,workbench,org.eclipse.ui.workbench,3.5.1.M20090826-0800a,"",1413443093466
deactivated,workbench,org.eclipse.ui.workbench,3.5.1.M20090826-0800a,"",1413443096430
activated,workbench,org.eclipse.ui.workbench,3.5.1.M20090826-0800a,"",1413443097170
deactivated,workbench,org.eclipse.ui.workbench,3.5.1.M20090826-0800a,"",1413443097441
activated,workbench,org.eclipse.ui.workbench,3.5.1.M20090826-0800a,"",1413443099002
deactivated,workbench,org.eclipse.ui.workbench,3.5.1.M20090826-0800a,"",1413443115605
activated,workbench,org.eclipse.ui.workbench,3.5.1.M20090826-0800a,"",1413443115768
executed,command,org.eclipse.ui,3.5.1.M20090902-1000,"org.eclipse.ui.file.save",1413443117043
executed,command,org.eclipse.ui,3.5.1.M20090902-1000,"org.eclipse.ui.file.save",1413443127568
executed,command,org.eclipse.jdt.debug.ui,3.4.1.v20090811_r351,"org.eclipse.jdt.debug.ui.localJavaShortcut.run",1413443131882
activated,view,org.eclipse.ui.console,3.4.0.v20090513,"org.eclipse.ui.console.ConsoleView",1413443133721
activated,editor,org.eclipse.jdt.ui,3.5.1.r351_v20090821-0800,"org.eclipse.jdt.ui.CompilationUnitEditor",1413443144362
executed,command,org.eclipse.ui,3.5.1.M20090902-1000,"org.eclipse.ui.file.save",1413443171535
executed,command,org.eclipse.ui,3.5.1.M20090902-1000,"org.eclipse.ui.file.save",1413443181547
activated,editor,org.eclipse.jdt.ui,3.5.1.r351_v20090821-0800,"org.eclipse.jdt.ui.ClassFileEditor",1413443229822
executed,command,org.eclipse.jdt.ui,3.5.1.r351_v20090821-0800,"org.eclipse.jdt.ui.edit.text.java.open.editor",1413443229864
activated,editor,org.eclipse.jdt.ui,3.5.1.r351_v20090821-0800,"org.eclipse.jdt.ui.CompilationUnitEditor",1413443239880
closed,editor,org.eclipse.jdt.ui,3.5.1.r351_v20090821-0800,"org.eclipse.jdt.ui.ClassFileEditor",1413443239880
executed,command,org.eclipse.ui,3.5.1.M20090902-1000,"org.eclipse.ui.file.save",1413443338544
executed,command,org.eclipse.ui,3.5.1.M20090902-1000,"org.eclipse.ui.file.save",1413443355012
executed,command,org.eclipse.jdt.debug.ui,3.4.1.v20090811_r351,"org.eclipse.jdt.debug.ui.localJavaShortcut.run",1413443357818
