what,kind,bundleId,bundleVersion,description,time
activated,workbench,org.eclipse.ui.workbench,3.5.1.M20090826-0800a,"",1400118433555
activated,editor,org.eclipse.jdt.ui,3.5.1.r351_v20090821-0800,"org.eclipse.jdt.ui.CompilationUnitEditor",1400118465709
deactivated,workbench,org.eclipse.ui.workbench,3.5.1.M20090826-0800a,"",1400118470394
activated,workbench,org.eclipse.ui.workbench,3.5.1.M20090826-0800a,"",1400118471221
deactivated,workbench,org.eclipse.ui.workbench,3.5.1.M20090826-0800a,"",1400118472360
activated,workbench,org.eclipse.ui.workbench,3.5.1.M20090826-0800a,"",1400118473417
deactivated,workbench,org.eclipse.ui.workbench,3.5.1.M20090826-0800a,"",1400118474168
activated,workbench,org.eclipse.ui.workbench,3.5.1.M20090826-0800a,"",1400118520690
executed,command,org.eclipse.ui,3.5.1.M20090902-1000,"org.eclipse.ui.edit.paste",1400118530493
executed,command,org.eclipse.ui,3.5.1.M20090902-1000,"org.eclipse.ui.file.save",1400118539869
activated,view,org.eclipse.jdt.ui,3.5.1.r351_v20090821-0800,"org.eclipse.jdt.ui.PackageExplorer",1400118541365
executed,command,,,"com.android.ide.eclipse.adt.debug.launching.LaunchShortcut.run",1400118545195
activated,view,com.android.ide.eclipse.ddms,12.0.0.v201106281929-138431,"com.android.ide.eclipse.ddms.views.LogCatView",1400118546673
deactivated,workbench,org.eclipse.ui.workbench,3.5.1.M20090826-0800a,"",1400118552494
activated,workbench,org.eclipse.ui.workbench,3.5.1.M20090826-0800a,"",1400118557217
deactivated,workbench,org.eclipse.ui.workbench,3.5.1.M20090826-0800a,"",1400118584246
activated,workbench,org.eclipse.ui.workbench,3.5.1.M20090826-0800a,"",1400118585800
deactivated,workbench,org.eclipse.ui.workbench,3.5.1.M20090826-0800a,"",1400118589418
activated,workbench,org.eclipse.ui.workbench,3.5.1.M20090826-0800a,"",1400118614507
activated,editor,org.eclipse.jdt.ui,3.5.1.r351_v20090821-0800,"org.eclipse.jdt.ui.CompilationUnitEditor",1400118872189
opened,editor,org.eclipse.ui.browser,3.2.300.v20090526,"org.eclipse.ui.browser.editor",1400118875665
activated,editor,org.eclipse.ui.browser,3.2.300.v20090526,"org.eclipse.ui.browser.editor",1400118875725
activated,editor,org.eclipse.jdt.ui,3.5.1.r351_v20090821-0800,"org.eclipse.jdt.ui.CompilationUnitEditor",1400118878572
closed,editor,org.eclipse.ui.browser,3.2.300.v20090526,"org.eclipse.ui.browser.editor",1400118878573
deactivated,workbench,org.eclipse.ui.workbench,3.5.1.M20090826-0800a,"",1400118885774
