what,kind,bundleId,bundleVersion,description,time
activated,editor,org.eclipse.jdt.ui,3.5.1.r351_v20090821-0800,"org.eclipse.jdt.ui.CompilationUnitEditor",1405998774412
activated,view,org.eclipse.jdt.ui,3.5.1.r351_v20090821-0800,"org.eclipse.jdt.ui.PackageExplorer",1405998775254
executed,command,,,"com.android.ide.eclipse.adt.debug.launching.LaunchShortcut.run",1405998778411
deactivated,workbench,org.eclipse.ui.workbench,3.5.1.M20090826-0800a,"",1405998780612
activated,workbench,org.eclipse.ui.workbench,3.5.1.M20090826-0800a,"",1405998808033
activated,view,com.android.ide.eclipse.ddms,12.0.0.v201106281929-138431,"com.android.ide.eclipse.ddms.views.LogCatView",1405998808219
deactivated,workbench,org.eclipse.ui.workbench,3.5.1.M20090826-0800a,"",1405998810629
activated,workbench,org.eclipse.ui.workbench,3.5.1.M20090826-0800a,"",1405998819344
activated,editor,org.eclipse.jdt.ui,3.5.1.r351_v20090821-0800,"org.eclipse.jdt.ui.CompilationUnitEditor",1405998854135
activated,editor,org.eclipse.jdt.ui,3.5.1.r351_v20090821-0800,"org.eclipse.jdt.ui.CompilationUnitEditor",1405998861258
activated,editor,org.eclipse.jdt.ui,3.5.1.r351_v20090821-0800,"org.eclipse.jdt.ui.CompilationUnitEditor",1405998880260
activated,editor,org.eclipse.jdt.ui,3.5.1.r351_v20090821-0800,"org.eclipse.jdt.ui.CompilationUnitEditor",1405998882109
closed,editor,org.eclipse.jdt.ui,3.5.1.r351_v20090821-0800,"org.eclipse.jdt.ui.CompilationUnitEditor",1405998883758
executed,command,org.eclipse.ui,3.5.1.M20090902-1000,"org.eclipse.ui.edit.copy",1405998938549
executed,command,org.eclipse.ui,3.5.1.M20090902-1000,"org.eclipse.ui.edit.paste",1405998939875
executed,command,org.eclipse.ui,3.5.1.M20090902-1000,"org.eclipse.ui.file.save",1405998957038
activated,view,org.eclipse.jdt.ui,3.5.1.r351_v20090821-0800,"org.eclipse.jdt.ui.PackageExplorer",1405998960846
executed,command,,,"com.android.ide.eclipse.adt.debug.launching.LaunchShortcut.run",1405998963060
activated,view,com.android.ide.eclipse.ddms,12.0.0.v201106281929-138431,"com.android.ide.eclipse.ddms.views.LogCatView",1405998965831
deactivated,workbench,org.eclipse.ui.workbench,3.5.1.M20090826-0800a,"",1405998970556
activated,workbench,org.eclipse.ui.workbench,3.5.1.M20090826-0800a,"",1405998983465
deactivated,workbench,org.eclipse.ui.workbench,3.5.1.M20090826-0800a,"",1405998989283
activated,workbench,org.eclipse.ui.workbench,3.5.1.M20090826-0800a,"",1405999004948
activated,editor,org.eclipse.jdt.ui,3.5.1.r351_v20090821-0800,"org.eclipse.jdt.ui.CompilationUnitEditor",1405999006268
activated,editor,org.eclipse.jdt.ui,3.5.1.r351_v20090821-0800,"org.eclipse.jdt.ui.CompilationUnitEditor",1405999024216
