what,kind,bundleId,bundleVersion,description,time
activated,workbench,org.eclipse.ui.workbench,3.5.1.M20090826-0800a,"",1407380780262
deactivated,workbench,org.eclipse.ui.workbench,3.5.1.M20090826-0800a,"",1407380853475
activated,workbench,org.eclipse.ui.workbench,3.5.1.M20090826-0800a,"",1407380864880
deactivated,workbench,org.eclipse.ui.workbench,3.5.1.M20090826-0800a,"",1407380874091
activated,workbench,org.eclipse.ui.workbench,3.5.1.M20090826-0800a,"",1407380874307
deactivated,workbench,org.eclipse.ui.workbench,3.5.1.M20090826-0800a,"",1407380898180
activated,workbench,org.eclipse.ui.workbench,3.5.1.M20090826-0800a,"",1407380898385
deactivated,workbench,org.eclipse.ui.workbench,3.5.1.M20090826-0800a,"",1407380902586
activated,workbench,org.eclipse.ui.workbench,3.5.1.M20090826-0800a,"",1407380902696
deactivated,workbench,org.eclipse.ui.workbench,3.5.1.M20090826-0800a,"",1407380913261
activated,workbench,org.eclipse.ui.workbench,3.5.1.M20090826-0800a,"",1407380915026
deactivated,workbench,org.eclipse.ui.workbench,3.5.1.M20090826-0800a,"",1407380959086
activated,workbench,org.eclipse.ui.workbench,3.5.1.M20090826-0800a,"",1407380964963
deactivated,workbench,org.eclipse.ui.workbench,3.5.1.M20090826-0800a,"",1407380969506
activated,workbench,org.eclipse.ui.workbench,3.5.1.M20090826-0800a,"",1407380973260
deactivated,workbench,org.eclipse.ui.workbench,3.5.1.M20090826-0800a,"",1407380976339
activated,workbench,org.eclipse.ui.workbench,3.5.1.M20090826-0800a,"",1407380977590
deactivated,workbench,org.eclipse.ui.workbench,3.5.1.M20090826-0800a,"",1407381023019
activated,workbench,org.eclipse.ui.workbench,3.5.1.M20090826-0800a,"",1407381023192
deactivated,workbench,org.eclipse.ui.workbench,3.5.1.M20090826-0800a,"",1407381047518
activated,workbench,org.eclipse.ui.workbench,3.5.1.M20090826-0800a,"",1407381051780
deactivated,workbench,org.eclipse.ui.workbench,3.5.1.M20090826-0800a,"",1407381053714
activated,workbench,org.eclipse.ui.workbench,3.5.1.M20090826-0800a,"",1407381056373
executed,command,org.eclipse.ui,3.5.1.M20090902-1000,"org.eclipse.ui.file.save",1407381062018
deactivated,workbench,org.eclipse.ui.workbench,3.5.1.M20090826-0800a,"",1407381234649
