what,kind,bundleId,bundleVersion,description,time
activated,workbench,org.eclipse.ui.workbench,3.5.1.M20090826-0800a,"",1407483624426
deactivated,workbench,org.eclipse.ui.workbench,3.5.1.M20090826-0800a,"",1407483662976
activated,workbench,org.eclipse.ui.workbench,3.5.1.M20090826-0800a,"",1407483663189
executed,command,org.eclipse.ui,3.5.1.M20090902-1000,"org.eclipse.ui.edit.text.contentAssist.proposals",1407483671462
deactivated,workbench,org.eclipse.ui.workbench,3.5.1.M20090826-0800a,"",1407483681580
activated,workbench,org.eclipse.ui.workbench,3.5.1.M20090826-0800a,"",1407483683664
executed,command,org.eclipse.ui,3.5.1.M20090902-1000,"org.eclipse.ui.file.save",1407483715306
activated,editor,org.eclipse.jdt.ui,3.5.1.r351_v20090821-0800,"org.eclipse.jdt.ui.CompilationUnitEditor",1407483722288
activated,view,org.eclipse.jdt.ui,3.5.1.r351_v20090821-0800,"org.eclipse.jdt.ui.PackageExplorer",1407483729255
executed,command,org.eclipse.ui.ide,3.5.1.M20090826-0800,"org.eclipse.ui.project.closeUnrelatedProjects",1407483733654
deactivated,workbench,org.eclipse.ui.workbench,3.5.1.M20090826-0800a,"",1407483734369
activated,workbench,org.eclipse.ui.workbench,3.5.1.M20090826-0800a,"",1407483735485
closed,editor,org.eclipse.jdt.ui,3.5.1.r351_v20090821-0800,"org.eclipse.jdt.ui.CompilationUnitEditor",1407483735561
closed,editor,org.eclipse.jdt.ui,3.5.1.r351_v20090821-0800,"org.eclipse.jdt.ui.CompilationUnitEditor",1407483735641
deactivated,workbench,org.eclipse.ui.workbench,3.5.1.M20090826-0800a,"",1407483740688
activated,workbench,org.eclipse.ui.workbench,3.5.1.M20090826-0800a,"",1407483742155
executed,command,org.eclipse.ui.ide,3.5.1.M20090826-0800,"org.eclipse.ui.project.openProject",1407483742195
activated,editor,org.eclipse.jdt.ui,3.5.1.r351_v20090821-0800,"org.eclipse.jdt.ui.CompilationUnitEditor",1407483743248
executed,command,org.eclipse.ui,3.5.1.M20090902-1000,"org.eclipse.ui.file.save",1407483771980
activated,view,org.eclipse.jdt.ui,3.5.1.r351_v20090821-0800,"org.eclipse.jdt.ui.PackageExplorer",1407483776159
opened,editor,org.eclipse.jdt.ui,3.5.1.r351_v20090821-0800,"org.eclipse.jdt.ui.CompilationUnitEditor",1407483781291
activated,editor,org.eclipse.jdt.ui,3.5.1.r351_v20090821-0800,"org.eclipse.jdt.ui.CompilationUnitEditor",1407483782085
deactivated,workbench,org.eclipse.ui.workbench,3.5.1.M20090826-0800a,"",1407483792023
activated,workbench,org.eclipse.ui.workbench,3.5.1.M20090826-0800a,"",1407483794253
executed,command,org.eclipse.ui,3.5.1.M20090902-1000,"org.eclipse.ui.file.save",1407483806018
