what,kind,bundleId,bundleVersion,description,time
activated,workbench,org.eclipse.ui.workbench,3.5.1.M20090826-0800a,"",1413165173407
started,bundle,org.eclipse.mylyn.java.ui,3.2.2.v20090912-0400-e3x,"org.eclipse.mylyn.java.ui",1413165175910
started,bundle,org.eclipse.pde.api.tools,1.0.101.v20090714,"org.eclipse.pde.api.tools",1413165176025
started,bundle,org.eclipse.pde.api.tools.ui,1.0.101.v20090820,"org.eclipse.pde.api.tools.ui",1413165176029
deactivated,workbench,org.eclipse.ui.workbench,3.5.1.M20090826-0800a,"",1413165179582
started,bundle,org.eclipse.jdt.junit,3.5.1.r351_v20090708-0800,"org.eclipse.jdt.junit",1413165179916
activated,workbench,org.eclipse.ui.workbench,3.5.1.M20090826-0800a,"",1413165180661
deactivated,workbench,org.eclipse.ui.workbench,3.5.1.M20090826-0800a,"",1413165195108
activated,workbench,org.eclipse.ui.workbench,3.5.1.M20090826-0800a,"",1413165197636
deactivated,workbench,org.eclipse.ui.workbench,3.5.1.M20090826-0800a,"",1413165205115
activated,workbench,org.eclipse.ui.workbench,3.5.1.M20090826-0800a,"",1413165206176
deactivated,workbench,org.eclipse.ui.workbench,3.5.1.M20090826-0800a,"",1413165214178
activated,workbench,org.eclipse.ui.workbench,3.5.1.M20090826-0800a,"",1413165215340
deactivated,workbench,org.eclipse.ui.workbench,3.5.1.M20090826-0800a,"",1413165220446
activated,workbench,org.eclipse.ui.workbench,3.5.1.M20090826-0800a,"",1413165221997
deactivated,workbench,org.eclipse.ui.workbench,3.5.1.M20090826-0800a,"",1413165234725
activated,workbench,org.eclipse.ui.workbench,3.5.1.M20090826-0800a,"",1413165244973
deactivated,workbench,org.eclipse.ui.workbench,3.5.1.M20090826-0800a,"",1413165254766
activated,workbench,org.eclipse.ui.workbench,3.5.1.M20090826-0800a,"",1413165269406
deactivated,workbench,org.eclipse.ui.workbench,3.5.1.M20090826-0800a,"",1413165279165
activated,workbench,org.eclipse.ui.workbench,3.5.1.M20090826-0800a,"",1413165280219
deactivated,workbench,org.eclipse.ui.workbench,3.5.1.M20090826-0800a,"",1413165295892
activated,workbench,org.eclipse.ui.workbench,3.5.1.M20090826-0800a,"",1413165325547
deactivated,workbench,org.eclipse.ui.workbench,3.5.1.M20090826-0800a,"",1413165373164
activated,workbench,org.eclipse.ui.workbench,3.5.1.M20090826-0800a,"",1413165373860
