what,kind,bundleId,bundleVersion,description,time
activated,workbench,org.eclipse.ui.workbench,3.5.1.M20090826-0800a,"",1398650293335
deactivated,workbench,org.eclipse.ui.workbench,3.5.1.M20090826-0800a,"",1398650297471
activated,workbench,org.eclipse.ui.workbench,3.5.1.M20090826-0800a,"",1398650336479
deactivated,workbench,org.eclipse.ui.workbench,3.5.1.M20090826-0800a,"",1398650354555
activated,workbench,org.eclipse.ui.workbench,3.5.1.M20090826-0800a,"",1398650363464
deactivated,workbench,org.eclipse.ui.workbench,3.5.1.M20090826-0800a,"",1398650365130
activated,workbench,org.eclipse.ui.workbench,3.5.1.M20090826-0800a,"",1398650377687
deactivated,workbench,org.eclipse.ui.workbench,3.5.1.M20090826-0800a,"",1398650378736
activated,workbench,org.eclipse.ui.workbench,3.5.1.M20090826-0800a,"",1398650385148
deactivated,workbench,org.eclipse.ui.workbench,3.5.1.M20090826-0800a,"",1398650386975
activated,workbench,org.eclipse.ui.workbench,3.5.1.M20090826-0800a,"",1398650412189
deactivated,workbench,org.eclipse.ui.workbench,3.5.1.M20090826-0800a,"",1398650414080
activated,workbench,org.eclipse.ui.workbench,3.5.1.M20090826-0800a,"",1398650423015
deactivated,workbench,org.eclipse.ui.workbench,3.5.1.M20090826-0800a,"",1398650423859
activated,workbench,org.eclipse.ui.workbench,3.5.1.M20090826-0800a,"",1398650700451
deactivated,workbench,org.eclipse.ui.workbench,3.5.1.M20090826-0800a,"",1398650704449
activated,workbench,org.eclipse.ui.workbench,3.5.1.M20090826-0800a,"",1398650755783
deactivated,workbench,org.eclipse.ui.workbench,3.5.1.M20090826-0800a,"",1398650776458
activated,workbench,org.eclipse.ui.workbench,3.5.1.M20090826-0800a,"",1398650777555
deactivated,workbench,org.eclipse.ui.workbench,3.5.1.M20090826-0800a,"",1398650779289
activated,workbench,org.eclipse.ui.workbench,3.5.1.M20090826-0800a,"",1398650869129
deactivated,workbench,org.eclipse.ui.workbench,3.5.1.M20090826-0800a,"",1398650872401
activated,workbench,org.eclipse.ui.workbench,3.5.1.M20090826-0800a,"",1398650893492
deactivated,workbench,org.eclipse.ui.workbench,3.5.1.M20090826-0800a,"",1398650913465
activated,workbench,org.eclipse.ui.workbench,3.5.1.M20090826-0800a,"",1398651228951
