what,kind,bundleId,bundleVersion,description,time
deactivated,workbench,org.eclipse.ui.workbench,3.5.1.M20090826-0800a,"",1396927230508
activated,workbench,org.eclipse.ui.workbench,3.5.1.M20090826-0800a,"",1396927232024
activated,editor,org.eclipse.jdt.ui,3.5.1.r351_v20090821-0800,"org.eclipse.jdt.ui.CompilationUnitEditor",1396927234706
activated,view,org.eclipse.jdt.ui,3.5.1.r351_v20090821-0800,"org.eclipse.jdt.ui.PackageExplorer",1396927236427
activated,editor,org.eclipse.jdt.ui,3.5.1.r351_v20090821-0800,"org.eclipse.jdt.ui.CompilationUnitEditor",1396927238235
activated,view,com.android.ide.eclipse.ddms,12.0.0.v201106281929-138431,"com.android.ide.eclipse.ddms.views.LogCatView",1396927252863
activated,editor,org.eclipse.jdt.ui,3.5.1.r351_v20090821-0800,"org.eclipse.jdt.ui.CompilationUnitEditor",1396927316749
deactivated,workbench,org.eclipse.ui.workbench,3.5.1.M20090826-0800a,"",1396927319336
activated,workbench,org.eclipse.ui.workbench,3.5.1.M20090826-0800a,"",1396927321611
activated,view,com.android.ide.eclipse.ddms,12.0.0.v201106281929-138431,"com.android.ide.eclipse.ddms.views.LogCatView",1396927325445
activated,editor,org.eclipse.jdt.ui,3.5.1.r351_v20090821-0800,"org.eclipse.jdt.ui.CompilationUnitEditor",1396927359244
deactivated,workbench,org.eclipse.ui.workbench,3.5.1.M20090826-0800a,"",1396927363323
activated,workbench,org.eclipse.ui.workbench,3.5.1.M20090826-0800a,"",1396927366584
activated,view,com.android.ide.eclipse.ddms,12.0.0.v201106281929-138431,"com.android.ide.eclipse.ddms.views.LogCatView",1396927370243
deactivated,workbench,org.eclipse.ui.workbench,3.5.1.M20090826-0800a,"",1396927420171
activated,workbench,org.eclipse.ui.workbench,3.5.1.M20090826-0800a,"",1396933848732
activated,editor,org.eclipse.jdt.ui,3.5.1.r351_v20090821-0800,"org.eclipse.jdt.ui.CompilationUnitEditor",1396933879255
deactivated,workbench,org.eclipse.ui.workbench,3.5.1.M20090826-0800a,"",1396933880491
activated,workbench,org.eclipse.ui.workbench,3.5.1.M20090826-0800a,"",1396933885813
activated,view,com.android.ide.eclipse.ddms,12.0.0.v201106281929-138431,"com.android.ide.eclipse.ddms.views.LogCatView",1396933888047
deactivated,workbench,org.eclipse.ui.workbench,3.5.1.M20090826-0800a,"",1396933932420
activated,workbench,org.eclipse.ui.workbench,3.5.1.M20090826-0800a,"",1396933940226
deactivated,workbench,org.eclipse.ui.workbench,3.5.1.M20090826-0800a,"",1396933962170
activated,workbench,org.eclipse.ui.workbench,3.5.1.M20090826-0800a,"",1396933965475
deactivated,workbench,org.eclipse.ui.workbench,3.5.1.M20090826-0800a,"",1396934024812
