what,kind,bundleId,bundleVersion,description,time
started,bundle,org.eclipse.mylyn.java.ui,3.2.2.v20090912-0400-e3x,"org.eclipse.mylyn.java.ui",1400144883186
started,bundle,org.eclipse.pde.api.tools,1.0.101.v20090714,"org.eclipse.pde.api.tools",1400144883217
started,bundle,org.eclipse.pde.api.tools.ui,1.0.101.v20090820,"org.eclipse.pde.api.tools.ui",1400144883219
deactivated,workbench,org.eclipse.ui.workbench,3.5.1.M20090826-0800a,"",1400144889075
activated,workbench,org.eclipse.ui.workbench,3.5.1.M20090826-0800a,"",1400144889337
activated,view,org.eclipse.jdt.ui,3.5.1.r351_v20090821-0800,"org.eclipse.jdt.ui.PackageExplorer",1400144910886
activated,editor,org.eclipse.jdt.ui,3.5.1.r351_v20090821-0800,"org.eclipse.jdt.ui.CompilationUnitEditor",1400144941135
deactivated,workbench,org.eclipse.ui.workbench,3.5.1.M20090826-0800a,"",1400144961481
activated,workbench,org.eclipse.ui.workbench,3.5.1.M20090826-0800a,"",1400144961833
executed,command,org.eclipse.ui,3.5.1.M20090902-1000,"org.eclipse.ui.file.save",1400144974486
activated,view,com.android.ide.eclipse.ddms,12.0.0.v201106281929-138431,"com.android.ide.eclipse.ddms.views.LogCatView",1400144979775
activated,editor,org.eclipse.jdt.ui,3.5.1.r351_v20090821-0800,"org.eclipse.jdt.ui.CompilationUnitEditor",1400144985642
activated,view,com.android.ide.eclipse.ddms,12.0.0.v201106281929-138431,"com.android.ide.eclipse.ddms.views.LogCatView",1400144988695
activated,editor,org.eclipse.jdt.ui,3.5.1.r351_v20090821-0800,"org.eclipse.jdt.ui.CompilationUnitEditor",1400145004099
deactivated,workbench,org.eclipse.ui.workbench,3.5.1.M20090826-0800a,"",1400145224410
activated,workbench,org.eclipse.ui.workbench,3.5.1.M20090826-0800a,"",1400145227712
deactivated,workbench,org.eclipse.ui.workbench,3.5.1.M20090826-0800a,"",1400145234042
activated,workbench,org.eclipse.ui.workbench,3.5.1.M20090826-0800a,"",1400145266269
deactivated,workbench,org.eclipse.ui.workbench,3.5.1.M20090826-0800a,"",1400145268499
activated,workbench,org.eclipse.ui.workbench,3.5.1.M20090826-0800a,"",1400145270091
deactivated,workbench,org.eclipse.ui.workbench,3.5.1.M20090826-0800a,"",1400145271208
activated,workbench,org.eclipse.ui.workbench,3.5.1.M20090826-0800a,"",1400145334459
activated,view,org.eclipse.jdt.ui,3.5.1.r351_v20090821-0800,"org.eclipse.jdt.ui.PackageExplorer",1400145341896
activated,editor,org.eclipse.jdt.ui,3.5.1.r351_v20090821-0800,"org.eclipse.jdt.ui.CompilationUnitEditor",1400145562475
executed,command,org.eclipse.ui,3.5.1.M20090902-1000,"org.eclipse.ui.file.save",1400145579623
