what,kind,bundleId,bundleVersion,description,time
deactivated,workbench,org.eclipse.ui.workbench,3.5.1.M20090826-0800a,"",1400122289121
activated,workbench,org.eclipse.ui.workbench,3.5.1.M20090826-0800a,"",1400122290503
deactivated,workbench,org.eclipse.ui.workbench,3.5.1.M20090826-0800a,"",1400122290783
activated,workbench,org.eclipse.ui.workbench,3.5.1.M20090826-0800a,"",1400122319954
executed,command,org.eclipse.ui,3.5.1.M20090902-1000,"org.eclipse.ui.edit.copy",1400122364182
executed,command,org.eclipse.ui,3.5.1.M20090902-1000,"org.eclipse.ui.edit.paste",1400122367093
executed,command,org.eclipse.ui,3.5.1.M20090902-1000,"org.eclipse.ui.file.save",1400122380448
deactivated,workbench,org.eclipse.ui.workbench,3.5.1.M20090826-0800a,"",1400122381577
activated,workbench,org.eclipse.ui.workbench,3.5.1.M20090826-0800a,"",1400122384403
executed,command,org.eclipse.ui,3.5.1.M20090902-1000,"org.eclipse.ui.file.save",1400122390038
deactivated,workbench,org.eclipse.ui.workbench,3.5.1.M20090826-0800a,"",1400122393881
activated,workbench,org.eclipse.ui.workbench,3.5.1.M20090826-0800a,"",1400122396537
deactivated,workbench,org.eclipse.ui.workbench,3.5.1.M20090826-0800a,"",1400122397615
activated,workbench,org.eclipse.ui.workbench,3.5.1.M20090826-0800a,"",1400122399199
deactivated,workbench,org.eclipse.ui.workbench,3.5.1.M20090826-0800a,"",1400122399996
activated,workbench,org.eclipse.ui.workbench,3.5.1.M20090826-0800a,"",1400122401893
deactivated,workbench,org.eclipse.ui.workbench,3.5.1.M20090826-0800a,"",1400122402470
activated,workbench,org.eclipse.ui.workbench,3.5.1.M20090826-0800a,"",1400122407609
deactivated,workbench,org.eclipse.ui.workbench,3.5.1.M20090826-0800a,"",1400122408633
activated,workbench,org.eclipse.ui.workbench,3.5.1.M20090826-0800a,"",1400122409800
deactivated,workbench,org.eclipse.ui.workbench,3.5.1.M20090826-0800a,"",1400122410247
activated,workbench,org.eclipse.ui.workbench,3.5.1.M20090826-0800a,"",1400122413207
deactivated,workbench,org.eclipse.ui.workbench,3.5.1.M20090826-0800a,"",1400122413768
activated,workbench,org.eclipse.ui.workbench,3.5.1.M20090826-0800a,"",1400122416469
deactivated,workbench,org.eclipse.ui.workbench,3.5.1.M20090826-0800a,"",1400122417670
