what,kind,bundleId,bundleVersion,description,time
deactivated,workbench,org.eclipse.ui.workbench,3.5.1.M20090826-0800a,"",1400133665806
activated,workbench,org.eclipse.ui.workbench,3.5.1.M20090826-0800a,"",1400133666652
deactivated,workbench,org.eclipse.ui.workbench,3.5.1.M20090826-0800a,"",1400133666933
activated,workbench,org.eclipse.ui.workbench,3.5.1.M20090826-0800a,"",1400133672219
activated,editor,org.eclipse.jdt.ui,3.5.1.r351_v20090821-0800,"org.eclipse.jdt.ui.CompilationUnitEditor",1400133686874
executed,command,org.eclipse.jdt.ui,3.5.1.r351_v20090821-0800,"org.eclipse.jdt.ui.edit.text.java.toggle.comment",1400133708518
executed,command,org.eclipse.jdt.ui,3.5.1.r351_v20090821-0800,"org.eclipse.jdt.ui.edit.text.java.toggle.comment",1400133716845
executed,command,org.eclipse.ui,3.5.1.M20090902-1000,"org.eclipse.ui.edit.text.contentAssist.proposals",1400133771858
deactivated,workbench,org.eclipse.ui.workbench,3.5.1.M20090826-0800a,"",1400133876474
activated,workbench,org.eclipse.ui.workbench,3.5.1.M20090826-0800a,"",1400133892626
deactivated,workbench,org.eclipse.ui.workbench,3.5.1.M20090826-0800a,"",1400133899264
activated,workbench,org.eclipse.ui.workbench,3.5.1.M20090826-0800a,"",1400133913619
deactivated,workbench,org.eclipse.ui.workbench,3.5.1.M20090826-0800a,"",1400133946077
activated,workbench,org.eclipse.ui.workbench,3.5.1.M20090826-0800a,"",1400133953726
deactivated,workbench,org.eclipse.ui.workbench,3.5.1.M20090826-0800a,"",1400133964847
activated,workbench,org.eclipse.ui.workbench,3.5.1.M20090826-0800a,"",1400133965272
deactivated,workbench,org.eclipse.ui.workbench,3.5.1.M20090826-0800a,"",1400133981936
activated,workbench,org.eclipse.ui.workbench,3.5.1.M20090826-0800a,"",1400133985889
deactivated,workbench,org.eclipse.ui.workbench,3.5.1.M20090826-0800a,"",1400134000506
activated,workbench,org.eclipse.ui.workbench,3.5.1.M20090826-0800a,"",1400134000715
deactivated,workbench,org.eclipse.ui.workbench,3.5.1.M20090826-0800a,"",1400134009161
activated,workbench,org.eclipse.ui.workbench,3.5.1.M20090826-0800a,"",1400134012303
deactivated,workbench,org.eclipse.ui.workbench,3.5.1.M20090826-0800a,"",1400134022687
activated,workbench,org.eclipse.ui.workbench,3.5.1.M20090826-0800a,"",1400134023872
deactivated,workbench,org.eclipse.ui.workbench,3.5.1.M20090826-0800a,"",1400134031926
