what,kind,bundleId,bundleVersion,description,time
activated,view,com.android.ide.eclipse.ddms,12.0.0.v201106281929-138431,"com.android.ide.eclipse.ddms.views.LogCatView",1396926726715
deactivated,workbench,org.eclipse.ui.workbench,3.5.1.M20090826-0800a,"",1396926735788
activated,workbench,org.eclipse.ui.workbench,3.5.1.M20090826-0800a,"",1396926736609
deactivated,workbench,org.eclipse.ui.workbench,3.5.1.M20090826-0800a,"",1396926739524
activated,workbench,org.eclipse.ui.workbench,3.5.1.M20090826-0800a,"",1396926740522
deactivated,workbench,org.eclipse.ui.workbench,3.5.1.M20090826-0800a,"",1396926740710
activated,workbench,org.eclipse.ui.workbench,3.5.1.M20090826-0800a,"",1396926741444
deactivated,workbench,org.eclipse.ui.workbench,3.5.1.M20090826-0800a,"",1396926746067
activated,workbench,org.eclipse.ui.workbench,3.5.1.M20090826-0800a,"",1396926747039
deactivated,workbench,org.eclipse.ui.workbench,3.5.1.M20090826-0800a,"",1396926747452
activated,workbench,org.eclipse.ui.workbench,3.5.1.M20090826-0800a,"",1396926748170
deactivated,workbench,org.eclipse.ui.workbench,3.5.1.M20090826-0800a,"",1396926748733
activated,workbench,org.eclipse.ui.workbench,3.5.1.M20090826-0800a,"",1396926751391
deactivated,workbench,org.eclipse.ui.workbench,3.5.1.M20090826-0800a,"",1396926758758
activated,workbench,org.eclipse.ui.workbench,3.5.1.M20090826-0800a,"",1396926761343
deactivated,workbench,org.eclipse.ui.workbench,3.5.1.M20090826-0800a,"",1396926762147
activated,workbench,org.eclipse.ui.workbench,3.5.1.M20090826-0800a,"",1396926765101
deactivated,workbench,org.eclipse.ui.workbench,3.5.1.M20090826-0800a,"",1396926765965
activated,workbench,org.eclipse.ui.workbench,3.5.1.M20090826-0800a,"",1396926773886
deactivated,workbench,org.eclipse.ui.workbench,3.5.1.M20090826-0800a,"",1396926774851
activated,workbench,org.eclipse.ui.workbench,3.5.1.M20090826-0800a,"",1396926790435
deactivated,workbench,org.eclipse.ui.workbench,3.5.1.M20090826-0800a,"",1396926797610
activated,workbench,org.eclipse.ui.workbench,3.5.1.M20090826-0800a,"",1396926798657
deactivated,workbench,org.eclipse.ui.workbench,3.5.1.M20090826-0800a,"",1396926812019
activated,workbench,org.eclipse.ui.workbench,3.5.1.M20090826-0800a,"",1396926813021
