what,kind,bundleId,bundleVersion,description,time
executed,command,org.eclipse.jdt.debug.ui,3.4.1.v20090811_r351,"org.eclipse.jdt.debug.ui.localJavaShortcut.run",1403515120616
activated,view,org.eclipse.ui.console,3.4.0.v20090513,"org.eclipse.ui.console.ConsoleView",1403515121583
started,bundle,org.eclipse.cdt.debug.mi.ui,6.0.0.201002161416,"org.eclipse.cdt.debug.mi.ui",1403515122672
started,bundle,org.eclipse.cdt.debug.mi.core,6.0.0.201002161416,"org.eclipse.cdt.debug.mi.core",1403515122755
activated,editor,org.eclipse.jdt.ui,3.5.1.r351_v20090821-0800,"org.eclipse.jdt.ui.CompilationUnitEditor",1403515125254
executed,command,org.eclipse.ui,3.5.1.M20090902-1000,"org.eclipse.ui.file.save",1403515178322
executed,command,org.eclipse.ui.workbench.texteditor,3.5.0.v20090603,"org.eclipse.ui.edit.text.goto.lineEnd",1403515184127
executed,command,org.eclipse.ui,3.5.1.M20090902-1000,"org.eclipse.ui.file.save",1403515200623
activated,view,org.eclipse.jdt.ui,3.5.1.r351_v20090821-0800,"org.eclipse.jdt.ui.PackageExplorer",1403515202298
executed,command,org.eclipse.jdt.debug.ui,3.4.1.v20090811_r351,"org.eclipse.jdt.debug.ui.localJavaShortcut.run",1403515205877
activated,view,org.eclipse.ui.console,3.4.0.v20090513,"org.eclipse.ui.console.ConsoleView",1403515206487
activated,editor,org.eclipse.jdt.ui,3.5.1.r351_v20090821-0800,"org.eclipse.jdt.ui.CompilationUnitEditor",1403515234497
executed,command,org.eclipse.ui,3.5.1.M20090902-1000,"org.eclipse.ui.file.save",1403515269441
executed,command,,,"AUTOGEN:::org.eclipse.jdt.internal.ui.CompilationUnitEditor.ruler.actions/org.eclipse.jdt.internal.ui.javaeditor.JavaSelectRulerAction",1403515347714
executed,command,,,"AUTOGEN:::org.eclipse.jdt.debug.CompilationUnitEditor.BreakpointRulerActions/org.eclipse.jdt.debug.ui.actions.ManageBreakpointRulerAction",1403515347990
deactivated,workbench,org.eclipse.ui.workbench,3.5.1.M20090826-0800a,"",1403515355222
activated,workbench,org.eclipse.ui.workbench,3.5.1.M20090826-0800a,"",1403515357469
opened,view,org.eclipse.debug.ui,3.5.1.v20090811_r351,"org.eclipse.debug.ui.VariableView",1403515358118
opened,view,org.eclipse.debug.ui,3.5.1.v20090811_r351,"org.eclipse.debug.ui.DebugView",1403515358626
opened,view,org.eclipse.debug.ui,3.5.1.v20090811_r351,"org.eclipse.debug.ui.ExpressionView",1403515358822
activated,perspective,org.eclipse.debug.ui,3.5.1.v20090811_r351,"org.eclipse.debug.ui.DebugPerspective",1403515359063
started,bundle,org.eclipse.mylyn.ide.ui,3.2.2.v20090912-0400-e3x,"org.eclipse.mylyn.ide.ui",1403515360340
opened,view,org.eclipse.debug.ui,3.5.1.v20090811_r351,"org.eclipse.debug.ui.BreakpointView",1403515360393
activated,view,org.eclipse.debug.ui,3.5.1.v20090811_r351,"org.eclipse.debug.ui.DebugView",1403515365041
executed,command,org.eclipse.debug.ui,3.5.1.v20090811_r351,"org.eclipse.debug.ui.commands.StepInto",1403515365136
