what,kind,bundleId,bundleVersion,description,time
activated,view,org.eclipse.jdt.ui,3.5.1.r351_v20090821-0800,"org.eclipse.jdt.ui.PackageExplorer",1401255303453
started,bundle,org.eclipse.wst.ws.service.policy,1.0.103.v200905151848,"org.eclipse.wst.ws.service.policy",1401255303718
started,bundle,org.eclipse.wst.command.env,1.0.408.v200903110045,"org.eclipse.wst.command.env",1401255303814
started,bundle,org.eclipse.wst.ws,1.1.103.v200903111822,"org.eclipse.wst.ws",1401255303840
started,bundle,org.eclipse.compare,3.5.0.I20090514-0808,"org.eclipse.compare",1401255304749
executed,command,,,"com.android.ide.eclipse.adt.debug.launching.LaunchShortcut.run",1401255308632
opened,view,org.eclipse.ui.console,3.4.0.v20090513,"org.eclipse.ui.console.ConsoleView",1401255309078
activated,view,com.android.ide.eclipse.ddms,12.0.0.v201106281929-138431,"com.android.ide.eclipse.ddms.views.LogCatView",1401255311750
deactivated,workbench,org.eclipse.ui.workbench,3.5.1.M20090826-0800a,"",1401255313836
activated,workbench,org.eclipse.ui.workbench,3.5.1.M20090826-0800a,"",1401255388429
deactivated,workbench,org.eclipse.ui.workbench,3.5.1.M20090826-0800a,"",1401255389326
activated,workbench,org.eclipse.ui.workbench,3.5.1.M20090826-0800a,"",1401255404645
activated,editor,org.eclipse.jdt.ui,3.5.1.r351_v20090821-0800,"org.eclipse.jdt.ui.CompilationUnitEditor",1401255406075
activated,editor,org.eclipse.jdt.ui,3.5.1.r351_v20090821-0800,"org.eclipse.jdt.ui.CompilationUnitEditor",1401255409248
executed,command,org.eclipse.ui,3.5.1.M20090902-1000,"org.eclipse.ui.edit.copy",1401255418068
deactivated,workbench,org.eclipse.ui.workbench,3.5.1.M20090826-0800a,"",1401255418888
activated,workbench,org.eclipse.ui.workbench,3.5.1.M20090826-0800a,"",1401255547129
activated,view,com.android.ide.eclipse.ddms,12.0.0.v201106281929-138431,"com.android.ide.eclipse.ddms.views.LogCatView",1401255550296
deactivated,workbench,org.eclipse.ui.workbench,3.5.1.M20090826-0800a,"",1401255575096
activated,workbench,org.eclipse.ui.workbench,3.5.1.M20090826-0800a,"",1401255576056
activated,editor,org.eclipse.jdt.ui,3.5.1.r351_v20090821-0800,"org.eclipse.jdt.ui.CompilationUnitEditor",1401255577808
activated,view,org.eclipse.jdt.ui,3.5.1.r351_v20090821-0800,"org.eclipse.jdt.ui.PackageExplorer",1401255580290
opened,editor,org.eclipse.jdt.ui,3.5.1.r351_v20090821-0800,"org.eclipse.jdt.ui.CompilationUnitEditor",1401255580639
activated,editor,org.eclipse.jdt.ui,3.5.1.r351_v20090821-0800,"org.eclipse.jdt.ui.CompilationUnitEditor",1401255580718
deactivated,workbench,org.eclipse.ui.workbench,3.5.1.M20090826-0800a,"",1401255585736
