what,kind,bundleId,bundleVersion,description,time
started,bundle,org.eclipse.mylyn.commons.ui,3.2.2.v20090912-0400-e3x,"org.eclipse.mylyn.commons.ui",1389312845802
started,bundle,org.eclipse.mylyn.bugzilla.core,3.2.2.v20090912-0400-e3x,"org.eclipse.mylyn.bugzilla.core",1389312846147
started,bundle,org.eclipse.mylyn.bugzilla.ui,3.2.2.v20090912-0400-e3x,"org.eclipse.mylyn.bugzilla.ui",1389312846309
started,bundle,org.eclipse.mylyn.context.core,3.2.2.v20090912-0400-e3x,"org.eclipse.mylyn.context.core",1389312846773
started,bundle,org.eclipse.mylyn.context.ui,3.2.2.v20090912-0400-e3x,"org.eclipse.mylyn.context.ui",1389312846885
deactivated,workbench,org.eclipse.ui.workbench,3.5.1.M20090826-0800a,"",1389312846962
started,bundle,org.eclipse.mylyn.tasks.ui,3.2.2.v20090912-0400-e3x,"org.eclipse.mylyn.tasks.ui",1389312848437
started,bundle,org.eclipse.mylyn.team.ui,3.2.2.v20090912-0400-e3x,"org.eclipse.mylyn.team.ui",1389312848608
started,bundle,org.eclipse.update.scheduler,3.2.200.v20081127,"org.eclipse.update.scheduler",1389312848766
started,bundle,org.eclipse.update.core,3.2.300.v20090525,"org.eclipse.update.core",1389312849068
started,bundle,org.eclipse.wst.ws.service.policy.ui,1.0.102.v200903070248,"org.eclipse.wst.ws.service.policy.ui",1389312849370
started,bundle,org.eclipse.mylyn.monitor.ui,3.2.2.v20090912-0400-e3x,"org.eclipse.mylyn.monitor.ui",1389312850658
activated,workbench,org.eclipse.ui.workbench,3.5.1.M20090826-0800a,"",1389312867360
deactivated,workbench,org.eclipse.ui.workbench,3.5.1.M20090826-0800a,"",1389312867641
activated,workbench,org.eclipse.ui.workbench,3.5.1.M20090826-0800a,"",1389312868369
deactivated,workbench,org.eclipse.ui.workbench,3.5.1.M20090826-0800a,"",1389312869619
activated,workbench,org.eclipse.ui.workbench,3.5.1.M20090826-0800a,"",1389312891612
activated,workbench,org.eclipse.ui.workbench,3.5.1.M20090826-0800a,"",1389312891761
deactivated,workbench,org.eclipse.ui.workbench,3.5.1.M20090826-0800a,"",1389312893256
activated,workbench,org.eclipse.ui.workbench,3.5.1.M20090826-0800a,"",1389313325604
deactivated,workbench,org.eclipse.ui.workbench,3.5.1.M20090826-0800a,"",1389313334996
activated,workbench,org.eclipse.ui.workbench,3.5.1.M20090826-0800a,"",1389313350095
deactivated,workbench,org.eclipse.ui.workbench,3.5.1.M20090826-0800a,"",1389313351184
activated,workbench,org.eclipse.ui.workbench,3.5.1.M20090826-0800a,"",1389313422953
deactivated,workbench,org.eclipse.ui.workbench,3.5.1.M20090826-0800a,"",1389313429921
