what,kind,bundleId,bundleVersion,description,time
started,bundle,org.eclipse.wst.validation,1.2.102.v200905201610,"org.eclipse.wst.validation",1416579186396
started,bundle,org.eclipse.wst.common.emf,1.1.301.v200908181930,"org.eclipse.wst.common.emf",1416579187636
started,bundle,org.eclipse.jst.j2ee.core,1.1.301.v200908181930,"org.eclipse.jst.j2ee.core",1416579187774
started,bundle,org.eclipse.jem,2.0.300.v200901272200,"org.eclipse.jem",1416579188110
started,bundle,org.eclipse.emf.ecore.xmi,2.5.0.v200906151043,"org.eclipse.emf.ecore.xmi",1416579188283
started,bundle,org.eclipse.jst.jee,1.0.201.v200909030330,"org.eclipse.jst.jee",1416579188998
started,bundle,org.eclipse.wst.common.frameworks.ui,1.1.301.v200908101600,"org.eclipse.wst.common.frameworks.ui",1416579189143
started,bundle,org.eclipse.jdt.debug,3.5.0.v20090526,"org.eclipse.jdt.debug",1416579189260
activated,editor,com.android.ide.eclipse.adt,12.0.0.v201106281929-138431,"com.android.ide.eclipse.editors.layout.LayoutEditor",1416579189865
started,bundle,org.eclipse.wst.common.emfworkbench.integration,1.1.301.v200908101600,"org.eclipse.wst.common.emfworkbench.integration",1416579189970
started,bundle,org.eclipse.wst.common.modulecore,1.1.301.v200908101600,"org.eclipse.wst.common.modulecore",1416579190016
started,bundle,org.eclipse.jst.j2ee,1.1.301.v200909030330,"org.eclipse.jst.j2ee",1416579190089
started,bundle,org.eclipse.jem.workbench,2.0.201.v200908271530,"org.eclipse.jem.workbench",1416579190187
started,bundle,org.eclipse.jst.jsf.ui,1.2.1.v20090827,"org.eclipse.jst.jsf.ui",1416579190331
started,bundle,org.eclipse.wst.jsdt.core,1.0.201.v200908101420,"org.eclipse.wst.jsdt.core",1416579190851
started,bundle,org.eclipse.wst.jsdt.web.core,1.0.200.v200905120445,"org.eclipse.wst.jsdt.web.core",1416579190944
started,bundle,org.eclipse.wst.dtd.core,1.1.300.v200904181727,"org.eclipse.wst.dtd.core",1416579191004
started,bundle,org.eclipse.jst.j2ee.ejb,1.1.300.v200904230730,"org.eclipse.jst.j2ee.ejb",1416579191142
started,bundle,org.eclipse.jst.common.frameworks,1.1.300.v200904132230,"org.eclipse.jst.common.frameworks",1416579191207
started,bundle,org.eclipse.jst.j2ee.web,1.1.301.v200908270924,"org.eclipse.jst.j2ee.web",1416579191320
started,bundle,org.eclipse.jst.j2ee.jca,1.1.300.v200903120000,"org.eclipse.jst.j2ee.jca",1416579191352
started,bundle,org.eclipse.wst.xsd.core,1.1.401.v200903020335,"org.eclipse.wst.xsd.core",1416579191385
started,bundle,org.eclipse.wst.wsi.ui,1.0.500.v200901141851,"org.eclipse.wst.wsi.ui",1416579191386
started,bundle,org.eclipse.wst.html.ui,1.0.401.v200908111935,"org.eclipse.wst.html.ui",1416579191536
started,bundle,org.eclipse.wst.wsdl.validation,1.1.401.v200902271605,"org.eclipse.wst.wsdl.validation",1416579191752
