what,kind,bundleId,bundleVersion,description,time
error,log,,,"Failed to load properties file for project 'FoodAndroidMobile'",1406179912394
error,log,,,"Failed to load properties file for project 'FoodAndroidMobile'",1406179912397
opened,editor,com.android.ide.eclipse.adt,12.0.0.v201106281929-138431,"com.android.ide.eclipse.editors.layout.LayoutEditor",1406179912399
activated,editor,com.android.ide.eclipse.adt,12.0.0.v201106281929-138431,"com.android.ide.eclipse.editors.layout.LayoutEditor",1406179912467
activated,editor,org.eclipse.jdt.ui,3.5.1.r351_v20090821-0800,"org.eclipse.jdt.ui.CompilationUnitEditor",1406179920054
closed,editor,com.android.ide.eclipse.adt,12.0.0.v201106281929-138431,"com.android.ide.eclipse.editors.layout.LayoutEditor",1406179920054
activated,view,org.eclipse.jdt.ui,3.5.1.r351_v20090821-0800,"org.eclipse.jdt.ui.PackageExplorer",1406179922196
activated,editor,org.eclipse.jdt.ui,3.5.1.r351_v20090821-0800,"org.eclipse.jdt.ui.CompilationUnitEditor",1406179939309
activated,view,org.eclipse.jdt.ui,3.5.1.r351_v20090821-0800,"org.eclipse.jdt.ui.PackageExplorer",1406179952956
error,log,,,"Failed to load properties file for project 'FoodAndroidMobile'",1406179957876
error,log,,,"Failed to load properties file for project 'FoodAndroidMobile'",1406179957884
error,log,,,"Failed to load properties file for project 'FoodAndroidMobile'",1406179957885
error,log,,,"Failed to load properties file for project 'FoodAndroidMobile'",1406179957885
error,log,,,"Failed to load properties file for project 'FoodAndroidMobile'",1406179957886
error,log,,,"Failed to load properties file for project 'FoodAndroidMobile'",1406179957887
error,log,,,"Failed to load properties file for project 'FoodAndroidMobile'",1406179957887
error,log,,,"Failed to load properties file for project 'FoodAndroidMobile'",1406179957888
error,log,,,"Failed to load properties file for project 'FoodAndroidMobile'",1406179957889
error,log,,,"Failed to load properties file for project 'FoodAndroidMobile'",1406179957889
error,log,,,"Failed to load properties file for project 'FoodAndroidMobile'",1406179957892
error,log,,,"Failed to load properties file for project 'FoodAndroidMobile'",1406179957893
error,log,,,"Failed to load properties file for project 'FoodAndroidMobile'",1406179957895
error,log,,,"Failed to load properties file for project 'FoodAndroidMobile'",1406179957898
opened,editor,com.android.ide.eclipse.adt,12.0.0.v201106281929-138431,"com.android.ide.eclipse.editors.layout.LayoutEditor",1406179957900
activated,editor,com.android.ide.eclipse.adt,12.0.0.v201106281929-138431,"com.android.ide.eclipse.editors.layout.LayoutEditor",1406179957967
