what,kind,bundleId,bundleVersion,description,time
started,bundle,org.eclipse.update.configurator,3.3.0.v20090312,"org.eclipse.update.configurator",1409320892675
started,bundle,org.eclipse.wst.common.frameworks,1.1.300.v200904160730,"org.eclipse.wst.common.frameworks",1409320892680
started,bundle,org.eclipse.wst.common.project.facet.core,1.4.1.v200908111817,"org.eclipse.wst.common.project.facet.core",1409320892765
started,bundle,org.eclipse.wst.web,1.1.301.v200909021400,"org.eclipse.wst.web",1409320892851
started,bundle,com.android.ide.eclipse.ddms,12.0.0.v201106281929-138431,"com.android.ide.eclipse.ddms",1409320892880
os,sysinfo,,,"win32",1409320892885
arch,sysinfo,,,"x86",1409320892885
ws,sysinfo,,,"win32",1409320892885
locale,sysinfo,,,"zh_CN",1409320892885
processors,sysinfo,,,"4",1409320892885
java.runtime.name,sysinfo,,,"Java(TM) SE Runtime Environment",1409320892885
java.runtime.version,sysinfo,,,"1.6.0_03-b05",1409320892885
java.specification.name,sysinfo,,,"Java Platform API Specification",1409320892885
java.specification.vendor,sysinfo,,,"Sun Microsystems Inc.",1409320892885
java.specification.version,sysinfo,,,"1.6",1409320892885
java.vendor,sysinfo,,,"Sun Microsystems Inc.",1409320892885
java.version,sysinfo,,,"1.6.0_03",1409320892885
java.vm.info,sysinfo,,,"mixed mode",1409320892885
java.vm.name,sysinfo,,,"Java HotSpot(TM) Client VM",1409320892885
java.vm.specification.name,sysinfo,,,"Java Virtual Machine Specification",1409320892885
java.vm.specification.vendor,sysinfo,,,"Sun Microsystems Inc.",1409320892885
java.vm.specification.version,sysinfo,,,"1.0",1409320892885
java.vm.vendor,sysinfo,,,"Sun Microsystems Inc.",1409320892885
java.vm.version,sysinfo,,,"1.6.0_03-b05",1409320892885
started,bundle,org.eclipse.jst.common.project.facet.core,1.4.1.v200908111817,"org.eclipse.jst.common.project.facet.core",1409320893304
