what,kind,bundleId,bundleVersion,description,time
activated,workbench,org.eclipse.ui.workbench,3.5.1.M20090826-0800a,"",1389159489142
deactivated,workbench,org.eclipse.ui.workbench,3.5.1.M20090826-0800a,"",1389159491784
activated,workbench,org.eclipse.ui.workbench,3.5.1.M20090826-0800a,"",1389159491855
executed,command,org.eclipse.ui,3.5.1.M20090902-1000,"org.eclipse.ui.edit.text.contentAssist.proposals",1389159496604
deactivated,workbench,org.eclipse.ui.workbench,3.5.1.M20090826-0800a,"",1389159501367
activated,workbench,org.eclipse.ui.workbench,3.5.1.M20090826-0800a,"",1389159513044
deactivated,workbench,org.eclipse.ui.workbench,3.5.1.M20090826-0800a,"",1389159514951
deactivated,workbench,org.eclipse.ui.workbench,3.5.1.M20090826-0800a,"",1389159532053
activated,workbench,org.eclipse.ui.workbench,3.5.1.M20090826-0800a,"",1389159536009
executed,command,org.eclipse.ui,3.5.1.M20090902-1000,"org.eclipse.ui.edit.text.contentAssist.proposals",1389159546364
deactivated,workbench,org.eclipse.ui.workbench,3.5.1.M20090826-0800a,"",1389159573289
activated,workbench,org.eclipse.ui.workbench,3.5.1.M20090826-0800a,"",1389159601461
executed,command,org.eclipse.ui,3.5.1.M20090902-1000,"org.eclipse.ui.edit.text.contentAssist.proposals",1389159604709
deactivated,workbench,org.eclipse.ui.workbench,3.5.1.M20090826-0800a,"",1389159607793
activated,workbench,org.eclipse.ui.workbench,3.5.1.M20090826-0800a,"",1389159613311
executed,command,org.eclipse.ui,3.5.1.M20090902-1000,"org.eclipse.ui.edit.text.contentAssist.proposals",1389159615106
deactivated,workbench,org.eclipse.ui.workbench,3.5.1.M20090826-0800a,"",1389159617853
activated,workbench,org.eclipse.ui.workbench,3.5.1.M20090826-0800a,"",1389159651425
activated,editor,org.eclipse.jdt.ui,3.5.1.r351_v20090821-0800,"org.eclipse.jdt.ui.CompilationUnitEditor",1389159661790
activated,editor,org.eclipse.jdt.ui,3.5.1.r351_v20090821-0800,"org.eclipse.jdt.ui.CompilationUnitEditor",1389159665358
activated,editor,org.eclipse.jdt.ui,3.5.1.r351_v20090821-0800,"org.eclipse.jdt.ui.CompilationUnitEditor",1389159691783
activated,editor,org.eclipse.jdt.ui,3.5.1.r351_v20090821-0800,"org.eclipse.jdt.ui.CompilationUnitEditor",1389159699149
activated,editor,org.eclipse.jdt.ui,3.5.1.r351_v20090821-0800,"org.eclipse.jdt.ui.CompilationUnitEditor",1389159714274
activated,editor,org.eclipse.jdt.ui,3.5.1.r351_v20090821-0800,"org.eclipse.jdt.ui.CompilationUnitEditor",1389159719623
executed,command,org.eclipse.ui,3.5.1.M20090902-1000,"org.eclipse.ui.edit.text.contentAssist.proposals",1389159732982
