what,kind,bundleId,bundleVersion,description,time
activated,workbench,org.eclipse.ui.workbench,3.5.1.M20090826-0800a,"",1399293339229
executed,command,org.eclipse.ui,3.5.1.M20090902-1000,"org.eclipse.ui.file.properties",1399293339279
deactivated,workbench,org.eclipse.ui.workbench,3.5.1.M20090826-0800a,"",1399293341376
activated,workbench,org.eclipse.ui.workbench,3.5.1.M20090826-0800a,"",1399293357186
deactivated,workbench,org.eclipse.ui.workbench,3.5.1.M20090826-0800a,"",1399293377717
activated,workbench,org.eclipse.ui.workbench,3.5.1.M20090826-0800a,"",1399294381379
deactivated,workbench,org.eclipse.ui.workbench,3.5.1.M20090826-0800a,"",1399294381948
activated,workbench,org.eclipse.ui.workbench,3.5.1.M20090826-0800a,"",1399295059321
deactivated,workbench,org.eclipse.ui.workbench,3.5.1.M20090826-0800a,"",1399295060088
activated,workbench,org.eclipse.ui.workbench,3.5.1.M20090826-0800a,"",1399295069135
deactivated,workbench,org.eclipse.ui.workbench,3.5.1.M20090826-0800a,"",1399295071508
activated,workbench,org.eclipse.ui.workbench,3.5.1.M20090826-0800a,"",1399296998135
deactivated,workbench,org.eclipse.ui.workbench,3.5.1.M20090826-0800a,"",1399297002309
activated,workbench,org.eclipse.ui.workbench,3.5.1.M20090826-0800a,"",1399297622465
deactivated,workbench,org.eclipse.ui.workbench,3.5.1.M20090826-0800a,"",1399297623198
deactivated,workbench,org.eclipse.ui.workbench,3.5.1.M20090826-0800a,"",1399297633025
activated,workbench,org.eclipse.ui.workbench,3.5.1.M20090826-0800a,"",1399297635121
deactivated,workbench,org.eclipse.ui.workbench,3.5.1.M20090826-0800a,"",1399297648703
opened,view,org.eclipse.ui.console,3.4.0.v20090513,"org.eclipse.ui.console.ConsoleView",1399297649057
activated,view,org.eclipse.ui.console,3.4.0.v20090513,"org.eclipse.ui.console.ConsoleView",1399297671366
activated,workbench,org.eclipse.ui.workbench,3.5.1.M20090826-0800a,"",1399297682298
error,log,,,"Unhandled event loop exception",1399297682339
activated,view,org.eclipse.jdt.ui,3.5.1.r351_v20090821-0800,"org.eclipse.jdt.ui.PackageExplorer",1399297685351
activated,view,org.eclipse.ui.console,3.4.0.v20090513,"org.eclipse.ui.console.ConsoleView",1399297692371
deactivated,workbench,org.eclipse.ui.workbench,3.5.1.M20090826-0800a,"",1399297705388
