what,kind,bundleId,bundleVersion,description,time
locale,sysinfo,,,"zh_CN",1411348757566
processors,sysinfo,,,"4",1411348757566
java.runtime.name,sysinfo,,,"Java(TM) SE Runtime Environment",1411348757566
java.runtime.version,sysinfo,,,"1.6.0_03-b05",1411348757566
java.specification.name,sysinfo,,,"Java Platform API Specification",1411348757566
java.specification.vendor,sysinfo,,,"Sun Microsystems Inc.",1411348757566
java.specification.version,sysinfo,,,"1.6",1411348757566
java.vendor,sysinfo,,,"Sun Microsystems Inc.",1411348757566
java.version,sysinfo,,,"1.6.0_03",1411348757566
java.vm.info,sysinfo,,,"mixed mode",1411348757566
java.vm.name,sysinfo,,,"Java HotSpot(TM) Client VM",1411348757566
java.vm.specification.name,sysinfo,,,"Java Virtual Machine Specification",1411348757566
java.vm.specification.vendor,sysinfo,,,"Sun Microsystems Inc.",1411348757566
java.vm.specification.version,sysinfo,,,"1.0",1411348757566
java.vm.vendor,sysinfo,,,"Sun Microsystems Inc.",1411348757566
java.vm.version,sysinfo,,,"1.6.0_03-b05",1411348757566
started,bundle,org.eclipse.mylyn.commons.ui,3.2.2.v20090912-0400-e3x,"org.eclipse.mylyn.commons.ui",1411348758307
started,bundle,org.eclipse.mylyn.bugzilla.core,3.2.2.v20090912-0400-e3x,"org.eclipse.mylyn.bugzilla.core",1411348758789
started,bundle,org.eclipse.mylyn.bugzilla.ui,3.2.2.v20090912-0400-e3x,"org.eclipse.mylyn.bugzilla.ui",1411348759378
started,bundle,org.eclipse.ui.forms,3.4.1.v20090714_35x,"org.eclipse.ui.forms",1411348760721
started,bundle,org.eclipse.mylyn.context.core,3.2.2.v20090912-0400-e3x,"org.eclipse.mylyn.context.core",1411348761241
started,bundle,org.eclipse.mylyn.context.ui,3.2.2.v20090912-0400-e3x,"org.eclipse.mylyn.context.ui",1411348761495
started,bundle,org.eclipse.mylyn.tasks.ui,3.2.2.v20090912-0400-e3x,"org.eclipse.mylyn.tasks.ui",1411348762940
started,bundle,org.eclipse.mylyn.team.ui,3.2.2.v20090912-0400-e3x,"org.eclipse.mylyn.team.ui",1411348762960
started,bundle,org.eclipse.update.scheduler,3.2.200.v20081127,"org.eclipse.update.scheduler",1411348763116
