what,kind,bundleId,bundleVersion,description,time
started,bundle,org.eclipse.ui.net,1.2.1.r35x_20090812-1200,"org.eclipse.ui.net",1389147402818
started,bundle,org.eclipse.ui.views,3.4.1.M20090826-0800,"org.eclipse.ui.views",1389147402819
started,bundle,org.eclipse.ui.views.log,1.0.100.v20090731,"org.eclipse.ui.views.log",1389147402820
started,bundle,org.eclipse.ui.workbench,3.5.1.M20090826-0800a,"org.eclipse.ui.workbench",1389147402822
started,bundle,org.eclipse.ui.workbench.texteditor,3.5.0.v20090603,"org.eclipse.ui.workbench.texteditor",1389147402825
started,bundle,org.eclipse.update.configurator,3.3.0.v20090312,"org.eclipse.update.configurator",1389147402826
started,bundle,org.eclipse.update.core,3.2.300.v20090525,"org.eclipse.update.core",1389147402828
started,bundle,org.eclipse.update.scheduler,3.2.200.v20081127,"org.eclipse.update.scheduler",1389147402830
started,bundle,org.eclipse.wst.common.frameworks,1.1.300.v200904160730,"org.eclipse.wst.common.frameworks",1389147402833
started,bundle,org.eclipse.wst.common.project.facet.core,1.4.1.v200908111817,"org.eclipse.wst.common.project.facet.core",1389147402835
started,bundle,org.eclipse.wst.sse.core,1.1.401.v200909172215,"org.eclipse.wst.sse.core",1389147402839
started,bundle,org.eclipse.wst.web,1.1.301.v200909021400,"org.eclipse.wst.web",1389147402840
started,bundle,org.eclipse.wst.ws.service.policy.ui,1.0.102.v200903070248,"org.eclipse.wst.ws.service.policy.ui",1389147402843
started,bundle,com.android.ide.eclipse.adt,12.0.0.v201106281929-138431,"com.android.ide.eclipse.adt",1389147402843
started,bundle,com.android.ide.eclipse.ddms,12.0.0.v201106281929-138431,"com.android.ide.eclipse.ddms",1389147402844
os,sysinfo,,,"win32",1389147402849
arch,sysinfo,,,"x86",1389147402849
ws,sysinfo,,,"win32",1389147402849
locale,sysinfo,,,"zh_CN",1389147402849
processors,sysinfo,,,"4",1389147402849
java.runtime.name,sysinfo,,,"Java(TM) SE Runtime Environment",1389147402849
java.runtime.version,sysinfo,,,"1.6.0_03-b05",1389147402849
java.specification.name,sysinfo,,,"Java Platform API Specification",1389147402849
java.specification.vendor,sysinfo,,,"Sun Microsystems Inc.",1389147402849
java.specification.version,sysinfo,,,"1.6",1389147402849
