what,kind,bundleId,bundleVersion,description,time
executed,command,org.eclipse.ui,3.5.1.M20090902-1000,"org.eclipse.ui.edit.copy",1400735330372
activated,editor,org.eclipse.jdt.ui,3.5.1.r351_v20090821-0800,"org.eclipse.jdt.ui.CompilationUnitEditor",1400735331982
executed,command,org.eclipse.ui,3.5.1.M20090902-1000,"org.eclipse.ui.edit.paste",1400735339118
executed,command,org.eclipse.ui,3.5.1.M20090902-1000,"org.eclipse.ui.file.save",1400735343747
activated,view,org.eclipse.jdt.ui,3.5.1.r351_v20090821-0800,"org.eclipse.jdt.ui.PackageExplorer",1400735345542
executed,command,,,"com.android.ide.eclipse.adt.debug.launching.LaunchShortcut.run",1400735348436
deactivated,workbench,org.eclipse.ui.workbench,3.5.1.M20090826-0800a,"",1400735349989
activated,workbench,org.eclipse.ui.workbench,3.5.1.M20090826-0800a,"",1400735352343
activated,view,com.android.ide.eclipse.ddms,12.0.0.v201106281929-138431,"com.android.ide.eclipse.ddms.views.LogCatView",1400735352518
deactivated,workbench,org.eclipse.ui.workbench,3.5.1.M20090826-0800a,"",1400735353718
activated,workbench,org.eclipse.ui.workbench,3.5.1.M20090826-0800a,"",1400735361111
deactivated,workbench,org.eclipse.ui.workbench,3.5.1.M20090826-0800a,"",1400735362730
activated,workbench,org.eclipse.ui.workbench,3.5.1.M20090826-0800a,"",1400735365517
deactivated,workbench,org.eclipse.ui.workbench,3.5.1.M20090826-0800a,"",1400735445825
activated,workbench,org.eclipse.ui.workbench,3.5.1.M20090826-0800a,"",1400735447197
deactivated,workbench,org.eclipse.ui.workbench,3.5.1.M20090826-0800a,"",1400735459793
activated,workbench,org.eclipse.ui.workbench,3.5.1.M20090826-0800a,"",1400735460467
deactivated,workbench,org.eclipse.ui.workbench,3.5.1.M20090826-0800a,"",1400735461541
activated,workbench,org.eclipse.ui.workbench,3.5.1.M20090826-0800a,"",1400735462619
activated,editor,org.eclipse.jdt.ui,3.5.1.r351_v20090821-0800,"org.eclipse.jdt.ui.CompilationUnitEditor",1400735473056
deactivated,workbench,org.eclipse.ui.workbench,3.5.1.M20090826-0800a,"",1400735500744
activated,workbench,org.eclipse.ui.workbench,3.5.1.M20090826-0800a,"",1400735505444
executed,command,org.eclipse.ui,3.5.1.M20090902-1000,"org.eclipse.ui.edit.delete",1400735530059
executed,command,org.eclipse.ui,3.5.1.M20090902-1000,"org.eclipse.ui.file.save",1400735569859
activated,view,org.eclipse.jdt.ui,3.5.1.r351_v20090821-0800,"org.eclipse.jdt.ui.PackageExplorer",1400735572799
