what,kind,bundleId,bundleVersion,description,time
arch,sysinfo,,,"x86",1414023848654
ws,sysinfo,,,"win32",1414023848654
locale,sysinfo,,,"zh_CN",1414023848654
processors,sysinfo,,,"4",1414023848655
java.runtime.name,sysinfo,,,"Java(TM) SE Runtime Environment",1414023848655
java.runtime.version,sysinfo,,,"1.6.0_03-b05",1414023848655
java.specification.name,sysinfo,,,"Java Platform API Specification",1414023848655
java.specification.vendor,sysinfo,,,"Sun Microsystems Inc.",1414023848655
java.specification.version,sysinfo,,,"1.6",1414023848655
java.vendor,sysinfo,,,"Sun Microsystems Inc.",1414023848655
java.version,sysinfo,,,"1.6.0_03",1414023848655
java.vm.info,sysinfo,,,"mixed mode",1414023848655
java.vm.name,sysinfo,,,"Java HotSpot(TM) Client VM",1414023848655
java.vm.specification.name,sysinfo,,,"Java Virtual Machine Specification",1414023848655
java.vm.specification.vendor,sysinfo,,,"Sun Microsystems Inc.",1414023848655
java.vm.specification.version,sysinfo,,,"1.0",1414023848655
java.vm.vendor,sysinfo,,,"Sun Microsystems Inc.",1414023848655
java.vm.version,sysinfo,,,"1.6.0_03-b05",1414023848655
deactivated,workbench,org.eclipse.ui.workbench,3.5.1.M20090826-0800a,"",1414023848683
started,bundle,org.eclipse.jst.jsf.core,1.2.2.v20090903,"org.eclipse.jst.jsf.core",1414023848903
started,bundle,org.eclipse.mylyn.commons.net,3.2.0.v20090617-0100-e3x,"org.eclipse.mylyn.commons.net",1414023849381
started,bundle,org.eclipse.jst.common.project.facet.core,1.4.1.v200908111817,"org.eclipse.jst.common.project.facet.core",1414023849771
started,bundle,org.eclipse.mylyn.commons.ui,3.2.2.v20090912-0400-e3x,"org.eclipse.mylyn.commons.ui",1414023850239
error,log,,,"Failed to load properties file for project 'FoodAndroidMobile'",1414023850441
started,bundle,org.eclipse.mylyn.bugzilla.core,3.2.2.v20090912-0400-e3x,"org.eclipse.mylyn.bugzilla.core",1414023851272
