what,kind,bundleId,bundleVersion,description,time
activated,editor,org.eclipse.jdt.ui,3.5.1.r351_v20090821-0800,"org.eclipse.jdt.ui.ClassFileEditor",1396961818171
activated,editor,org.eclipse.jdt.ui,3.5.1.r351_v20090821-0800,"org.eclipse.jdt.ui.CompilationUnitEditor",1396961818227
closed,editor,org.eclipse.jdt.ui,3.5.1.r351_v20090821-0800,"org.eclipse.jdt.ui.ClassFileEditor",1396961818228
activated,view,org.eclipse.debug.ui,3.5.1.v20090811_r351,"org.eclipse.debug.ui.DebugView",1396961818962
executed,command,org.eclipse.debug.ui,3.5.1.v20090811_r351,"org.eclipse.debug.ui.commands.Resume",1396961819073
deactivated,workbench,org.eclipse.ui.workbench,3.5.1.M20090826-0800a,"",1396961820058
activated,workbench,org.eclipse.ui.workbench,3.5.1.M20090826-0800a,"",1396961825299
executed,command,org.eclipse.debug.ui,3.5.1.v20090811_r351,"org.eclipse.debug.ui.commands.StepOver",1396961829901
executed,command,org.eclipse.debug.ui,3.5.1.v20090811_r351,"org.eclipse.debug.ui.commands.StepOver",1396961831679
error,log,,,"Unable to create editor ID org.eclipse.jdt.ui.ClassFileEditor: Unmatched braces in the pattern.",1396961832133
opened,editor,org.eclipse.jdt.ui,3.5.1.r351_v20090821-0800,"org.eclipse.jdt.ui.ClassFileEditor",1396961832141
opened,editor,org.eclipse.jdt.ui,3.5.1.r351_v20090821-0800,"org.eclipse.jdt.ui.ClassFileEditor",1396961832142
activated,editor,org.eclipse.jdt.ui,3.5.1.r351_v20090821-0800,"org.eclipse.jdt.ui.ClassFileEditor",1396961833658
activated,editor,org.eclipse.jdt.ui,3.5.1.r351_v20090821-0800,"org.eclipse.jdt.ui.CompilationUnitEditor",1396961833717
closed,editor,org.eclipse.jdt.ui,3.5.1.r351_v20090821-0800,"org.eclipse.jdt.ui.ClassFileEditor",1396961833717
deactivated,workbench,org.eclipse.ui.workbench,3.5.1.M20090826-0800a,"",1396961835115
activated,workbench,org.eclipse.ui.workbench,3.5.1.M20090826-0800a,"",1396961838997
activated,view,org.eclipse.debug.ui,3.5.1.v20090811_r351,"org.eclipse.debug.ui.DebugView",1396961839450
executed,command,org.eclipse.debug.ui,3.5.1.v20090811_r351,"org.eclipse.debug.ui.commands.Resume",1396961839540
executed,command,org.eclipse.debug.ui,3.5.1.v20090811_r351,"org.eclipse.debug.ui.commands.StepOver",1396961844829
activated,view,org.eclipse.debug.ui,3.5.1.v20090811_r351,"org.eclipse.debug.ui.VariableView",1396961849902
deactivated,workbench,org.eclipse.ui.workbench,3.5.1.M20090826-0800a,"",1396961855240
activated,workbench,org.eclipse.ui.workbench,3.5.1.M20090826-0800a,"",1396961856028
activated,view,org.eclipse.debug.ui,3.5.1.v20090811_r351,"org.eclipse.debug.ui.DebugView",1396961856818
executed,command,org.eclipse.debug.ui,3.5.1.v20090811_r351,"org.eclipse.debug.ui.commands.Resume",1396961856948
