what,kind,bundleId,bundleVersion,description,time
started,bundle,org.eclipse.mylyn.context.core,3.2.2.v20090912-0400-e3x,"org.eclipse.mylyn.context.core",1398687448301
started,bundle,org.eclipse.mylyn.context.ui,3.2.2.v20090912-0400-e3x,"org.eclipse.mylyn.context.ui",1398687448450
started,bundle,org.eclipse.mylyn.tasks.ui,3.2.2.v20090912-0400-e3x,"org.eclipse.mylyn.tasks.ui",1398687449180
error,log,,,"Error validating C:\\Users\\acer\\.android\\devices.xml",1398687449211
started,bundle,org.eclipse.mylyn.team.ui,3.2.2.v20090912-0400-e3x,"org.eclipse.mylyn.team.ui",1398687449291
started,bundle,org.eclipse.update.scheduler,3.2.200.v20081127,"org.eclipse.update.scheduler",1398687449469
started,bundle,org.eclipse.update.core,3.2.300.v20090525,"org.eclipse.update.core",1398687450620
started,bundle,org.eclipse.wst.ws.service.policy.ui,1.0.102.v200903070248,"org.eclipse.wst.ws.service.policy.ui",1398687451176
started,bundle,org.eclipse.mylyn.monitor.ui,3.2.2.v20090912-0400-e3x,"org.eclipse.mylyn.monitor.ui",1398687451730
opened,editor,org.eclipse.jdt.ui,3.5.1.r351_v20090821-0800,"org.eclipse.jdt.ui.CompilationUnitEditor",1398687457577
started,bundle,org.eclipse.jdt.apt.pluggable.core,1.0.201.R35x_v20090818-0225,"org.eclipse.jdt.apt.pluggable.core",1398687457586
activated,editor,org.eclipse.jdt.ui,3.5.1.r351_v20090821-0800,"org.eclipse.jdt.ui.CompilationUnitEditor",1398687457651
activated,editor,org.eclipse.jdt.ui,3.5.1.r351_v20090821-0800,"org.eclipse.jdt.ui.CompilationUnitEditor",1398687462133
activated,editor,org.eclipse.jdt.ui,3.5.1.r351_v20090821-0800,"org.eclipse.jdt.ui.CompilationUnitEditor",1398687463189
activated,editor,org.eclipse.jdt.ui,3.5.1.r351_v20090821-0800,"org.eclipse.jdt.ui.CompilationUnitEditor",1398687466052
activated,view,org.eclipse.jdt.ui,3.5.1.r351_v20090821-0800,"org.eclipse.jdt.ui.PackageExplorer",1398687473747
started,bundle,org.eclipse.jpt.core,2.2.1.v200908270220,"org.eclipse.jpt.core",1398687474253
started,bundle,org.eclipse.jpt.eclipselink.core,1.2.0.v200905310000,"org.eclipse.jpt.eclipselink.core",1398687474377
started,bundle,org.eclipse.wst.sse.ui,1.1.101.v200908261807,"org.eclipse.wst.sse.ui",1398687477642
started,bundle,org.eclipse.wst.xml.core,1.1.401.v200908242115,"org.eclipse.wst.xml.core",1398687477739
started,bundle,org.eclipse.debug.ui,3.5.1.v20090811_r351,"org.eclipse.debug.ui",1398687478140
started,bundle,org.eclipse.wst.common.uriresolver,1.1.301.v200805140415,"org.eclipse.wst.common.uriresolver",1398687478256
started,bundle,org.eclipse.wst.xml.ui,1.1.1.v200908242115,"org.eclipse.wst.xml.ui",1398687478490
started,bundle,org.eclipse.wst.xsl.core,1.0.1.v200908101420,"org.eclipse.wst.xsl.core",1398687479825
started,bundle,org.eclipse.jst.jsp.ui,1.1.401.v200908111935,"org.eclipse.jst.jsp.ui",1398687480176
