what,kind,bundleId,bundleVersion,description,time
activated,view,com.android.ide.eclipse.ddms,12.0.0.v201106281929-138431,"com.android.ide.eclipse.ddms.views.DeviceView",1405174952761
opened,view,com.android.ide.eclipse.ddms,12.0.0.v201106281929-138431,"com.android.ide.eclipse.ddms.views.HeapView",1405174962002
activated,view,com.android.ide.eclipse.ddms,12.0.0.v201106281929-138431,"com.android.ide.eclipse.ddms.views.HeapView",1405174962026
activated,view,com.android.ide.eclipse.ddms,12.0.0.v201106281929-138431,"com.android.ide.eclipse.ddms.views.ThreadView",1405174962114
activated,view,com.android.ide.eclipse.ddms,12.0.0.v201106281929-138431,"com.android.ide.eclipse.ddms.views.DeviceView",1405174963927
deactivated,workbench,org.eclipse.ui.workbench,3.5.1.M20090826-0800a,"",1405174970672
activated,workbench,org.eclipse.ui.workbench,3.5.1.M20090826-0800a,"",1405174972837
activated,perspective,org.eclipse.jdt.ui,3.5.1.r351_v20090821-0800,"org.eclipse.jdt.ui.JavaPerspective",1405174975185
activated,editor,org.eclipse.jdt.ui,3.5.1.r351_v20090821-0800,"org.eclipse.jdt.ui.CompilationUnitEditor",1405174975212
activated,view,org.eclipse.jdt.ui,3.5.1.r351_v20090821-0800,"org.eclipse.jdt.ui.PackageExplorer",1405174978640
activated,view,com.android.ide.eclipse.ddms,12.0.0.v201106281929-138431,"com.android.ide.eclipse.ddms.views.LogCatView",1405174980550
activated,view,org.eclipse.jdt.ui,3.5.1.r351_v20090821-0800,"org.eclipse.jdt.ui.PackageExplorer",1405174983596
executed,command,,,"com.android.ide.eclipse.adt.debug.launching.LaunchShortcut.run",1405174986202
deactivated,workbench,org.eclipse.ui.workbench,3.5.1.M20090826-0800a,"",1405174987770
activated,workbench,org.eclipse.ui.workbench,3.5.1.M20090826-0800a,"",1405174989664
activated,view,com.android.ide.eclipse.ddms,12.0.0.v201106281929-138431,"com.android.ide.eclipse.ddms.views.LogCatView",1405174989870
activated,perspective,com.android.ide.eclipse.ddms,12.0.0.v201106281929-138431,"com.android.ide.eclipse.ddms.Perspective",1405174991512
activated,view,com.android.ide.eclipse.ddms,12.0.0.v201106281929-138431,"com.android.ide.eclipse.ddms.views.DeviceView",1405174994313
activated,view,com.android.ide.eclipse.ddms,12.0.0.v201106281929-138431,"com.android.ide.eclipse.ddms.views.EmulatorControlView",1405174996687
activated,view,com.android.ide.eclipse.ddms,12.0.0.v201106281929-138431,"com.android.ide.eclipse.ddms.views.DeviceView",1405174998688
activated,view,com.android.ide.eclipse.ddms,12.0.0.v201106281929-138431,"com.android.ide.eclipse.ddms.views.ThreadView",1405175005282
deactivated,workbench,org.eclipse.ui.workbench,3.5.1.M20090826-0800a,"",1405175006156
activated,workbench,org.eclipse.ui.workbench,3.5.1.M20090826-0800a,"",1405175007371
activated,view,com.android.ide.eclipse.ddms,12.0.0.v201106281929-138431,"com.android.ide.eclipse.ddms.views.DeviceView",1405175007375
activated,view,com.android.ide.eclipse.ddms,12.0.0.v201106281929-138431,"com.android.ide.eclipse.ddms.views.LogCatView",1405175015819
