what,kind,bundleId,bundleVersion,description,time
started,bundle,org.eclipse.wst.validation,1.2.102.v200905201610,"org.eclipse.wst.validation",1405095541733
started,bundle,org.eclipse.jst.j2ee,1.1.301.v200909030330,"org.eclipse.jst.j2ee",1405095542029
started,bundle,org.eclipse.compare,3.5.0.I20090514-0808,"org.eclipse.compare",1405095542630
started,bundle,org.eclipse.debug.ui,3.5.1.v20090811_r351,"org.eclipse.debug.ui",1405095545497
started,bundle,org.eclipse.cdt.core,5.1.2.201002161416,"org.eclipse.cdt.core",1405095546274
started,bundle,org.eclipse.cdt.core.tests,5.1.2.201002161416,"org.eclipse.cdt.core.tests",1405095546589
started,bundle,org.eclipse.cdt.debug.core,6.0.0.201002161416,"org.eclipse.cdt.debug.core",1405095546698
started,bundle,org.eclipse.cdt.debug.ui,6.0.0.201002161416,"org.eclipse.cdt.debug.ui",1405095546770
started,bundle,org.eclipse.jdt.debug,3.5.0.v20090526,"org.eclipse.jdt.debug",1405095547670
deactivated,workbench,org.eclipse.ui.workbench,3.5.1.M20090826-0800a,"",1405095548663
activated,workbench,org.eclipse.ui.workbench,3.5.1.M20090826-0800a,"",1405095549721
executed,command,org.eclipse.ui.ide,3.5.1.M20090826-0800,"org.eclipse.ui.project.openProject",1405095549849
opened,editor,org.eclipse.jdt.ui,3.5.1.r351_v20090821-0800,"org.eclipse.jdt.ui.CompilationUnitEditor",1405095558318
started,bundle,org.eclipse.jdt.debug.ui,3.4.1.v20090811_r351,"org.eclipse.jdt.debug.ui",1405095558592
activated,editor,org.eclipse.jdt.ui,3.5.1.r351_v20090821-0800,"org.eclipse.jdt.ui.CompilationUnitEditor",1405095558679
activated,view,org.eclipse.jdt.ui,3.5.1.r351_v20090821-0800,"org.eclipse.jdt.ui.PackageExplorer",1405095649430
deactivated,workbench,org.eclipse.ui.workbench,3.5.1.M20090826-0800a,"",1405095664929
activated,workbench,org.eclipse.ui.workbench,3.5.1.M20090826-0800a,"",1405095842679
activated,editor,org.eclipse.jdt.ui,3.5.1.r351_v20090821-0800,"org.eclipse.jdt.ui.CompilationUnitEditor",1405095843381
deactivated,workbench,org.eclipse.ui.workbench,3.5.1.M20090826-0800a,"",1405095846856
activated,workbench,org.eclipse.ui.workbench,3.5.1.M20090826-0800a,"",1405095952011
activated,view,org.eclipse.jdt.ui,3.5.1.r351_v20090821-0800,"org.eclipse.jdt.ui.PackageExplorer",1405095952033
deactivated,workbench,org.eclipse.ui.workbench,3.5.1.M20090826-0800a,"",1405095956006
activated,workbench,org.eclipse.ui.workbench,3.5.1.M20090826-0800a,"",1405095982220
activated,editor,org.eclipse.jdt.ui,3.5.1.r351_v20090821-0800,"org.eclipse.jdt.ui.CompilationUnitEditor",1405095986692
