what,kind,bundleId,bundleVersion,description,time
activated,editor,org.eclipse.jdt.ui,3.5.1.r351_v20090821-0800,"org.eclipse.jdt.ui.CompilationUnitEditor",1399260863273
executed,command,org.eclipse.ui,3.5.1.M20090902-1000,"org.eclipse.ui.file.save",1399260874891
activated,editor,org.eclipse.jdt.ui,3.5.1.r351_v20090821-0800,"org.eclipse.jdt.ui.CompilationUnitEditor",1399260877142
activated,editor,org.eclipse.jdt.ui,3.5.1.r351_v20090821-0800,"org.eclipse.jdt.ui.CompilationUnitEditor",1399260879959
activated,view,com.android.ide.eclipse.ddms,12.0.0.v201106281929-138431,"com.android.ide.eclipse.ddms.views.LogCatView",1399260886798
deactivated,workbench,org.eclipse.ui.workbench,3.5.1.M20090826-0800a,"",1399260889344
activated,workbench,org.eclipse.ui.workbench,3.5.1.M20090826-0800a,"",1399260897142
activated,editor,org.eclipse.jdt.ui,3.5.1.r351_v20090821-0800,"org.eclipse.jdt.ui.CompilationUnitEditor",1399260926228
activated,editor,org.eclipse.jdt.ui,3.5.1.r351_v20090821-0800,"org.eclipse.jdt.ui.CompilationUnitEditor",1399260930566
executed,command,org.eclipse.jdt.ui,3.5.1.r351_v20090821-0800,"org.eclipse.jdt.ui.edit.text.java.toggle.comment",1399260946248
executed,command,org.eclipse.ui,3.5.1.M20090902-1000,"org.eclipse.ui.file.save",1399260948487
executed,command,org.eclipse.jdt.ui,3.5.1.r351_v20090821-0800,"org.eclipse.jdt.ui.edit.text.java.toggle.comment",1399260977716
executed,command,org.eclipse.ui,3.5.1.M20090902-1000,"org.eclipse.ui.file.save",1399260981984
activated,editor,org.eclipse.jdt.ui,3.5.1.r351_v20090821-0800,"org.eclipse.jdt.ui.CompilationUnitEditor",1399260984187
deactivated,workbench,org.eclipse.ui.workbench,3.5.1.M20090826-0800a,"",1399261104086
activated,workbench,org.eclipse.ui.workbench,3.5.1.M20090826-0800a,"",1399266256429
deactivated,workbench,org.eclipse.ui.workbench,3.5.1.M20090826-0800a,"",1399266258062
activated,workbench,org.eclipse.ui.workbench,3.5.1.M20090826-0800a,"",1399268682478
deactivated,workbench,org.eclipse.ui.workbench,3.5.1.M20090826-0800a,"",1399268685019
activated,workbench,org.eclipse.ui.workbench,3.5.1.M20090826-0800a,"",1399269304997
deactivated,workbench,org.eclipse.ui.workbench,3.5.1.M20090826-0800a,"",1399269305691
activated,workbench,org.eclipse.ui.workbench,3.5.1.M20090826-0800a,"",1399269816514
activated,editor,org.eclipse.jdt.ui,3.5.1.r351_v20090821-0800,"org.eclipse.jdt.ui.CompilationUnitEditor",1399269819327
deactivated,workbench,org.eclipse.ui.workbench,3.5.1.M20090826-0800a,"",1399269837693
activated,workbench,org.eclipse.ui.workbench,3.5.1.M20090826-0800a,"",1399269952416
