what,kind,bundleId,bundleVersion,description,time
activated,view,org.eclipse.jdt.ui,3.5.1.r351_v20090821-0800,"org.eclipse.jdt.ui.PackageExplorer",1398475976773
opened,editor,org.eclipse.jdt.ui,3.5.1.r351_v20090821-0800,"org.eclipse.jdt.ui.CompilationUnitEditor",1398475977102
activated,editor,org.eclipse.jdt.ui,3.5.1.r351_v20090821-0800,"org.eclipse.jdt.ui.CompilationUnitEditor",1398475977190
deactivated,workbench,org.eclipse.ui.workbench,3.5.1.M20090826-0800a,"",1398475991186
activated,workbench,org.eclipse.ui.workbench,3.5.1.M20090826-0800a,"",1398476018623
activated,editor,org.eclipse.jdt.ui,3.5.1.r351_v20090821-0800,"org.eclipse.jdt.ui.CompilationUnitEditor",1398476022751
deactivated,workbench,org.eclipse.ui.workbench,3.5.1.M20090826-0800a,"",1398476025802
activated,workbench,org.eclipse.ui.workbench,3.5.1.M20090826-0800a,"",1398476073821
deactivated,workbench,org.eclipse.ui.workbench,3.5.1.M20090826-0800a,"",1398476079570
activated,workbench,org.eclipse.ui.workbench,3.5.1.M20090826-0800a,"",1398476142839
deactivated,workbench,org.eclipse.ui.workbench,3.5.1.M20090826-0800a,"",1398476148571
deactivated,workbench,org.eclipse.ui.workbench,3.5.1.M20090826-0800a,"",1398476180085
activated,workbench,org.eclipse.ui.workbench,3.5.1.M20090826-0800a,"",1398476180473
deactivated,workbench,org.eclipse.ui.workbench,3.5.1.M20090826-0800a,"",1398476181906
activated,workbench,org.eclipse.ui.workbench,3.5.1.M20090826-0800a,"",1398476188897
deactivated,workbench,org.eclipse.ui.workbench,3.5.1.M20090826-0800a,"",1398476192297
activated,workbench,org.eclipse.ui.workbench,3.5.1.M20090826-0800a,"",1398476245408
deactivated,workbench,org.eclipse.ui.workbench,3.5.1.M20090826-0800a,"",1398476247246
activated,workbench,org.eclipse.ui.workbench,3.5.1.M20090826-0800a,"",1398476630751
activated,editor,org.eclipse.jdt.ui,3.5.1.r351_v20090821-0800,"org.eclipse.jdt.ui.CompilationUnitEditor",1398476641245
closed,editor,org.eclipse.jdt.ui,3.5.1.r351_v20090821-0800,"org.eclipse.jdt.ui.CompilationUnitEditor",1398476641245
closed,editor,org.eclipse.jdt.ui,3.5.1.r351_v20090821-0800,"org.eclipse.jdt.ui.CompilationUnitEditor",1398476644672
activated,view,org.eclipse.jdt.ui,3.5.1.r351_v20090821-0800,"org.eclipse.jdt.ui.PackageExplorer",1398476646115
opened,editor,org.eclipse.jdt.ui,3.5.1.r351_v20090821-0800,"org.eclipse.jdt.ui.CompilationUnitEditor",1398476663868
activated,editor,org.eclipse.jdt.ui,3.5.1.r351_v20090821-0800,"org.eclipse.jdt.ui.CompilationUnitEditor",1398476663937
