what,kind,bundleId,bundleVersion,description,time
java.runtime.version,sysinfo,,,"1.6.0_03-b05",1377829173476
java.specification.name,sysinfo,,,"Java Platform API Specification",1377829173476
java.specification.vendor,sysinfo,,,"Sun Microsystems Inc.",1377829173476
java.specification.version,sysinfo,,,"1.6",1377829173476
java.vendor,sysinfo,,,"Sun Microsystems Inc.",1377829173476
java.version,sysinfo,,,"1.6.0_03",1377829173476
java.vm.info,sysinfo,,,"mixed mode",1377829173476
java.vm.name,sysinfo,,,"Java HotSpot(TM) Client VM",1377829173476
java.vm.specification.name,sysinfo,,,"Java Virtual Machine Specification",1377829173476
java.vm.specification.vendor,sysinfo,,,"Sun Microsystems Inc.",1377829173476
java.vm.specification.version,sysinfo,,,"1.0",1377829173476
java.vm.vendor,sysinfo,,,"Sun Microsystems Inc.",1377829173476
java.vm.version,sysinfo,,,"1.6.0_03-b05",1377829173476
started,bundle,org.eclipse.update.scheduler,3.2.200.v20081127,"org.eclipse.update.scheduler",1377829173565
started,bundle,org.eclipse.update.core,3.2.300.v20090525,"org.eclipse.update.core",1377829173713
started,bundle,org.eclipse.wst.ws.service.policy.ui,1.0.102.v200903070248,"org.eclipse.wst.ws.service.policy.ui",1377829173753
started,bundle,org.eclipse.mylyn.monitor.ui,3.2.2.v20090912-0400-e3x,"org.eclipse.mylyn.monitor.ui",1377829174696
deactivated,workbench,org.eclipse.ui.workbench,3.5.1.M20090826-0800a,"",1377829509858
activated,workbench,org.eclipse.ui.workbench,3.5.1.M20090826-0800a,"",1377829517910
deactivated,workbench,org.eclipse.ui.workbench,3.5.1.M20090826-0800a,"",1377829519268
activated,workbench,org.eclipse.ui.workbench,3.5.1.M20090826-0800a,"",1377829560936
deactivated,workbench,org.eclipse.ui.workbench,3.5.1.M20090826-0800a,"",1377829562945
activated,workbench,org.eclipse.ui.workbench,3.5.1.M20090826-0800a,"",1377829564264
deactivated,workbench,org.eclipse.ui.workbench,3.5.1.M20090826-0800a,"",1377829565321
activated,workbench,org.eclipse.ui.workbench,3.5.1.M20090826-0800a,"",1377829566565
