what,kind,bundleId,bundleVersion,description,time
deactivated,workbench,org.eclipse.ui.workbench,3.5.1.M20090826-0800a,"",1413534786683
activated,workbench,org.eclipse.ui.workbench,3.5.1.M20090826-0800a,"",1413534787412
executed,command,org.eclipse.ui,3.5.1.M20090902-1000,"org.eclipse.ui.file.save",1413534808276
deactivated,workbench,org.eclipse.ui.workbench,3.5.1.M20090826-0800a,"",1413534810203
activated,workbench,org.eclipse.ui.workbench,3.5.1.M20090826-0800a,"",1413534812424
activated,editor,org.eclipse.jdt.ui,3.5.1.r351_v20090821-0800,"org.eclipse.jdt.ui.CompilationUnitEditor",1413534814820
activated,view,org.eclipse.ui.console,3.4.0.v20090513,"org.eclipse.ui.console.ConsoleView",1413534816467
activated,editor,org.eclipse.jdt.ui,3.5.1.r351_v20090821-0800,"org.eclipse.jdt.ui.CompilationUnitEditor",1413534817266
executed,command,org.eclipse.jdt.debug.ui,3.4.1.v20090811_r351,"org.eclipse.jdt.debug.ui.localJavaShortcut.run",1413534819124
activated,view,org.eclipse.ui.console,3.4.0.v20090513,"org.eclipse.ui.console.ConsoleView",1413534819807
activated,editor,org.eclipse.jdt.ui,3.5.1.r351_v20090821-0800,"org.eclipse.jdt.ui.CompilationUnitEditor",1413534826022
deactivated,workbench,org.eclipse.ui.workbench,3.5.1.M20090826-0800a,"",1413534827247
activated,workbench,org.eclipse.ui.workbench,3.5.1.M20090826-0800a,"",1413534828083
deactivated,workbench,org.eclipse.ui.workbench,3.5.1.M20090826-0800a,"",1413534828458
activated,workbench,org.eclipse.ui.workbench,3.5.1.M20090826-0800a,"",1413534829271
deactivated,workbench,org.eclipse.ui.workbench,3.5.1.M20090826-0800a,"",1413534829816
activated,workbench,org.eclipse.ui.workbench,3.5.1.M20090826-0800a,"",1413534850934
deactivated,workbench,org.eclipse.ui.workbench,3.5.1.M20090826-0800a,"",1413534851538
deactivated,workbench,org.eclipse.ui.workbench,3.5.1.M20090826-0800a,"",1413534872394
deactivated,workbench,org.eclipse.ui.workbench,3.5.1.M20090826-0800a,"",1413535069661
activated,workbench,org.eclipse.ui.workbench,3.5.1.M20090826-0800a,"",1413535070638
activated,editor,org.eclipse.jdt.ui,3.5.1.r351_v20090821-0800,"org.eclipse.jdt.ui.CompilationUnitEditor",1413535073494
executed,command,org.eclipse.ui,3.5.1.M20090902-1000,"org.eclipse.ui.file.save",1413535128948
activated,editor,org.eclipse.jdt.ui,3.5.1.r351_v20090821-0800,"org.eclipse.jdt.ui.CompilationUnitEditor",1413535133482
activated,editor,org.eclipse.jdt.ui,3.5.1.r351_v20090821-0800,"org.eclipse.jdt.ui.CompilationUnitEditor",1413535136414
