what,kind,bundleId,bundleVersion,description,time
activated,view,com.android.ide.eclipse.ddms,12.0.0.v201106281929-138431,"com.android.ide.eclipse.ddms.views.FileExplorerView",1398262379947
deactivated,workbench,org.eclipse.ui.workbench,3.5.1.M20090826-0800a,"",1398262393285
activated,workbench,org.eclipse.ui.workbench,3.5.1.M20090826-0800a,"",1398262394499
deactivated,workbench,org.eclipse.ui.workbench,3.5.1.M20090826-0800a,"",1398262395054
activated,workbench,org.eclipse.ui.workbench,3.5.1.M20090826-0800a,"",1398262608945
deactivated,workbench,org.eclipse.ui.workbench,3.5.1.M20090826-0800a,"",1398262612766
activated,workbench,org.eclipse.ui.workbench,3.5.1.M20090826-0800a,"",1398262617719
deactivated,workbench,org.eclipse.ui.workbench,3.5.1.M20090826-0800a,"",1398262621782
activated,workbench,org.eclipse.ui.workbench,3.5.1.M20090826-0800a,"",1398262623267
deactivated,workbench,org.eclipse.ui.workbench,3.5.1.M20090826-0800a,"",1398262623413
activated,workbench,org.eclipse.ui.workbench,3.5.1.M20090826-0800a,"",1398262623665
deactivated,workbench,org.eclipse.ui.workbench,3.5.1.M20090826-0800a,"",1398262631994
activated,workbench,org.eclipse.ui.workbench,3.5.1.M20090826-0800a,"",1398262644261
deactivated,workbench,org.eclipse.ui.workbench,3.5.1.M20090826-0800a,"",1398262680200
activated,workbench,org.eclipse.ui.workbench,3.5.1.M20090826-0800a,"",1398262682790
activated,view,com.android.ide.eclipse.ddms,12.0.0.v201106281929-138431,"com.android.ide.eclipse.ddms.views.LogCatView",1398262682808
deactivated,workbench,org.eclipse.ui.workbench,3.5.1.M20090826-0800a,"",1398262689465
activated,workbench,org.eclipse.ui.workbench,3.5.1.M20090826-0800a,"",1398262690612
deactivated,workbench,org.eclipse.ui.workbench,3.5.1.M20090826-0800a,"",1398262691183
activated,workbench,org.eclipse.ui.workbench,3.5.1.M20090826-0800a,"",1398262704328
activated,view,com.android.ide.eclipse.ddms,12.0.0.v201106281929-138431,"com.android.ide.eclipse.ddms.views.FileExplorerView",1398262704336
deactivated,workbench,org.eclipse.ui.workbench,3.5.1.M20090826-0800a,"",1398262714341
activated,workbench,org.eclipse.ui.workbench,3.5.1.M20090826-0800a,"",1398262745906
deactivated,workbench,org.eclipse.ui.workbench,3.5.1.M20090826-0800a,"",1398262751204
activated,workbench,org.eclipse.ui.workbench,3.5.1.M20090826-0800a,"",1398262751996
