what,kind,bundleId,bundleVersion,description,time
deactivated,workbench,org.eclipse.ui.workbench,3.5.1.M20090826-0800a,"",1396936076111
activated,workbench,org.eclipse.ui.workbench,3.5.1.M20090826-0800a,"",1396936076858
deactivated,workbench,org.eclipse.ui.workbench,3.5.1.M20090826-0800a,"",1396936077231
activated,workbench,org.eclipse.ui.workbench,3.5.1.M20090826-0800a,"",1396936110576
deactivated,workbench,org.eclipse.ui.workbench,3.5.1.M20090826-0800a,"",1396936114960
activated,workbench,org.eclipse.ui.workbench,3.5.1.M20090826-0800a,"",1396936130577
deactivated,workbench,org.eclipse.ui.workbench,3.5.1.M20090826-0800a,"",1396936130594
activated,workbench,org.eclipse.ui.workbench,3.5.1.M20090826-0800a,"",1396936134746
deactivated,workbench,org.eclipse.ui.workbench,3.5.1.M20090826-0800a,"",1396936143073
activated,workbench,org.eclipse.ui.workbench,3.5.1.M20090826-0800a,"",1396936223886
deactivated,workbench,org.eclipse.ui.workbench,3.5.1.M20090826-0800a,"",1396936229347
activated,workbench,org.eclipse.ui.workbench,3.5.1.M20090826-0800a,"",1396936287759
deactivated,workbench,org.eclipse.ui.workbench,3.5.1.M20090826-0800a,"",1396936293236
activated,workbench,org.eclipse.ui.workbench,3.5.1.M20090826-0800a,"",1396936828670
deactivated,workbench,org.eclipse.ui.workbench,3.5.1.M20090826-0800a,"",1396936831986
activated,workbench,org.eclipse.ui.workbench,3.5.1.M20090826-0800a,"",1396936833247
deactivated,workbench,org.eclipse.ui.workbench,3.5.1.M20090826-0800a,"",1396936834294
activated,workbench,org.eclipse.ui.workbench,3.5.1.M20090826-0800a,"",1396936835335
activated,view,com.android.ide.eclipse.ddms,12.0.0.v201106281929-138431,"com.android.ide.eclipse.ddms.views.LogCatView",1396936836735
deactivated,workbench,org.eclipse.ui.workbench,3.5.1.M20090826-0800a,"",1396936837698
activated,workbench,org.eclipse.ui.workbench,3.5.1.M20090826-0800a,"",1396937709763
activated,editor,com.android.ide.eclipse.adt,12.0.0.v201106281929-138431,"com.android.ide.eclipse.editors.manifest.ManifestEditor",1396937710959
closed,editor,org.eclipse.jdt.ui,3.5.1.r351_v20090821-0800,"org.eclipse.jdt.ui.CompilationUnitEditor",1396937713087
activated,view,com.android.ide.eclipse.ddms,12.0.0.v201106281929-138431,"com.android.ide.eclipse.ddms.views.LogCatView",1396937714389
closed,editor,com.android.ide.eclipse.adt,12.0.0.v201106281929-138431,"com.android.ide.eclipse.editors.manifest.ManifestEditor",1396937714389
