what,kind,bundleId,bundleVersion,description,time
deactivated,workbench,org.eclipse.ui.workbench,3.5.1.M20090826-0800a,"",1413426377717
activated,workbench,org.eclipse.ui.workbench,3.5.1.M20090826-0800a,"",1413426378794
executed,command,org.eclipse.ui,3.5.1.M20090902-1000,"org.eclipse.ui.file.save",1413426397389
executed,command,org.eclipse.ui,3.5.1.M20090902-1000,"org.eclipse.ui.file.save",1413426404250
deactivated,workbench,org.eclipse.ui.workbench,3.5.1.M20090826-0800a,"",1413426475412
activated,workbench,org.eclipse.ui.workbench,3.5.1.M20090826-0800a,"",1413426476865
deactivated,workbench,org.eclipse.ui.workbench,3.5.1.M20090826-0800a,"",1413426476884
activated,workbench,org.eclipse.ui.workbench,3.5.1.M20090826-0800a,"",1413426479130
deactivated,workbench,org.eclipse.ui.workbench,3.5.1.M20090826-0800a,"",1413426493938
activated,workbench,org.eclipse.ui.workbench,3.5.1.M20090826-0800a,"",1413426496374
executed,command,org.eclipse.ui,3.5.1.M20090902-1000,"org.eclipse.ui.file.save",1413426529022
executed,command,org.eclipse.ui,3.5.1.M20090902-1000,"org.eclipse.ui.edit.text.contentAssist.proposals",1413426541780
deactivated,workbench,org.eclipse.ui.workbench,3.5.1.M20090826-0800a,"",1413426558345
activated,workbench,org.eclipse.ui.workbench,3.5.1.M20090826-0800a,"",1413426558555
deactivated,workbench,org.eclipse.ui.workbench,3.5.1.M20090826-0800a,"",1413426590106
activated,workbench,org.eclipse.ui.workbench,3.5.1.M20090826-0800a,"",1413426591005
deactivated,workbench,org.eclipse.ui.workbench,3.5.1.M20090826-0800a,"",1413426591250
activated,workbench,org.eclipse.ui.workbench,3.5.1.M20090826-0800a,"",1413426611831
executed,command,org.eclipse.ui,3.5.1.M20090902-1000,"org.eclipse.ui.file.save",1413426640511
executed,command,org.eclipse.ui,3.5.1.M20090902-1000,"org.eclipse.ui.file.save",1413426655359
started,bundle,org.eclipse.debug.ui,3.5.1.v20090811_r351,"org.eclipse.debug.ui",1413426659303
started,bundle,org.eclipse.cdt.core,5.1.2.201002161416,"org.eclipse.cdt.core",1413426659832
started,bundle,org.eclipse.cdt.core.tests,5.1.2.201002161416,"org.eclipse.cdt.core.tests",1413426660145
started,bundle,org.eclipse.cdt.debug.core,6.0.0.201002161416,"org.eclipse.cdt.debug.core",1413426660233
started,bundle,org.eclipse.cdt.debug.ui,6.0.0.201002161416,"org.eclipse.cdt.debug.ui",1413426660309
