what,kind,bundleId,bundleVersion,description,time
error,log,,,"Failed to load properties file for project 'FoodAndroidMobile'",1378799388151
activated,workbench,org.eclipse.ui.workbench,3.5.1.M20090826-0800a,"",1378799388249
executed,command,org.eclipse.ui,3.5.1.M20090902-1000,"org.eclipse.ui.file.import",1378799388279
executed,command,org.eclipse.ui,3.5.1.M20090902-1000,"org.eclipse.ui.file.import",1378799388279
started,bundle,org.eclipse.pde.core,3.5.100.v20090821,"org.eclipse.pde.core",1378799388781
error,log,,,"Failed to load properties file for project 'FoodAndroidMobile'",1378799390611
error,log,,,"Failed to load properties file for project 'FoodAndroidMobile'",1378799390765
error,log,,,"Failed to load properties file for project 'FoodAndroidMobile'",1378799390785
error,log,,,"Failed to load properties file for project 'FoodAndroidMobile'",1378799390813
activated,view,org.eclipse.ui.console,3.4.0.v20090513,"org.eclipse.ui.console.ConsoleView",1378799400534
activated,view,org.eclipse.ui.navigator.resources,3.4.1.M20090826-0800,"org.eclipse.ui.navigator.ProjectExplorer",1378799406249
error,log,,,"Failed to load properties file for project 'FoodAndroidMobile'",1378799410936
error,log,,,"Failed to load properties file for project 'FoodAndroidMobile'",1378799410943
error,log,,,"Failed to load properties file for project 'FoodAndroidMobile'",1378799410945
error,log,,,"Failed to load properties file for project 'FoodAndroidMobile'",1378799410948
error,log,,,"Failed to load properties file for project 'FoodAndroidMobile'",1378799410950
error,log,,,"Failed to load properties file for project 'FoodAndroidMobile'",1378799410952
error,log,,,"Failed to load properties file for project 'FoodAndroidMobile'",1378799410955
error,log,,,"Failed to load properties file for project 'FoodAndroidMobile'",1378799410957
error,log,,,"Failed to load properties file for project 'FoodAndroidMobile'",1378799410959
error,log,,,"Failed to load properties file for project 'FoodAndroidMobile'",1378799410962
error,log,,,"Failed to load properties file for project 'FoodAndroidMobile'",1378799410964
error,log,,,"Failed to load properties file for project 'FoodAndroidMobile'",1378799410970
opened,editor,com.android.ide.eclipse.adt,12.0.0.v201106281929-138431,"com.android.ide.eclipse.editors.layout.LayoutEditor",1378799410973
activated,editor,com.android.ide.eclipse.adt,12.0.0.v201106281929-138431,"com.android.ide.eclipse.editors.layout.LayoutEditor",1378799411013
