what,kind,bundleId,bundleVersion,description,time
java.version,sysinfo,,,"1.6.0_03",1416879988521
java.vm.info,sysinfo,,,"mixed mode",1416879988521
java.vm.name,sysinfo,,,"Java HotSpot(TM) Client VM",1416879988521
java.vm.specification.name,sysinfo,,,"Java Virtual Machine Specification",1416879988521
java.vm.specification.vendor,sysinfo,,,"Sun Microsystems Inc.",1416879988521
java.vm.specification.version,sysinfo,,,"1.0",1416879988521
java.vm.vendor,sysinfo,,,"Sun Microsystems Inc.",1416879988521
java.vm.version,sysinfo,,,"1.6.0_03-b05",1416879988521
started,bundle,org.eclipse.mylyn.tasks.ui,3.2.2.v20090912-0400-e3x,"org.eclipse.mylyn.tasks.ui",1416879988561
started,bundle,org.eclipse.mylyn.team.ui,3.2.2.v20090912-0400-e3x,"org.eclipse.mylyn.team.ui",1416879988567
activated,view,org.eclipse.jdt.ui,3.5.1.r351_v20090821-0800,"org.eclipse.jdt.ui.PackageExplorer",1416879988569
started,bundle,org.eclipse.update.scheduler,3.2.200.v20081127,"org.eclipse.update.scheduler",1416879988570
started,bundle,org.eclipse.update.core,3.2.300.v20090525,"org.eclipse.update.core",1416879988582
started,bundle,org.eclipse.wst.ws.service.policy.ui,1.0.102.v200903070248,"org.eclipse.wst.ws.service.policy.ui",1416879988587
started,bundle,org.eclipse.mylyn.monitor.ui,3.2.2.v20090912-0400-e3x,"org.eclipse.mylyn.monitor.ui",1416879988883
activated,editor,org.eclipse.jdt.ui,3.5.1.r351_v20090821-0800,"org.eclipse.jdt.ui.CompilationUnitEditor",1416879991055
activated,view,org.eclipse.jdt.ui,3.5.1.r351_v20090821-0800,"org.eclipse.jdt.ui.PackageExplorer",1416879991191
closed,editor,org.eclipse.jdt.ui,3.5.1.r351_v20090821-0800,"org.eclipse.jdt.ui.CompilationUnitEditor",1416879991194
opened,editor,org.eclipse.jdt.ui,3.5.1.r351_v20090821-0800,"org.eclipse.jdt.ui.CompilationUnitEditor",1416879997980
activated,editor,org.eclipse.jdt.ui,3.5.1.r351_v20090821-0800,"org.eclipse.jdt.ui.CompilationUnitEditor",1416879998004
activated,view,org.eclipse.jdt.ui,3.5.1.r351_v20090821-0800,"org.eclipse.jdt.ui.PackageExplorer",1416880082996
opened,editor,org.eclipse.jdt.ui,3.5.1.r351_v20090821-0800,"org.eclipse.jdt.ui.CompilationUnitEditor",1416880083311
activated,editor,org.eclipse.jdt.ui,3.5.1.r351_v20090821-0800,"org.eclipse.jdt.ui.CompilationUnitEditor",1416880083470
activated,view,org.eclipse.jdt.ui,3.5.1.r351_v20090821-0800,"org.eclipse.jdt.ui.PackageExplorer",1416880091273
opened,editor,org.eclipse.jdt.ui,3.5.1.r351_v20090821-0800,"org.eclipse.jdt.ui.CompilationUnitEditor",1416880091633
