what,kind,bundleId,bundleVersion,description,time
activated,editor,org.eclipse.jdt.ui,3.5.1.r351_v20090821-0800,"org.eclipse.jdt.ui.CompilationUnitEditor",1400121813423
executed,command,org.eclipse.ui,3.5.1.M20090902-1000,"org.eclipse.ui.file.save",1400121859698
activated,view,org.eclipse.jdt.ui,3.5.1.r351_v20090821-0800,"org.eclipse.jdt.ui.PackageExplorer",1400121860529
executed,command,,,"com.android.ide.eclipse.adt.debug.launching.LaunchShortcut.run",1400121863618
activated,view,com.android.ide.eclipse.ddms,12.0.0.v201106281929-138431,"com.android.ide.eclipse.ddms.views.LogCatView",1400121865328
deactivated,workbench,org.eclipse.ui.workbench,3.5.1.M20090826-0800a,"",1400121869963
activated,workbench,org.eclipse.ui.workbench,3.5.1.M20090826-0800a,"",1400121876946
deactivated,workbench,org.eclipse.ui.workbench,3.5.1.M20090826-0800a,"",1400121881833
activated,workbench,org.eclipse.ui.workbench,3.5.1.M20090826-0800a,"",1400121888856
activated,editor,org.eclipse.jdt.ui,3.5.1.r351_v20090821-0800,"org.eclipse.jdt.ui.CompilationUnitEditor",1400121889678
activated,view,com.android.ide.eclipse.ddms,12.0.0.v201106281929-138431,"com.android.ide.eclipse.ddms.views.LogCatView",1400121916233
deactivated,workbench,org.eclipse.ui.workbench,3.5.1.M20090826-0800a,"",1400121920223
activated,workbench,org.eclipse.ui.workbench,3.5.1.M20090826-0800a,"",1400121921256
deactivated,workbench,org.eclipse.ui.workbench,3.5.1.M20090826-0800a,"",1400121922263
activated,workbench,org.eclipse.ui.workbench,3.5.1.M20090826-0800a,"",1400121976457
deactivated,workbench,org.eclipse.ui.workbench,3.5.1.M20090826-0800a,"",1400121977969
activated,workbench,org.eclipse.ui.workbench,3.5.1.M20090826-0800a,"",1400121978716
deactivated,workbench,org.eclipse.ui.workbench,3.5.1.M20090826-0800a,"",1400121980055
activated,workbench,org.eclipse.ui.workbench,3.5.1.M20090826-0800a,"",1400122069805
activated,editor,org.eclipse.jdt.ui,3.5.1.r351_v20090821-0800,"org.eclipse.jdt.ui.CompilationUnitEditor",1400122073345
deactivated,workbench,org.eclipse.ui.workbench,3.5.1.M20090826-0800a,"",1400122096400
activated,workbench,org.eclipse.ui.workbench,3.5.1.M20090826-0800a,"",1400122100464
started,bundle,org.eclipse.mylyn.java.ui,3.2.2.v20090912-0400-e3x,"org.eclipse.mylyn.java.ui",1400122103195
started,bundle,org.eclipse.pde.api.tools,1.0.101.v20090714,"org.eclipse.pde.api.tools",1400122103447
started,bundle,org.eclipse.pde.api.tools.ui,1.0.101.v20090820,"org.eclipse.pde.api.tools.ui",1400122103457
