what,kind,bundleId,bundleVersion,description,time
executed,command,org.eclipse.ui,3.5.1.M20090902-1000,"org.eclipse.ui.file.save",1399191011862
activated,editor,org.eclipse.jdt.ui,3.5.1.r351_v20090821-0800,"org.eclipse.jdt.ui.CompilationUnitEditor",1399191012661
started,bundle,org.eclipse.draw2d,3.5.1.v20090813-1341,"org.eclipse.draw2d",1399191025725
executed,command,org.eclipse.ui,3.5.1.M20090902-1000,"org.eclipse.ui.edit.text.contentAssist.proposals",1399191074290
deactivated,workbench,org.eclipse.ui.workbench,3.5.1.M20090826-0800a,"",1399191107481
activated,workbench,org.eclipse.ui.workbench,3.5.1.M20090826-0800a,"",1399191119047
deactivated,workbench,org.eclipse.ui.workbench,3.5.1.M20090826-0800a,"",1399191119840
activated,workbench,org.eclipse.ui.workbench,3.5.1.M20090826-0800a,"",1399191120757
deactivated,workbench,org.eclipse.ui.workbench,3.5.1.M20090826-0800a,"",1399191121344
activated,workbench,org.eclipse.ui.workbench,3.5.1.M20090826-0800a,"",1399191215626
activated,editor,org.eclipse.jdt.ui,3.5.1.r351_v20090821-0800,"org.eclipse.jdt.ui.CompilationUnitEditor",1399191218889
executed,command,org.eclipse.ui,3.5.1.M20090902-1000,"org.eclipse.ui.file.save",1399191242074
activated,editor,org.eclipse.jdt.ui,3.5.1.r351_v20090821-0800,"org.eclipse.jdt.ui.CompilationUnitEditor",1399191252761
deactivated,workbench,org.eclipse.ui.workbench,3.5.1.M20090826-0800a,"",1399191255417
activated,workbench,org.eclipse.ui.workbench,3.5.1.M20090826-0800a,"",1399191257977
deactivated,workbench,org.eclipse.ui.workbench,3.5.1.M20090826-0800a,"",1399191259096
activated,workbench,org.eclipse.ui.workbench,3.5.1.M20090826-0800a,"",1399191330989
executed,command,org.eclipse.ui,3.5.1.M20090902-1000,"org.eclipse.ui.edit.text.contentAssist.proposals",1399191349167
deactivated,workbench,org.eclipse.ui.workbench,3.5.1.M20090826-0800a,"",1399191368088
activated,workbench,org.eclipse.ui.workbench,3.5.1.M20090826-0800a,"",1399191368277
deactivated,workbench,org.eclipse.ui.workbench,3.5.1.M20090826-0800a,"",1399191391721
activated,workbench,org.eclipse.ui.workbench,3.5.1.M20090826-0800a,"",1399191393826
deactivated,workbench,org.eclipse.ui.workbench,3.5.1.M20090826-0800a,"",1399191465375
activated,workbench,org.eclipse.ui.workbench,3.5.1.M20090826-0800a,"",1399191465857
deactivated,workbench,org.eclipse.ui.workbench,3.5.1.M20090826-0800a,"",1399191467795
