what,kind,bundleId,bundleVersion,description,time
activated,view,org.eclipse.jdt.ui,3.5.1.r351_v20090821-0800,"org.eclipse.jdt.ui.PackageExplorer",1398151127180
activated,view,org.eclipse.ui.console,3.4.0.v20090513,"org.eclipse.ui.console.ConsoleView",1398151132443
activated,view,com.android.ide.eclipse.ddms,12.0.0.v201106281929-138431,"com.android.ide.eclipse.ddms.views.LogCatView",1398151136748
activated,view,org.eclipse.ui.console,3.4.0.v20090513,"org.eclipse.ui.console.ConsoleView",1398151144364
activated,view,com.android.ide.eclipse.ddms,12.0.0.v201106281929-138431,"com.android.ide.eclipse.ddms.views.LogCatView",1398151146307
closed,view,org.eclipse.ui.console,3.4.0.v20090513,"org.eclipse.ui.console.ConsoleView",1398151146309
deactivated,workbench,org.eclipse.ui.workbench,3.5.1.M20090826-0800a,"",1398151156071
activated,workbench,org.eclipse.ui.workbench,3.5.1.M20090826-0800a,"",1398151158941
activated,editor,org.eclipse.jdt.ui,3.5.1.r351_v20090821-0800,"org.eclipse.jdt.ui.CompilationUnitEditor",1398151161794
activated,editor,org.eclipse.jdt.ui,3.5.1.r351_v20090821-0800,"org.eclipse.jdt.ui.CompilationUnitEditor",1398151164468
activated,editor,org.eclipse.jdt.ui,3.5.1.r351_v20090821-0800,"org.eclipse.jdt.ui.CompilationUnitEditor",1398151182556
deactivated,workbench,org.eclipse.ui.workbench,3.5.1.M20090826-0800a,"",1398151192152
activated,workbench,org.eclipse.ui.workbench,3.5.1.M20090826-0800a,"",1398151379272
deactivated,workbench,org.eclipse.ui.workbench,3.5.1.M20090826-0800a,"",1398151381883
activated,workbench,org.eclipse.ui.workbench,3.5.1.M20090826-0800a,"",1398151397412
activated,editor,org.eclipse.jdt.ui,3.5.1.r351_v20090821-0800,"org.eclipse.jdt.ui.CompilationUnitEditor",1398152298460
deactivated,workbench,org.eclipse.ui.workbench,3.5.1.M20090826-0800a,"",1398152318892
executed,command,org.eclipse.ui.workbench.texteditor,3.5.0.v20090603,"org.eclipse.ui.edit.text.showInformation",1398152318908
activated,workbench,org.eclipse.ui.workbench,3.5.1.M20090826-0800a,"",1398152322864
deactivated,workbench,org.eclipse.ui.workbench,3.5.1.M20090826-0800a,"",1398152323938
activated,workbench,org.eclipse.ui.workbench,3.5.1.M20090826-0800a,"",1398152327726
deactivated,workbench,org.eclipse.ui.workbench,3.5.1.M20090826-0800a,"",1398152328440
activated,workbench,org.eclipse.ui.workbench,3.5.1.M20090826-0800a,"",1398152342931
activated,view,com.android.ide.eclipse.ddms,12.0.0.v201106281929-138431,"com.android.ide.eclipse.ddms.views.LogCatView",1398152345020
activated,editor,org.eclipse.jdt.ui,3.5.1.r351_v20090821-0800,"org.eclipse.jdt.ui.CompilationUnitEditor",1398152345114
