what,kind,bundleId,bundleVersion,description,time
activated,editor,com.android.ide.eclipse.adt,12.0.0.v201106281929-138431,"com.android.ide.eclipse.editors.layout.LayoutEditor",1400827343665
activated,editor,org.eclipse.jdt.ui,3.5.1.r351_v20090821-0800,"org.eclipse.jdt.ui.CompilationUnitEditor",1400827348806
activated,view,org.eclipse.jdt.ui,3.5.1.r351_v20090821-0800,"org.eclipse.jdt.ui.PackageExplorer",1400827351158
deactivated,workbench,org.eclipse.ui.workbench,3.5.1.M20090826-0800a,"",1400827352810
activated,workbench,org.eclipse.ui.workbench,3.5.1.M20090826-0800a,"",1400827357147
activated,workbench,org.eclipse.ui.workbench,3.5.1.M20090826-0800a,"",1400827546820
deactivated,workbench,org.eclipse.ui.workbench,3.5.1.M20090826-0800a,"",1400827546824
activated,workbench,org.eclipse.ui.workbench,3.5.1.M20090826-0800a,"",1400827725786
deactivated,workbench,org.eclipse.ui.workbench,3.5.1.M20090826-0800a,"",1400827726922
closed,workbench,org.eclipse.ui.workbench,3.5.1.M20090826-0800a,"",1400835503643
