what,kind,bundleId,bundleVersion,description,time
java.specification.version,sysinfo,,,"1.6",1416206423333
java.vendor,sysinfo,,,"Sun Microsystems Inc.",1416206423333
java.version,sysinfo,,,"1.6.0_03",1416206423333
java.vm.info,sysinfo,,,"mixed mode",1416206423333
java.vm.name,sysinfo,,,"Java HotSpot(TM) Client VM",1416206423333
java.vm.specification.name,sysinfo,,,"Java Virtual Machine Specification",1416206423333
java.vm.specification.vendor,sysinfo,,,"Sun Microsystems Inc.",1416206423333
java.vm.specification.version,sysinfo,,,"1.0",1416206423333
java.vm.vendor,sysinfo,,,"Sun Microsystems Inc.",1416206423333
java.vm.version,sysinfo,,,"1.6.0_03-b05",1416206423333
activated,editor,com.android.ide.eclipse.adt,12.0.0.v201106281929-138431,"com.android.ide.eclipse.editors.layout.LayoutEditor",1416206423431
started,bundle,org.eclipse.mylyn.monitor.ui,3.2.2.v20090912-0400-e3x,"org.eclipse.mylyn.monitor.ui",1416206423602
started,bundle,org.eclipse.wst.dtd.core,1.1.300.v200904181727,"org.eclipse.wst.dtd.core",1416206424550
started,bundle,org.eclipse.jst.jsf.ui,1.2.1.v20090827,"org.eclipse.jst.jsf.ui",1416206425648
started,bundle,org.eclipse.wst.wsi.ui,1.0.500.v200901141851,"org.eclipse.wst.wsi.ui",1416206426011
activated,view,org.eclipse.jdt.ui,3.5.1.r351_v20090821-0800,"org.eclipse.jdt.ui.PackageExplorer",1416206426640
started,bundle,org.eclipse.jst.j2ee.ejb,1.1.300.v200904230730,"org.eclipse.jst.j2ee.ejb",1416206426941
started,bundle,org.eclipse.jst.common.frameworks,1.1.300.v200904132230,"org.eclipse.jst.common.frameworks",1416206427339
started,bundle,org.eclipse.wst.jsdt.core,1.0.201.v200908101420,"org.eclipse.wst.jsdt.core",1416206428495
started,bundle,org.eclipse.wst.jsdt.web.core,1.0.200.v200905120445,"org.eclipse.wst.jsdt.web.core",1416206429203
started,bundle,org.eclipse.wst.wsdl.validation,1.1.401.v200902271605,"org.eclipse.wst.wsdl.validation",1416206430909
started,bundle,org.eclipse.wst.ws.service.policy,1.0.103.v200905151848,"org.eclipse.wst.ws.service.policy",1416206431796
started,bundle,org.eclipse.jst.j2ee.web,1.1.301.v200908270924,"org.eclipse.jst.j2ee.web",1416206432384
started,bundle,org.eclipse.wst.xsd.core,1.1.401.v200903020335,"org.eclipse.wst.xsd.core",1416206432572
started,bundle,org.eclipse.wst.command.env,1.0.408.v200903110045,"org.eclipse.wst.command.env",1416206433061
