what,kind,bundleId,bundleVersion,description,time
started,bundle,org.eclipse.cdt.debug.core,6.0.0.201002161416,"org.eclipse.cdt.debug.core",1409618759316
started,bundle,org.eclipse.cdt.debug.ui,6.0.0.201002161416,"org.eclipse.cdt.debug.ui",1409618759465
started,bundle,org.eclipse.jdt.debug,3.5.0.v20090526,"org.eclipse.jdt.debug",1409618760493
deactivated,workbench,org.eclipse.ui.workbench,3.5.1.M20090826-0800a,"",1409618782906
activated,workbench,org.eclipse.ui.workbench,3.5.1.M20090826-0800a,"",1409618800614
opened,editor,org.eclipse.jdt.ui,3.5.1.r351_v20090821-0800,"org.eclipse.jdt.ui.CompilationUnitEditor",1409618801197
started,bundle,org.eclipse.jdt.debug.ui,3.4.1.v20090811_r351,"org.eclipse.jdt.debug.ui",1409618801446
activated,editor,org.eclipse.jdt.ui,3.5.1.r351_v20090821-0800,"org.eclipse.jdt.ui.CompilationUnitEditor",1409618801553
started,bundle,org.eclipse.mylyn.java.ui,3.2.2.v20090912-0400-e3x,"org.eclipse.mylyn.java.ui",1409618823336
started,bundle,org.eclipse.pde.api.tools,1.0.101.v20090714,"org.eclipse.pde.api.tools",1409618823428
started,bundle,org.eclipse.pde.api.tools.ui,1.0.101.v20090820,"org.eclipse.pde.api.tools.ui",1409618823430
started,bundle,org.eclipse.jdt.junit,3.5.1.r351_v20090708-0800,"org.eclipse.jdt.junit",1409618823910
executed,command,org.eclipse.ui,3.5.1.M20090902-1000,"org.eclipse.ui.edit.delete",1409618842211
deactivated,workbench,org.eclipse.ui.workbench,3.5.1.M20090826-0800a,"",1409618863070
activated,workbench,org.eclipse.ui.workbench,3.5.1.M20090826-0800a,"",1409618865712
executed,command,org.eclipse.jdt.ui,3.5.1.r351_v20090821-0800,"org.eclipse.jdt.ui.edit.text.java.generate.constructor.using.fields",1409618865771
deactivated,workbench,org.eclipse.ui.workbench,3.5.1.M20090826-0800a,"",1409619072229
activated,workbench,org.eclipse.ui.workbench,3.5.1.M20090826-0800a,"",1409619074428
started,bundle,org.eclipse.mylyn.java.tasks,3.2.2.v20090912-0400-e3x,"org.eclipse.mylyn.java.tasks",1409619121582
executed,command,org.eclipse.ui,3.5.1.M20090902-1000,"org.eclipse.ui.edit.copy",1409619121631
executed,command,org.eclipse.ui,3.5.1.M20090902-1000,"org.eclipse.ui.edit.paste",1409619123936
executed,command,org.eclipse.ui,3.5.1.M20090902-1000,"org.eclipse.ui.file.save",1409619131715
activated,view,org.eclipse.jdt.ui,3.5.1.r351_v20090821-0800,"org.eclipse.jdt.ui.PackageExplorer",1409619148537
deactivated,workbench,org.eclipse.ui.workbench,3.5.1.M20090826-0800a,"",1409619154226
activated,workbench,org.eclipse.ui.workbench,3.5.1.M20090826-0800a,"",1409619164080
