what,kind,bundleId,bundleVersion,description,time
deactivated,workbench,org.eclipse.ui.workbench,3.5.1.M20090826-0800a,"",1400125846248
activated,workbench,org.eclipse.ui.workbench,3.5.1.M20090826-0800a,"",1400130362690
activated,view,org.eclipse.debug.ui,3.5.1.v20090811_r351,"org.eclipse.debug.ui.DebugView",1400130475829
executed,command,org.eclipse.debug.ui,3.5.1.v20090811_r351,"org.eclipse.debug.ui.commands.Resume",1400130475946
activated,view,com.android.ide.eclipse.ddms,12.0.0.v201106281929-138431,"com.android.ide.eclipse.ddms.views.LogCatView",1400130480103
deactivated,workbench,org.eclipse.ui.workbench,3.5.1.M20090826-0800a,"",1400130483534
activated,workbench,org.eclipse.ui.workbench,3.5.1.M20090826-0800a,"",1400130488020
activated,editor,org.eclipse.jdt.ui,3.5.1.r351_v20090821-0800,"org.eclipse.jdt.ui.CompilationUnitEditor",1400130488051
activated,view,org.eclipse.debug.ui,3.5.1.v20090811_r351,"org.eclipse.debug.ui.DebugView",1400130491248
activated,perspective,org.eclipse.jdt.ui,3.5.1.r351_v20090821-0800,"org.eclipse.jdt.ui.JavaPerspective",1400130492929
activated,editor,org.eclipse.jdt.ui,3.5.1.r351_v20090821-0800,"org.eclipse.jdt.ui.CompilationUnitEditor",1400130492951
executed,command,org.eclipse.jdt.ui,3.5.1.r351_v20090821-0800,"org.eclipse.jdt.ui.edit.text.java.toggle.comment",1400130572890
executed,command,org.eclipse.ui,3.5.1.M20090902-1000,"org.eclipse.ui.file.save",1400130575329
activated,view,org.eclipse.jdt.ui,3.5.1.r351_v20090821-0800,"org.eclipse.jdt.ui.PackageExplorer",1400130576557
executed,command,,,"com.android.ide.eclipse.adt.debug.launching.LaunchShortcut.run",1400130579904
activated,view,com.android.ide.eclipse.ddms,12.0.0.v201106281929-138431,"com.android.ide.eclipse.ddms.views.LogCatView",1400130581416
deactivated,workbench,org.eclipse.ui.workbench,3.5.1.M20090826-0800a,"",1400130590826
activated,workbench,org.eclipse.ui.workbench,3.5.1.M20090826-0800a,"",1400130595714
activated,editor,org.eclipse.jdt.ui,3.5.1.r351_v20090821-0800,"org.eclipse.jdt.ui.CompilationUnitEditor",1400130600786
deactivated,workbench,org.eclipse.ui.workbench,3.5.1.M20090826-0800a,"",1400130622369
deactivated,workbench,org.eclipse.ui.workbench,3.5.1.M20090826-0800a,"",1400130626396
activated,workbench,org.eclipse.ui.workbench,3.5.1.M20090826-0800a,"",1400130628617
activated,view,com.android.ide.eclipse.ddms,12.0.0.v201106281929-138431,"com.android.ide.eclipse.ddms.views.LogCatView",1400130630189
activated,editor,org.eclipse.jdt.ui,3.5.1.r351_v20090821-0800,"org.eclipse.jdt.ui.CompilationUnitEditor",1400130633087
executed,command,org.eclipse.jdt.ui,3.5.1.r351_v20090821-0800,"org.eclipse.jdt.ui.edit.text.java.toggle.comment",1400130654595
