what,kind,bundleId,bundleVersion,description,time
activated,workbench,org.eclipse.ui.workbench,3.5.1.M20090826-0800a,"",1398688118919
deactivated,workbench,org.eclipse.ui.workbench,3.5.1.M20090826-0800a,"",1398688119528
activated,workbench,org.eclipse.ui.workbench,3.5.1.M20090826-0800a,"",1398688121300
deactivated,workbench,org.eclipse.ui.workbench,3.5.1.M20090826-0800a,"",1398688122250
activated,workbench,org.eclipse.ui.workbench,3.5.1.M20090826-0800a,"",1398688123465
deactivated,workbench,org.eclipse.ui.workbench,3.5.1.M20090826-0800a,"",1398688126201
activated,workbench,org.eclipse.ui.workbench,3.5.1.M20090826-0800a,"",1398688130591
deactivated,workbench,org.eclipse.ui.workbench,3.5.1.M20090826-0800a,"",1398688135427
activated,workbench,org.eclipse.ui.workbench,3.5.1.M20090826-0800a,"",1398688141337
opened,view,com.android.ide.eclipse.ddms,12.0.0.v201106281929-138431,"com.android.ide.eclipse.ddms.views.LogCatView",1398688144513
activated,view,com.android.ide.eclipse.ddms,12.0.0.v201106281929-138431,"com.android.ide.eclipse.ddms.views.LogCatView",1398688144566
activated,editor,org.eclipse.jdt.ui,3.5.1.r351_v20090821-0800,"org.eclipse.jdt.ui.CompilationUnitEditor",1398688146725
activated,view,com.android.ide.eclipse.ddms,12.0.0.v201106281929-138431,"com.android.ide.eclipse.ddms.views.LogCatView",1398688150345
deactivated,workbench,org.eclipse.ui.workbench,3.5.1.M20090826-0800a,"",1398688151665
activated,workbench,org.eclipse.ui.workbench,3.5.1.M20090826-0800a,"",1398688153350
activated,editor,org.eclipse.jdt.ui,3.5.1.r351_v20090821-0800,"org.eclipse.jdt.ui.CompilationUnitEditor",1398688153521
deactivated,workbench,org.eclipse.ui.workbench,3.5.1.M20090826-0800a,"",1398688153895
activated,workbench,org.eclipse.ui.workbench,3.5.1.M20090826-0800a,"",1398688154741
activated,view,com.android.ide.eclipse.ddms,12.0.0.v201106281929-138431,"com.android.ide.eclipse.ddms.views.LogCatView",1398688154919
deactivated,workbench,org.eclipse.ui.workbench,3.5.1.M20090826-0800a,"",1398688155705
activated,workbench,org.eclipse.ui.workbench,3.5.1.M20090826-0800a,"",1398688156027
activated,editor,org.eclipse.jdt.ui,3.5.1.r351_v20090821-0800,"org.eclipse.jdt.ui.CompilationUnitEditor",1398688156156
activated,view,com.android.ide.eclipse.ddms,12.0.0.v201106281929-138431,"com.android.ide.eclipse.ddms.views.LogCatView",1398688156653
deactivated,workbench,org.eclipse.ui.workbench,3.5.1.M20090826-0800a,"",1398688161905
activated,workbench,org.eclipse.ui.workbench,3.5.1.M20090826-0800a,"",1398688163092
