what,kind,bundleId,bundleVersion,description,time
activated,workbench,org.eclipse.ui.workbench,3.5.1.M20090826-0800a,"",1415977869405
deactivated,workbench,org.eclipse.ui.workbench,3.5.1.M20090826-0800a,"",1415977892878
activated,workbench,org.eclipse.ui.workbench,3.5.1.M20090826-0800a,"",1415977893065
executed,command,org.eclipse.ui,3.5.1.M20090902-1000,"org.eclipse.ui.edit.text.contentAssist.proposals",1415977919573
deactivated,workbench,org.eclipse.ui.workbench,3.5.1.M20090826-0800a,"",1415977940092
activated,workbench,org.eclipse.ui.workbench,3.5.1.M20090826-0800a,"",1415977941703
deactivated,workbench,org.eclipse.ui.workbench,3.5.1.M20090826-0800a,"",1415977942924
activated,workbench,org.eclipse.ui.workbench,3.5.1.M20090826-0800a,"",1415977945169
deactivated,workbench,org.eclipse.ui.workbench,3.5.1.M20090826-0800a,"",1415977947527
activated,workbench,org.eclipse.ui.workbench,3.5.1.M20090826-0800a,"",1415977950125
deactivated,workbench,org.eclipse.ui.workbench,3.5.1.M20090826-0800a,"",1415977979442
activated,workbench,org.eclipse.ui.workbench,3.5.1.M20090826-0800a,"",1415977982254
deactivated,workbench,org.eclipse.ui.workbench,3.5.1.M20090826-0800a,"",1415977997803
activated,workbench,org.eclipse.ui.workbench,3.5.1.M20090826-0800a,"",1415977998027
deactivated,workbench,org.eclipse.ui.workbench,3.5.1.M20090826-0800a,"",1415978008980
activated,workbench,org.eclipse.ui.workbench,3.5.1.M20090826-0800a,"",1415978010296
deactivated,workbench,org.eclipse.ui.workbench,3.5.1.M20090826-0800a,"",1415978015296
activated,workbench,org.eclipse.ui.workbench,3.5.1.M20090826-0800a,"",1415978016270
deactivated,workbench,org.eclipse.ui.workbench,3.5.1.M20090826-0800a,"",1415978018445
activated,workbench,org.eclipse.ui.workbench,3.5.1.M20090826-0800a,"",1415978019196
executed,command,org.eclipse.ui,3.5.1.M20090902-1000,"org.eclipse.ui.file.save",1415978022257
executed,command,org.eclipse.ui,3.5.1.M20090902-1000,"org.eclipse.ui.file.save",1415978040146
activated,view,org.eclipse.jdt.ui,3.5.1.r351_v20090821-0800,"org.eclipse.jdt.ui.PackageExplorer",1415978046941
started,bundle,org.eclipse.cdt.core,5.1.2.201002161416,"org.eclipse.cdt.core",1415978048211
started,bundle,org.eclipse.cdt.debug.core,6.0.0.201002161416,"org.eclipse.cdt.debug.core",1415978048273
