what,kind,bundleId,bundleVersion,description,time
deactivated,workbench,org.eclipse.ui.workbench,3.5.1.M20090826-0800a,"",1413648763409
activated,workbench,org.eclipse.ui.workbench,3.5.1.M20090826-0800a,"",1413648892279
activated,editor,org.eclipse.jdt.ui,3.5.1.r351_v20090821-0800,"org.eclipse.jdt.ui.CompilationUnitEditor",1413648893222
deactivated,workbench,org.eclipse.ui.workbench,3.5.1.M20090826-0800a,"",1413648898381
activated,workbench,org.eclipse.ui.workbench,3.5.1.M20090826-0800a,"",1413648904330
executed,command,org.eclipse.ui,3.5.1.M20090902-1000,"org.eclipse.ui.edit.paste",1413648906147
deactivated,workbench,org.eclipse.ui.workbench,3.5.1.M20090826-0800a,"",1413648912967
activated,workbench,org.eclipse.ui.workbench,3.5.1.M20090826-0800a,"",1413648912988
executed,command,org.eclipse.jdt.ui,3.5.1.r351_v20090821-0800,"org.eclipse.jdt.ui.edit.text.java.format",1413648920751
executed,command,org.eclipse.ui,3.5.1.M20090902-1000,"org.eclipse.ui.file.save",1413648961277
executed,command,org.eclipse.ui,3.5.1.M20090902-1000,"org.eclipse.ui.file.save",1413648973988
executed,command,org.eclipse.jdt.debug.ui,3.4.1.v20090811_r351,"org.eclipse.jdt.debug.ui.localJavaShortcut.run",1413648977787
activated,view,org.eclipse.ui.console,3.4.0.v20090513,"org.eclipse.ui.console.ConsoleView",1413648978227
activated,editor,org.eclipse.jdt.ui,3.5.1.r351_v20090821-0800,"org.eclipse.jdt.ui.CompilationUnitEditor",1413648981155
executed,command,org.eclipse.jdt.debug.ui,3.4.1.v20090811_r351,"org.eclipse.jdt.debug.ui.localJavaShortcut.run",1413648982986
activated,view,org.eclipse.ui.console,3.4.0.v20090513,"org.eclipse.ui.console.ConsoleView",1413648983361
activated,editor,org.eclipse.jdt.ui,3.5.1.r351_v20090821-0800,"org.eclipse.jdt.ui.CompilationUnitEditor",1413648987465
deactivated,workbench,org.eclipse.ui.workbench,3.5.1.M20090826-0800a,"",1413648989426
activated,workbench,org.eclipse.ui.workbench,3.5.1.M20090826-0800a,"",1413648990308
deactivated,workbench,org.eclipse.ui.workbench,3.5.1.M20090826-0800a,"",1413648990689
activated,workbench,org.eclipse.ui.workbench,3.5.1.M20090826-0800a,"",1413648991278
deactivated,workbench,org.eclipse.ui.workbench,3.5.1.M20090826-0800a,"",1413648991746
activated,workbench,org.eclipse.ui.workbench,3.5.1.M20090826-0800a,"",1413649003011
deactivated,workbench,org.eclipse.ui.workbench,3.5.1.M20090826-0800a,"",1413649095296
activated,workbench,org.eclipse.ui.workbench,3.5.1.M20090826-0800a,"",1413649096424
