what,kind,bundleId,bundleVersion,description,time
deactivated,workbench,org.eclipse.ui.workbench,3.5.1.M20090826-0800a,"",1407909603652
activated,workbench,org.eclipse.ui.workbench,3.5.1.M20090826-0800a,"",1407909610732
deactivated,workbench,org.eclipse.ui.workbench,3.5.1.M20090826-0800a,"",1407909623757
activated,workbench,org.eclipse.ui.workbench,3.5.1.M20090826-0800a,"",1407909627574
executed,command,org.eclipse.ui,3.5.1.M20090902-1000,"org.eclipse.ui.edit.text.contentAssist.proposals",1407909651967
deactivated,workbench,org.eclipse.ui.workbench,3.5.1.M20090826-0800a,"",1407909660282
activated,workbench,org.eclipse.ui.workbench,3.5.1.M20090826-0800a,"",1407909665608
deactivated,workbench,org.eclipse.ui.workbench,3.5.1.M20090826-0800a,"",1407909676768
activated,workbench,org.eclipse.ui.workbench,3.5.1.M20090826-0800a,"",1407909681276
deactivated,workbench,org.eclipse.ui.workbench,3.5.1.M20090826-0800a,"",1407909690249
activated,workbench,org.eclipse.ui.workbench,3.5.1.M20090826-0800a,"",1407909692797
deactivated,workbench,org.eclipse.ui.workbench,3.5.1.M20090826-0800a,"",1407909694671
activated,workbench,org.eclipse.ui.workbench,3.5.1.M20090826-0800a,"",1407909696389
executed,command,org.eclipse.ui,3.5.1.M20090902-1000,"org.eclipse.ui.edit.text.contentAssist.proposals",1407909700297
deactivated,workbench,org.eclipse.ui.workbench,3.5.1.M20090826-0800a,"",1407909702201
activated,workbench,org.eclipse.ui.workbench,3.5.1.M20090826-0800a,"",1407909704500
executed,command,org.eclipse.ui,3.5.1.M20090902-1000,"org.eclipse.ui.edit.text.contentAssist.proposals",1407909709814
deactivated,workbench,org.eclipse.ui.workbench,3.5.1.M20090826-0800a,"",1407909713820
activated,workbench,org.eclipse.ui.workbench,3.5.1.M20090826-0800a,"",1407909714075
deactivated,workbench,org.eclipse.ui.workbench,3.5.1.M20090826-0800a,"",1407909721173
activated,workbench,org.eclipse.ui.workbench,3.5.1.M20090826-0800a,"",1407909729362
deactivated,workbench,org.eclipse.ui.workbench,3.5.1.M20090826-0800a,"",1407909731011
activated,workbench,org.eclipse.ui.workbench,3.5.1.M20090826-0800a,"",1407909732905
executed,command,org.eclipse.ui,3.5.1.M20090902-1000,"org.eclipse.ui.edit.text.contentAssist.proposals",1407909753406
deactivated,workbench,org.eclipse.ui.workbench,3.5.1.M20090826-0800a,"",1407909769111
