what,kind,bundleId,bundleVersion,description,time
arch,sysinfo,,,"x86",1401030213423
ws,sysinfo,,,"win32",1401030213423
locale,sysinfo,,,"zh_CN",1401030213423
processors,sysinfo,,,"4",1401030213423
java.runtime.name,sysinfo,,,"Java(TM) SE Runtime Environment",1401030213423
java.runtime.version,sysinfo,,,"1.6.0_03-b05",1401030213423
java.specification.name,sysinfo,,,"Java Platform API Specification",1401030213423
java.specification.vendor,sysinfo,,,"Sun Microsystems Inc.",1401030213423
java.specification.version,sysinfo,,,"1.6",1401030213423
java.vendor,sysinfo,,,"Sun Microsystems Inc.",1401030213423
java.version,sysinfo,,,"1.6.0_03",1401030213423
java.vm.info,sysinfo,,,"mixed mode",1401030213423
java.vm.name,sysinfo,,,"Java HotSpot(TM) Client VM",1401030213423
java.vm.specification.name,sysinfo,,,"Java Virtual Machine Specification",1401030213423
java.vm.specification.vendor,sysinfo,,,"Sun Microsystems Inc.",1401030213423
java.vm.specification.version,sysinfo,,,"1.0",1401030213423
java.vm.vendor,sysinfo,,,"Sun Microsystems Inc.",1401030213423
java.vm.version,sysinfo,,,"1.6.0_03-b05",1401030213423
started,bundle,org.eclipse.jst.jsf.core,1.2.2.v20090903,"org.eclipse.jst.jsf.core",1401030213619
started,bundle,org.eclipse.mylyn.commons.net,3.2.0.v20090617-0100-e3x,"org.eclipse.mylyn.commons.net",1401030214573
started,bundle,org.eclipse.jst.common.project.facet.core,1.4.1.v200908111817,"org.eclipse.jst.common.project.facet.core",1401030215127
started,bundle,org.eclipse.mylyn.commons.ui,3.2.2.v20090912-0400-e3x,"org.eclipse.mylyn.commons.ui",1401030216407
started,bundle,org.eclipse.mylyn.bugzilla.core,3.2.2.v20090912-0400-e3x,"org.eclipse.mylyn.bugzilla.core",1401030218227
started,bundle,org.eclipse.mylyn.bugzilla.ui,3.2.2.v20090912-0400-e3x,"org.eclipse.mylyn.bugzilla.ui",1401030219614
started,bundle,org.eclipse.mylyn.context.core,3.2.2.v20090912-0400-e3x,"org.eclipse.mylyn.context.core",1401030221351
