what,kind,bundleId,bundleVersion,description,time
deactivated,workbench,org.eclipse.ui.workbench,3.5.1.M20090826-0800a,"",1407478585230
activated,workbench,org.eclipse.ui.workbench,3.5.1.M20090826-0800a,"",1407478591743
executed,command,org.eclipse.ui,3.5.1.M20090902-1000,"org.eclipse.ui.edit.copy",1407478623929
executed,command,org.eclipse.ui,3.5.1.M20090902-1000,"org.eclipse.ui.edit.paste",1407478624706
deactivated,workbench,org.eclipse.ui.workbench,3.5.1.M20090826-0800a,"",1407478637990
activated,workbench,org.eclipse.ui.workbench,3.5.1.M20090826-0800a,"",1407478640855
deactivated,workbench,org.eclipse.ui.workbench,3.5.1.M20090826-0800a,"",1407478664422
activated,workbench,org.eclipse.ui.workbench,3.5.1.M20090826-0800a,"",1407478669937
deactivated,workbench,org.eclipse.ui.workbench,3.5.1.M20090826-0800a,"",1407478693915
activated,workbench,org.eclipse.ui.workbench,3.5.1.M20090826-0800a,"",1407478698583
deactivated,workbench,org.eclipse.ui.workbench,3.5.1.M20090826-0800a,"",1407478747919
activated,workbench,org.eclipse.ui.workbench,3.5.1.M20090826-0800a,"",1407478758788
deactivated,workbench,org.eclipse.ui.workbench,3.5.1.M20090826-0800a,"",1407478764848
activated,workbench,org.eclipse.ui.workbench,3.5.1.M20090826-0800a,"",1407478776127
executed,command,org.eclipse.ui,3.5.1.M20090902-1000,"org.eclipse.ui.edit.text.contentAssist.proposals",1407478804300
deactivated,workbench,org.eclipse.ui.workbench,3.5.1.M20090826-0800a,"",1407478807264
activated,workbench,org.eclipse.ui.workbench,3.5.1.M20090826-0800a,"",1407478810517
deactivated,workbench,org.eclipse.ui.workbench,3.5.1.M20090826-0800a,"",1407478854256
activated,workbench,org.eclipse.ui.workbench,3.5.1.M20090826-0800a,"",1407478857143
deactivated,workbench,org.eclipse.ui.workbench,3.5.1.M20090826-0800a,"",1407478866465
activated,workbench,org.eclipse.ui.workbench,3.5.1.M20090826-0800a,"",1407478869954
deactivated,workbench,org.eclipse.ui.workbench,3.5.1.M20090826-0800a,"",1407478907106
activated,workbench,org.eclipse.ui.workbench,3.5.1.M20090826-0800a,"",1407478912097
executed,command,org.eclipse.ui.workbench.texteditor,3.5.0.v20090603,"org.eclipse.ui.edit.text.goto.lineStart",1407478919230
executed,command,org.eclipse.ui.workbench.texteditor,3.5.0.v20090603,"org.eclipse.ui.edit.text.goto.lineEnd",1407478923048
