what,kind,bundleId,bundleVersion,description,time
activated,workbench,org.eclipse.ui.workbench,3.5.1.M20090826-0800a,"",1399359892925
activated,editor,org.eclipse.jdt.ui,3.5.1.r351_v20090821-0800,"org.eclipse.jdt.ui.CompilationUnitEditor",1399359892953
deactivated,workbench,org.eclipse.ui.workbench,3.5.1.M20090826-0800a,"",1399359913005
activated,workbench,org.eclipse.ui.workbench,3.5.1.M20090826-0800a,"",1399359960034
deactivated,workbench,org.eclipse.ui.workbench,3.5.1.M20090826-0800a,"",1399359985413
activated,workbench,org.eclipse.ui.workbench,3.5.1.M20090826-0800a,"",1399360029322
activated,view,com.android.ide.eclipse.ddms,12.0.0.v201106281929-138431,"com.android.ide.eclipse.ddms.views.LogCatView",1399360031063
deactivated,workbench,org.eclipse.ui.workbench,3.5.1.M20090826-0800a,"",1399360032254
activated,workbench,org.eclipse.ui.workbench,3.5.1.M20090826-0800a,"",1399360037360
activated,editor,org.eclipse.jdt.ui,3.5.1.r351_v20090821-0800,"org.eclipse.jdt.ui.CompilationUnitEditor",1399360051909
activated,view,com.android.ide.eclipse.ddms,12.0.0.v201106281929-138431,"com.android.ide.eclipse.ddms.views.LogCatView",1399360072195
activated,editor,org.eclipse.jdt.ui,3.5.1.r351_v20090821-0800,"org.eclipse.jdt.ui.CompilationUnitEditor",1399360076688
deactivated,workbench,org.eclipse.ui.workbench,3.5.1.M20090826-0800a,"",1399360088021
activated,workbench,org.eclipse.ui.workbench,3.5.1.M20090826-0800a,"",1399360088438
executed,command,org.eclipse.ui,3.5.1.M20090902-1000,"org.eclipse.ui.file.save",1399360091045
activated,view,com.android.ide.eclipse.ddms,12.0.0.v201106281929-138431,"com.android.ide.eclipse.ddms.views.LogCatView",1399360095253
deactivated,workbench,org.eclipse.ui.workbench,3.5.1.M20090826-0800a,"",1399360099330
activated,workbench,org.eclipse.ui.workbench,3.5.1.M20090826-0800a,"",1399360102992
deactivated,workbench,org.eclipse.ui.workbench,3.5.1.M20090826-0800a,"",1399360104155
activated,workbench,org.eclipse.ui.workbench,3.5.1.M20090826-0800a,"",1399360108776
deactivated,workbench,org.eclipse.ui.workbench,3.5.1.M20090826-0800a,"",1399360110967
activated,workbench,org.eclipse.ui.workbench,3.5.1.M20090826-0800a,"",1399360112846
activated,editor,org.eclipse.jdt.ui,3.5.1.r351_v20090821-0800,"org.eclipse.jdt.ui.CompilationUnitEditor",1399360113504
deactivated,workbench,org.eclipse.ui.workbench,3.5.1.M20090826-0800a,"",1399360115775
activated,workbench,org.eclipse.ui.workbench,3.5.1.M20090826-0800a,"",1399360118829
