what,kind,bundleId,bundleVersion,description,time
deactivated,workbench,org.eclipse.ui.workbench,3.5.1.M20090826-0800a,"",1399190470744
activated,workbench,org.eclipse.ui.workbench,3.5.1.M20090826-0800a,"",1399190477253
deactivated,workbench,org.eclipse.ui.workbench,3.5.1.M20090826-0800a,"",1399190478068
activated,workbench,org.eclipse.ui.workbench,3.5.1.M20090826-0800a,"",1399190486433
started,bundle,org.eclipse.jdt.junit,3.5.1.r351_v20090708-0800,"org.eclipse.jdt.junit",1399190498330
deactivated,workbench,org.eclipse.ui.workbench,3.5.1.M20090826-0800a,"",1399190509354
activated,workbench,org.eclipse.ui.workbench,3.5.1.M20090826-0800a,"",1399190510069
deactivated,workbench,org.eclipse.ui.workbench,3.5.1.M20090826-0800a,"",1399190510632
activated,workbench,org.eclipse.ui.workbench,3.5.1.M20090826-0800a,"",1399190515910
started,bundle,org.eclipse.mylyn.java.ui,3.2.2.v20090912-0400-e3x,"org.eclipse.mylyn.java.ui",1399190524736
started,bundle,org.eclipse.pde.api.tools,1.0.101.v20090714,"org.eclipse.pde.api.tools",1399190524828
started,bundle,org.eclipse.pde.api.tools.ui,1.0.101.v20090820,"org.eclipse.pde.api.tools.ui",1399190524830
started,bundle,org.eclipse.mylyn.java.tasks,3.2.2.v20090912-0400-e3x,"org.eclipse.mylyn.java.tasks",1399190605339
executed,command,org.eclipse.ui,3.5.1.M20090902-1000,"org.eclipse.ui.edit.copy",1399190605406
executed,command,org.eclipse.ui,3.5.1.M20090902-1000,"org.eclipse.ui.edit.paste",1399190611040
deactivated,workbench,org.eclipse.ui.workbench,3.5.1.M20090826-0800a,"",1399190614639
activated,workbench,org.eclipse.ui.workbench,3.5.1.M20090826-0800a,"",1399190622048
executed,command,org.eclipse.ui,3.5.1.M20090902-1000,"org.eclipse.ui.file.save",1399190636365
deactivated,workbench,org.eclipse.ui.workbench,3.5.1.M20090826-0800a,"",1399190638063
activated,workbench,org.eclipse.ui.workbench,3.5.1.M20090826-0800a,"",1399190645927
deactivated,workbench,org.eclipse.ui.workbench,3.5.1.M20090826-0800a,"",1399190647107
activated,workbench,org.eclipse.ui.workbench,3.5.1.M20090826-0800a,"",1399190648245
deactivated,workbench,org.eclipse.ui.workbench,3.5.1.M20090826-0800a,"",1399190649432
activated,workbench,org.eclipse.ui.workbench,3.5.1.M20090826-0800a,"",1399190651393
deactivated,workbench,org.eclipse.ui.workbench,3.5.1.M20090826-0800a,"",1399190652024
