what,kind,bundleId,bundleVersion,description,time
deactivated,workbench,org.eclipse.ui.workbench,3.5.1.M20090826-0800a,"",1409578160673
activated,workbench,org.eclipse.ui.workbench,3.5.1.M20090826-0800a,"",1409578161946
deactivated,workbench,org.eclipse.ui.workbench,3.5.1.M20090826-0800a,"",1409578163598
activated,workbench,org.eclipse.ui.workbench,3.5.1.M20090826-0800a,"",1409578164437
deactivated,workbench,org.eclipse.ui.workbench,3.5.1.M20090826-0800a,"",1409578165080
activated,workbench,org.eclipse.ui.workbench,3.5.1.M20090826-0800a,"",1409578165835
deactivated,workbench,org.eclipse.ui.workbench,3.5.1.M20090826-0800a,"",1409578166216
activated,workbench,org.eclipse.ui.workbench,3.5.1.M20090826-0800a,"",1409578224476
deactivated,workbench,org.eclipse.ui.workbench,3.5.1.M20090826-0800a,"",1409578226325
activated,workbench,org.eclipse.ui.workbench,3.5.1.M20090826-0800a,"",1409578436287
executed,command,org.eclipse.ui,3.5.1.M20090902-1000,"org.eclipse.ui.file.save",1409578452373
deactivated,workbench,org.eclipse.ui.workbench,3.5.1.M20090826-0800a,"",1409578456441
deactivated,workbench,org.eclipse.ui.workbench,3.5.1.M20090826-0800a,"",1409578734500
activated,workbench,org.eclipse.ui.workbench,3.5.1.M20090826-0800a,"",1409578746945
deactivated,workbench,org.eclipse.ui.workbench,3.5.1.M20090826-0800a,"",1409578747689
activated,workbench,org.eclipse.ui.workbench,3.5.1.M20090826-0800a,"",1409579715351
deactivated,workbench,org.eclipse.ui.workbench,3.5.1.M20090826-0800a,"",1409579715648
activated,workbench,org.eclipse.ui.workbench,3.5.1.M20090826-0800a,"",1409579802575
deactivated,workbench,org.eclipse.ui.workbench,3.5.1.M20090826-0800a,"",1409579804905
activated,workbench,org.eclipse.ui.workbench,3.5.1.M20090826-0800a,"",1409581175991
started,bundle,org.eclipse.mylyn.java.ui,3.2.2.v20090912-0400-e3x,"org.eclipse.mylyn.java.ui",1409581181471
started,bundle,org.eclipse.pde.api.tools,1.0.101.v20090714,"org.eclipse.pde.api.tools",1409581181600
started,bundle,org.eclipse.pde.api.tools.ui,1.0.101.v20090820,"org.eclipse.pde.api.tools.ui",1409581181602
deactivated,workbench,org.eclipse.ui.workbench,3.5.1.M20090826-0800a,"",1409581439979
activated,workbench,org.eclipse.ui.workbench,3.5.1.M20090826-0800a,"",1409582248519
