what,kind,bundleId,bundleVersion,description,time
started,bundle,org.eclipse.ui.net,1.2.1.r35x_20090812-1200,"org.eclipse.ui.net",1414648369602
started,bundle,org.eclipse.ui.views,3.4.1.M20090826-0800,"org.eclipse.ui.views",1414648369603
started,bundle,org.eclipse.ui.views.log,1.0.100.v20090731,"org.eclipse.ui.views.log",1414648369605
started,bundle,org.eclipse.ui.workbench,3.5.1.M20090826-0800a,"org.eclipse.ui.workbench",1414648369607
started,bundle,org.eclipse.ui.workbench.texteditor,3.5.0.v20090603,"org.eclipse.ui.workbench.texteditor",1414648369611
started,bundle,org.eclipse.update.configurator,3.3.0.v20090312,"org.eclipse.update.configurator",1414648369612
started,bundle,org.eclipse.update.core,3.2.300.v20090525,"org.eclipse.update.core",1414648369619
started,bundle,org.eclipse.update.scheduler,3.2.200.v20081127,"org.eclipse.update.scheduler",1414648369621
started,bundle,org.eclipse.wst.common.frameworks,1.1.300.v200904160730,"org.eclipse.wst.common.frameworks",1414648369622
started,bundle,org.eclipse.wst.common.project.facet.core,1.4.1.v200908111817,"org.eclipse.wst.common.project.facet.core",1414648369624
started,bundle,org.eclipse.wst.web,1.1.301.v200909021400,"org.eclipse.wst.web",1414648369655
started,bundle,org.eclipse.wst.ws.service.policy.ui,1.0.102.v200903070248,"org.eclipse.wst.ws.service.policy.ui",1414648369669
started,bundle,com.android.ide.eclipse.ddms,12.0.0.v201106281929-138431,"com.android.ide.eclipse.ddms",1414648369670
os,sysinfo,,,"win32",1414648369673
arch,sysinfo,,,"x86",1414648369673
ws,sysinfo,,,"win32",1414648369673
locale,sysinfo,,,"zh_CN",1414648369673
processors,sysinfo,,,"4",1414648369673
java.runtime.name,sysinfo,,,"Java(TM) SE Runtime Environment",1414648369673
java.runtime.version,sysinfo,,,"1.6.0_03-b05",1414648369673
java.specification.name,sysinfo,,,"Java Platform API Specification",1414648369673
java.specification.vendor,sysinfo,,,"Sun Microsystems Inc.",1414648369673
java.specification.version,sysinfo,,,"1.6",1414648369673
java.vendor,sysinfo,,,"Sun Microsystems Inc.",1414648369673
java.version,sysinfo,,,"1.6.0_03",1414648369673
