what,kind,bundleId,bundleVersion,description,time
os,sysinfo,,,"win32",1396686446683
arch,sysinfo,,,"x86",1396686446683
ws,sysinfo,,,"win32",1396686446683
locale,sysinfo,,,"zh_CN",1396686446683
processors,sysinfo,,,"4",1396686446683
java.runtime.name,sysinfo,,,"Java(TM) SE Runtime Environment",1396686446683
java.runtime.version,sysinfo,,,"1.6.0_03-b05",1396686446683
java.specification.name,sysinfo,,,"Java Platform API Specification",1396686446683
java.specification.vendor,sysinfo,,,"Sun Microsystems Inc.",1396686446683
java.specification.version,sysinfo,,,"1.6",1396686446683
java.vendor,sysinfo,,,"Sun Microsystems Inc.",1396686446683
java.version,sysinfo,,,"1.6.0_03",1396686446683
java.vm.info,sysinfo,,,"mixed mode",1396686446683
java.vm.name,sysinfo,,,"Java HotSpot(TM) Client VM",1396686446683
java.vm.specification.name,sysinfo,,,"Java Virtual Machine Specification",1396686446683
java.vm.specification.vendor,sysinfo,,,"Sun Microsystems Inc.",1396686446683
java.vm.specification.version,sysinfo,,,"1.0",1396686446683
java.vm.vendor,sysinfo,,,"Sun Microsystems Inc.",1396686446683
java.vm.version,sysinfo,,,"1.6.0_03-b05",1396686446683
started,bundle,org.eclipse.mylyn.commons.net,3.2.0.v20090617-0100-e3x,"org.eclipse.mylyn.commons.net",1396686447600
started,bundle,com.android.ide.eclipse.traceview,12.0.0.v201106281929-138431,"com.android.ide.eclipse.traceview",1396686447983
started,bundle,org.eclipse.jst.common.project.facet.core,1.4.1.v200908111817,"org.eclipse.jst.common.project.facet.core",1396686448577
started,bundle,org.eclipse.mylyn.commons.ui,3.2.2.v20090912-0400-e3x,"org.eclipse.mylyn.commons.ui",1396686449067
started,bundle,org.eclipse.mylyn.bugzilla.core,3.2.2.v20090912-0400-e3x,"org.eclipse.mylyn.bugzilla.core",1396686449900
started,bundle,org.eclipse.mylyn.bugzilla.ui,3.2.2.v20090912-0400-e3x,"org.eclipse.mylyn.bugzilla.ui",1396686450332
