what,kind,bundleId,bundleVersion,description,time
activated,editor,org.eclipse.jdt.ui,3.5.1.r351_v20090821-0800,"org.eclipse.jdt.ui.CompilationUnitEditor",1399135855082
activated,editor,com.android.ide.eclipse.adt,12.0.0.v201106281929-138431,"com.android.ide.eclipse.editors.manifest.ManifestEditor",1399135857088
activated,editor,com.android.ide.eclipse.adt,12.0.0.v201106281929-138431,"com.android.ide.eclipse.editors.layout.LayoutEditor",1399135857780
activated,editor,org.eclipse.jdt.ui,3.5.1.r351_v20090821-0800,"org.eclipse.jdt.ui.CompilationUnitEditor",1399135859297
deactivated,workbench,org.eclipse.ui.workbench,3.5.1.M20090826-0800a,"",1399135861964
activated,workbench,org.eclipse.ui.workbench,3.5.1.M20090826-0800a,"",1399135862830
deactivated,workbench,org.eclipse.ui.workbench,3.5.1.M20090826-0800a,"",1399135863060
activated,workbench,org.eclipse.ui.workbench,3.5.1.M20090826-0800a,"",1399135919567
deactivated,workbench,org.eclipse.ui.workbench,3.5.1.M20090826-0800a,"",1399135921202
activated,workbench,org.eclipse.ui.workbench,3.5.1.M20090826-0800a,"",1399136578883
deactivated,workbench,org.eclipse.ui.workbench,3.5.1.M20090826-0800a,"",1399136580918
activated,workbench,org.eclipse.ui.workbench,3.5.1.M20090826-0800a,"",1399136631145
deactivated,workbench,org.eclipse.ui.workbench,3.5.1.M20090826-0800a,"",1399136632382
activated,workbench,org.eclipse.ui.workbench,3.5.1.M20090826-0800a,"",1399137219825
deactivated,workbench,org.eclipse.ui.workbench,3.5.1.M20090826-0800a,"",1399137220278
activated,workbench,org.eclipse.ui.workbench,3.5.1.M20090826-0800a,"",1399137224282
deactivated,workbench,org.eclipse.ui.workbench,3.5.1.M20090826-0800a,"",1399137224653
activated,workbench,org.eclipse.ui.workbench,3.5.1.M20090826-0800a,"",1399137236585
deactivated,workbench,org.eclipse.ui.workbench,3.5.1.M20090826-0800a,"",1399137238623
activated,workbench,org.eclipse.ui.workbench,3.5.1.M20090826-0800a,"",1399137358248
deactivated,workbench,org.eclipse.ui.workbench,3.5.1.M20090826-0800a,"",1399137363588
activated,workbench,org.eclipse.ui.workbench,3.5.1.M20090826-0800a,"",1399138684966
deactivated,workbench,org.eclipse.ui.workbench,3.5.1.M20090826-0800a,"",1399138685403
activated,workbench,org.eclipse.ui.workbench,3.5.1.M20090826-0800a,"",1399138686282
deactivated,workbench,org.eclipse.ui.workbench,3.5.1.M20090826-0800a,"",1399138686655
