what,kind,bundleId,bundleVersion,description,time
activated,workbench,org.eclipse.ui.workbench,3.5.1.M20090826-0800a,"",1404985422187
executed,command,org.eclipse.ui,3.5.1.M20090902-1000,"org.eclipse.ui.edit.copy",1404985450637
executed,command,org.eclipse.ui,3.5.1.M20090902-1000,"org.eclipse.ui.edit.copy",1404985451104
executed,command,org.eclipse.ui,3.5.1.M20090902-1000,"org.eclipse.ui.edit.paste",1404985460019
deactivated,workbench,org.eclipse.ui.workbench,3.5.1.M20090826-0800a,"",1404985479440
activated,workbench,org.eclipse.ui.workbench,3.5.1.M20090826-0800a,"",1404985496142
deactivated,workbench,org.eclipse.ui.workbench,3.5.1.M20090826-0800a,"",1404985522424
activated,workbench,org.eclipse.ui.workbench,3.5.1.M20090826-0800a,"",1404985546408
deactivated,workbench,org.eclipse.ui.workbench,3.5.1.M20090826-0800a,"",1404985547372
activated,workbench,org.eclipse.ui.workbench,3.5.1.M20090826-0800a,"",1404985548382
executed,command,org.eclipse.ui,3.5.1.M20090902-1000,"org.eclipse.ui.edit.copy",1404985570518
executed,command,org.eclipse.ui,3.5.1.M20090902-1000,"org.eclipse.ui.edit.copy",1404985570778
executed,command,org.eclipse.ui,3.5.1.M20090902-1000,"org.eclipse.ui.edit.paste",1404985575940
executed,command,org.eclipse.ui,3.5.1.M20090902-1000,"org.eclipse.ui.edit.copy",1404985579710
executed,command,org.eclipse.ui,3.5.1.M20090902-1000,"org.eclipse.ui.edit.copy",1404985589436
executed,command,org.eclipse.ui,3.5.1.M20090902-1000,"org.eclipse.ui.file.save",1404985621271
executed,command,org.eclipse.ui,3.5.1.M20090902-1000,"org.eclipse.ui.edit.copy",1404985629172
executed,command,org.eclipse.ui,3.5.1.M20090902-1000,"org.eclipse.ui.file.save",1404985637784
deactivated,workbench,org.eclipse.ui.workbench,3.5.1.M20090826-0800a,"",1404985640719
activated,workbench,org.eclipse.ui.workbench,3.5.1.M20090826-0800a,"",1404985641397
deactivated,workbench,org.eclipse.ui.workbench,3.5.1.M20090826-0800a,"",1404985641534
activated,workbench,org.eclipse.ui.workbench,3.5.1.M20090826-0800a,"",1404985649156
executed,command,org.eclipse.ui,3.5.1.M20090902-1000,"org.eclipse.ui.file.save",1404985656746
deactivated,workbench,org.eclipse.ui.workbench,3.5.1.M20090826-0800a,"",1404985661031
activated,workbench,org.eclipse.ui.workbench,3.5.1.M20090826-0800a,"",1404985664645
