what,kind,bundleId,bundleVersion,description,time
activated,view,org.eclipse.jdt.ui,3.5.1.r351_v20090821-0800,"org.eclipse.jdt.ui.PackageExplorer",1404982471079
executed,command,,,"com.android.ide.eclipse.adt.debug.launching.LaunchShortcut.run",1404982473196
activated,view,com.android.ide.eclipse.ddms,12.0.0.v201106281929-138431,"com.android.ide.eclipse.ddms.views.LogCatView",1404982477410
deactivated,workbench,org.eclipse.ui.workbench,3.5.1.M20090826-0800a,"",1404982479142
activated,workbench,org.eclipse.ui.workbench,3.5.1.M20090826-0800a,"",1404982488273
activated,editor,org.eclipse.jdt.ui,3.5.1.r351_v20090821-0800,"org.eclipse.jdt.ui.CompilationUnitEditor",1404982517659
deactivated,workbench,org.eclipse.ui.workbench,3.5.1.M20090826-0800a,"",1404982525457
activated,workbench,org.eclipse.ui.workbench,3.5.1.M20090826-0800a,"",1404982526504
deactivated,workbench,org.eclipse.ui.workbench,3.5.1.M20090826-0800a,"",1404982533984
activated,workbench,org.eclipse.ui.workbench,3.5.1.M20090826-0800a,"",1404982538921
activated,view,org.eclipse.jdt.ui,3.5.1.r351_v20090821-0800,"org.eclipse.jdt.ui.PackageExplorer",1404982559678
opened,editor,org.eclipse.jdt.ui,3.5.1.r351_v20090821-0800,"org.eclipse.jdt.ui.CompilationUnitEditor",1404982563741
activated,editor,org.eclipse.jdt.ui,3.5.1.r351_v20090821-0800,"org.eclipse.jdt.ui.CompilationUnitEditor",1404982563798
activated,editor,org.eclipse.jdt.ui,3.5.1.r351_v20090821-0800,"org.eclipse.jdt.ui.CompilationUnitEditor",1404982567424
closed,editor,org.eclipse.jdt.ui,3.5.1.r351_v20090821-0800,"org.eclipse.jdt.ui.CompilationUnitEditor",1404982567424
executed,command,org.eclipse.ui,3.5.1.M20090902-1000,"org.eclipse.ui.edit.copy",1404982568798
executed,command,org.eclipse.ui,3.5.1.M20090902-1000,"org.eclipse.ui.edit.copy",1404982570827
executed,command,org.eclipse.ui,3.5.1.M20090902-1000,"org.eclipse.ui.file.save",1404982572471
activated,view,org.eclipse.jdt.ui,3.5.1.r351_v20090821-0800,"org.eclipse.jdt.ui.PackageExplorer",1404982575263
opened,editor,com.android.ide.eclipse.adt,12.0.0.v201106281929-138431,"com.android.ide.eclipse.editors.manifest.ManifestEditor",1404982579721
activated,editor,com.android.ide.eclipse.adt,12.0.0.v201106281929-138431,"com.android.ide.eclipse.editors.manifest.ManifestEditor",1404982579792
no handler,command,org.eclipse.ui,3.5.1.M20090902-1000,"org.eclipse.ui.edit.copy",1404982579832
deactivated,workbench,org.eclipse.ui.workbench,3.5.1.M20090826-0800a,"",1404982583211
activated,workbench,org.eclipse.ui.workbench,3.5.1.M20090826-0800a,"",1404982585034
executed,command,org.eclipse.ui,3.5.1.M20090902-1000,"org.eclipse.ui.edit.copy",1404982601404
