<?xml version="1.0" encoding="UTF-8"?>
<session version="1.0">
<refactoring accessors="true" comment="Delete element from project &apos;Demo&apos;&#x0D;&#x0A;- Original project: &apos;Demo&apos;&#x0D;&#x0A;- Original element: &apos;activity_main.xml&apos;" description="Delete element" element1="res/layout/activity_main.xml" elements="0" flags="589830" id="org.eclipse.jdt.ui.delete" resources="1" stamp="1422932327286" subPackages="false" version="1.0"/>
</session>