<?xml version="1.0" encoding="UTF-8"?>
<session version="1.0">
<refactoring accessors="true" comment="Delete element from project &apos;PulmonaryDemo&apos;&#x0D;&#x0A;- Original project: &apos;PulmonaryDemo&apos;&#x0D;&#x0A;- Original element: &apos;sound_meter.png&apos;" description="Delete element" element1="res/drawable/sound_meter.png" elements="0" flags="589830" id="org.eclipse.jdt.ui.delete" resources="1" stamp="1419922843967" subPackages="false" version="1.0"/>
</session>