                ╔═══════════════╗
                ║       安卓源码服务专家       ║
  ╔══════╣───────────────╠══════╗
  ║            ║    http://www.javaapk.com    ║            ║
  ║            ╚═══════════════╝            ║
　║                                                          ║
　║JavaApk声明：                                             ║
  ║   1) 本站不保证所提供软件或程序的完整性和安全性。        ║
  ║   2) 转载本站提供的资源请勿删除本说明文件。              ║
  ║   3) 本站源码为网上搜集或网友提供，如果涉及或侵害到您的版║
  ║      权，请立即通知我们。                                ║
  ║   4) 本站提供免费代码只可供研究学习使用，切勿用于商业用途║
  ║      由此引起一切后果与本站无关。                        ║
  ║   5) 商业源码请在源码授权范围内进行使用！                ║
　║                                                          ║
  ║           JavaApk —— 安卓源码服务专家                  ║
  ║           联系方式 : javaapk@qq.com                      ║
  ║    ╔═══════════════════════╗    ║
  ╚══╣    安卓源码专业站 http://www.JavaApk.com     ╠══╝
        ╚═══════════════════════╝
本例子是一个Android仿天气类app绘制饼状图、折线图、柱状图的实现效果，效果挺不错，例子没有使用第三方类库，全部都是使用Canvas实现。编译版本4.2.2 项目编码UTF-8。需要的朋友可以自己下载研究下。