INDEX VERSION 1.126+E:\AndroidWorkSpace\workspace\.metadata\.plugins\org.eclipse.jdt.core
2577175673.index
808662179.index
2043727593.index
451793448.index
3738582126.index
1215021641.index
2849049848.index
4019444623.index
3656562912.index
3807135940.index
4173530153.index
2851094213.index
3042465788.index
2218855153.index
2953495699.index
1030399996.index
2048842681.index
2205213100.index
3990724296.index
2052705823.index
3348341457.index
133890885.index
2214169457.index
1680146690.index
2540099554.index
2031630650.index
1205824980.index
3961336757.index
3403104926.index
328325047.index
2123407904.index
1429897067.index
3826508645.index
1797532618.index
193766957.index
929225517.index
104517466.index
853186588.index
1865609338.index
199104723.index
2326312931.index
1897595705.index
3905647746.index
1815125118.index
7333216.index
3569141817.index
