what,kind,bundleId,bundleVersion,description,time
opened,editor,org.eclipse.jdt.ui,3.5.1.r351_v20090821-0800,"org.eclipse.jdt.ui.CompilationUnitEditor",1418265030993
activated,editor,org.eclipse.jdt.ui,3.5.1.r351_v20090821-0800,"org.eclipse.jdt.ui.CompilationUnitEditor",1418265031493
started,bundle,org.eclipse.jdt.junit,3.5.1.r351_v20090708-0800,"org.eclipse.jdt.junit",1418265031754
started,bundle,org.eclipse.core.variables,3.2.200.v20090521,"org.eclipse.core.variables",1418265031820
deactivated,workbench,org.eclipse.ui.workbench,3.5.1.M20090826-0800a,"",1418265033271
activated,workbench,org.eclipse.ui.workbench,3.5.1.M20090826-0800a,"",1418266893115
deactivated,workbench,org.eclipse.ui.workbench,3.5.1.M20090826-0800a,"",1418266893132
activated,workbench,org.eclipse.ui.workbench,3.5.1.M20090826-0800a,"",1418266893153
deactivated,workbench,org.eclipse.ui.workbench,3.5.1.M20090826-0800a,"",1418266893200
activated,workbench,org.eclipse.ui.workbench,3.5.1.M20090826-0800a,"",1418266894902
deactivated,workbench,org.eclipse.ui.workbench,3.5.1.M20090826-0800a,"",1418266895348
activated,workbench,org.eclipse.ui.workbench,3.5.1.M20090826-0800a,"",1418267154954
deactivated,workbench,org.eclipse.ui.workbench,3.5.1.M20090826-0800a,"",1418267156243
activated,workbench,org.eclipse.ui.workbench,3.5.1.M20090826-0800a,"",1418267156379
activated,view,org.eclipse.jdt.ui,3.5.1.r351_v20090821-0800,"org.eclipse.jdt.ui.PackageExplorer",1418267160153
closed,editor,org.eclipse.jdt.ui,3.5.1.r351_v20090821-0800,"org.eclipse.jdt.ui.CompilationUnitEditor",1418267160154
deactivated,workbench,org.eclipse.ui.workbench,3.5.1.M20090826-0800a,"",1418267171988
activated,workbench,org.eclipse.ui.workbench,3.5.1.M20090826-0800a,"",1418267172118
deactivated,workbench,org.eclipse.ui.workbench,3.5.1.M20090826-0800a,"",1418267172125
activated,workbench,org.eclipse.ui.workbench,3.5.1.M20090826-0800a,"",1418267565434
deactivated,workbench,org.eclipse.ui.workbench,3.5.1.M20090826-0800a,"",1418267570072
activated,workbench,org.eclipse.ui.workbench,3.5.1.M20090826-0800a,"",1418274512968
deactivated,workbench,org.eclipse.ui.workbench,3.5.1.M20090826-0800a,"",1418274513426
activated,workbench,org.eclipse.ui.workbench,3.5.1.M20090826-0800a,"",1418274659813
deactivated,workbench,org.eclipse.ui.workbench,3.5.1.M20090826-0800a,"",1418274660268
