what,kind,bundleId,bundleVersion,description,time
activated,workbench,org.eclipse.ui.workbench,3.5.1.M20090826-0800a,"",1418375439008
deactivated,workbench,org.eclipse.ui.workbench,3.5.1.M20090826-0800a,"",1418375451077
activated,workbench,org.eclipse.ui.workbench,3.5.1.M20090826-0800a,"",1418375456778
activated,perspective,com.android.ide.eclipse.ddms,12.0.0.v201106281929-138431,"com.android.ide.eclipse.ddms.Perspective",1418375456965
activated,view,com.android.ide.eclipse.ddms,12.0.0.v201106281929-138431,"com.android.ide.eclipse.ddms.views.FileExplorerView",1418375456985
activated,perspective,org.eclipse.jdt.ui,3.5.1.r351_v20090821-0800,"org.eclipse.jdt.ui.JavaPerspective",1418375466727
activated,editor,org.eclipse.jdt.ui,3.5.1.r351_v20090821-0800,"org.eclipse.jdt.ui.CompilationUnitEditor",1418375466747
deactivated,workbench,org.eclipse.ui.workbench,3.5.1.M20090826-0800a,"",1418375468915
activated,workbench,org.eclipse.ui.workbench,3.5.1.M20090826-0800a,"",1418375472481
activated,view,org.eclipse.jdt.ui,3.5.1.r351_v20090821-0800,"org.eclipse.jdt.ui.PackageExplorer",1418375473570
executed,command,,,"com.android.ide.eclipse.adt.debug.launching.LaunchShortcut.run",1418375475761
deactivated,workbench,org.eclipse.ui.workbench,3.5.1.M20090826-0800a,"",1418375479238
activated,workbench,org.eclipse.ui.workbench,3.5.1.M20090826-0800a,"",1418375540344
activated,perspective,com.android.ide.eclipse.ddms,12.0.0.v201106281929-138431,"com.android.ide.eclipse.ddms.Perspective",1418375540546
activated,view,com.android.ide.eclipse.ddms,12.0.0.v201106281929-138431,"com.android.ide.eclipse.ddms.views.FileExplorerView",1418375541939
deactivated,workbench,org.eclipse.ui.workbench,3.5.1.M20090826-0800a,"",1418375545743
activated,workbench,org.eclipse.ui.workbench,3.5.1.M20090826-0800a,"",1418375585670
activated,perspective,org.eclipse.jdt.ui,3.5.1.r351_v20090821-0800,"org.eclipse.jdt.ui.JavaPerspective",1418375597870
activated,editor,org.eclipse.jdt.ui,3.5.1.r351_v20090821-0800,"org.eclipse.jdt.ui.CompilationUnitEditor",1418375597881
activated,editor,org.eclipse.jdt.ui,3.5.1.r351_v20090821-0800,"org.eclipse.jdt.ui.CompilationUnitEditor",1418375597892
activated,view,org.eclipse.jdt.ui,3.5.1.r351_v20090821-0800,"org.eclipse.jdt.ui.PackageExplorer",1418375601307
opened,editor,org.eclipse.jdt.ui,3.5.1.r351_v20090821-0800,"org.eclipse.jdt.ui.CompilationUnitEditor",1418375609819
activated,editor,org.eclipse.jdt.ui,3.5.1.r351_v20090821-0800,"org.eclipse.jdt.ui.CompilationUnitEditor",1418375609913
activated,editor,org.eclipse.jdt.ui,3.5.1.r351_v20090821-0800,"org.eclipse.jdt.ui.CompilationUnitEditor",1418375619176
closed,editor,org.eclipse.jdt.ui,3.5.1.r351_v20090821-0800,"org.eclipse.jdt.ui.CompilationUnitEditor",1418375619176
