what,kind,bundleId,bundleVersion,description,time
started,bundle,org.eclipse.jem,2.0.300.v200901272200,"org.eclipse.jem",1418176602462
started,bundle,org.eclipse.emf.ecore.xmi,2.5.0.v200906151043,"org.eclipse.emf.ecore.xmi",1418176602491
started,bundle,org.eclipse.jst.jee,1.0.201.v200909030330,"org.eclipse.jst.jee",1418176602639
started,bundle,org.eclipse.jpt.core,2.2.1.v200908270220,"org.eclipse.jpt.core",1418176602732
started,bundle,org.eclipse.jpt.eclipselink.core,1.2.0.v200905310000,"org.eclipse.jpt.eclipselink.core",1418176602767
started,bundle,org.eclipse.wst.common.frameworks.ui,1.1.301.v200908101600,"org.eclipse.wst.common.frameworks.ui",1418176602896
started,bundle,org.eclipse.wst.xml.core,1.1.401.v200908242115,"org.eclipse.wst.xml.core",1418176602962
started,bundle,org.eclipse.wst.common.emfworkbench.integration,1.1.301.v200908101600,"org.eclipse.wst.common.emfworkbench.integration",1418176603189
started,bundle,org.eclipse.wst.common.modulecore,1.1.301.v200908101600,"org.eclipse.wst.common.modulecore",1418176603266
started,bundle,org.eclipse.wst.validation,1.2.102.v200905201610,"org.eclipse.wst.validation",1418176603360
started,bundle,org.eclipse.jst.j2ee,1.1.301.v200909030330,"org.eclipse.jst.j2ee",1418176603408
started,bundle,org.eclipse.compare,3.5.0.I20090514-0808,"org.eclipse.compare",1418176603934
deactivated,workbench,org.eclipse.ui.workbench,3.5.1.M20090826-0800a,"",1418176604897
activated,workbench,org.eclipse.ui.workbench,3.5.1.M20090826-0800a,"",1418176605534
started,bundle,org.eclipse.debug.ui,3.5.1.v20090811_r351,"org.eclipse.debug.ui",1418176607933
started,bundle,org.eclipse.jdt.junit,3.5.1.r351_v20090708-0800,"org.eclipse.jdt.junit",1418176608019
started,bundle,org.eclipse.cdt.core,5.1.2.201002161416,"org.eclipse.cdt.core",1418176608431
started,bundle,org.eclipse.cdt.core.tests,5.1.2.201002161416,"org.eclipse.cdt.core.tests",1418176608742
started,bundle,org.eclipse.cdt.debug.core,6.0.0.201002161416,"org.eclipse.cdt.debug.core",1418176608813
started,bundle,org.eclipse.cdt.debug.ui,6.0.0.201002161416,"org.eclipse.cdt.debug.ui",1418176608870
started,bundle,org.eclipse.jdt.debug,3.5.0.v20090526,"org.eclipse.jdt.debug",1418176609524
executed,command,,,"com.android.ide.eclipse.adt.debug.launching.LaunchShortcut.run",1418176610680
deactivated,workbench,org.eclipse.ui.workbench,3.5.1.M20090826-0800a,"",1418176612111
activated,workbench,org.eclipse.ui.workbench,3.5.1.M20090826-0800a,"",1418176662738
started,bundle,org.eclipse.jdt.debug.ui,3.4.1.v20090811_r351,"org.eclipse.jdt.debug.ui",1418176669551
