what,kind,bundleId,bundleVersion,description,time
started,bundle,org.eclipse.jst.j2ee,1.1.301.v200909030330,"org.eclipse.jst.j2ee",1416925712875
started,bundle,org.eclipse.compare,3.5.0.I20090514-0808,"org.eclipse.compare",1416925713007
started,bundle,org.eclipse.debug.ui,3.5.1.v20090811_r351,"org.eclipse.debug.ui",1416925713858
started,bundle,org.eclipse.jdt.junit,3.5.1.r351_v20090708-0800,"org.eclipse.jdt.junit",1416925713883
started,bundle,org.eclipse.cdt.core,5.1.2.201002161416,"org.eclipse.cdt.core",1416925714019
started,bundle,org.eclipse.cdt.core.tests,5.1.2.201002161416,"org.eclipse.cdt.core.tests",1416925714045
started,bundle,org.eclipse.cdt.debug.core,6.0.0.201002161416,"org.eclipse.cdt.debug.core",1416925714047
started,bundle,org.eclipse.cdt.debug.ui,6.0.0.201002161416,"org.eclipse.cdt.debug.ui",1416925714053
started,bundle,org.eclipse.jdt.debug,3.5.0.v20090526,"org.eclipse.jdt.debug",1416925714170
executed,command,,,"com.android.ide.eclipse.adt.debug.launching.LaunchShortcut.run",1416925715357
deactivated,workbench,org.eclipse.ui.workbench,3.5.1.M20090826-0800a,"",1416925715428
activated,workbench,org.eclipse.ui.workbench,3.5.1.M20090826-0800a,"",1416925717957
deactivated,workbench,org.eclipse.ui.workbench,3.5.1.M20090826-0800a,"",1416925718401
activated,workbench,org.eclipse.ui.workbench,3.5.1.M20090826-0800a,"",1416925723021
deactivated,workbench,org.eclipse.ui.workbench,3.5.1.M20090826-0800a,"",1416925723139
activated,view,org.eclipse.ui.console,3.4.0.v20090513,"org.eclipse.ui.console.ConsoleView",1416925723224
activated,workbench,org.eclipse.ui.workbench,3.5.1.M20090826-0800a,"",1416925729263
deactivated,workbench,org.eclipse.ui.workbench,3.5.1.M20090826-0800a,"",1416925730476
activated,workbench,org.eclipse.ui.workbench,3.5.1.M20090826-0800a,"",1416925830177
deactivated,workbench,org.eclipse.ui.workbench,3.5.1.M20090826-0800a,"",1416925830308
activated,workbench,org.eclipse.ui.workbench,3.5.1.M20090826-0800a,"",1416925831488
activated,view,org.eclipse.jdt.ui,3.5.1.r351_v20090821-0800,"org.eclipse.jdt.ui.PackageExplorer",1416925831521
closed,workbench,org.eclipse.ui.workbench,3.5.1.M20090826-0800a,"",1416925831688
stopped,bundle,org.eclipse.jst.ws.axis.creation.ui,1.0.406.v200903031852,"org.eclipse.jst.ws.axis.creation.ui",1416925832305
stopped,bundle,org.eclipse.jst.ws.axis.consumption.ui,1.0.405.v200901261650,"org.eclipse.jst.ws.axis.consumption.ui",1416925832306
