what,kind,bundleId,bundleVersion,description,time
activated,editor,org.eclipse.jdt.ui,3.5.1.r351_v20090821-0800,"org.eclipse.jdt.ui.CompilationUnitEditor",1418377238771
deactivated,workbench,org.eclipse.ui.workbench,3.5.1.M20090826-0800a,"",1418377240640
activated,workbench,org.eclipse.ui.workbench,3.5.1.M20090826-0800a,"",1418377250955
activated,editor,org.eclipse.jdt.ui,3.5.1.r351_v20090821-0800,"org.eclipse.jdt.ui.CompilationUnitEditor",1418377256282
activated,editor,org.eclipse.jdt.ui,3.5.1.r351_v20090821-0800,"org.eclipse.jdt.ui.CompilationUnitEditor",1418377288537
activated,editor,org.eclipse.jdt.ui,3.5.1.r351_v20090821-0800,"org.eclipse.jdt.ui.CompilationUnitEditor",1418377292733
activated,editor,org.eclipse.jdt.ui,3.5.1.r351_v20090821-0800,"org.eclipse.jdt.ui.CompilationUnitEditor",1418377294854
activated,editor,org.eclipse.jdt.ui,3.5.1.r351_v20090821-0800,"org.eclipse.jdt.ui.CompilationUnitEditor",1418377297487
activated,editor,org.eclipse.jdt.ui,3.5.1.r351_v20090821-0800,"org.eclipse.jdt.ui.CompilationUnitEditor",1418377299809
deactivated,workbench,org.eclipse.ui.workbench,3.5.1.M20090826-0800a,"",1418377312400
activated,workbench,org.eclipse.ui.workbench,3.5.1.M20090826-0800a,"",1418377330425
activated,view,com.android.ide.eclipse.ddms,12.0.0.v201106281929-138431,"com.android.ide.eclipse.ddms.views.LogCatView",1418377348356
deactivated,workbench,org.eclipse.ui.workbench,3.5.1.M20090826-0800a,"",1418377351711
activated,workbench,org.eclipse.ui.workbench,3.5.1.M20090826-0800a,"",1418377355395
activated,editor,org.eclipse.jdt.ui,3.5.1.r351_v20090821-0800,"org.eclipse.jdt.ui.CompilationUnitEditor",1418377359403
deactivated,workbench,org.eclipse.ui.workbench,3.5.1.M20090826-0800a,"",1418377363781
activated,workbench,org.eclipse.ui.workbench,3.5.1.M20090826-0800a,"",1418377365238
activated,view,com.android.ide.eclipse.ddms,12.0.0.v201106281929-138431,"com.android.ide.eclipse.ddms.views.LogCatView",1418377365317
executed,command,org.eclipse.ui,3.5.1.M20090902-1000,"org.eclipse.ui.views.showView",1418377365318
executed,command,org.eclipse.ui,3.5.1.M20090902-1000,"org.eclipse.ui.views.showView",1418377365318
deactivated,workbench,org.eclipse.ui.workbench,3.5.1.M20090826-0800a,"",1418377370114
activated,workbench,org.eclipse.ui.workbench,3.5.1.M20090826-0800a,"",1418377389012
activated,editor,org.eclipse.jdt.ui,3.5.1.r351_v20090821-0800,"org.eclipse.jdt.ui.CompilationUnitEditor",1418377389347
activated,view,com.android.ide.eclipse.ddms,12.0.0.v201106281929-138431,"com.android.ide.eclipse.ddms.views.LogCatView",1418377395870
activated,perspective,com.android.ide.eclipse.ddms,12.0.0.v201106281929-138431,"com.android.ide.eclipse.ddms.Perspective",1418377403327
