what,kind,bundleId,bundleVersion,description,time
activated,workbench,org.eclipse.ui.workbench,3.5.1.M20090826-0800a,"",1416924371440
activated,view,org.eclipse.ui.console,3.4.0.v20090513,"org.eclipse.ui.console.ConsoleView",1416924381338
activated,view,com.android.ide.eclipse.ddms,12.0.0.v201106281929-138431,"com.android.ide.eclipse.ddms.views.FileExplorerView",1416924382477
activated,view,com.android.ide.eclipse.ddms,12.0.0.v201106281929-138431,"com.android.ide.eclipse.ddms.views.DeviceView",1416924383938
activated,view,com.android.ide.eclipse.ddms,12.0.0.v201106281929-138431,"com.android.ide.eclipse.ddms.views.FileExplorerView",1416924386761
activated,editor,org.eclipse.jdt.ui,3.5.1.r351_v20090821-0800,"org.eclipse.jdt.ui.CompilationUnitEditor",1416924388043
activated,perspective,org.eclipse.jdt.ui,3.5.1.r351_v20090821-0800,"org.eclipse.jdt.ui.JavaPerspective",1416924388063
activated,editor,org.eclipse.jdt.ui,3.5.1.r351_v20090821-0800,"org.eclipse.jdt.ui.CompilationUnitEditor",1416924388077
activated,view,org.eclipse.jdt.ui,3.5.1.r351_v20090821-0800,"org.eclipse.jdt.ui.PackageExplorer",1416924389512
executed,command,,,"com.android.ide.eclipse.adt.debug.launching.LaunchShortcut.run",1416924391823
deactivated,workbench,org.eclipse.ui.workbench,3.5.1.M20090826-0800a,"",1416924391845
activated,workbench,org.eclipse.ui.workbench,3.5.1.M20090826-0800a,"",1416924393233
deactivated,workbench,org.eclipse.ui.workbench,3.5.1.M20090826-0800a,"",1416924393323
activated,workbench,org.eclipse.ui.workbench,3.5.1.M20090826-0800a,"",1416924396478
activated,view,org.eclipse.ui.console,3.4.0.v20090513,"org.eclipse.ui.console.ConsoleView",1416924396648
activated,perspective,com.android.ide.eclipse.ddms,12.0.0.v201106281929-138431,"com.android.ide.eclipse.ddms.Perspective",1416924399842
activated,view,com.android.ide.eclipse.ddms,12.0.0.v201106281929-138431,"com.android.ide.eclipse.ddms.views.DeviceView",1416924402692
deactivated,workbench,org.eclipse.ui.workbench,3.5.1.M20090826-0800a,"",1416924408307
activated,workbench,org.eclipse.ui.workbench,3.5.1.M20090826-0800a,"",1416924415318
deactivated,workbench,org.eclipse.ui.workbench,3.5.1.M20090826-0800a,"",1416924415518
activated,workbench,org.eclipse.ui.workbench,3.5.1.M20090826-0800a,"",1416924429581
activated,view,com.android.ide.eclipse.ddms,12.0.0.v201106281929-138431,"com.android.ide.eclipse.ddms.views.FileExplorerView",1416924429591
activated,view,com.android.ide.eclipse.ddms,12.0.0.v201106281929-138431,"com.android.ide.eclipse.ddms.views.DeviceView",1416924432012
activated,view,org.eclipse.ui.console,3.4.0.v20090513,"org.eclipse.ui.console.ConsoleView",1416924437423
activated,view,com.android.ide.eclipse.ddms,12.0.0.v201106281929-138431,"com.android.ide.eclipse.ddms.views.LogCatView",1416924438687
