what,kind,bundleId,bundleVersion,description,time
executed,command,org.eclipse.ui,3.5.1.M20090902-1000,"org.eclipse.ui.edit.text.contentAssist.proposals",1416965147469
executed,command,org.eclipse.ui,3.5.1.M20090902-1000,"org.eclipse.ui.edit.delete",1416965151200
deactivated,workbench,org.eclipse.ui.workbench,3.5.1.M20090826-0800a,"",1416965161803
activated,workbench,org.eclipse.ui.workbench,3.5.1.M20090826-0800a,"",1416965162806
deactivated,workbench,org.eclipse.ui.workbench,3.5.1.M20090826-0800a,"",1416965164163
activated,workbench,org.eclipse.ui.workbench,3.5.1.M20090826-0800a,"",1416965164849
deactivated,workbench,org.eclipse.ui.workbench,3.5.1.M20090826-0800a,"",1416965165163
activated,workbench,org.eclipse.ui.workbench,3.5.1.M20090826-0800a,"",1416965166793
deactivated,workbench,org.eclipse.ui.workbench,3.5.1.M20090826-0800a,"",1416965167811
activated,workbench,org.eclipse.ui.workbench,3.5.1.M20090826-0800a,"",1416965196463
deactivated,workbench,org.eclipse.ui.workbench,3.5.1.M20090826-0800a,"",1416965210449
activated,workbench,org.eclipse.ui.workbench,3.5.1.M20090826-0800a,"",1416965229264
deactivated,workbench,org.eclipse.ui.workbench,3.5.1.M20090826-0800a,"",1416965230169
activated,workbench,org.eclipse.ui.workbench,3.5.1.M20090826-0800a,"",1416965230950
executed,command,org.eclipse.ui,3.5.1.M20090902-1000,"org.eclipse.ui.edit.text.contentAssist.proposals",1416965237588
executed,command,org.eclipse.ui,3.5.1.M20090902-1000,"org.eclipse.ui.file.save",1416965251018
activated,editor,com.android.ide.eclipse.adt,12.0.0.v201106281929-138431,"com.android.ide.eclipse.editors.manifest.ManifestEditor",1416965256854
activated,editor,org.eclipse.jdt.ui,3.5.1.r351_v20090821-0800,"org.eclipse.jdt.ui.CompilationUnitEditor",1416965257817
closed,editor,com.android.ide.eclipse.adt,12.0.0.v201106281929-138431,"com.android.ide.eclipse.editors.manifest.ManifestEditor",1416965258752
executed,command,org.eclipse.ui,3.5.1.M20090902-1000,"org.eclipse.ui.edit.cut",1416965273588
deactivated,workbench,org.eclipse.ui.workbench,3.5.1.M20090826-0800a,"",1416965297080
activated,workbench,org.eclipse.ui.workbench,3.5.1.M20090826-0800a,"",1416965297209
executed,command,org.eclipse.ui,3.5.1.M20090902-1000,"org.eclipse.ui.edit.paste",1416965298297
executed,command,org.eclipse.ui,3.5.1.M20090902-1000,"org.eclipse.ui.file.save",1416965300899
activated,view,org.eclipse.jdt.ui,3.5.1.r351_v20090821-0800,"org.eclipse.jdt.ui.PackageExplorer",1416965304217
