what,kind,bundleId,bundleVersion,description,time
activated,view,com.android.ide.eclipse.ddms,12.0.0.v201106281929-138431,"com.android.ide.eclipse.ddms.views.LogCatView",1416532291608
activated,perspective,org.eclipse.jdt.ui,3.5.1.r351_v20090821-0800,"org.eclipse.jdt.ui.JavaPerspective",1416532296162
activated,view,org.eclipse.ui.views,3.4.1.M20090826-0800,"org.eclipse.ui.views.ContentOutline",1416532296167
closed,view,org.eclipse.ui.navigator.resources,3.4.1.M20090826-0800,"org.eclipse.ui.navigator.ProjectExplorer",1416532307552
executed,command,org.eclipse.ui,3.5.1.M20090902-1000,"org.eclipse.ui.window.closePerspective",1416532307557
error,log,,,"引用部件仍不存在：org.eclipse.ui.views.ProblemView。",1416532311863
started,bundle,org.eclipse.debug.ui,3.5.1.v20090811_r351,"org.eclipse.debug.ui",1416532311892
opened,view,org.eclipse.ui.console,3.4.0.v20090513,"org.eclipse.ui.console.ConsoleView",1416532311934
opened,view,org.eclipse.debug.ui,3.5.1.v20090811_r351,"org.eclipse.debug.ui.DebugView",1416532312407
opened,view,org.eclipse.debug.ui,3.5.1.v20090811_r351,"org.eclipse.debug.ui.VariableView",1416532312652
activated,perspective,org.eclipse.debug.ui,3.5.1.v20090811_r351,"org.eclipse.debug.ui.DebugPerspective",1416532312700
executed,command,org.eclipse.ui,3.5.1.M20090902-1000,"org.eclipse.ui.perspectives.showPerspective",1416532312715
executed,command,org.eclipse.debug.ui,3.5.1.v20090811_r351,"org.eclipse.debug.ui.DebugPerspective",1416532312715
activated,perspective,org.eclipse.jdt.ui,3.5.1.r351_v20090821-0800,"org.eclipse.jdt.ui.JavaPerspective",1416532321227
opened,view,org.eclipse.jdt.ui,3.5.1.r351_v20090821-0800,"org.eclipse.jdt.ui.SourceView",1416532325578
activated,view,org.eclipse.jdt.ui,3.5.1.r351_v20090821-0800,"org.eclipse.jdt.ui.SourceView",1416532325598
activated,view,org.eclipse.ui.views,3.4.1.M20090826-0800,"org.eclipse.ui.views.ContentOutline",1416532326298
closed,view,org.eclipse.jdt.ui,3.5.1.r351_v20090821-0800,"org.eclipse.jdt.ui.SourceView",1416532326308
opened,view,org.eclipse.jdt.ui,3.5.1.r351_v20090821-0800,"org.eclipse.jdt.ui.JavadocView",1416532327323
activated,view,org.eclipse.jdt.ui,3.5.1.r351_v20090821-0800,"org.eclipse.jdt.ui.JavadocView",1416532327334
activated,view,org.eclipse.ui.views,3.4.1.M20090826-0800,"org.eclipse.ui.views.ContentOutline",1416532327963
closed,view,org.eclipse.jdt.ui,3.5.1.r351_v20090821-0800,"org.eclipse.jdt.ui.JavadocView",1416532327976
activated,view,org.eclipse.ui.console,3.4.0.v20090513,"org.eclipse.ui.console.ConsoleView",1416532333662
executed,command,org.eclipse.ui,3.5.1.M20090902-1000,"org.eclipse.ui.views.showView",1416532333673
opened,view,org.eclipse.ui.views.log,1.0.100.v20090731,"org.eclipse.pde.runtime.LogView",1416532344136
