what,kind,bundleId,bundleVersion,description,time
activated,workbench,org.eclipse.ui.workbench,3.5.1.M20090826-0800a,"",1418187910157
deactivated,workbench,org.eclipse.ui.workbench,3.5.1.M20090826-0800a,"",1418187915572
activated,workbench,org.eclipse.ui.workbench,3.5.1.M20090826-0800a,"",1418187921753
deactivated,workbench,org.eclipse.ui.workbench,3.5.1.M20090826-0800a,"",1418187924030
activated,workbench,org.eclipse.ui.workbench,3.5.1.M20090826-0800a,"",1418187937453
executed,command,org.eclipse.ui,3.5.1.M20090902-1000,"org.eclipse.ui.file.save",1418187956130
activated,view,org.eclipse.jdt.ui,3.5.1.r351_v20090821-0800,"org.eclipse.jdt.ui.PackageExplorer",1418187959894
executed,command,,,"com.android.ide.eclipse.adt.debug.launching.LaunchShortcut.run",1418187961452
deactivated,workbench,org.eclipse.ui.workbench,3.5.1.M20090826-0800a,"",1418187963370
activated,workbench,org.eclipse.ui.workbench,3.5.1.M20090826-0800a,"",1418187964060
deactivated,workbench,org.eclipse.ui.workbench,3.5.1.M20090826-0800a,"",1418187970121
activated,workbench,org.eclipse.ui.workbench,3.5.1.M20090826-0800a,"",1418187985963
activated,view,com.android.ide.eclipse.ddms,12.0.0.v201106281929-138431,"com.android.ide.eclipse.ddms.views.LogCatView",1418187987305
activated,view,org.eclipse.jdt.ui,3.5.1.r351_v20090821-0800,"org.eclipse.jdt.ui.PackageExplorer",1418187990127
deactivated,workbench,org.eclipse.ui.workbench,3.5.1.M20090826-0800a,"",1418187998205
activated,workbench,org.eclipse.ui.workbench,3.5.1.M20090826-0800a,"",1418188003399
executed,command,org.eclipse.ui,3.5.1.M20090902-1000,"org.eclipse.ui.perspectives.showPerspective",1418188003408
executed,command,org.eclipse.ui,3.5.1.M20090902-1000,"org.eclipse.ui.perspectives.showPerspective",1418188003408
deactivated,workbench,org.eclipse.ui.workbench,3.5.1.M20090826-0800a,"",1418188013428
activated,workbench,org.eclipse.ui.workbench,3.5.1.M20090826-0800a,"",1418188033689
activated,view,com.android.ide.eclipse.ddms,12.0.0.v201106281929-138431,"com.android.ide.eclipse.ddms.views.LogCatView",1418188033794
executed,command,org.eclipse.ui,3.5.1.M20090902-1000,"org.eclipse.ui.views.showView",1418188033795
executed,command,org.eclipse.ui,3.5.1.M20090902-1000,"org.eclipse.ui.views.showView",1418188033795
activated,editor,org.eclipse.jdt.ui,3.5.1.r351_v20090821-0800,"org.eclipse.jdt.ui.CompilationUnitEditor",1418188039644
deactivated,workbench,org.eclipse.ui.workbench,3.5.1.M20090826-0800a,"",1418188040851
