what,kind,bundleId,bundleVersion,description,time
activated,workbench,org.eclipse.ui.workbench,3.5.1.M20090826-0800a,"",1416667690824
deactivated,workbench,org.eclipse.ui.workbench,3.5.1.M20090826-0800a,"",1416667693496
deactivated,workbench,org.eclipse.ui.workbench,3.5.1.M20090826-0800a,"",1416667698055
opened,view,org.eclipse.ui.console,3.4.0.v20090513,"org.eclipse.ui.console.ConsoleView",1416670669768
activated,workbench,org.eclipse.ui.workbench,3.5.1.M20090826-0800a,"",1416670730398
started,bundle,org.eclipse.jst.common.project.facet.core,1.4.1.v200908111817,"org.eclipse.jst.common.project.facet.core",1416670735155
started,bundle,org.eclipse.jpt.core,2.2.1.v200908270220,"org.eclipse.jpt.core",1416670735279
started,bundle,org.eclipse.jpt.eclipselink.core,1.2.0.v200905310000,"org.eclipse.jpt.eclipselink.core",1416670735315
executed,command,org.eclipse.ui,3.5.1.M20090902-1000,"org.eclipse.ui.edit.copy",1416670748408
started,bundle,org.eclipse.compare.core,3.5.0.I20090430-0408,"org.eclipse.compare.core",1416670754769
opened,editor,org.eclipse.jdt.ui,3.5.1.r351_v20090821-0800,"org.eclipse.jdt.ui.CompilationUnitEditor",1416670755274
activated,editor,org.eclipse.jdt.ui,3.5.1.r351_v20090821-0800,"org.eclipse.jdt.ui.CompilationUnitEditor",1416670756023
started,bundle,org.eclipse.core.variables,3.2.200.v20090521,"org.eclipse.core.variables",1416670756564
deactivated,workbench,org.eclipse.ui.workbench,3.5.1.M20090826-0800a,"",1416670757833
activated,workbench,org.eclipse.ui.workbench,3.5.1.M20090826-0800a,"",1416670768557
activated,view,org.eclipse.jdt.ui,3.5.1.r351_v20090821-0800,"org.eclipse.jdt.ui.PackageExplorer",1416670771284
closed,editor,org.eclipse.jdt.ui,3.5.1.r351_v20090821-0800,"org.eclipse.jdt.ui.CompilationUnitEditor",1416670771289
executed,command,org.eclipse.ui,3.5.1.M20090902-1000,"org.eclipse.ui.edit.copy",1416670807960
executed,command,org.eclipse.ui,3.5.1.M20090902-1000,"org.eclipse.ui.edit.copy",1416670808333
deactivated,workbench,org.eclipse.ui.workbench,3.5.1.M20090826-0800a,"",1416670812299
activated,workbench,org.eclipse.ui.workbench,3.5.1.M20090826-0800a,"",1416672173721
deactivated,workbench,org.eclipse.ui.workbench,3.5.1.M20090826-0800a,"",1416672178155
activated,workbench,org.eclipse.ui.workbench,3.5.1.M20090826-0800a,"",1416672179147
activated,view,org.eclipse.ui.console,3.4.0.v20090513,"org.eclipse.ui.console.ConsoleView",1416672180523
activated,view,org.eclipse.jdt.ui,3.5.1.r351_v20090821-0800,"org.eclipse.jdt.ui.PackageExplorer",1416672182749
