what,kind,bundleId,bundleVersion,description,time
executed,command,org.eclipse.ui,3.5.1.M20090902-1000,"org.eclipse.ui.edit.paste",1416552952997
activated,editor,org.eclipse.jdt.ui,3.5.1.r351_v20090821-0800,"org.eclipse.jdt.ui.CompilationUnitEditor",1416552955372
deactivated,workbench,org.eclipse.ui.workbench,3.5.1.M20090826-0800a,"",1416552970916
activated,workbench,org.eclipse.ui.workbench,3.5.1.M20090826-0800a,"",1416552971857
deactivated,workbench,org.eclipse.ui.workbench,3.5.1.M20090826-0800a,"",1416552975105
activated,workbench,org.eclipse.ui.workbench,3.5.1.M20090826-0800a,"",1416552978262
activated,view,org.eclipse.jdt.ui,3.5.1.r351_v20090821-0800,"org.eclipse.jdt.ui.PackageExplorer",1416552988104
opened,editor,org.eclipse.jdt.ui,3.5.1.r351_v20090821-0800,"org.eclipse.jdt.ui.CompilationUnitEditor",1416552991104
activated,editor,org.eclipse.jdt.ui,3.5.1.r351_v20090821-0800,"org.eclipse.jdt.ui.CompilationUnitEditor",1416552991193
closed,editor,com.android.ide.eclipse.adt,12.0.0.v201106281929-138431,"com.android.ide.eclipse.editors.layout.LayoutEditor",1416552992529
executed,command,org.eclipse.ui,3.5.1.M20090902-1000,"org.eclipse.ui.edit.copy",1416553051496
executed,command,org.eclipse.ui,3.5.1.M20090902-1000,"org.eclipse.ui.edit.paste",1416553052956
deactivated,workbench,org.eclipse.ui.workbench,3.5.1.M20090826-0800a,"",1416553113255
activated,workbench,org.eclipse.ui.workbench,3.5.1.M20090826-0800a,"",1416553117302
executed,command,org.eclipse.ui,3.5.1.M20090902-1000,"org.eclipse.ui.edit.copy",1416553171944
executed,command,org.eclipse.ui,3.5.1.M20090902-1000,"org.eclipse.ui.edit.paste",1416553173296
executed,command,org.eclipse.ui,3.5.1.M20090902-1000,"org.eclipse.ui.file.save",1416553174303
executed,command,org.eclipse.ui,3.5.1.M20090902-1000,"org.eclipse.ui.edit.copy",1416553185498
executed,command,org.eclipse.ui,3.5.1.M20090902-1000,"org.eclipse.ui.edit.paste",1416553187679
executed,command,org.eclipse.ui.workbench.texteditor,3.5.0.v20090603,"org.eclipse.ui.edit.text.goto.lineEnd",1416553190859
executed,command,org.eclipse.ui,3.5.1.M20090902-1000,"org.eclipse.ui.edit.text.contentAssist.proposals",1416553210793
executed,command,org.eclipse.ui,3.5.1.M20090902-1000,"org.eclipse.ui.edit.undo",1416553225861
executed,command,org.eclipse.ui,3.5.1.M20090902-1000,"org.eclipse.ui.file.save",1416553232243
deactivated,workbench,org.eclipse.ui.workbench,3.5.1.M20090826-0800a,"",1416553240989
activated,workbench,org.eclipse.ui.workbench,3.5.1.M20090826-0800a,"",1416553253792
