what,kind,bundleId,bundleVersion,description,time
started,bundle,org.eclipse.jdt.junit,3.5.1.r351_v20090708-0800,"org.eclipse.jdt.junit",1417520387067
started,bundle,org.eclipse.mylyn.java.ui,3.2.2.v20090912-0400-e3x,"org.eclipse.mylyn.java.ui",1417520426823
started,bundle,org.eclipse.pde.api.tools,1.0.101.v20090714,"org.eclipse.pde.api.tools",1417520426916
started,bundle,org.eclipse.pde.api.tools.ui,1.0.101.v20090820,"org.eclipse.pde.api.tools.ui",1417520426919
deactivated,workbench,org.eclipse.ui.workbench,3.5.1.M20090826-0800a,"",1417520503250
activated,workbench,org.eclipse.ui.workbench,3.5.1.M20090826-0800a,"",1417520545681
deactivated,workbench,org.eclipse.ui.workbench,3.5.1.M20090826-0800a,"",1417520549562
activated,workbench,org.eclipse.ui.workbench,3.5.1.M20090826-0800a,"",1417520552944
executed,command,org.eclipse.ui,3.5.1.M20090902-1000,"org.eclipse.ui.edit.text.contentAssist.proposals",1417520573700
executed,command,org.eclipse.ui,3.5.1.M20090902-1000,"org.eclipse.ui.edit.text.contentAssist.proposals",1417520578771
executed,command,org.eclipse.ui,3.5.1.M20090902-1000,"org.eclipse.ui.edit.copy",1417520614374
executed,command,org.eclipse.ui,3.5.1.M20090902-1000,"org.eclipse.ui.edit.paste",1417520617045
deactivated,workbench,org.eclipse.ui.workbench,3.5.1.M20090826-0800a,"",1417520632348
activated,workbench,org.eclipse.ui.workbench,3.5.1.M20090826-0800a,"",1417520640635
deactivated,workbench,org.eclipse.ui.workbench,3.5.1.M20090826-0800a,"",1417520641346
activated,workbench,org.eclipse.ui.workbench,3.5.1.M20090826-0800a,"",1417520805371
deactivated,workbench,org.eclipse.ui.workbench,3.5.1.M20090826-0800a,"",1417520806438
activated,workbench,org.eclipse.ui.workbench,3.5.1.M20090826-0800a,"",1417521390413
executed,command,org.eclipse.ui,3.5.1.M20090902-1000,"org.eclipse.ui.file.save",1417521451828
deactivated,workbench,org.eclipse.ui.workbench,3.5.1.M20090826-0800a,"",1417521452612
activated,workbench,org.eclipse.ui.workbench,3.5.1.M20090826-0800a,"",1417521772073
deactivated,workbench,org.eclipse.ui.workbench,3.5.1.M20090826-0800a,"",1417521793720
activated,workbench,org.eclipse.ui.workbench,3.5.1.M20090826-0800a,"",1417521798159
executed,command,org.eclipse.ui.workbench.texteditor,3.5.0.v20090603,"org.eclipse.ui.edit.text.goto.lineEnd",1417521805875
deactivated,workbench,org.eclipse.ui.workbench,3.5.1.M20090826-0800a,"",1417521808900
