what,kind,bundleId,bundleVersion,description,time
deactivated,workbench,org.eclipse.ui.workbench,3.5.1.M20090826-0800a,"",1416558510702
activated,workbench,org.eclipse.ui.workbench,3.5.1.M20090826-0800a,"",1416558512975
deactivated,workbench,org.eclipse.ui.workbench,3.5.1.M20090826-0800a,"",1416558518751
activated,workbench,org.eclipse.ui.workbench,3.5.1.M20090826-0800a,"",1416558520332
deactivated,workbench,org.eclipse.ui.workbench,3.5.1.M20090826-0800a,"",1416558524146
activated,workbench,org.eclipse.ui.workbench,3.5.1.M20090826-0800a,"",1416558525455
deactivated,workbench,org.eclipse.ui.workbench,3.5.1.M20090826-0800a,"",1416558528367
activated,workbench,org.eclipse.ui.workbench,3.5.1.M20090826-0800a,"",1416558530216
deactivated,workbench,org.eclipse.ui.workbench,3.5.1.M20090826-0800a,"",1416558533334
activated,workbench,org.eclipse.ui.workbench,3.5.1.M20090826-0800a,"",1416558535307
executed,command,org.eclipse.ui,3.5.1.M20090902-1000,"org.eclipse.ui.file.save",1416558543213
activated,view,org.eclipse.jdt.ui,3.5.1.r351_v20090821-0800,"org.eclipse.jdt.ui.PackageExplorer",1416558545952
opened,editor,org.eclipse.jdt.ui,3.5.1.r351_v20090821-0800,"org.eclipse.jdt.ui.CompilationUnitEditor",1416558549782
activated,editor,org.eclipse.jdt.ui,3.5.1.r351_v20090821-0800,"org.eclipse.jdt.ui.CompilationUnitEditor",1416558549878
executed,command,org.eclipse.ui,3.5.1.M20090902-1000,"org.eclipse.ui.edit.delete",1416558580643
executed,command,org.eclipse.ui,3.5.1.M20090902-1000,"org.eclipse.ui.file.save",1416558584684
executed,command,org.eclipse.ui,3.5.1.M20090902-1000,"org.eclipse.ui.edit.copy",1416558591308
executed,command,org.eclipse.ui,3.5.1.M20090902-1000,"org.eclipse.ui.edit.paste",1416558594288
executed,command,org.eclipse.ui,3.5.1.M20090902-1000,"org.eclipse.ui.file.save",1416558596786
executed,command,org.eclipse.ui,3.5.1.M20090902-1000,"org.eclipse.ui.edit.copy",1416558599869
executed,command,org.eclipse.ui,3.5.1.M20090902-1000,"org.eclipse.ui.edit.paste",1416558602165
executed,command,org.eclipse.ui,3.5.1.M20090902-1000,"org.eclipse.ui.file.save",1416558602944
activated,editor,org.eclipse.jdt.ui,3.5.1.r351_v20090821-0800,"org.eclipse.jdt.ui.CompilationUnitEditor",1416558607045
executed,command,org.eclipse.ui,3.5.1.M20090902-1000,"org.eclipse.ui.file.save",1416558611667
activated,editor,org.eclipse.jdt.ui,3.5.1.r351_v20090821-0800,"org.eclipse.jdt.ui.CompilationUnitEditor",1416558612879
