what,kind,bundleId,bundleVersion,description,time
started,bundle,com.android.ide.eclipse.ddms,12.0.0.v201106281929-138431,"com.android.ide.eclipse.ddms",1416828651763
os,sysinfo,,,"win32",1416828651771
arch,sysinfo,,,"x86",1416828651771
ws,sysinfo,,,"win32",1416828651771
locale,sysinfo,,,"zh_CN",1416828651771
processors,sysinfo,,,"4",1416828651771
java.runtime.name,sysinfo,,,"Java(TM) SE Runtime Environment",1416828651771
java.runtime.version,sysinfo,,,"1.6.0_03-b05",1416828651771
java.specification.name,sysinfo,,,"Java Platform API Specification",1416828651771
java.specification.vendor,sysinfo,,,"Sun Microsystems Inc.",1416828651771
java.specification.version,sysinfo,,,"1.6",1416828651771
java.vendor,sysinfo,,,"Sun Microsystems Inc.",1416828651771
java.version,sysinfo,,,"1.6.0_03",1416828651771
java.vm.info,sysinfo,,,"mixed mode",1416828651771
java.vm.name,sysinfo,,,"Java HotSpot(TM) Client VM",1416828651771
java.vm.specification.name,sysinfo,,,"Java Virtual Machine Specification",1416828651771
java.vm.specification.vendor,sysinfo,,,"Sun Microsystems Inc.",1416828651771
java.vm.specification.version,sysinfo,,,"1.0",1416828651771
java.vm.vendor,sysinfo,,,"Sun Microsystems Inc.",1416828651771
java.vm.version,sysinfo,,,"1.6.0_03-b05",1416828651771
started,bundle,com.android.ide.eclipse.traceview,12.0.0.v201106281929-138431,"com.android.ide.eclipse.traceview",1416828652093
started,bundle,org.eclipse.mylyn.commons.net,3.2.0.v20090617-0100-e3x,"org.eclipse.mylyn.commons.net",1416828652621
started,bundle,org.eclipse.jst.common.project.facet.core,1.4.1.v200908111817,"org.eclipse.jst.common.project.facet.core",1416828652950
started,bundle,org.eclipse.mylyn.commons.ui,3.2.2.v20090912-0400-e3x,"org.eclipse.mylyn.commons.ui",1416828653385
error,log,,,"Error validating C:\\Users\\acer\\.android\\devices.xml",1416828653717
