what,kind,bundleId,bundleVersion,description,time
deactivated,workbench,org.eclipse.ui.workbench,3.5.1.M20090826-0800a,"",1418180113659
activated,workbench,org.eclipse.ui.workbench,3.5.1.M20090826-0800a,"",1418180125170
deactivated,workbench,org.eclipse.ui.workbench,3.5.1.M20090826-0800a,"",1418180130126
no handler,command,org.eclipse.ui,3.5.1.M20090902-1000,"org.eclipse.ui.edit.copy",1418180132185
no handler,command,org.eclipse.ui,3.5.1.M20090902-1000,"org.eclipse.ui.edit.copy",1418180132185
no handler,command,org.eclipse.ui,3.5.1.M20090902-1000,"org.eclipse.ui.edit.copy",1418180132553
no handler,command,org.eclipse.ui,3.5.1.M20090902-1000,"org.eclipse.ui.edit.copy",1418180132553
no handler,command,org.eclipse.ui,3.5.1.M20090902-1000,"org.eclipse.ui.edit.copy",1418180132910
no handler,command,org.eclipse.ui,3.5.1.M20090902-1000,"org.eclipse.ui.edit.copy",1418180132911
no handler,command,org.eclipse.ui,3.5.1.M20090902-1000,"org.eclipse.ui.edit.copy",1418180134363
no handler,command,org.eclipse.ui,3.5.1.M20090902-1000,"org.eclipse.ui.edit.copy",1418180134363
activated,workbench,org.eclipse.ui.workbench,3.5.1.M20090826-0800a,"",1418180135344
executed,command,org.eclipse.ui,3.5.1.M20090902-1000,"org.eclipse.ui.edit.text.contentAssist.proposals",1418180145122
deactivated,workbench,org.eclipse.ui.workbench,3.5.1.M20090826-0800a,"",1418180153720
activated,workbench,org.eclipse.ui.workbench,3.5.1.M20090826-0800a,"",1418180153836
executed,command,org.eclipse.ui,3.5.1.M20090902-1000,"org.eclipse.ui.edit.copy",1418180155875
executed,command,org.eclipse.ui,3.5.1.M20090902-1000,"org.eclipse.ui.edit.copy",1418180156325
executed,command,org.eclipse.ui,3.5.1.M20090902-1000,"org.eclipse.ui.edit.paste",1418180158069
deactivated,workbench,org.eclipse.ui.workbench,3.5.1.M20090826-0800a,"",1418180190165
activated,workbench,org.eclipse.ui.workbench,3.5.1.M20090826-0800a,"",1418180204840
executed,command,org.eclipse.ui,3.5.1.M20090902-1000,"org.eclipse.ui.edit.copy",1418180205028
executed,command,org.eclipse.ui,3.5.1.M20090902-1000,"org.eclipse.ui.edit.copy",1418180213700
executed,command,org.eclipse.ui,3.5.1.M20090902-1000,"org.eclipse.ui.file.save",1418180218258
deactivated,workbench,org.eclipse.ui.workbench,3.5.1.M20090826-0800a,"",1418180235160
activated,workbench,org.eclipse.ui.workbench,3.5.1.M20090826-0800a,"",1418180235352
