what,kind,bundleId,bundleVersion,description,time
closed,editor,org.eclipse.jdt.ui,3.5.1.r351_v20090821-0800,"org.eclipse.jdt.ui.CompilationUnitEditor",1417011131819
deactivated,workbench,org.eclipse.ui.workbench,3.5.1.M20090826-0800a,"",1417011133610
activated,workbench,org.eclipse.ui.workbench,3.5.1.M20090826-0800a,"",1417011134688
activated,editor,org.eclipse.jdt.ui,3.5.1.r351_v20090821-0800,"org.eclipse.jdt.ui.CompilationUnitEditor",1417011134778
closed,editor,org.eclipse.jdt.ui,3.5.1.r351_v20090821-0800,"org.eclipse.jdt.ui.CompilationUnitEditor",1417011134778
deactivated,workbench,org.eclipse.ui.workbench,3.5.1.M20090826-0800a,"",1417011136177
activated,workbench,org.eclipse.ui.workbench,3.5.1.M20090826-0800a,"",1417011137055
activated,editor,org.eclipse.jdt.ui,3.5.1.r351_v20090821-0800,"org.eclipse.jdt.ui.CompilationUnitEditor",1417011137144
closed,editor,org.eclipse.jdt.ui,3.5.1.r351_v20090821-0800,"org.eclipse.jdt.ui.CompilationUnitEditor",1417011137144
deactivated,workbench,org.eclipse.ui.workbench,3.5.1.M20090826-0800a,"",1417011138546
activated,workbench,org.eclipse.ui.workbench,3.5.1.M20090826-0800a,"",1417011139484
activated,editor,org.eclipse.jdt.ui,3.5.1.r351_v20090821-0800,"org.eclipse.jdt.ui.CompilationUnitEditor",1417011139580
closed,editor,org.eclipse.jdt.ui,3.5.1.r351_v20090821-0800,"org.eclipse.jdt.ui.CompilationUnitEditor",1417011139580
activated,editor,org.eclipse.jdt.ui,3.5.1.r351_v20090821-0800,"org.eclipse.jdt.ui.CompilationUnitEditor",1417011141003
activated,editor,org.eclipse.jdt.ui,3.5.1.r351_v20090821-0800,"org.eclipse.jdt.ui.CompilationUnitEditor",1417011141654
closed,editor,org.eclipse.jdt.ui,3.5.1.r351_v20090821-0800,"org.eclipse.jdt.ui.CompilationUnitEditor",1417011141655
activated,view,org.eclipse.jdt.ui,3.5.1.r351_v20090821-0800,"org.eclipse.jdt.ui.PackageExplorer",1417011142679
closed,editor,org.eclipse.jdt.ui,3.5.1.r351_v20090821-0800,"org.eclipse.jdt.ui.CompilationUnitEditor",1417011142679
deactivated,workbench,org.eclipse.ui.workbench,3.5.1.M20090826-0800a,"",1417011146202
activated,workbench,org.eclipse.ui.workbench,3.5.1.M20090826-0800a,"",1417011147581
deactivated,workbench,org.eclipse.ui.workbench,3.5.1.M20090826-0800a,"",1417011148366
activated,workbench,org.eclipse.ui.workbench,3.5.1.M20090826-0800a,"",1417011149315
deactivated,workbench,org.eclipse.ui.workbench,3.5.1.M20090826-0800a,"",1417011149810
activated,workbench,org.eclipse.ui.workbench,3.5.1.M20090826-0800a,"",1417011150628
deactivated,workbench,org.eclipse.ui.workbench,3.5.1.M20090826-0800a,"",1417011151425
