what,kind,bundleId,bundleVersion,description,time
started,bundle,org.eclipse.ant.ui,3.4.1.v20090901_r351,"org.eclipse.ant.ui",1417743032017
started,bundle,org.eclipse.wst.jsdt.manipulation,1.0.100.v200809240707,"org.eclipse.wst.jsdt.manipulation",1417743032390
started,bundle,org.eclipse.wst.jsdt.ui,1.0.200.v200905242047,"org.eclipse.wst.jsdt.ui",1417743032636
activated,workbench,org.eclipse.ui.workbench,3.5.1.M20090826-0800a,"",1417743033756
executed,command,org.eclipse.jdt.ui,3.5.1.r351_v20090821-0800,"org.eclipse.jdt.ui.edit.text.java.rename.element",1417743033766
activated,editor,org.eclipse.jdt.ui,3.5.1.r351_v20090821-0800,"org.eclipse.jdt.ui.CompilationUnitEditor",1417743034813
executed,command,org.eclipse.ui,3.5.1.M20090902-1000,"org.eclipse.ui.file.save",1417743040040
executed,command,org.eclipse.ui,3.5.1.M20090902-1000,"org.eclipse.ui.edit.text.contentAssist.proposals",1417743043683
activated,editor,org.eclipse.jdt.ui,3.5.1.r351_v20090821-0800,"org.eclipse.jdt.ui.CompilationUnitEditor",1417743056302
executed,command,org.eclipse.ui,3.5.1.M20090902-1000,"org.eclipse.ui.file.save",1417743061587
activated,editor,org.eclipse.jdt.ui,3.5.1.r351_v20090821-0800,"org.eclipse.jdt.ui.CompilationUnitEditor",1417743063676
deactivated,workbench,org.eclipse.ui.workbench,3.5.1.M20090826-0800a,"",1417743089322
activated,workbench,org.eclipse.ui.workbench,3.5.1.M20090826-0800a,"",1417743089451
deactivated,workbench,org.eclipse.ui.workbench,3.5.1.M20090826-0800a,"",1417743091221
activated,workbench,org.eclipse.ui.workbench,3.5.1.M20090826-0800a,"",1417743091356
executed,command,org.eclipse.ui,3.5.1.M20090902-1000,"org.eclipse.ui.edit.copy",1417743109780
executed,command,org.eclipse.ui,3.5.1.M20090902-1000,"org.eclipse.ui.edit.paste",1417743110934
executed,command,org.eclipse.ui,3.5.1.M20090902-1000,"org.eclipse.ui.file.save",1417743119044
executed,command,org.eclipse.ui,3.5.1.M20090902-1000,"org.eclipse.ui.file.save",1417743132802
executed,command,org.eclipse.ui,3.5.1.M20090902-1000,"org.eclipse.ui.edit.text.contentAssist.proposals",1417743236028
executed,command,org.eclipse.ui,3.5.1.M20090902-1000,"org.eclipse.ui.edit.text.contentAssist.proposals",1417743241976
deactivated,workbench,org.eclipse.ui.workbench,3.5.1.M20090826-0800a,"",1417743256526
activated,workbench,org.eclipse.ui.workbench,3.5.1.M20090826-0800a,"",1417743256692
deactivated,workbench,org.eclipse.ui.workbench,3.5.1.M20090826-0800a,"",1417743273260
activated,workbench,org.eclipse.ui.workbench,3.5.1.M20090826-0800a,"",1417743273646
