what,kind,bundleId,bundleVersion,description,time
executed,command,org.eclipse.ui,3.5.1.M20090902-1000,"org.eclipse.ui.file.save",1417004228626
deactivated,workbench,org.eclipse.ui.workbench,3.5.1.M20090826-0800a,"",1417004234414
activated,workbench,org.eclipse.ui.workbench,3.5.1.M20090826-0800a,"",1417004234576
deactivated,workbench,org.eclipse.ui.workbench,3.5.1.M20090826-0800a,"",1417004237772
activated,workbench,org.eclipse.ui.workbench,3.5.1.M20090826-0800a,"",1417004237881
deactivated,workbench,org.eclipse.ui.workbench,3.5.1.M20090826-0800a,"",1417004240671
activated,workbench,org.eclipse.ui.workbench,3.5.1.M20090826-0800a,"",1417004240833
deactivated,workbench,org.eclipse.ui.workbench,3.5.1.M20090826-0800a,"",1417004242768
activated,workbench,org.eclipse.ui.workbench,3.5.1.M20090826-0800a,"",1417004242894
executed,command,org.eclipse.ui,3.5.1.M20090902-1000,"org.eclipse.ui.file.save",1417004259787
deactivated,workbench,org.eclipse.ui.workbench,3.5.1.M20090826-0800a,"",1417004270710
activated,workbench,org.eclipse.ui.workbench,3.5.1.M20090826-0800a,"",1417004299268
executed,command,org.eclipse.ui,3.5.1.M20090902-1000,"org.eclipse.ui.file.save",1417004325635
deactivated,workbench,org.eclipse.ui.workbench,3.5.1.M20090826-0800a,"",1417004329694
activated,workbench,org.eclipse.ui.workbench,3.5.1.M20090826-0800a,"",1417004366502
executed,command,org.eclipse.ui,3.5.1.M20090902-1000,"org.eclipse.ui.file.save",1417004379990
activated,editor,org.eclipse.jdt.ui,3.5.1.r351_v20090821-0800,"org.eclipse.jdt.ui.CompilationUnitEditor",1417004395544
executed,command,org.eclipse.ui,3.5.1.M20090902-1000,"org.eclipse.ui.file.save",1417004404876
activated,view,org.eclipse.jdt.ui,3.5.1.r351_v20090821-0800,"org.eclipse.jdt.ui.PackageExplorer",1417004411038
executed,command,,,"com.android.ide.eclipse.adt.debug.launching.LaunchShortcut.run",1417004414693
deactivated,workbench,org.eclipse.ui.workbench,3.5.1.M20090826-0800a,"",1417004414912
activated,workbench,org.eclipse.ui.workbench,3.5.1.M20090826-0800a,"",1417004417465
activated,view,com.android.ide.eclipse.ddms,12.0.0.v201106281929-138431,"com.android.ide.eclipse.ddms.views.LogCatView",1417004417750
deactivated,workbench,org.eclipse.ui.workbench,3.5.1.M20090826-0800a,"",1417004422535
activated,workbench,org.eclipse.ui.workbench,3.5.1.M20090826-0800a,"",1417004430367
