what,kind,bundleId,bundleVersion,description,time
deactivated,workbench,org.eclipse.ui.workbench,3.5.1.M20090826-0800a,"",1418388096639
activated,workbench,org.eclipse.ui.workbench,3.5.1.M20090826-0800a,"",1418388101274
activated,view,com.android.ide.eclipse.ddms,12.0.0.v201106281929-138431,"com.android.ide.eclipse.ddms.views.DeviceView",1418388108425
deactivated,workbench,org.eclipse.ui.workbench,3.5.1.M20090826-0800a,"",1418388109416
activated,workbench,org.eclipse.ui.workbench,3.5.1.M20090826-0800a,"",1418388207161
activated,view,com.android.ide.eclipse.ddms,12.0.0.v201106281929-138431,"com.android.ide.eclipse.ddms.views.FileExplorerView",1418388207753
deactivated,workbench,org.eclipse.ui.workbench,3.5.1.M20090826-0800a,"",1418388215800
activated,workbench,org.eclipse.ui.workbench,3.5.1.M20090826-0800a,"",1418388217174
deactivated,workbench,org.eclipse.ui.workbench,3.5.1.M20090826-0800a,"",1418388218743
activated,workbench,org.eclipse.ui.workbench,3.5.1.M20090826-0800a,"",1418388219979
deactivated,workbench,org.eclipse.ui.workbench,3.5.1.M20090826-0800a,"",1418388221877
activated,workbench,org.eclipse.ui.workbench,3.5.1.M20090826-0800a,"",1418388352062
deactivated,workbench,org.eclipse.ui.workbench,3.5.1.M20090826-0800a,"",1418388352827
activated,workbench,org.eclipse.ui.workbench,3.5.1.M20090826-0800a,"",1418388471677
deactivated,workbench,org.eclipse.ui.workbench,3.5.1.M20090826-0800a,"",1418388472277
activated,workbench,org.eclipse.ui.workbench,3.5.1.M20090826-0800a,"",1418389925264
activated,view,com.android.ide.eclipse.ddms,12.0.0.v201106281929-138431,"com.android.ide.eclipse.ddms.views.LogCatView",1418389929141
deactivated,workbench,org.eclipse.ui.workbench,3.5.1.M20090826-0800a,"",1418389936028
activated,workbench,org.eclipse.ui.workbench,3.5.1.M20090826-0800a,"",1418390152506
deactivated,workbench,org.eclipse.ui.workbench,3.5.1.M20090826-0800a,"",1418390152912
activated,workbench,org.eclipse.ui.workbench,3.5.1.M20090826-0800a,"",1418390221923
started,bundle,org.eclipse.wst.xsl.debug.ui,1.0.0.v200904240436,"org.eclipse.wst.xsl.debug.ui",1418390225841
activated,view,com.android.ide.eclipse.ddms,12.0.0.v201106281929-138431,"com.android.ide.eclipse.ddms.views.FileExplorerView",1418390227524
deactivated,workbench,org.eclipse.ui.workbench,3.5.1.M20090826-0800a,"",1418390230446
activated,workbench,org.eclipse.ui.workbench,3.5.1.M20090826-0800a,"",1418390273843
