what,kind,bundleId,bundleVersion,description,time
activated,editor,org.eclipse.jdt.ui,3.5.1.r351_v20090821-0800,"org.eclipse.jdt.ui.CompilationUnitEditor",1418375144866
executed,command,org.eclipse.ui,3.5.1.M20090902-1000,"org.eclipse.ui.file.save",1418375157586
deactivated,workbench,org.eclipse.ui.workbench,3.5.1.M20090826-0800a,"",1418375163389
activated,workbench,org.eclipse.ui.workbench,3.5.1.M20090826-0800a,"",1418375300062
opened,view,com.android.ide.eclipse.ddms,12.0.0.v201106281929-138431,"com.android.ide.eclipse.ddms.views.LogCatView",1418375301317
opened,view,com.android.ide.eclipse.ddms,12.0.0.v201106281929-138431,"com.android.ide.eclipse.ddms.views.DeviceView",1418375301421
opened,view,com.android.ide.eclipse.ddms,12.0.0.v201106281929-138431,"com.android.ide.eclipse.ddms.views.EmulatorControlView",1418375301651
opened,view,com.android.ide.eclipse.ddms,12.0.0.v201106281929-138431,"com.android.ide.eclipse.ddms.views.FileExplorerView",1418375301753
activated,view,com.android.ide.eclipse.ddms,12.0.0.v201106281929-138431,"com.android.ide.eclipse.ddms.views.FileExplorerView",1418375301818
activated,perspective,com.android.ide.eclipse.ddms,12.0.0.v201106281929-138431,"com.android.ide.eclipse.ddms.Perspective",1418375301835
deactivated,workbench,org.eclipse.ui.workbench,3.5.1.M20090826-0800a,"",1418375322361
activated,workbench,org.eclipse.ui.workbench,3.5.1.M20090826-0800a,"",1418375334262
deactivated,workbench,org.eclipse.ui.workbench,3.5.1.M20090826-0800a,"",1418375334704
activated,workbench,org.eclipse.ui.workbench,3.5.1.M20090826-0800a,"",1418375352149
activated,view,org.eclipse.ui.console,3.4.0.v20090513,"org.eclipse.ui.console.ConsoleView",1418375352217
deactivated,workbench,org.eclipse.ui.workbench,3.5.1.M20090826-0800a,"",1418375362336
activated,workbench,org.eclipse.ui.workbench,3.5.1.M20090826-0800a,"",1418375370809
activated,view,com.android.ide.eclipse.ddms,12.0.0.v201106281929-138431,"com.android.ide.eclipse.ddms.views.FileExplorerView",1418375370820
deactivated,workbench,org.eclipse.ui.workbench,3.5.1.M20090826-0800a,"",1418375370936
activated,workbench,org.eclipse.ui.workbench,3.5.1.M20090826-0800a,"",1418375376861
deactivated,workbench,org.eclipse.ui.workbench,3.5.1.M20090826-0800a,"",1418375377056
activated,workbench,org.eclipse.ui.workbench,3.5.1.M20090826-0800a,"",1418375392653
activated,perspective,org.eclipse.jdt.ui,3.5.1.r351_v20090821-0800,"org.eclipse.jdt.ui.JavaPerspective",1418375399832
activated,editor,org.eclipse.jdt.ui,3.5.1.r351_v20090821-0800,"org.eclipse.jdt.ui.CompilationUnitEditor",1418375399852
deactivated,workbench,org.eclipse.ui.workbench,3.5.1.M20090826-0800a,"",1418375401324
