what,kind,bundleId,bundleVersion,description,time
executed,command,,,"com.android.ide.eclipse.adt.debug.launching.LaunchShortcut.run",1416965307552
activated,view,com.android.ide.eclipse.ddms,12.0.0.v201106281929-138431,"com.android.ide.eclipse.ddms.views.LogCatView",1416965310398
deactivated,workbench,org.eclipse.ui.workbench,3.5.1.M20090826-0800a,"",1416965320590
activated,workbench,org.eclipse.ui.workbench,3.5.1.M20090826-0800a,"",1416965323923
activated,editor,org.eclipse.jdt.ui,3.5.1.r351_v20090821-0800,"org.eclipse.jdt.ui.CompilationUnitEditor",1416965340129
deactivated,workbench,org.eclipse.ui.workbench,3.5.1.M20090826-0800a,"",1416965351366
activated,workbench,org.eclipse.ui.workbench,3.5.1.M20090826-0800a,"",1416965363978
activated,view,com.android.ide.eclipse.ddms,12.0.0.v201106281929-138431,"com.android.ide.eclipse.ddms.views.LogCatView",1416965366113
activated,editor,org.eclipse.jdt.ui,3.5.1.r351_v20090821-0800,"org.eclipse.jdt.ui.CompilationUnitEditor",1416965372298
deactivated,workbench,org.eclipse.ui.workbench,3.5.1.M20090826-0800a,"",1416965376658
activated,workbench,org.eclipse.ui.workbench,3.5.1.M20090826-0800a,"",1416965459620
executed,command,org.eclipse.jdt.ui,3.5.1.r351_v20090821-0800,"org.eclipse.jdt.ui.edit.text.java.toggle.comment",1416965465876
executed,command,org.eclipse.ui,3.5.1.M20090902-1000,"org.eclipse.ui.file.save",1416965484470
executed,command,org.eclipse.ui,3.5.1.M20090902-1000,"org.eclipse.ui.file.save",1416965521398
activated,view,org.eclipse.jdt.ui,3.5.1.r351_v20090821-0800,"org.eclipse.jdt.ui.PackageExplorer",1416965524003
executed,command,,,"com.android.ide.eclipse.adt.debug.launching.LaunchShortcut.run",1416965526095
deactivated,workbench,org.eclipse.ui.workbench,3.5.1.M20090826-0800a,"",1416965526115
activated,workbench,org.eclipse.ui.workbench,3.5.1.M20090826-0800a,"",1416965526176
activated,view,com.android.ide.eclipse.ddms,12.0.0.v201106281929-138431,"com.android.ide.eclipse.ddms.views.LogCatView",1416965527674
deactivated,workbench,org.eclipse.ui.workbench,3.5.1.M20090826-0800a,"",1416965536905
activated,workbench,org.eclipse.ui.workbench,3.5.1.M20090826-0800a,"",1416965539032
activated,editor,org.eclipse.jdt.ui,3.5.1.r351_v20090821-0800,"org.eclipse.jdt.ui.CompilationUnitEditor",1416965545998
deactivated,workbench,org.eclipse.ui.workbench,3.5.1.M20090826-0800a,"",1416965551174
activated,workbench,org.eclipse.ui.workbench,3.5.1.M20090826-0800a,"",1416965552224
deactivated,workbench,org.eclipse.ui.workbench,3.5.1.M20090826-0800a,"",1416965552797
