what,kind,bundleId,bundleVersion,description,time
deactivated,workbench,org.eclipse.ui.workbench,3.5.1.M20090826-0800a,"",1418283543317
activated,workbench,org.eclipse.ui.workbench,3.5.1.M20090826-0800a,"",1418283546328
deactivated,workbench,org.eclipse.ui.workbench,3.5.1.M20090826-0800a,"",1418283548752
activated,workbench,org.eclipse.ui.workbench,3.5.1.M20090826-0800a,"",1418283548986
activated,perspective,org.eclipse.jdt.ui,3.5.1.r351_v20090821-0800,"org.eclipse.jdt.ui.JavaPerspective",1418283551599
activated,editor,org.eclipse.jdt.ui,3.5.1.r351_v20090821-0800,"org.eclipse.jdt.ui.CompilationUnitEditor",1418283551616
activated,view,org.eclipse.jdt.ui,3.5.1.r351_v20090821-0800,"org.eclipse.jdt.ui.PackageExplorer",1418283556329
started,bundle,org.eclipse.wst.ws.service.policy,1.0.103.v200905151848,"org.eclipse.wst.ws.service.policy",1418283558555
started,bundle,org.eclipse.wst.command.env,1.0.408.v200903110045,"org.eclipse.wst.command.env",1418283558889
started,bundle,org.eclipse.wst.ws,1.1.103.v200903111822,"org.eclipse.wst.ws",1418283558978
executed,command,,,"com.android.ide.eclipse.adt.debug.launching.LaunchShortcut.run",1418283563394
deactivated,workbench,org.eclipse.ui.workbench,3.5.1.M20090826-0800a,"",1418283564641
activated,workbench,org.eclipse.ui.workbench,3.5.1.M20090826-0800a,"",1418283567524
activated,view,com.android.ide.eclipse.ddms,12.0.0.v201106281929-138431,"com.android.ide.eclipse.ddms.views.LogCatView",1418283567725
deactivated,workbench,org.eclipse.ui.workbench,3.5.1.M20090826-0800a,"",1418283571937
error,log,,,"No command output when running: 'am start -n ervin.android.mediaplayer/ervin.android.mediaplayer.MediaPlayerActivity -a android.intent.action.MAIN -c android.intent.category.LAUNCHER' on device emulator-5554",1418283581687
activated,workbench,org.eclipse.ui.workbench,3.5.1.M20090826-0800a,"",1418283584787
deactivated,workbench,org.eclipse.ui.workbench,3.5.1.M20090826-0800a,"",1418283590465
activated,workbench,org.eclipse.ui.workbench,3.5.1.M20090826-0800a,"",1418283638286
activated,perspective,com.android.ide.eclipse.ddms,12.0.0.v201106281929-138431,"com.android.ide.eclipse.ddms.Perspective",1418283638487
activated,view,org.eclipse.ui.console,3.4.0.v20090513,"org.eclipse.ui.console.ConsoleView",1418283638493
deactivated,workbench,org.eclipse.ui.workbench,3.5.1.M20090826-0800a,"",1418283641601
activated,workbench,org.eclipse.ui.workbench,3.5.1.M20090826-0800a,"",1418283662940
activated,view,com.android.ide.eclipse.ddms,12.0.0.v201106281929-138431,"com.android.ide.eclipse.ddms.views.LogCatView",1418283667914
deactivated,workbench,org.eclipse.ui.workbench,3.5.1.M20090826-0800a,"",1418283674492
