what,kind,bundleId,bundleVersion,description,time
executed,command,org.eclipse.ui,3.5.1.M20090902-1000,"org.eclipse.ui.edit.copy",1417702411900
executed,command,org.eclipse.ui,3.5.1.M20090902-1000,"org.eclipse.ui.edit.paste",1417702413953
executed,command,org.eclipse.ui,3.5.1.M20090902-1000,"org.eclipse.ui.edit.copy",1417702434936
executed,command,org.eclipse.ui,3.5.1.M20090902-1000,"org.eclipse.ui.edit.paste",1417702440910
executed,command,org.eclipse.ui,3.5.1.M20090902-1000,"org.eclipse.ui.file.save",1417702463806
executed,command,org.eclipse.ui,3.5.1.M20090902-1000,"org.eclipse.ui.edit.text.contentAssist.proposals",1417702476642
deactivated,workbench,org.eclipse.ui.workbench,3.5.1.M20090826-0800a,"",1417702480308
activated,workbench,org.eclipse.ui.workbench,3.5.1.M20090826-0800a,"",1417702484893
executed,command,org.eclipse.ui,3.5.1.M20090902-1000,"org.eclipse.ui.file.save",1417702493790
executed,command,org.eclipse.ui,3.5.1.M20090902-1000,"org.eclipse.ui.edit.text.contentAssist.proposals",1417702502473
executed,command,org.eclipse.ui,3.5.1.M20090902-1000,"org.eclipse.ui.file.save",1417702504358
deactivated,workbench,org.eclipse.ui.workbench,3.5.1.M20090826-0800a,"",1417702539521
activated,workbench,org.eclipse.ui.workbench,3.5.1.M20090826-0800a,"",1417702539758
executed,command,org.eclipse.ui,3.5.1.M20090902-1000,"org.eclipse.ui.file.save",1417702545885
executed,command,org.eclipse.ui,3.5.1.M20090902-1000,"org.eclipse.ui.edit.copy",1417702566249
executed,command,org.eclipse.ui,3.5.1.M20090902-1000,"org.eclipse.ui.edit.paste",1417702568584
executed,command,org.eclipse.ui,3.5.1.M20090902-1000,"org.eclipse.ui.edit.copy",1417702573119
executed,command,org.eclipse.ui,3.5.1.M20090902-1000,"org.eclipse.ui.edit.paste",1417702574016
deactivated,workbench,org.eclipse.ui.workbench,3.5.1.M20090826-0800a,"",1417702641642
activated,workbench,org.eclipse.ui.workbench,3.5.1.M20090826-0800a,"",1417702650773
deactivated,workbench,org.eclipse.ui.workbench,3.5.1.M20090826-0800a,"",1417702662035
activated,workbench,org.eclipse.ui.workbench,3.5.1.M20090826-0800a,"",1417702681700
deactivated,workbench,org.eclipse.ui.workbench,3.5.1.M20090826-0800a,"",1417702718164
activated,workbench,org.eclipse.ui.workbench,3.5.1.M20090826-0800a,"",1417702743042
deactivated,workbench,org.eclipse.ui.workbench,3.5.1.M20090826-0800a,"",1417702766033
