what,kind,bundleId,bundleVersion,description,time
activated,view,org.eclipse.jdt.junit,3.5.1.r351_v20090708-0800,"org.eclipse.jdt.junit.ResultView",1416536721138
activated,view,com.android.ide.eclipse.ddms,12.0.0.v201106281929-138431,"com.android.ide.eclipse.ddms.views.LogCatView",1416536723646
deactivated,workbench,org.eclipse.ui.workbench,3.5.1.M20090826-0800a,"",1416536743712
activated,workbench,org.eclipse.ui.workbench,3.5.1.M20090826-0800a,"",1416536753363
activated,view,org.eclipse.jdt.junit,3.5.1.r351_v20090708-0800,"org.eclipse.jdt.junit.ResultView",1416536769744
activated,editor,org.eclipse.jdt.ui,3.5.1.r351_v20090821-0800,"org.eclipse.jdt.ui.CompilationUnitEditor",1416536771667
activated,view,org.eclipse.jdt.ui,3.5.1.r351_v20090821-0800,"org.eclipse.jdt.ui.PackageExplorer",1416536779327
activated,editor,org.eclipse.jdt.ui,3.5.1.r351_v20090821-0800,"org.eclipse.jdt.ui.CompilationUnitEditor",1416536779982
activated,view,org.eclipse.jdt.ui,3.5.1.r351_v20090821-0800,"org.eclipse.jdt.ui.PackageExplorer",1416536780707
activated,editor,org.eclipse.jdt.ui,3.5.1.r351_v20090821-0800,"org.eclipse.jdt.ui.CompilationUnitEditor",1416536782955
activated,editor,org.eclipse.jdt.ui,3.5.1.r351_v20090821-0800,"org.eclipse.jdt.ui.CompilationUnitEditor",1416536783074
activated,view,org.eclipse.jdt.ui,3.5.1.r351_v20090821-0800,"org.eclipse.jdt.ui.PackageExplorer",1416536784610
closed,editor,org.eclipse.jdt.ui,3.5.1.r351_v20090821-0800,"org.eclipse.jdt.ui.CompilationUnitEditor",1416536784610
closed,editor,org.eclipse.jdt.ui,3.5.1.r351_v20090821-0800,"org.eclipse.jdt.ui.CompilationUnitEditor",1416536784635
deactivated,workbench,org.eclipse.ui.workbench,3.5.1.M20090826-0800a,"",1416536788616
error,log,,,"Failed to load properties file for project 'Login'",1416536814335
activated,workbench,org.eclipse.ui.workbench,3.5.1.M20090826-0800a,"",1416536815922
opened,editor,com.android.ide.eclipse.adt,12.0.0.v201106281929-138431,"com.android.ide.eclipse.editors.layout.LayoutEditor",1416536827599
activated,editor,com.android.ide.eclipse.adt,12.0.0.v201106281929-138431,"com.android.ide.eclipse.editors.layout.LayoutEditor",1416536827634
started,bundle,org.eclipse.wst.xsl.debug.ui,1.0.0.v200904240436,"org.eclipse.wst.xsl.debug.ui",1416536835470
deactivated,workbench,org.eclipse.ui.workbench,3.5.1.M20090826-0800a,"",1416536837499
activated,workbench,org.eclipse.ui.workbench,3.5.1.M20090826-0800a,"",1416536838575
activated,view,org.eclipse.jdt.ui,3.5.1.r351_v20090821-0800,"org.eclipse.jdt.ui.PackageExplorer",1416536838588
deactivated,workbench,org.eclipse.ui.workbench,3.5.1.M20090826-0800a,"",1416536838928
activated,workbench,org.eclipse.ui.workbench,3.5.1.M20090826-0800a,"",1416536849214
