what,kind,bundleId,bundleVersion,description,time
error,log,,,"Error validating C:\\Users\\acer\\.android\\devices.xml",1416532062362
activated,workbench,org.eclipse.ui.workbench,3.5.1.M20090826-0800a,"",1416532073360
deactivated,workbench,org.eclipse.ui.workbench,3.5.1.M20090826-0800a,"",1416532077027
activated,workbench,org.eclipse.ui.workbench,3.5.1.M20090826-0800a,"",1416532088055
deactivated,workbench,org.eclipse.ui.workbench,3.5.1.M20090826-0800a,"",1416532092944
activated,workbench,org.eclipse.ui.workbench,3.5.1.M20090826-0800a,"",1416532119194
deactivated,workbench,org.eclipse.ui.workbench,3.5.1.M20090826-0800a,"",1416532122717
activated,workbench,org.eclipse.ui.workbench,3.5.1.M20090826-0800a,"",1416532134888
deactivated,workbench,org.eclipse.ui.workbench,3.5.1.M20090826-0800a,"",1416532137914
activated,workbench,org.eclipse.ui.workbench,3.5.1.M20090826-0800a,"",1416532152768
deactivated,workbench,org.eclipse.ui.workbench,3.5.1.M20090826-0800a,"",1416532154946
activated,workbench,org.eclipse.ui.workbench,3.5.1.M20090826-0800a,"",1416532169099
deactivated,workbench,org.eclipse.ui.workbench,3.5.1.M20090826-0800a,"",1416532169584
activated,workbench,org.eclipse.ui.workbench,3.5.1.M20090826-0800a,"",1416532170409
deactivated,workbench,org.eclipse.ui.workbench,3.5.1.M20090826-0800a,"",1416532170666
activated,workbench,org.eclipse.ui.workbench,3.5.1.M20090826-0800a,"",1416532175293
deactivated,workbench,org.eclipse.ui.workbench,3.5.1.M20090826-0800a,"",1416532184004
activated,workbench,org.eclipse.ui.workbench,3.5.1.M20090826-0800a,"",1416532194191
opened,view,com.android.ide.eclipse.ddms,12.0.0.v201106281929-138431,"com.android.ide.eclipse.ddms.views.LogCatView",1416532194290
activated,view,com.android.ide.eclipse.ddms,12.0.0.v201106281929-138431,"com.android.ide.eclipse.ddms.views.LogCatView",1416532194317
executed,command,org.eclipse.ui,3.5.1.M20090902-1000,"org.eclipse.ui.views.showView",1416532194323
executed,command,org.eclipse.ui,3.5.1.M20090902-1000,"org.eclipse.ui.views.showView",1416532194323
started,bundle,org.eclipse.wst.common.snippets,1.1.300.v200903120643,"org.eclipse.wst.common.snippets",1416532207873
started,bundle,org.eclipse.gef,3.5.0.v20090528-1511,"org.eclipse.gef",1416532207941
started,bundle,org.eclipse.draw2d,3.5.1.v20090813-1341,"org.eclipse.draw2d",1416532207966
