what,kind,bundleId,bundleVersion,description,time
started,bundle,com.android.ide.eclipse.ddms,12.0.0.v201106281929-138431,"com.android.ide.eclipse.ddms",1417741140883
started,bundle,com.android.ide.eclipse.traceview,12.0.0.v201106281929-138431,"com.android.ide.eclipse.traceview",1417741140885
os,sysinfo,,,"win32",1417741140894
arch,sysinfo,,,"x86",1417741140894
ws,sysinfo,,,"win32",1417741140894
locale,sysinfo,,,"zh_CN",1417741140894
processors,sysinfo,,,"4",1417741140894
java.runtime.name,sysinfo,,,"Java(TM) SE Runtime Environment",1417741140894
java.runtime.version,sysinfo,,,"1.6.0_03-b05",1417741140894
java.specification.name,sysinfo,,,"Java Platform API Specification",1417741140894
java.specification.vendor,sysinfo,,,"Sun Microsystems Inc.",1417741140894
java.specification.version,sysinfo,,,"1.6",1417741140894
java.vendor,sysinfo,,,"Sun Microsystems Inc.",1417741140894
java.version,sysinfo,,,"1.6.0_03",1417741140894
java.vm.info,sysinfo,,,"mixed mode",1417741140894
java.vm.name,sysinfo,,,"Java HotSpot(TM) Client VM",1417741140894
java.vm.specification.name,sysinfo,,,"Java Virtual Machine Specification",1417741140894
java.vm.specification.vendor,sysinfo,,,"Sun Microsystems Inc.",1417741140894
java.vm.specification.version,sysinfo,,,"1.0",1417741140894
java.vm.vendor,sysinfo,,,"Sun Microsystems Inc.",1417741140894
java.vm.version,sysinfo,,,"1.6.0_03-b05",1417741140894
started,bundle,org.eclipse.wst.common.frameworks,1.1.300.v200904160730,"org.eclipse.wst.common.frameworks",1417741140921
started,bundle,org.eclipse.jst.jsf.common,1.1.7.v20090903,"org.eclipse.jst.jsf.common",1417741141052
started,bundle,org.eclipse.jst.jsf.core,1.2.2.v20090903,"org.eclipse.jst.jsf.core",1417741141217
started,bundle,org.eclipse.mylyn.commons.net,3.2.0.v20090617-0100-e3x,"org.eclipse.mylyn.commons.net",1417741141417
