what,kind,bundleId,bundleVersion,description,time
deactivated,workbench,org.eclipse.ui.workbench,3.5.1.M20090826-0800a,"",1417002460536
activated,workbench,org.eclipse.ui.workbench,3.5.1.M20090826-0800a,"",1417002487347
activated,editor,org.eclipse.ui.browser,3.2.300.v20090526,"org.eclipse.ui.browser.editor",1417002488964
activated,editor,org.eclipse.jdt.ui,3.5.1.r351_v20090821-0800,"org.eclipse.jdt.ui.CompilationUnitEditor",1417002492131
closed,editor,org.eclipse.ui.browser,3.2.300.v20090526,"org.eclipse.ui.browser.editor",1417002492131
deactivated,workbench,org.eclipse.ui.workbench,3.5.1.M20090826-0800a,"",1417002495120
deactivated,workbench,org.eclipse.ui.workbench,3.5.1.M20090826-0800a,"",1417002592047
activated,workbench,org.eclipse.ui.workbench,3.5.1.M20090826-0800a,"",1417003534991
deactivated,workbench,org.eclipse.ui.workbench,3.5.1.M20090826-0800a,"",1417003537736
activated,workbench,org.eclipse.ui.workbench,3.5.1.M20090826-0800a,"",1417003591668
deactivated,workbench,org.eclipse.ui.workbench,3.5.1.M20090826-0800a,"",1417003592371
activated,workbench,org.eclipse.ui.workbench,3.5.1.M20090826-0800a,"",1417003777200
deactivated,workbench,org.eclipse.ui.workbench,3.5.1.M20090826-0800a,"",1417003783717
activated,workbench,org.eclipse.ui.workbench,3.5.1.M20090826-0800a,"",1417003798805
deactivated,workbench,org.eclipse.ui.workbench,3.5.1.M20090826-0800a,"",1417003811451
activated,workbench,org.eclipse.ui.workbench,3.5.1.M20090826-0800a,"",1417003813153
activated,editor,org.eclipse.jdt.ui,3.5.1.r351_v20090821-0800,"org.eclipse.jdt.ui.CompilationUnitEditor",1417003820652
deactivated,workbench,org.eclipse.ui.workbench,3.5.1.M20090826-0800a,"",1417003836530
activated,workbench,org.eclipse.ui.workbench,3.5.1.M20090826-0800a,"",1417003841559
deactivated,workbench,org.eclipse.ui.workbench,3.5.1.M20090826-0800a,"",1417003843175
deactivated,workbench,org.eclipse.ui.workbench,3.5.1.M20090826-0800a,"",1417003850171
activated,workbench,org.eclipse.ui.workbench,3.5.1.M20090826-0800a,"",1417003850477
deactivated,workbench,org.eclipse.ui.workbench,3.5.1.M20090826-0800a,"",1417003863806
activated,workbench,org.eclipse.ui.workbench,3.5.1.M20090826-0800a,"",1417003864071
deactivated,workbench,org.eclipse.ui.workbench,3.5.1.M20090826-0800a,"",1417003866587
