what,kind,bundleId,bundleVersion,description,time
java.runtime.name,sysinfo,,,"Java(TM) SE Runtime Environment",1416925645373
java.runtime.version,sysinfo,,,"1.6.0_03-b05",1416925645373
java.specification.name,sysinfo,,,"Java Platform API Specification",1416925645373
java.specification.vendor,sysinfo,,,"Sun Microsystems Inc.",1416925645373
java.specification.version,sysinfo,,,"1.6",1416925645373
java.vendor,sysinfo,,,"Sun Microsystems Inc.",1416925645373
java.version,sysinfo,,,"1.6.0_03",1416925645373
java.vm.info,sysinfo,,,"mixed mode",1416925645373
java.vm.name,sysinfo,,,"Java HotSpot(TM) Client VM",1416925645373
java.vm.specification.name,sysinfo,,,"Java Virtual Machine Specification",1416925645373
java.vm.specification.vendor,sysinfo,,,"Sun Microsystems Inc.",1416925645373
java.vm.specification.version,sysinfo,,,"1.0",1416925645373
java.vm.vendor,sysinfo,,,"Sun Microsystems Inc.",1416925645373
java.vm.version,sysinfo,,,"1.6.0_03-b05",1416925645373
started,bundle,com.android.ide.eclipse.traceview,12.0.0.v201106281929-138431,"com.android.ide.eclipse.traceview",1416925648629
deactivated,workbench,org.eclipse.ui.workbench,3.5.1.M20090826-0800a,"",1416925652759
activated,workbench,org.eclipse.ui.workbench,3.5.1.M20090826-0800a,"",1416925653950
activated,view,com.android.ide.eclipse.ddms,12.0.0.v201106281929-138431,"com.android.ide.eclipse.ddms.views.DeviceView",1416925656383
started,bundle,org.eclipse.ui.views.log,1.0.100.v20090731,"org.eclipse.ui.views.log",1416925659986
started,bundle,org.eclipse.pde.ui,3.5.0.v20090821,"org.eclipse.pde.ui",1416925659990
opened,view,org.eclipse.jdt.ui,3.5.1.r351_v20090821-0800,"org.eclipse.jdt.ui.PackageExplorer",1416925660063
activated,editor,org.eclipse.jdt.ui,3.5.1.r351_v20090821-0800,"org.eclipse.jdt.ui.CompilationUnitEditor",1416925660070
activated,perspective,org.eclipse.jdt.ui,3.5.1.r351_v20090821-0800,"org.eclipse.jdt.ui.JavaPerspective",1416925660118
activated,editor,org.eclipse.jdt.ui,3.5.1.r351_v20090821-0800,"org.eclipse.jdt.ui.CompilationUnitEditor",1416925660141
activated,perspective,com.android.ide.eclipse.ddms,12.0.0.v201106281929-138431,"com.android.ide.eclipse.ddms.Perspective",1416925662300
