what,kind,bundleId,bundleVersion,description,time
activated,workbench,org.eclipse.ui.workbench,3.5.1.M20090826-0800a,"",1418129506987
deactivated,workbench,org.eclipse.ui.workbench,3.5.1.M20090826-0800a,"",1418129507915
activated,workbench,org.eclipse.ui.workbench,3.5.1.M20090826-0800a,"",1418129552419
activated,editor,org.eclipse.jdt.ui,3.5.1.r351_v20090821-0800,"org.eclipse.jdt.ui.CompilationUnitEditor",1418129553992
executed,command,org.eclipse.ui,3.5.1.M20090902-1000,"org.eclipse.ui.edit.text.contentAssist.proposals",1418129564985
deactivated,workbench,org.eclipse.ui.workbench,3.5.1.M20090826-0800a,"",1418129578384
activated,workbench,org.eclipse.ui.workbench,3.5.1.M20090826-0800a,"",1418129582289
executed,command,org.eclipse.ui,3.5.1.M20090902-1000,"org.eclipse.ui.edit.text.contentAssist.proposals",1418129590864
executed,command,org.eclipse.ui,3.5.1.M20090902-1000,"org.eclipse.ui.edit.text.contentAssist.proposals",1418129593984
executed,command,org.eclipse.ui,3.5.1.M20090902-1000,"org.eclipse.ui.file.save",1418129609661
deactivated,workbench,org.eclipse.ui.workbench,3.5.1.M20090826-0800a,"",1418129611353
activated,workbench,org.eclipse.ui.workbench,3.5.1.M20090826-0800a,"",1418129616056
executed,command,org.eclipse.ui,3.5.1.M20090902-1000,"org.eclipse.ui.edit.text.contentAssist.proposals",1418129622341
deactivated,workbench,org.eclipse.ui.workbench,3.5.1.M20090826-0800a,"",1418129630777
activated,workbench,org.eclipse.ui.workbench,3.5.1.M20090826-0800a,"",1418129632810
executed,command,org.eclipse.ui,3.5.1.M20090902-1000,"org.eclipse.ui.edit.text.contentAssist.proposals",1418129635949
executed,command,org.eclipse.ui,3.5.1.M20090902-1000,"org.eclipse.ui.edit.text.contentAssist.proposals",1418129639951
deactivated,workbench,org.eclipse.ui.workbench,3.5.1.M20090826-0800a,"",1418129646311
activated,workbench,org.eclipse.ui.workbench,3.5.1.M20090826-0800a,"",1418129653688
executed,command,org.eclipse.jdt.ui,3.5.1.r351_v20090821-0800,"org.eclipse.jdt.ui.edit.text.java.override.methods",1418129653866
deactivated,workbench,org.eclipse.ui.workbench,3.5.1.M20090826-0800a,"",1418129671499
activated,workbench,org.eclipse.ui.workbench,3.5.1.M20090826-0800a,"",1418130821066
deactivated,workbench,org.eclipse.ui.workbench,3.5.1.M20090826-0800a,"",1418130861847
activated,workbench,org.eclipse.ui.workbench,3.5.1.M20090826-0800a,"",1418130866009
deactivated,workbench,org.eclipse.ui.workbench,3.5.1.M20090826-0800a,"",1418130875284
