what,kind,bundleId,bundleVersion,description,time
locale,sysinfo,,,"zh_CN",1418137030076
processors,sysinfo,,,"4",1418137030076
java.runtime.name,sysinfo,,,"Java(TM) SE Runtime Environment",1418137030076
java.runtime.version,sysinfo,,,"1.6.0_03-b05",1418137030076
java.specification.name,sysinfo,,,"Java Platform API Specification",1418137030076
java.specification.vendor,sysinfo,,,"Sun Microsystems Inc.",1418137030076
java.specification.version,sysinfo,,,"1.6",1418137030076
java.vendor,sysinfo,,,"Sun Microsystems Inc.",1418137030076
java.version,sysinfo,,,"1.6.0_03",1418137030076
java.vm.info,sysinfo,,,"mixed mode",1418137030076
java.vm.name,sysinfo,,,"Java HotSpot(TM) Client VM",1418137030076
java.vm.specification.name,sysinfo,,,"Java Virtual Machine Specification",1418137030076
java.vm.specification.vendor,sysinfo,,,"Sun Microsystems Inc.",1418137030076
java.vm.specification.version,sysinfo,,,"1.0",1418137030076
java.vm.vendor,sysinfo,,,"Sun Microsystems Inc.",1418137030076
java.vm.version,sysinfo,,,"1.6.0_03-b05",1418137030076
started,bundle,org.eclipse.jst.jsf.common,1.1.7.v20090903,"org.eclipse.jst.jsf.common",1418137030090
started,bundle,org.eclipse.jst.jsf.core,1.2.2.v20090903,"org.eclipse.jst.jsf.core",1418137030163
started,bundle,org.eclipse.mylyn.commons.net,3.2.0.v20090617-0100-e3x,"org.eclipse.mylyn.commons.net",1418137030359
error,log,,,"Error validating C:\\Users\\acer\\.android\\devices.xml",1418137030546
started,bundle,org.eclipse.jst.common.project.facet.core,1.4.1.v200908111817,"org.eclipse.jst.common.project.facet.core",1418137030559
started,bundle,org.eclipse.mylyn.commons.ui,3.2.2.v20090912-0400-e3x,"org.eclipse.mylyn.commons.ui",1418137030823
started,bundle,org.eclipse.mylyn.bugzilla.core,3.2.2.v20090912-0400-e3x,"org.eclipse.mylyn.bugzilla.core",1418137031843
started,bundle,org.eclipse.mylyn.bugzilla.ui,3.2.2.v20090912-0400-e3x,"org.eclipse.mylyn.bugzilla.ui",1418137031861
started,bundle,org.eclipse.mylyn.context.core,3.2.2.v20090912-0400-e3x,"org.eclipse.mylyn.context.core",1418137032204
