what,kind,bundleId,bundleVersion,description,time
started,bundle,org.eclipse.ui.net,1.2.1.r35x_20090812-1200,"org.eclipse.ui.net",1416927386302
started,bundle,org.eclipse.ui.views,3.4.1.M20090826-0800,"org.eclipse.ui.views",1416927386303
started,bundle,org.eclipse.ui.views.log,1.0.100.v20090731,"org.eclipse.ui.views.log",1416927386304
started,bundle,org.eclipse.ui.workbench,3.5.1.M20090826-0800a,"org.eclipse.ui.workbench",1416927386306
started,bundle,org.eclipse.ui.workbench.texteditor,3.5.0.v20090603,"org.eclipse.ui.workbench.texteditor",1416927386308
started,bundle,org.eclipse.update.configurator,3.3.0.v20090312,"org.eclipse.update.configurator",1416927386309
started,bundle,org.eclipse.update.core,3.2.300.v20090525,"org.eclipse.update.core",1416927386311
started,bundle,org.eclipse.update.scheduler,3.2.200.v20081127,"org.eclipse.update.scheduler",1416927386312
started,bundle,org.eclipse.wst.common.frameworks,1.1.300.v200904160730,"org.eclipse.wst.common.frameworks",1416927386313
started,bundle,org.eclipse.wst.common.project.facet.core,1.4.1.v200908111817,"org.eclipse.wst.common.project.facet.core",1416927386314
started,bundle,org.eclipse.wst.sse.core,1.1.401.v200909172215,"org.eclipse.wst.sse.core",1416927386316
started,bundle,org.eclipse.wst.web,1.1.301.v200909021400,"org.eclipse.wst.web",1416927386317
started,bundle,org.eclipse.wst.ws.service.policy.ui,1.0.102.v200903070248,"org.eclipse.wst.ws.service.policy.ui",1416927386318
started,bundle,com.android.ide.eclipse.adt,12.0.0.v201106281929-138431,"com.android.ide.eclipse.adt",1416927386318
started,bundle,com.android.ide.eclipse.ddms,12.0.0.v201106281929-138431,"com.android.ide.eclipse.ddms",1416927386318
started,bundle,com.android.ide.eclipse.traceview,12.0.0.v201106281929-138431,"com.android.ide.eclipse.traceview",1416927386319
os,sysinfo,,,"win32",1416927386322
arch,sysinfo,,,"x86",1416927386322
ws,sysinfo,,,"win32",1416927386322
locale,sysinfo,,,"zh_CN",1416927386322
processors,sysinfo,,,"4",1416927386322
java.runtime.name,sysinfo,,,"Java(TM) SE Runtime Environment",1416927386322
java.runtime.version,sysinfo,,,"1.6.0_03-b05",1416927386322
java.specification.name,sysinfo,,,"Java Platform API Specification",1416927386322
java.specification.vendor,sysinfo,,,"Sun Microsystems Inc.",1416927386322
