what,kind,bundleId,bundleVersion,description,time
closed,editor,com.android.ide.eclipse.adt,12.0.0.v201106281929-138431,"com.android.ide.eclipse.editors.layout.LayoutEditor",1418197435783
activated,view,org.eclipse.jdt.ui,3.5.1.r351_v20090821-0800,"org.eclipse.jdt.ui.PackageExplorer",1418197436685
closed,editor,org.eclipse.jdt.ui,3.5.1.r351_v20090821-0800,"org.eclipse.jdt.ui.CompilationUnitEditor",1418197436685
deactivated,workbench,org.eclipse.ui.workbench,3.5.1.M20090826-0800a,"",1418197443824
deactivated,workbench,org.eclipse.ui.workbench,3.5.1.M20090826-0800a,"",1418197444903
deactivated,workbench,org.eclipse.ui.workbench,3.5.1.M20090826-0800a,"",1418202131258
activated,workbench,org.eclipse.ui.workbench,3.5.1.M20090826-0800a,"",1418202134925
deactivated,workbench,org.eclipse.ui.workbench,3.5.1.M20090826-0800a,"",1418202135708
activated,workbench,org.eclipse.ui.workbench,3.5.1.M20090826-0800a,"",1418202136903
closed,workbench,org.eclipse.ui.workbench,3.5.1.M20090826-0800a,"",1418202137217
stopped,bundle,org.eclipse.jst.ws.axis.creation.ui,1.0.406.v200903031852,"org.eclipse.jst.ws.axis.creation.ui",1418202141884
stopped,bundle,org.eclipse.jst.ws.axis.consumption.ui,1.0.405.v200901261650,"org.eclipse.jst.ws.axis.consumption.ui",1418202142054
stopped,bundle,org.eclipse.jst.ws.axis.consumption.core,1.0.306.v200810082309,"org.eclipse.jst.ws.axis.consumption.core",1418202142186
