what,kind,bundleId,bundleVersion,description,time
executed,command,org.eclipse.ui,3.5.1.M20090902-1000,"org.eclipse.ui.edit.paste",1417743827807
executed,command,org.eclipse.ui,3.5.1.M20090902-1000,"org.eclipse.ui.file.save",1417743828508
deactivated,workbench,org.eclipse.ui.workbench,3.5.1.M20090826-0800a,"",1417743852475
activated,workbench,org.eclipse.ui.workbench,3.5.1.M20090826-0800a,"",1417743853315
executed,command,org.eclipse.ui,3.5.1.M20090902-1000,"org.eclipse.ui.edit.text.contentAssist.proposals",1417743857216
deactivated,workbench,org.eclipse.ui.workbench,3.5.1.M20090826-0800a,"",1417743858995
activated,workbench,org.eclipse.ui.workbench,3.5.1.M20090826-0800a,"",1417743859410
executed,command,org.eclipse.ui,3.5.1.M20090902-1000,"org.eclipse.ui.file.save",1417743864188
deactivated,workbench,org.eclipse.ui.workbench,3.5.1.M20090826-0800a,"",1417743886170
activated,workbench,org.eclipse.ui.workbench,3.5.1.M20090826-0800a,"",1417743910116
executed,command,org.eclipse.ui,3.5.1.M20090902-1000,"org.eclipse.ui.edit.text.contentAssist.proposals",1417743925128
executed,command,org.eclipse.ui,3.5.1.M20090902-1000,"org.eclipse.ui.file.save",1417743927257
executed,command,org.eclipse.ui,3.5.1.M20090902-1000,"org.eclipse.ui.edit.text.contentAssist.proposals",1417743930420
executed,command,org.eclipse.ui,3.5.1.M20090902-1000,"org.eclipse.ui.file.save",1417743934264
executed,command,org.eclipse.ui,3.5.1.M20090902-1000,"org.eclipse.ui.edit.text.contentAssist.proposals",1417743939507
executed,command,org.eclipse.ui,3.5.1.M20090902-1000,"org.eclipse.ui.edit.text.contentAssist.proposals",1417743940178
executed,command,org.eclipse.ui,3.5.1.M20090902-1000,"org.eclipse.ui.edit.text.contentAssist.proposals",1417743940408
executed,command,org.eclipse.ui,3.5.1.M20090902-1000,"org.eclipse.ui.edit.delete",1417743942193
executed,command,org.eclipse.ui,3.5.1.M20090902-1000,"org.eclipse.ui.edit.text.contentAssist.proposals",1417743943832
executed,command,org.eclipse.ui,3.5.1.M20090902-1000,"org.eclipse.ui.edit.text.contentAssist.contextInformation",1417743946906
executed,command,org.eclipse.ui,3.5.1.M20090902-1000,"org.eclipse.ui.file.save",1417743954904
executed,command,org.eclipse.ui,3.5.1.M20090902-1000,"org.eclipse.ui.file.save",1417743959759
executed,command,org.eclipse.ui,3.5.1.M20090902-1000,"org.eclipse.ui.edit.text.contentAssist.proposals",1417743968303
deactivated,workbench,org.eclipse.ui.workbench,3.5.1.M20090826-0800a,"",1417743970387
activated,workbench,org.eclipse.ui.workbench,3.5.1.M20090826-0800a,"",1417743995939
