what,kind,bundleId,bundleVersion,description,time
activated,workbench,org.eclipse.ui.workbench,3.5.1.M20090826-0800a,"",1416966132385
deactivated,workbench,org.eclipse.ui.workbench,3.5.1.M20090826-0800a,"",1416966149183
activated,workbench,org.eclipse.ui.workbench,3.5.1.M20090826-0800a,"",1416966149230
deactivated,workbench,org.eclipse.ui.workbench,3.5.1.M20090826-0800a,"",1416966151023
activated,workbench,org.eclipse.ui.workbench,3.5.1.M20090826-0800a,"",1416966182207
executed,command,org.eclipse.ui,3.5.1.M20090902-1000,"org.eclipse.ui.edit.undo",1416966189309
executed,command,org.eclipse.ui,3.5.1.M20090902-1000,"org.eclipse.ui.file.save",1416966223773
executed,command,org.eclipse.ui,3.5.1.M20090902-1000,"org.eclipse.ui.file.save",1416966232169
activated,view,org.eclipse.jdt.ui,3.5.1.r351_v20090821-0800,"org.eclipse.jdt.ui.PackageExplorer",1416966235138
executed,command,,,"com.android.ide.eclipse.adt.debug.launching.LaunchShortcut.run",1416966237415
activated,view,com.android.ide.eclipse.ddms,12.0.0.v201106281929-138431,"com.android.ide.eclipse.ddms.views.LogCatView",1416966239981
deactivated,workbench,org.eclipse.ui.workbench,3.5.1.M20090826-0800a,"",1416966241926
activated,workbench,org.eclipse.ui.workbench,3.5.1.M20090826-0800a,"",1416966248615
activated,editor,org.eclipse.jdt.ui,3.5.1.r351_v20090821-0800,"org.eclipse.jdt.ui.CompilationUnitEditor",1416966248639
activated,view,com.android.ide.eclipse.ddms,12.0.0.v201106281929-138431,"com.android.ide.eclipse.ddms.views.LogCatView",1416966250264
activated,editor,org.eclipse.jdt.ui,3.5.1.r351_v20090821-0800,"org.eclipse.jdt.ui.CompilationUnitEditor",1416966263178
activated,view,com.android.ide.eclipse.ddms,12.0.0.v201106281929-138431,"com.android.ide.eclipse.ddms.views.LogCatView",1416966270995
activated,editor,org.eclipse.jdt.ui,3.5.1.r351_v20090821-0800,"org.eclipse.jdt.ui.CompilationUnitEditor",1416966285766
deactivated,workbench,org.eclipse.ui.workbench,3.5.1.M20090826-0800a,"",1416966288961
activated,workbench,org.eclipse.ui.workbench,3.5.1.M20090826-0800a,"",1416966294033
deactivated,workbench,org.eclipse.ui.workbench,3.5.1.M20090826-0800a,"",1416966295398
activated,workbench,org.eclipse.ui.workbench,3.5.1.M20090826-0800a,"",1416966297275
deactivated,workbench,org.eclipse.ui.workbench,3.5.1.M20090826-0800a,"",1416966298753
activated,workbench,org.eclipse.ui.workbench,3.5.1.M20090826-0800a,"",1416966300722
deactivated,workbench,org.eclipse.ui.workbench,3.5.1.M20090826-0800a,"",1416966309433
