what,kind,bundleId,bundleVersion,description,time
java.specification.vendor,sysinfo,,,"Sun Microsystems Inc.",1418131520311
java.specification.version,sysinfo,,,"1.6",1418131520311
java.vendor,sysinfo,,,"Sun Microsystems Inc.",1418131520311
java.version,sysinfo,,,"1.6.0_03",1418131520311
java.vm.info,sysinfo,,,"mixed mode",1418131520311
java.vm.name,sysinfo,,,"Java HotSpot(TM) Client VM",1418131520311
java.vm.specification.name,sysinfo,,,"Java Virtual Machine Specification",1418131520311
java.vm.specification.vendor,sysinfo,,,"Sun Microsystems Inc.",1418131520311
java.vm.specification.version,sysinfo,,,"1.0",1418131520311
java.vm.vendor,sysinfo,,,"Sun Microsystems Inc.",1418131520311
java.vm.version,sysinfo,,,"1.6.0_03-b05",1418131520311
started,bundle,org.eclipse.update.core,3.2.300.v20090525,"org.eclipse.update.core",1418131520315
started,bundle,org.eclipse.wst.ws.service.policy.ui,1.0.102.v200903070248,"org.eclipse.wst.ws.service.policy.ui",1418131520331
started,bundle,org.eclipse.mylyn.monitor.ui,3.2.2.v20090912-0400-e3x,"org.eclipse.mylyn.monitor.ui",1418131520776
deactivated,workbench,org.eclipse.ui.workbench,3.5.1.M20090826-0800a,"",1418131533265
activated,workbench,org.eclipse.ui.workbench,3.5.1.M20090826-0800a,"",1418131534014
started,bundle,org.eclipse.jdt.junit,3.5.1.r351_v20090708-0800,"org.eclipse.jdt.junit",1418131535043
deactivated,workbench,org.eclipse.ui.workbench,3.5.1.M20090826-0800a,"",1418131536467
activated,workbench,org.eclipse.ui.workbench,3.5.1.M20090826-0800a,"",1418131551273
opened,view,org.eclipse.ui.console,3.4.0.v20090513,"org.eclipse.ui.console.ConsoleView",1418131551537
opened,view,com.android.ide.eclipse.ddms,12.0.0.v201106281929-138431,"com.android.ide.eclipse.ddms.views.DeviceView",1418131551601
opened,view,com.android.ide.eclipse.ddms,12.0.0.v201106281929-138431,"com.android.ide.eclipse.ddms.views.EmulatorControlView",1418131551921
opened,view,com.android.ide.eclipse.ddms,12.0.0.v201106281929-138431,"com.android.ide.eclipse.ddms.views.FileExplorerView",1418131552228
activated,view,com.android.ide.eclipse.ddms,12.0.0.v201106281929-138431,"com.android.ide.eclipse.ddms.views.FileExplorerView",1418131552290
activated,perspective,com.android.ide.eclipse.ddms,12.0.0.v201106281929-138431,"com.android.ide.eclipse.ddms.Perspective",1418131552321
