what,kind,bundleId,bundleVersion,description,time
activated,editor,org.eclipse.jdt.ui,3.5.1.r351_v20090821-0800,"org.eclipse.jdt.ui.CompilationUnitEditor",1418307942115
activated,view,org.eclipse.jdt.ui,3.5.1.r351_v20090821-0800,"org.eclipse.jdt.ui.PackageExplorer",1418307945339
opened,editor,org.eclipse.jdt.ui,3.5.1.r351_v20090821-0800,"org.eclipse.jdt.ui.CompilationUnitEditor",1418307945622
activated,editor,org.eclipse.jdt.ui,3.5.1.r351_v20090821-0800,"org.eclipse.jdt.ui.CompilationUnitEditor",1418307945749
activated,view,org.eclipse.jdt.ui,3.5.1.r351_v20090821-0800,"org.eclipse.jdt.ui.PackageExplorer",1418307956438
activated,editor,org.eclipse.jdt.ui,3.5.1.r351_v20090821-0800,"org.eclipse.jdt.ui.CompilationUnitEditor",1418307960160
deactivated,workbench,org.eclipse.ui.workbench,3.5.1.M20090826-0800a,"",1418307961171
activated,workbench,org.eclipse.ui.workbench,3.5.1.M20090826-0800a,"",1418307981071
deactivated,workbench,org.eclipse.ui.workbench,3.5.1.M20090826-0800a,"",1418307986955
deactivated,workbench,org.eclipse.ui.workbench,3.5.1.M20090826-0800a,"",1418307988157
deactivated,workbench,org.eclipse.ui.workbench,3.5.1.M20090826-0800a,"",1418307989090
activated,workbench,org.eclipse.ui.workbench,3.5.1.M20090826-0800a,"",1418307993450
deactivated,workbench,org.eclipse.ui.workbench,3.5.1.M20090826-0800a,"",1418307995358
activated,workbench,org.eclipse.ui.workbench,3.5.1.M20090826-0800a,"",1418307997642
closed,workbench,org.eclipse.ui.workbench,3.5.1.M20090826-0800a,"",1418307998130
stopped,bundle,org.eclipse.jst.ws.axis.creation.ui,1.0.406.v200903031852,"org.eclipse.jst.ws.axis.creation.ui",1418308000719
stopped,bundle,org.eclipse.jst.ws.axis.consumption.ui,1.0.405.v200901261650,"org.eclipse.jst.ws.axis.consumption.ui",1418308000777
