what,kind,bundleId,bundleVersion,description,time
activated,workbench,org.eclipse.ui.workbench,3.5.1.M20090826-0800a,"",1416924991905
opened,view,com.android.ide.eclipse.ddms,12.0.0.v201106281929-138431,"com.android.ide.eclipse.ddms.views.LogCatView",1416924992151
activated,view,com.android.ide.eclipse.ddms,12.0.0.v201106281929-138431,"com.android.ide.eclipse.ddms.views.LogCatView",1416924992201
deactivated,workbench,org.eclipse.ui.workbench,3.5.1.M20090826-0800a,"",1416924997397
activated,view,org.eclipse.ui.console,3.4.0.v20090513,"org.eclipse.ui.console.ConsoleView",1416925007015
activated,workbench,org.eclipse.ui.workbench,3.5.1.M20090826-0800a,"",1416925497537
started,bundle,org.eclipse.jdt.debug.ui,3.4.1.v20090811_r351,"org.eclipse.jdt.debug.ui",1416925497629
activated,editor,org.eclipse.jdt.ui,3.5.1.r351_v20090821-0800,"org.eclipse.jdt.ui.CompilationUnitEditor",1416925497658
activated,view,org.eclipse.jdt.ui,3.5.1.r351_v20090821-0800,"org.eclipse.jdt.ui.PackageExplorer",1416925499247
deactivated,workbench,org.eclipse.ui.workbench,3.5.1.M20090826-0800a,"",1416925502734
activated,workbench,org.eclipse.ui.workbench,3.5.1.M20090826-0800a,"",1416925513379
deactivated,workbench,org.eclipse.ui.workbench,3.5.1.M20090826-0800a,"",1416925513484
activated,workbench,org.eclipse.ui.workbench,3.5.1.M20090826-0800a,"",1416925515118
deactivated,workbench,org.eclipse.ui.workbench,3.5.1.M20090826-0800a,"",1416925515199
activated,workbench,org.eclipse.ui.workbench,3.5.1.M20090826-0800a,"",1416925523125
activated,view,org.eclipse.ui.console,3.4.0.v20090513,"org.eclipse.ui.console.ConsoleView",1416925523285
deactivated,workbench,org.eclipse.ui.workbench,3.5.1.M20090826-0800a,"",1416925529895
activated,workbench,org.eclipse.ui.workbench,3.5.1.M20090826-0800a,"",1416925533273
activated,perspective,com.android.ide.eclipse.ddms,12.0.0.v201106281929-138431,"com.android.ide.eclipse.ddms.Perspective",1416925534354
activated,view,com.android.ide.eclipse.ddms,12.0.0.v201106281929-138431,"com.android.ide.eclipse.ddms.views.DeviceView",1416925535765
deactivated,workbench,org.eclipse.ui.workbench,3.5.1.M20090826-0800a,"",1416925558483
activated,workbench,org.eclipse.ui.workbench,3.5.1.M20090826-0800a,"",1416925559262
deactivated,workbench,org.eclipse.ui.workbench,3.5.1.M20090826-0800a,"",1416925561037
deactivated,workbench,org.eclipse.ui.workbench,3.5.1.M20090826-0800a,"",1416925568175
activated,workbench,org.eclipse.ui.workbench,3.5.1.M20090826-0800a,"",1416925591925
