what,kind,bundleId,bundleVersion,description,time
deactivated,workbench,org.eclipse.ui.workbench,3.5.1.M20090826-0800a,"",1416962874882
activated,workbench,org.eclipse.ui.workbench,3.5.1.M20090826-0800a,"",1416962879040
deactivated,workbench,org.eclipse.ui.workbench,3.5.1.M20090826-0800a,"",1416962888816
activated,workbench,org.eclipse.ui.workbench,3.5.1.M20090826-0800a,"",1416962917315
deactivated,workbench,org.eclipse.ui.workbench,3.5.1.M20090826-0800a,"",1416962922173
activated,workbench,org.eclipse.ui.workbench,3.5.1.M20090826-0800a,"",1416962987194
activated,editor,org.eclipse.jdt.ui,3.5.1.r351_v20090821-0800,"org.eclipse.jdt.ui.CompilationUnitEditor",1416962991831
deactivated,workbench,org.eclipse.ui.workbench,3.5.1.M20090826-0800a,"",1416962998564
activated,workbench,org.eclipse.ui.workbench,3.5.1.M20090826-0800a,"",1416963003593
deactivated,workbench,org.eclipse.ui.workbench,3.5.1.M20090826-0800a,"",1416963009105
activated,workbench,org.eclipse.ui.workbench,3.5.1.M20090826-0800a,"",1416963012500
activated,view,org.eclipse.jdt.ui,3.5.1.r351_v20090821-0800,"org.eclipse.jdt.ui.PackageExplorer",1416963014802
executed,command,,,"com.android.ide.eclipse.adt.debug.launching.LaunchShortcut.run",1416963016861
deactivated,workbench,org.eclipse.ui.workbench,3.5.1.M20090826-0800a,"",1416963016908
activated,workbench,org.eclipse.ui.workbench,3.5.1.M20090826-0800a,"",1416963018432
activated,view,com.android.ide.eclipse.ddms,12.0.0.v201106281929-138431,"com.android.ide.eclipse.ddms.views.LogCatView",1416963020996
activated,editor,org.eclipse.jdt.ui,3.5.1.r351_v20090821-0800,"org.eclipse.jdt.ui.CompilationUnitEditor",1416963037714
deactivated,workbench,org.eclipse.ui.workbench,3.5.1.M20090826-0800a,"",1416963039798
activated,workbench,org.eclipse.ui.workbench,3.5.1.M20090826-0800a,"",1416963041657
deactivated,workbench,org.eclipse.ui.workbench,3.5.1.M20090826-0800a,"",1416963042793
activated,workbench,org.eclipse.ui.workbench,3.5.1.M20090826-0800a,"",1416963043939
deactivated,workbench,org.eclipse.ui.workbench,3.5.1.M20090826-0800a,"",1416963044882
activated,workbench,org.eclipse.ui.workbench,3.5.1.M20090826-0800a,"",1416963048707
deactivated,workbench,org.eclipse.ui.workbench,3.5.1.M20090826-0800a,"",1416963049657
activated,workbench,org.eclipse.ui.workbench,3.5.1.M20090826-0800a,"",1416963052295
