what,kind,bundleId,bundleVersion,description,time
activated,workbench,org.eclipse.ui.workbench,3.5.1.M20090826-0800a,"",1418188041641
deactivated,workbench,org.eclipse.ui.workbench,3.5.1.M20090826-0800a,"",1418188042422
activated,workbench,org.eclipse.ui.workbench,3.5.1.M20090826-0800a,"",1418189257316
executed,command,org.eclipse.ui,3.5.1.M20090902-1000,"org.eclipse.ui.file.save",1418189277533
deactivated,workbench,org.eclipse.ui.workbench,3.5.1.M20090826-0800a,"",1418189280528
no handler,command,org.eclipse.ui,3.5.1.M20090902-1000,"org.eclipse.ui.edit.copy",1418189285743
no handler,command,org.eclipse.ui,3.5.1.M20090902-1000,"org.eclipse.ui.edit.copy",1418189285743
no handler,command,org.eclipse.ui,3.5.1.M20090902-1000,"org.eclipse.ui.edit.copy",1418189288645
no handler,command,org.eclipse.ui,3.5.1.M20090902-1000,"org.eclipse.ui.edit.copy",1418189288646
no handler,command,org.eclipse.ui,3.5.1.M20090902-1000,"org.eclipse.ui.edit.copy",1418189295100
no handler,command,org.eclipse.ui,3.5.1.M20090902-1000,"org.eclipse.ui.edit.copy",1418189295100
no handler,command,org.eclipse.ui,3.5.1.M20090902-1000,"org.eclipse.ui.edit.copy",1418189295417
no handler,command,org.eclipse.ui,3.5.1.M20090902-1000,"org.eclipse.ui.edit.copy",1418189295417
no handler,command,org.eclipse.ui,3.5.1.M20090902-1000,"org.eclipse.ui.edit.copy",1418189296372
no handler,command,org.eclipse.ui,3.5.1.M20090902-1000,"org.eclipse.ui.edit.copy",1418189296373
activated,workbench,org.eclipse.ui.workbench,3.5.1.M20090826-0800a,"",1418189296844
activated,view,org.eclipse.jdt.ui,3.5.1.r351_v20090821-0800,"org.eclipse.jdt.ui.PackageExplorer",1418189300110
executed,command,,,"com.android.ide.eclipse.adt.debug.launching.LaunchShortcut.run",1418189302456
activated,view,com.android.ide.eclipse.ddms,12.0.0.v201106281929-138431,"com.android.ide.eclipse.ddms.views.LogCatView",1418189305346
activated,view,org.eclipse.jdt.ui,3.5.1.r351_v20090821-0800,"org.eclipse.jdt.ui.PackageExplorer",1418189306009
deactivated,workbench,org.eclipse.ui.workbench,3.5.1.M20090826-0800a,"",1418189313292
activated,workbench,org.eclipse.ui.workbench,3.5.1.M20090826-0800a,"",1418189314308
deactivated,workbench,org.eclipse.ui.workbench,3.5.1.M20090826-0800a,"",1418189315805
activated,workbench,org.eclipse.ui.workbench,3.5.1.M20090826-0800a,"",1418189337461
activated,editor,org.eclipse.jdt.ui,3.5.1.r351_v20090821-0800,"org.eclipse.jdt.ui.CompilationUnitEditor",1418189338880
