what,kind,bundleId,bundleVersion,description,time
executed,command,org.eclipse.ui,3.5.1.M20090902-1000,"org.eclipse.ui.edit.cut",1416556340855
executed,command,org.eclipse.ui,3.5.1.M20090902-1000,"org.eclipse.ui.edit.paste",1416556342211
executed,command,org.eclipse.ui,3.5.1.M20090902-1000,"org.eclipse.ui.file.save",1416556346591
activated,view,org.eclipse.jdt.ui,3.5.1.r351_v20090821-0800,"org.eclipse.jdt.ui.PackageExplorer",1416556349907
activated,editor,org.eclipse.jdt.ui,3.5.1.r351_v20090821-0800,"org.eclipse.jdt.ui.CompilationUnitEditor",1416556351759
activated,perspective,com.android.ide.eclipse.ddms,12.0.0.v201106281929-138431,"com.android.ide.eclipse.ddms.Perspective",1416556354864
activated,view,com.android.ide.eclipse.ddms,12.0.0.v201106281929-138431,"com.android.ide.eclipse.ddms.views.LogCatView",1416556354880
activated,view,com.android.ide.eclipse.ddms,12.0.0.v201106281929-138431,"com.android.ide.eclipse.ddms.views.FileExplorerView",1416556358341
deactivated,workbench,org.eclipse.ui.workbench,3.5.1.M20090826-0800a,"",1416556360726
activated,workbench,org.eclipse.ui.workbench,3.5.1.M20090826-0800a,"",1416556369378
deactivated,workbench,org.eclipse.ui.workbench,3.5.1.M20090826-0800a,"",1416556377574
activated,workbench,org.eclipse.ui.workbench,3.5.1.M20090826-0800a,"",1416556378436
deactivated,workbench,org.eclipse.ui.workbench,3.5.1.M20090826-0800a,"",1416556378846
activated,workbench,org.eclipse.ui.workbench,3.5.1.M20090826-0800a,"",1416556525359
deactivated,workbench,org.eclipse.ui.workbench,3.5.1.M20090826-0800a,"",1416556532747
activated,workbench,org.eclipse.ui.workbench,3.5.1.M20090826-0800a,"",1416556538148
deactivated,workbench,org.eclipse.ui.workbench,3.5.1.M20090826-0800a,"",1416556538402
activated,workbench,org.eclipse.ui.workbench,3.5.1.M20090826-0800a,"",1416556669905
deactivated,workbench,org.eclipse.ui.workbench,3.5.1.M20090826-0800a,"",1416556671698
activated,workbench,org.eclipse.ui.workbench,3.5.1.M20090826-0800a,"",1416556672340
activated,perspective,org.eclipse.jdt.ui,3.5.1.r351_v20090821-0800,"org.eclipse.jdt.ui.JavaPerspective",1416556677485
activated,editor,org.eclipse.jdt.ui,3.5.1.r351_v20090821-0800,"org.eclipse.jdt.ui.CompilationUnitEditor",1416556677505
activated,view,org.eclipse.jdt.ui,3.5.1.r351_v20090821-0800,"org.eclipse.jdt.ui.PackageExplorer",1416556679417
executed,command,,,"com.android.ide.eclipse.adt.debug.launching.LaunchShortcut.run",1416556680910
deactivated,workbench,org.eclipse.ui.workbench,3.5.1.M20090826-0800a,"",1416556686426
