what,kind,bundleId,bundleVersion,description,time
executed,command,,,"com.android.ide.eclipse.adt.debug.launching.LaunchShortcut.run",1416675406727
deactivated,workbench,org.eclipse.ui.workbench,3.5.1.M20090826-0800a,"",1416675407720
activated,workbench,org.eclipse.ui.workbench,3.5.1.M20090826-0800a,"",1416675459457
activated,view,com.android.ide.eclipse.ddms,12.0.0.v201106281929-138431,"com.android.ide.eclipse.ddms.views.LogCatView",1416675459640
deactivated,workbench,org.eclipse.ui.workbench,3.5.1.M20090826-0800a,"",1416675467525
activated,workbench,org.eclipse.ui.workbench,3.5.1.M20090826-0800a,"",1416675473309
activated,editor,org.eclipse.jdt.ui,3.5.1.r351_v20090821-0800,"org.eclipse.jdt.ui.CompilationUnitEditor",1416675490606
activated,view,org.eclipse.jdt.ui,3.5.1.r351_v20090821-0800,"org.eclipse.jdt.ui.PackageExplorer",1416675492827
opened,editor,com.android.ide.eclipse.adt,12.0.0.v201106281929-138431,"com.android.ide.eclipse.editors.manifest.ManifestEditor",1416675493717
activated,editor,com.android.ide.eclipse.adt,12.0.0.v201106281929-138431,"com.android.ide.eclipse.editors.manifest.ManifestEditor",1416675493808
no handler,command,org.eclipse.ui,3.5.1.M20090902-1000,"org.eclipse.ui.edit.copy",1416675493840
deactivated,workbench,org.eclipse.ui.workbench,3.5.1.M20090826-0800a,"",1416675498313
activated,workbench,org.eclipse.ui.workbench,3.5.1.M20090826-0800a,"",1416675499982
deactivated,workbench,org.eclipse.ui.workbench,3.5.1.M20090826-0800a,"",1416675520001
activated,workbench,org.eclipse.ui.workbench,3.5.1.M20090826-0800a,"",1416675521602
deactivated,workbench,org.eclipse.ui.workbench,3.5.1.M20090826-0800a,"",1416675541990
activated,workbench,org.eclipse.ui.workbench,3.5.1.M20090826-0800a,"",1416675543235
deactivated,workbench,org.eclipse.ui.workbench,3.5.1.M20090826-0800a,"",1416675573400
activated,workbench,org.eclipse.ui.workbench,3.5.1.M20090826-0800a,"",1416675574507
deactivated,workbench,org.eclipse.ui.workbench,3.5.1.M20090826-0800a,"",1416675577070
activated,workbench,org.eclipse.ui.workbench,3.5.1.M20090826-0800a,"",1416675578503
executed,command,org.eclipse.ui,3.5.1.M20090902-1000,"org.eclipse.ui.file.save",1416675580736
activated,view,org.eclipse.jdt.ui,3.5.1.r351_v20090821-0800,"org.eclipse.jdt.ui.PackageExplorer",1416675582234
executed,command,,,"com.android.ide.eclipse.adt.debug.launching.LaunchShortcut.run",1416675584245
deactivated,workbench,org.eclipse.ui.workbench,3.5.1.M20090826-0800a,"",1416675584253
