what,kind,bundleId,bundleVersion,description,time
activated,workbench,org.eclipse.ui.workbench,3.5.1.M20090826-0800a,"",1418132608866
deactivated,workbench,org.eclipse.ui.workbench,3.5.1.M20090826-0800a,"",1418132610904
activated,workbench,org.eclipse.ui.workbench,3.5.1.M20090826-0800a,"",1418132617166
activated,view,org.eclipse.jdt.ui,3.5.1.r351_v20090821-0800,"org.eclipse.jdt.ui.PackageExplorer",1418132621376
activated,editor,com.android.ide.eclipse.adt,12.0.0.v201106281929-138431,"com.android.ide.eclipse.editors.manifest.ManifestEditor",1418132623813
executed,command,org.eclipse.ui,3.5.1.M20090902-1000,"org.eclipse.ui.edit.text.contentAssist.proposals",1418132631015
executed,command,org.eclipse.ui,3.5.1.M20090902-1000,"org.eclipse.ui.edit.text.contentAssist.proposals",1418132650496
executed,command,org.eclipse.ui,3.5.1.M20090902-1000,"org.eclipse.ui.file.save",1418132664453
activated,editor,org.eclipse.jdt.ui,3.5.1.r351_v20090821-0800,"org.eclipse.jdt.ui.CompilationUnitEditor",1418132666241
activated,view,org.eclipse.jdt.ui,3.5.1.r351_v20090821-0800,"org.eclipse.jdt.ui.PackageExplorer",1418132667263
executed,command,,,"com.android.ide.eclipse.adt.debug.launching.LaunchShortcut.run",1418132669190
deactivated,workbench,org.eclipse.ui.workbench,3.5.1.M20090826-0800a,"",1418132669209
activated,workbench,org.eclipse.ui.workbench,3.5.1.M20090826-0800a,"",1418132669323
deactivated,workbench,org.eclipse.ui.workbench,3.5.1.M20090826-0800a,"",1418132669748
activated,workbench,org.eclipse.ui.workbench,3.5.1.M20090826-0800a,"",1418132684296
activated,view,com.android.ide.eclipse.ddms,12.0.0.v201106281929-138431,"com.android.ide.eclipse.ddms.views.LogCatView",1418132684503
activated,editor,org.eclipse.jdt.ui,3.5.1.r351_v20090821-0800,"org.eclipse.jdt.ui.CompilationUnitEditor",1418132686819
activated,editor,com.android.ide.eclipse.adt,12.0.0.v201106281929-138431,"com.android.ide.eclipse.editors.manifest.ManifestEditor",1418132687898
activated,editor,org.eclipse.jdt.ui,3.5.1.r351_v20090821-0800,"org.eclipse.jdt.ui.CompilationUnitEditor",1418132688848
executed,command,org.eclipse.ui,3.5.1.M20090902-1000,"org.eclipse.ui.edit.text.contentAssist.proposals",1418132700069
executed,command,org.eclipse.ui,3.5.1.M20090902-1000,"org.eclipse.ui.file.save",1418132718581
activated,view,org.eclipse.jdt.ui,3.5.1.r351_v20090821-0800,"org.eclipse.jdt.ui.PackageExplorer",1418132722167
executed,command,,,"com.android.ide.eclipse.adt.debug.launching.LaunchShortcut.run",1418132724454
deactivated,workbench,org.eclipse.ui.workbench,3.5.1.M20090826-0800a,"",1418132733926
activated,workbench,org.eclipse.ui.workbench,3.5.1.M20090826-0800a,"",1418132743161
