what,kind,bundleId,bundleVersion,description,time
deactivated,workbench,org.eclipse.ui.workbench,3.5.1.M20090826-0800a,"",1416560800345
activated,workbench,org.eclipse.ui.workbench,3.5.1.M20090826-0800a,"",1416560804345
executed,command,org.eclipse.ui,3.5.1.M20090902-1000,"org.eclipse.ui.file.save",1416560815176
deactivated,workbench,org.eclipse.ui.workbench,3.5.1.M20090826-0800a,"",1416560818336
activated,workbench,org.eclipse.ui.workbench,3.5.1.M20090826-0800a,"",1416560820752
executed,command,org.eclipse.ui,3.5.1.M20090902-1000,"org.eclipse.ui.file.save",1416560830246
activated,view,org.eclipse.ui.views,3.4.1.M20090826-0800,"org.eclipse.ui.views.ContentOutline",1416560839447
executed,command,,,"com.android.ide.eclipse.adt.junit.launchShortcut.run",1416560841905
activated,view,org.eclipse.jdt.junit,3.5.1.r351_v20090708-0800,"org.eclipse.jdt.junit.ResultView",1416560844252
deactivated,workbench,org.eclipse.ui.workbench,3.5.1.M20090826-0800a,"",1416560846377
activated,workbench,org.eclipse.ui.workbench,3.5.1.M20090826-0800a,"",1416560847061
activated,editor,org.eclipse.jdt.ui,3.5.1.r351_v20090821-0800,"org.eclipse.jdt.ui.CompilationUnitEditor",1416560865366
activated,editor,org.eclipse.jdt.ui,3.5.1.r351_v20090821-0800,"org.eclipse.jdt.ui.CompilationUnitEditor",1416560880265
activated,view,com.android.ide.eclipse.ddms,12.0.0.v201106281929-138431,"com.android.ide.eclipse.ddms.views.LogCatView",1416560883665
deactivated,workbench,org.eclipse.ui.workbench,3.5.1.M20090826-0800a,"",1416560887070
activated,workbench,org.eclipse.ui.workbench,3.5.1.M20090826-0800a,"",1416560907168
activated,editor,org.eclipse.jdt.ui,3.5.1.r351_v20090821-0800,"org.eclipse.jdt.ui.CompilationUnitEditor",1416560918113
deactivated,workbench,org.eclipse.ui.workbench,3.5.1.M20090826-0800a,"",1416560929735
activated,workbench,org.eclipse.ui.workbench,3.5.1.M20090826-0800a,"",1416560930549
activated,view,org.eclipse.jdt.junit,3.5.1.r351_v20090708-0800,"org.eclipse.jdt.junit.ResultView",1416560932886
activated,editor,org.eclipse.jdt.ui,3.5.1.r351_v20090821-0800,"org.eclipse.jdt.ui.CompilationUnitEditor",1416560933772
activated,editor,org.eclipse.jdt.ui,3.5.1.r351_v20090821-0800,"org.eclipse.jdt.ui.CompilationUnitEditor",1416560935649
activated,view,org.eclipse.jdt.ui,3.5.1.r351_v20090821-0800,"org.eclipse.jdt.ui.PackageExplorer",1416560939957
deactivated,workbench,org.eclipse.ui.workbench,3.5.1.M20090826-0800a,"",1416560943784
activated,workbench,org.eclipse.ui.workbench,3.5.1.M20090826-0800a,"",1416560946072
