what,kind,bundleId,bundleVersion,description,time
started,bundle,com.android.ide.eclipse.adt,12.0.0.v201106281929-138431,"com.android.ide.eclipse.adt",1418304466781
started,bundle,com.android.ide.eclipse.ddms,12.0.0.v201106281929-138431,"com.android.ide.eclipse.ddms",1418304466832
os,sysinfo,,,"win32",1418304466839
arch,sysinfo,,,"x86",1418304466839
ws,sysinfo,,,"win32",1418304466839
locale,sysinfo,,,"zh_CN",1418304466839
processors,sysinfo,,,"4",1418304466839
java.runtime.name,sysinfo,,,"Java(TM) SE Runtime Environment",1418304466839
java.runtime.version,sysinfo,,,"1.6.0_03-b05",1418304466839
java.specification.name,sysinfo,,,"Java Platform API Specification",1418304466839
java.specification.vendor,sysinfo,,,"Sun Microsystems Inc.",1418304466839
java.specification.version,sysinfo,,,"1.6",1418304466840
java.vendor,sysinfo,,,"Sun Microsystems Inc.",1418304466840
java.version,sysinfo,,,"1.6.0_03",1418304466840
java.vm.info,sysinfo,,,"mixed mode",1418304466840
java.vm.name,sysinfo,,,"Java HotSpot(TM) Client VM",1418304466840
java.vm.specification.name,sysinfo,,,"Java Virtual Machine Specification",1418304466840
java.vm.specification.vendor,sysinfo,,,"Sun Microsystems Inc.",1418304466840
java.vm.specification.version,sysinfo,,,"1.0",1418304466840
java.vm.vendor,sysinfo,,,"Sun Microsystems Inc.",1418304466840
java.vm.version,sysinfo,,,"1.6.0_03-b05",1418304466840
started,bundle,org.eclipse.mylyn.commons.net,3.2.0.v20090617-0100-e3x,"org.eclipse.mylyn.commons.net",1418304467299
started,bundle,org.eclipse.jst.common.project.facet.core,1.4.1.v200908111817,"org.eclipse.jst.common.project.facet.core",1418304468220
started,bundle,org.eclipse.mylyn.commons.ui,3.2.2.v20090912-0400-e3x,"org.eclipse.mylyn.commons.ui",1418304468263
started,bundle,org.eclipse.mylyn.bugzilla.core,3.2.2.v20090912-0400-e3x,"org.eclipse.mylyn.bugzilla.core",1418304468611
