what,kind,bundleId,bundleVersion,description,time
deactivated,workbench,org.eclipse.ui.workbench,3.5.1.M20090826-0800a,"",1418135826955
activated,workbench,org.eclipse.ui.workbench,3.5.1.M20090826-0800a,"",1418135827650
activated,editor,org.eclipse.jdt.ui,3.5.1.r351_v20090821-0800,"org.eclipse.jdt.ui.CompilationUnitEditor",1418135831447
deactivated,workbench,org.eclipse.ui.workbench,3.5.1.M20090826-0800a,"",1418135860971
activated,workbench,org.eclipse.ui.workbench,3.5.1.M20090826-0800a,"",1418135861841
deactivated,workbench,org.eclipse.ui.workbench,3.5.1.M20090826-0800a,"",1418135862203
activated,workbench,org.eclipse.ui.workbench,3.5.1.M20090826-0800a,"",1418135862937
deactivated,workbench,org.eclipse.ui.workbench,3.5.1.M20090826-0800a,"",1418135863090
activated,workbench,org.eclipse.ui.workbench,3.5.1.M20090826-0800a,"",1418135863204
deactivated,workbench,org.eclipse.ui.workbench,3.5.1.M20090826-0800a,"",1418135863555
activated,workbench,org.eclipse.ui.workbench,3.5.1.M20090826-0800a,"",1418135869645
deactivated,workbench,org.eclipse.ui.workbench,3.5.1.M20090826-0800a,"",1418135885538
deactivated,workbench,org.eclipse.ui.workbench,3.5.1.M20090826-0800a,"",1418135891576
activated,workbench,org.eclipse.ui.workbench,3.5.1.M20090826-0800a,"",1418135891872
deactivated,workbench,org.eclipse.ui.workbench,3.5.1.M20090826-0800a,"",1418135892307
activated,workbench,org.eclipse.ui.workbench,3.5.1.M20090826-0800a,"",1418135893616
deactivated,workbench,org.eclipse.ui.workbench,3.5.1.M20090826-0800a,"",1418135894283
activated,workbench,org.eclipse.ui.workbench,3.5.1.M20090826-0800a,"",1418135895458
deactivated,workbench,org.eclipse.ui.workbench,3.5.1.M20090826-0800a,"",1418135895692
activated,workbench,org.eclipse.ui.workbench,3.5.1.M20090826-0800a,"",1418135898462
activated,editor,org.eclipse.jdt.ui,3.5.1.r351_v20090821-0800,"org.eclipse.jdt.ui.CompilationUnitEditor",1418135907325
activated,editor,org.eclipse.jdt.ui,3.5.1.r351_v20090821-0800,"org.eclipse.jdt.ui.CompilationUnitEditor",1418135909004
deactivated,workbench,org.eclipse.ui.workbench,3.5.1.M20090826-0800a,"",1418135911588
activated,workbench,org.eclipse.ui.workbench,3.5.1.M20090826-0800a,"",1418135977998
deactivated,workbench,org.eclipse.ui.workbench,3.5.1.M20090826-0800a,"",1418135980683
