what,kind,bundleId,bundleVersion,description,time
started,bundle,org.eclipse.jpt.core,2.2.1.v200908270220,"org.eclipse.jpt.core",1416922989195
started,bundle,org.eclipse.jpt.eclipselink.core,1.2.0.v200905310000,"org.eclipse.jpt.eclipselink.core",1416922989201
deactivated,workbench,org.eclipse.ui.workbench,3.5.1.M20090826-0800a,"",1416922996868
activated,workbench,org.eclipse.ui.workbench,3.5.1.M20090826-0800a,"",1416922998498
deactivated,workbench,org.eclipse.ui.workbench,3.5.1.M20090826-0800a,"",1416923003572
activated,workbench,org.eclipse.ui.workbench,3.5.1.M20090826-0800a,"",1416923038381
deactivated,workbench,org.eclipse.ui.workbench,3.5.1.M20090826-0800a,"",1416923039599
activated,workbench,org.eclipse.ui.workbench,3.5.1.M20090826-0800a,"",1416923040340
deactivated,workbench,org.eclipse.ui.workbench,3.5.1.M20090826-0800a,"",1416923042101
opened,view,org.eclipse.ui.console,3.4.0.v20090513,"org.eclipse.ui.console.ConsoleView",1416923083737
activated,view,org.eclipse.ui.console,3.4.0.v20090513,"org.eclipse.ui.console.ConsoleView",1416923083770
activated,workbench,org.eclipse.ui.workbench,3.5.1.M20090826-0800a,"",1416923089601
executed,command,org.eclipse.ui,3.5.1.M20090902-1000,"org.eclipse.ui.edit.copy",1416923109689
deactivated,workbench,org.eclipse.ui.workbench,3.5.1.M20090826-0800a,"",1416923110400
activated,workbench,org.eclipse.ui.workbench,3.5.1.M20090826-0800a,"",1416923334720
activated,editor,org.eclipse.jdt.ui,3.5.1.r351_v20090821-0800,"org.eclipse.jdt.ui.CompilationUnitEditor",1416923335502
activated,view,com.android.ide.eclipse.ddms,12.0.0.v201106281929-138431,"com.android.ide.eclipse.ddms.views.LogCatView",1416923337213
activated,editor,org.eclipse.jdt.ui,3.5.1.r351_v20090821-0800,"org.eclipse.jdt.ui.CompilationUnitEditor",1416923342253
activated,view,com.android.ide.eclipse.ddms,12.0.0.v201106281929-138431,"com.android.ide.eclipse.ddms.views.LogCatView",1416923343752
activated,view,org.eclipse.ui.console,3.4.0.v20090513,"org.eclipse.ui.console.ConsoleView",1416923346301
activated,editor,org.eclipse.jdt.ui,3.5.1.r351_v20090821-0800,"org.eclipse.jdt.ui.CompilationUnitEditor",1416923349145
activated,view,org.eclipse.jdt.ui,3.5.1.r351_v20090821-0800,"org.eclipse.jdt.ui.PackageExplorer",1416923350584
deactivated,workbench,org.eclipse.ui.workbench,3.5.1.M20090826-0800a,"",1416923354012
error,log,,,"Failed to load properties file for project 'Contact'",1416923384784
activated,workbench,org.eclipse.ui.workbench,3.5.1.M20090826-0800a,"",1416923385007
