what,kind,bundleId,bundleVersion,description,time
activated,workbench,org.eclipse.ui.workbench,3.5.1.M20090826-0800a,"",1416924610049
activated,view,com.android.ide.eclipse.ddms,12.0.0.v201106281929-138431,"com.android.ide.eclipse.ddms.views.DeviceView",1416924610058
activated,view,org.eclipse.ui.console,3.4.0.v20090513,"org.eclipse.ui.console.ConsoleView",1416924612556
activated,view,com.android.ide.eclipse.ddms,12.0.0.v201106281929-138431,"com.android.ide.eclipse.ddms.views.FileExplorerView",1416924613242
activated,perspective,org.eclipse.jdt.ui,3.5.1.r351_v20090821-0800,"org.eclipse.jdt.ui.JavaPerspective",1416924614386
activated,view,org.eclipse.jdt.ui,3.5.1.r351_v20090821-0800,"org.eclipse.jdt.ui.PackageExplorer",1416924614408
executed,command,,,"com.android.ide.eclipse.adt.debug.launching.LaunchShortcut.run",1416924617662
deactivated,workbench,org.eclipse.ui.workbench,3.5.1.M20090826-0800a,"",1416924617689
activated,workbench,org.eclipse.ui.workbench,3.5.1.M20090826-0800a,"",1416924618941
deactivated,workbench,org.eclipse.ui.workbench,3.5.1.M20090826-0800a,"",1416924619028
activated,workbench,org.eclipse.ui.workbench,3.5.1.M20090826-0800a,"",1416924621864
activated,view,org.eclipse.ui.console,3.4.0.v20090513,"org.eclipse.ui.console.ConsoleView",1416924622036
deactivated,workbench,org.eclipse.ui.workbench,3.5.1.M20090826-0800a,"",1416924624522
activated,workbench,org.eclipse.ui.workbench,3.5.1.M20090826-0800a,"",1416924627072
deactivated,workbench,org.eclipse.ui.workbench,3.5.1.M20090826-0800a,"",1416924627181
activated,workbench,org.eclipse.ui.workbench,3.5.1.M20090826-0800a,"",1416924632457
activated,editor,org.eclipse.jdt.ui,3.5.1.r351_v20090821-0800,"org.eclipse.jdt.ui.CompilationUnitEditor",1416924632486
deactivated,workbench,org.eclipse.ui.workbench,3.5.1.M20090826-0800a,"",1416924632597
activated,workbench,org.eclipse.ui.workbench,3.5.1.M20090826-0800a,"",1416924632895
deactivated,workbench,org.eclipse.ui.workbench,3.5.1.M20090826-0800a,"",1416924633023
activated,workbench,org.eclipse.ui.workbench,3.5.1.M20090826-0800a,"",1416924633471
deactivated,workbench,org.eclipse.ui.workbench,3.5.1.M20090826-0800a,"",1416924633647
activated,perspective,com.android.ide.eclipse.ddms,12.0.0.v201106281929-138431,"com.android.ide.eclipse.ddms.Perspective",1416924633747
activated,workbench,org.eclipse.ui.workbench,3.5.1.M20090826-0800a,"",1416924634732
activated,view,com.android.ide.eclipse.ddms,12.0.0.v201106281929-138431,"com.android.ide.eclipse.ddms.views.FileExplorerView",1416924634876
