what,kind,bundleId,bundleVersion,description,time
started,bundle,org.eclipse.wst.common.project.facet.core,1.4.1.v200908111817,"org.eclipse.wst.common.project.facet.core",1417695928287
started,bundle,org.eclipse.wst.web,1.1.301.v200909021400,"org.eclipse.wst.web",1417695928461
started,bundle,com.android.ide.eclipse.ddms,12.0.0.v201106281929-138431,"com.android.ide.eclipse.ddms",1417695928567
os,sysinfo,,,"win32",1417695928573
arch,sysinfo,,,"x86",1417695928573
ws,sysinfo,,,"win32",1417695928573
locale,sysinfo,,,"zh_CN",1417695928573
processors,sysinfo,,,"4",1417695928573
java.runtime.name,sysinfo,,,"Java(TM) SE Runtime Environment",1417695928573
java.runtime.version,sysinfo,,,"1.6.0_03-b05",1417695928573
java.specification.name,sysinfo,,,"Java Platform API Specification",1417695928573
java.specification.vendor,sysinfo,,,"Sun Microsystems Inc.",1417695928573
java.specification.version,sysinfo,,,"1.6",1417695928573
java.vendor,sysinfo,,,"Sun Microsystems Inc.",1417695928573
java.version,sysinfo,,,"1.6.0_03",1417695928573
java.vm.info,sysinfo,,,"mixed mode",1417695928573
java.vm.name,sysinfo,,,"Java HotSpot(TM) Client VM",1417695928573
java.vm.specification.name,sysinfo,,,"Java Virtual Machine Specification",1417695928573
java.vm.specification.vendor,sysinfo,,,"Sun Microsystems Inc.",1417695928573
java.vm.specification.version,sysinfo,,,"1.0",1417695928573
java.vm.vendor,sysinfo,,,"Sun Microsystems Inc.",1417695928573
java.vm.version,sysinfo,,,"1.6.0_03-b05",1417695928573
started,bundle,org.eclipse.mylyn.commons.ui,3.2.2.v20090912-0400-e3x,"org.eclipse.mylyn.commons.ui",1417695929390
started,bundle,org.eclipse.jst.common.project.facet.core,1.4.1.v200908111817,"org.eclipse.jst.common.project.facet.core",1417695930400
started,bundle,org.eclipse.mylyn.bugzilla.core,3.2.2.v20090912-0400-e3x,"org.eclipse.mylyn.bugzilla.core",1417695931015
