what,kind,bundleId,bundleVersion,description,time
started,bundle,org.eclipse.wst.web,1.1.301.v200909021400,"org.eclipse.wst.web",1416999618974
started,bundle,com.android.ide.eclipse.adt,12.0.0.v201106281929-138431,"com.android.ide.eclipse.adt",1416999618975
started,bundle,com.android.ide.eclipse.ddms,12.0.0.v201106281929-138431,"com.android.ide.eclipse.ddms",1416999619014
started,bundle,com.android.ide.eclipse.traceview,12.0.0.v201106281929-138431,"com.android.ide.eclipse.traceview",1416999619015
os,sysinfo,,,"win32",1416999619318
arch,sysinfo,,,"x86",1416999619318
ws,sysinfo,,,"win32",1416999619318
locale,sysinfo,,,"zh_CN",1416999619318
processors,sysinfo,,,"4",1416999619318
java.runtime.name,sysinfo,,,"Java(TM) SE Runtime Environment",1416999619318
java.runtime.version,sysinfo,,,"1.6.0_03-b05",1416999619318
java.specification.name,sysinfo,,,"Java Platform API Specification",1416999619318
java.specification.vendor,sysinfo,,,"Sun Microsystems Inc.",1416999619318
java.specification.version,sysinfo,,,"1.6",1416999619318
java.vendor,sysinfo,,,"Sun Microsystems Inc.",1416999619318
java.version,sysinfo,,,"1.6.0_03",1416999619318
java.vm.info,sysinfo,,,"mixed mode",1416999619318
java.vm.name,sysinfo,,,"Java HotSpot(TM) Client VM",1416999619318
java.vm.specification.name,sysinfo,,,"Java Virtual Machine Specification",1416999619318
java.vm.specification.vendor,sysinfo,,,"Sun Microsystems Inc.",1416999619318
java.vm.specification.version,sysinfo,,,"1.0",1416999619318
java.vm.vendor,sysinfo,,,"Sun Microsystems Inc.",1416999619318
java.vm.version,sysinfo,,,"1.6.0_03-b05",1416999619318
started,bundle,org.eclipse.mylyn.commons.net,3.2.0.v20090617-0100-e3x,"org.eclipse.mylyn.commons.net",1416999619493
started,bundle,org.eclipse.jst.common.project.facet.core,1.4.1.v200908111817,"org.eclipse.jst.common.project.facet.core",1416999620047
