what,kind,bundleId,bundleVersion,description,time
activated,workbench,org.eclipse.ui.workbench,3.5.1.M20090826-0800a,"",1416962624629
deactivated,workbench,org.eclipse.ui.workbench,3.5.1.M20090826-0800a,"",1416962626647
activated,workbench,org.eclipse.ui.workbench,3.5.1.M20090826-0800a,"",1416962660588
activated,view,com.android.ide.eclipse.ddms,12.0.0.v201106281929-138431,"com.android.ide.eclipse.ddms.views.LogCatView",1416962662289
deactivated,workbench,org.eclipse.ui.workbench,3.5.1.M20090826-0800a,"",1416962664217
activated,workbench,org.eclipse.ui.workbench,3.5.1.M20090826-0800a,"",1416962672329
activated,perspective,org.eclipse.jdt.ui,3.5.1.r351_v20090821-0800,"org.eclipse.jdt.ui.JavaPerspective",1416962675518
activated,view,org.eclipse.jdt.ui,3.5.1.r351_v20090821-0800,"org.eclipse.jdt.ui.PackageExplorer",1416962675552
activated,editor,com.android.ide.eclipse.adt,12.0.0.v201106281929-138431,"com.android.ide.eclipse.editors.manifest.ManifestEditor",1416962676525
activated,editor,org.eclipse.jdt.ui,3.5.1.r351_v20090821-0800,"org.eclipse.jdt.ui.CompilationUnitEditor",1416962679051
activated,editor,com.android.ide.eclipse.adt,12.0.0.v201106281929-138431,"com.android.ide.eclipse.editors.manifest.ManifestEditor",1416962681617
activated,editor,org.eclipse.jdt.ui,3.5.1.r351_v20090821-0800,"org.eclipse.jdt.ui.CompilationUnitEditor",1416962682351
executed,command,org.eclipse.ui,3.5.1.M20090902-1000,"org.eclipse.ui.file.save",1416962692315
deactivated,workbench,org.eclipse.ui.workbench,3.5.1.M20090826-0800a,"",1416962693728
activated,workbench,org.eclipse.ui.workbench,3.5.1.M20090826-0800a,"",1416962826205
executed,command,org.eclipse.ui,3.5.1.M20090902-1000,"org.eclipse.ui.file.save",1416962828846
activated,view,org.eclipse.jdt.ui,3.5.1.r351_v20090821-0800,"org.eclipse.jdt.ui.PackageExplorer",1416962830708
executed,command,,,"com.android.ide.eclipse.adt.debug.launching.LaunchShortcut.run",1416962832805
deactivated,workbench,org.eclipse.ui.workbench,3.5.1.M20090826-0800a,"",1416962832812
activated,workbench,org.eclipse.ui.workbench,3.5.1.M20090826-0800a,"",1416962833644
activated,view,com.android.ide.eclipse.ddms,12.0.0.v201106281929-138431,"com.android.ide.eclipse.ddms.views.LogCatView",1416962834491
deactivated,workbench,org.eclipse.ui.workbench,3.5.1.M20090826-0800a,"",1416962858639
activated,workbench,org.eclipse.ui.workbench,3.5.1.M20090826-0800a,"",1416962866733
deactivated,workbench,org.eclipse.ui.workbench,3.5.1.M20090826-0800a,"",1416962872637
activated,workbench,org.eclipse.ui.workbench,3.5.1.M20090826-0800a,"",1416962874310
