what,kind,bundleId,bundleVersion,description,time
opened,editor,org.eclipse.jdt.ui,3.5.1.r351_v20090821-0800,"org.eclipse.jdt.ui.CompilationUnitEditor",1416534165867
activated,editor,org.eclipse.jdt.ui,3.5.1.r351_v20090821-0800,"org.eclipse.jdt.ui.CompilationUnitEditor",1416534165957
executed,command,org.eclipse.ui,3.5.1.M20090902-1000,"org.eclipse.ui.file.save",1416534183138
deactivated,workbench,org.eclipse.ui.workbench,3.5.1.M20090826-0800a,"",1416534199883
activated,workbench,org.eclipse.ui.workbench,3.5.1.M20090826-0800a,"",1416534208109
executed,command,org.eclipse.ui,3.5.1.M20090902-1000,"org.eclipse.ui.edit.text.contentAssist.proposals",1416534251962
executed,command,org.eclipse.ui,3.5.1.M20090902-1000,"org.eclipse.ui.edit.text.contentAssist.proposals",1416534278635
deactivated,workbench,org.eclipse.ui.workbench,3.5.1.M20090826-0800a,"",1416534292937
activated,workbench,org.eclipse.ui.workbench,3.5.1.M20090826-0800a,"",1416534293052
executed,command,org.eclipse.ui,3.5.1.M20090902-1000,"org.eclipse.ui.edit.text.contentAssist.proposals",1416534319392
executed,command,org.eclipse.ui,3.5.1.M20090902-1000,"org.eclipse.ui.edit.text.contentAssist.proposals",1416534322837
executed,command,org.eclipse.ui,3.5.1.M20090902-1000,"org.eclipse.ui.file.save",1416534326078
deactivated,workbench,org.eclipse.ui.workbench,3.5.1.M20090826-0800a,"",1416534330796
activated,workbench,org.eclipse.ui.workbench,3.5.1.M20090826-0800a,"",1416534330926
executed,command,org.eclipse.ui,3.5.1.M20090902-1000,"org.eclipse.ui.file.save",1416534332739
executed,command,org.eclipse.ui,3.5.1.M20090902-1000,"org.eclipse.ui.file.save",1416534405691
executed,command,org.eclipse.ui,3.5.1.M20090902-1000,"org.eclipse.ui.edit.text.contentAssist.proposals",1416534422687
executed,command,org.eclipse.ui.workbench.texteditor,3.5.0.v20090603,"org.eclipse.ui.edit.text.smartEnter",1416534424579
executed,command,org.eclipse.ui,3.5.1.M20090902-1000,"org.eclipse.ui.edit.undo",1416534425657
executed,command,org.eclipse.ui,3.5.1.M20090902-1000,"org.eclipse.ui.edit.text.contentAssist.proposals",1416534427194
executed,command,org.eclipse.ui,3.5.1.M20090902-1000,"org.eclipse.ui.edit.text.contentAssist.proposals",1416534435246
executed,command,org.eclipse.ui,3.5.1.M20090902-1000,"org.eclipse.ui.file.save",1416534470503
executed,command,org.eclipse.ui,3.5.1.M20090902-1000,"org.eclipse.ui.edit.text.contentAssist.proposals",1416534480821
deactivated,workbench,org.eclipse.ui.workbench,3.5.1.M20090826-0800a,"",1416534503366
activated,workbench,org.eclipse.ui.workbench,3.5.1.M20090826-0800a,"",1416534503518
