what,kind,bundleId,bundleVersion,description,time
activated,view,org.eclipse.jdt.ui,3.5.1.r351_v20090821-0800,"org.eclipse.jdt.ui.PackageExplorer",1418023566432
executed,command,,,"com.android.ide.eclipse.adt.debug.launching.LaunchShortcut.run",1418023570609
deactivated,workbench,org.eclipse.ui.workbench,3.5.1.M20090826-0800a,"",1418023571934
activated,workbench,org.eclipse.ui.workbench,3.5.1.M20090826-0800a,"",1418023603614
activated,editor,org.eclipse.jdt.ui,3.5.1.r351_v20090821-0800,"org.eclipse.jdt.ui.CompilationUnitEditor",1418023604546
deactivated,workbench,org.eclipse.ui.workbench,3.5.1.M20090826-0800a,"",1418023608951
activated,workbench,org.eclipse.ui.workbench,3.5.1.M20090826-0800a,"",1418023610755
executed,command,org.eclipse.ui,3.5.1.M20090902-1000,"org.eclipse.ui.edit.copy",1418023612550
executed,command,org.eclipse.ui,3.5.1.M20090902-1000,"org.eclipse.ui.file.save",1418023614827
deactivated,workbench,org.eclipse.ui.workbench,3.5.1.M20090826-0800a,"",1418023615518
activated,workbench,org.eclipse.ui.workbench,3.5.1.M20090826-0800a,"",1418023617933
executed,command,org.eclipse.ui,3.5.1.M20090902-1000,"org.eclipse.ui.edit.copy",1418023636040
executed,command,org.eclipse.ui,3.5.1.M20090902-1000,"org.eclipse.ui.file.save",1418023636873
deactivated,workbench,org.eclipse.ui.workbench,3.5.1.M20090826-0800a,"",1418023637241
activated,workbench,org.eclipse.ui.workbench,3.5.1.M20090826-0800a,"",1418023639592
activated,view,org.eclipse.jdt.ui,3.5.1.r351_v20090821-0800,"org.eclipse.jdt.ui.PackageExplorer",1418023643719
executed,command,,,"com.android.ide.eclipse.adt.debug.launching.LaunchShortcut.run",1418023645985
deactivated,workbench,org.eclipse.ui.workbench,3.5.1.M20090826-0800a,"",1418023650125
activated,workbench,org.eclipse.ui.workbench,3.5.1.M20090826-0800a,"",1418023665111
deactivated,workbench,org.eclipse.ui.workbench,3.5.1.M20090826-0800a,"",1418023667054
activated,workbench,org.eclipse.ui.workbench,3.5.1.M20090826-0800a,"",1418023682324
activated,editor,org.eclipse.jdt.ui,3.5.1.r351_v20090821-0800,"org.eclipse.jdt.ui.CompilationUnitEditor",1418023684267
executed,command,org.eclipse.ui,3.5.1.M20090902-1000,"org.eclipse.ui.edit.copy",1418023686162
executed,command,org.eclipse.ui,3.5.1.M20090902-1000,"org.eclipse.ui.file.save",1418023701878
activated,view,org.eclipse.jdt.ui,3.5.1.r351_v20090821-0800,"org.eclipse.jdt.ui.PackageExplorer",1418023703768
