what,kind,bundleId,bundleVersion,description,time
closed,editor,org.eclipse.jdt.ui,3.5.1.r351_v20090821-0800,"org.eclipse.jdt.ui.CompilationUnitEditor",1416969589342
closed,editor,com.android.ide.eclipse.adt,12.0.0.v201106281929-138431,"com.android.ide.eclipse.editors.layout.LayoutEditor",1416969589361
deactivated,workbench,org.eclipse.ui.workbench,3.5.1.M20090826-0800a,"",1416969703238
activated,workbench,org.eclipse.ui.workbench,3.5.1.M20090826-0800a,"",1416969824361
deactivated,workbench,org.eclipse.ui.workbench,3.5.1.M20090826-0800a,"",1416969825839
activated,workbench,org.eclipse.ui.workbench,3.5.1.M20090826-0800a,"",1416969828896
deactivated,workbench,org.eclipse.ui.workbench,3.5.1.M20090826-0800a,"",1416969834558
activated,workbench,org.eclipse.ui.workbench,3.5.1.M20090826-0800a,"",1416986091257
deactivated,workbench,org.eclipse.ui.workbench,3.5.1.M20090826-0800a,"",1416986114312
activated,workbench,org.eclipse.ui.workbench,3.5.1.M20090826-0800a,"",1416986115043
deactivated,workbench,org.eclipse.ui.workbench,3.5.1.M20090826-0800a,"",1416986115603
activated,workbench,org.eclipse.ui.workbench,3.5.1.M20090826-0800a,"",1416986149488
opened,editor,org.eclipse.jdt.ui,3.5.1.r351_v20090821-0800,"org.eclipse.jdt.ui.CompilationUnitEditor",1416986155571
activated,editor,org.eclipse.jdt.ui,3.5.1.r351_v20090821-0800,"org.eclipse.jdt.ui.CompilationUnitEditor",1416986155592
activated,view,org.eclipse.jdt.ui,3.5.1.r351_v20090821-0800,"org.eclipse.jdt.ui.PackageExplorer",1416986168153
opened,editor,org.eclipse.jdt.ui,3.5.1.r351_v20090821-0800,"org.eclipse.jdt.ui.CompilationUnitEditor",1416986176350
activated,editor,org.eclipse.jdt.ui,3.5.1.r351_v20090821-0800,"org.eclipse.jdt.ui.CompilationUnitEditor",1416986176386
executed,command,org.eclipse.ui,3.5.1.M20090902-1000,"org.eclipse.ui.file.save",1416986202262
activated,editor,org.eclipse.jdt.ui,3.5.1.r351_v20090821-0800,"org.eclipse.jdt.ui.CompilationUnitEditor",1416986207469
closed,editor,org.eclipse.jdt.ui,3.5.1.r351_v20090821-0800,"org.eclipse.jdt.ui.CompilationUnitEditor",1416986207470
activated,view,org.eclipse.jdt.ui,3.5.1.r351_v20090821-0800,"org.eclipse.jdt.ui.PackageExplorer",1416986208668
opened,editor,org.eclipse.jdt.ui,3.5.1.r351_v20090821-0800,"org.eclipse.jdt.ui.CompilationUnitEditor",1416986215850
activated,editor,org.eclipse.jdt.ui,3.5.1.r351_v20090821-0800,"org.eclipse.jdt.ui.CompilationUnitEditor",1416986215882
activated,view,org.eclipse.jdt.ui,3.5.1.r351_v20090821-0800,"org.eclipse.jdt.ui.PackageExplorer",1416986218301
opened,editor,org.eclipse.jdt.ui,3.5.1.r351_v20090821-0800,"org.eclipse.jdt.ui.CompilationUnitEditor",1416986219035
