what,kind,bundleId,bundleVersion,description,time
executed,command,org.eclipse.ui,3.5.1.M20090902-1000,"org.eclipse.ui.edit.copy",1418179344260
executed,command,org.eclipse.ui,3.5.1.M20090902-1000,"org.eclipse.ui.edit.text.contentAssist.proposals",1418179381335
deactivated,workbench,org.eclipse.ui.workbench,3.5.1.M20090826-0800a,"",1418179438474
activated,workbench,org.eclipse.ui.workbench,3.5.1.M20090826-0800a,"",1418179439377
deactivated,workbench,org.eclipse.ui.workbench,3.5.1.M20090826-0800a,"",1418179444741
activated,workbench,org.eclipse.ui.workbench,3.5.1.M20090826-0800a,"",1418179444939
executed,command,org.eclipse.ui,3.5.1.M20090902-1000,"org.eclipse.ui.edit.copy",1418179445156
executed,command,org.eclipse.ui,3.5.1.M20090902-1000,"org.eclipse.ui.edit.text.contentAssist.proposals",1418179491113
deactivated,workbench,org.eclipse.ui.workbench,3.5.1.M20090826-0800a,"",1418179499272
activated,workbench,org.eclipse.ui.workbench,3.5.1.M20090826-0800a,"",1418179521326
deactivated,workbench,org.eclipse.ui.workbench,3.5.1.M20090826-0800a,"",1418179534204
activated,workbench,org.eclipse.ui.workbench,3.5.1.M20090826-0800a,"",1418179534331
deactivated,workbench,org.eclipse.ui.workbench,3.5.1.M20090826-0800a,"",1418179557667
activated,workbench,org.eclipse.ui.workbench,3.5.1.M20090826-0800a,"",1418179557856
deactivated,workbench,org.eclipse.ui.workbench,3.5.1.M20090826-0800a,"",1418179585938
activated,workbench,org.eclipse.ui.workbench,3.5.1.M20090826-0800a,"",1418179594441
executed,command,org.eclipse.ui,3.5.1.M20090902-1000,"org.eclipse.ui.edit.copy",1418179601979
executed,command,org.eclipse.ui,3.5.1.M20090902-1000,"org.eclipse.ui.edit.text.contentAssist.proposals",1418179605025
executed,command,org.eclipse.ui,3.5.1.M20090902-1000,"org.eclipse.ui.file.save",1418179609276
activated,view,org.eclipse.jdt.ui,3.5.1.r351_v20090821-0800,"org.eclipse.jdt.ui.PackageExplorer",1418179611051
deactivated,workbench,org.eclipse.ui.workbench,3.5.1.M20090826-0800a,"",1418179622730
activated,workbench,org.eclipse.ui.workbench,3.5.1.M20090826-0800a,"",1418179682041
activated,view,org.eclipse.ui.views,3.4.1.M20090826-0800,"org.eclipse.ui.views.ContentOutline",1418179682088
activated,editor,org.eclipse.jdt.ui,3.5.1.r351_v20090821-0800,"org.eclipse.jdt.ui.CompilationUnitEditor",1418179684773
executed,command,org.eclipse.ui,3.5.1.M20090902-1000,"org.eclipse.ui.edit.copy",1418179693298
