what,kind,bundleId,bundleVersion,description,time
opened,view,org.eclipse.wst.common.snippets,1.1.300.v200903120643,"org.eclipse.wst.common.snippets.internal.ui.SnippetsView",1416532208541
activated,view,org.eclipse.wst.common.snippets,1.1.300.v200903120643,"org.eclipse.wst.common.snippets.internal.ui.SnippetsView",1416532208563
activated,view,com.android.ide.eclipse.ddms,12.0.0.v201106281929-138431,"com.android.ide.eclipse.ddms.views.LogCatView",1416532209593
closed,view,org.eclipse.wst.common.snippets,1.1.300.v200903120643,"org.eclipse.wst.common.snippets.internal.ui.SnippetsView",1416532209595
started,bundle,org.eclipse.datatools.connectivity,1.1.2.v200908180040,"org.eclipse.datatools.connectivity",1416532210781
started,bundle,org.eclipse.datatools.connectivity.ui,1.1.4.v200908130540,"org.eclipse.datatools.connectivity.ui",1416532210797
started,bundle,org.eclipse.datatools.connectivity.ui.dse,1.1.3.v200906020553,"org.eclipse.datatools.connectivity.ui.dse",1416532210826
started,bundle,org.eclipse.datatools.enablement.ingres.ui,1.0.0.v200906111150,"org.eclipse.datatools.enablement.ingres.ui",1416532210842
started,bundle,org.eclipse.datatools.connectivity.sqm.core,1.1.0.v200906020553,"org.eclipse.datatools.connectivity.sqm.core",1416532211121
started,bundle,org.eclipse.datatools.connectivity.sqm.core.ui,1.1.100.v200906020553,"org.eclipse.datatools.connectivity.sqm.core.ui",1416532211140
opened,view,org.eclipse.datatools.connectivity.ui.dse,1.1.3.v200906020553,"org.eclipse.datatools.connectivity.DataSourceExplorerNavigator",1416532211234
activated,view,org.eclipse.datatools.connectivity.ui.dse,1.1.3.v200906020553,"org.eclipse.datatools.connectivity.DataSourceExplorerNavigator",1416532211274
activated,view,com.android.ide.eclipse.ddms,12.0.0.v201106281929-138431,"com.android.ide.eclipse.ddms.views.LogCatView",1416532212739
closed,view,org.eclipse.datatools.connectivity.ui.dse,1.1.3.v200906020553,"org.eclipse.datatools.connectivity.DataSourceExplorerNavigator",1416532212741
opened,view,org.eclipse.wst.server.ui,1.1.103.v20090909,"org.eclipse.wst.server.ui.ServersView",1416532214068
activated,view,org.eclipse.wst.server.ui,1.1.103.v20090909,"org.eclipse.wst.server.ui.ServersView",1416532214079
started,bundle,org.eclipse.debug.core,3.5.0.v20090526-1600,"org.eclipse.debug.core",1416532214543
activated,view,com.android.ide.eclipse.ddms,12.0.0.v201106281929-138431,"com.android.ide.eclipse.ddms.views.LogCatView",1416532214816
closed,view,org.eclipse.wst.server.ui,1.1.103.v20090909,"org.eclipse.wst.server.ui.ServersView",1416532214817
opened,view,org.eclipse.ui.views,3.4.1.M20090826-0800,"org.eclipse.ui.views.PropertySheet",1416532216008
activated,view,org.eclipse.ui.views,3.4.1.M20090826-0800,"org.eclipse.ui.views.PropertySheet",1416532216026
activated,view,com.android.ide.eclipse.ddms,12.0.0.v201106281929-138431,"com.android.ide.eclipse.ddms.views.LogCatView",1416532216711
closed,view,org.eclipse.ui.views,3.4.1.M20090826-0800,"org.eclipse.ui.views.PropertySheet",1416532216712
activated,view,org.eclipse.ui.ide,3.5.1.M20090826-0800,"org.eclipse.ui.views.AllMarkersView",1416532217785
activated,view,com.android.ide.eclipse.ddms,12.0.0.v201106281929-138431,"com.android.ide.eclipse.ddms.views.LogCatView",1416532218567
