what,kind,bundleId,bundleVersion,description,time
started,bundle,org.eclipse.mylyn.bugzilla.core,3.2.2.v20090912-0400-e3x,"org.eclipse.mylyn.bugzilla.core",1416828653721
started,bundle,org.eclipse.mylyn.bugzilla.ui,3.2.2.v20090912-0400-e3x,"org.eclipse.mylyn.bugzilla.ui",1416828653982
started,bundle,org.eclipse.mylyn.context.core,3.2.2.v20090912-0400-e3x,"org.eclipse.mylyn.context.core",1416828654451
started,bundle,org.eclipse.mylyn.context.ui,3.2.2.v20090912-0400-e3x,"org.eclipse.mylyn.context.ui",1416828654554
started,bundle,org.eclipse.mylyn.tasks.ui,3.2.2.v20090912-0400-e3x,"org.eclipse.mylyn.tasks.ui",1416828655042
started,bundle,org.eclipse.mylyn.team.ui,3.2.2.v20090912-0400-e3x,"org.eclipse.mylyn.team.ui",1416828655063
started,bundle,org.eclipse.update.scheduler,3.2.200.v20081127,"org.eclipse.update.scheduler",1416828655124
started,bundle,org.eclipse.update.core,3.2.300.v20090525,"org.eclipse.update.core",1416828655323
started,bundle,org.eclipse.wst.ws.service.policy.ui,1.0.102.v200903070248,"org.eclipse.wst.ws.service.policy.ui",1416828655370
started,bundle,org.eclipse.mylyn.monitor.ui,3.2.2.v20090912-0400-e3x,"org.eclipse.mylyn.monitor.ui",1416828655537
deactivated,workbench,org.eclipse.ui.workbench,3.5.1.M20090826-0800a,"",1416828657516
activated,workbench,org.eclipse.ui.workbench,3.5.1.M20090826-0800a,"",1416828658141
deactivated,workbench,org.eclipse.ui.workbench,3.5.1.M20090826-0800a,"",1416828661000
activated,workbench,org.eclipse.ui.workbench,3.5.1.M20090826-0800a,"",1416828667289
deactivated,workbench,org.eclipse.ui.workbench,3.5.1.M20090826-0800a,"",1416828668915
activated,workbench,org.eclipse.ui.workbench,3.5.1.M20090826-0800a,"",1416828669899
deactivated,workbench,org.eclipse.ui.workbench,3.5.1.M20090826-0800a,"",1416828675048
activated,workbench,org.eclipse.ui.workbench,3.5.1.M20090826-0800a,"",1416828703074
opened,view,com.android.ide.eclipse.ddms,12.0.0.v201106281929-138431,"com.android.ide.eclipse.ddms.views.LogCatView",1416828703478
activated,view,com.android.ide.eclipse.ddms,12.0.0.v201106281929-138431,"com.android.ide.eclipse.ddms.views.LogCatView",1416828703514
activated,editor,org.eclipse.jdt.ui,3.5.1.r351_v20090821-0800,"org.eclipse.jdt.ui.CompilationUnitEditor",1416828704448
deactivated,workbench,org.eclipse.ui.workbench,3.5.1.M20090826-0800a,"",1416828707262
activated,workbench,org.eclipse.ui.workbench,3.5.1.M20090826-0800a,"",1416828734686
opened,view,com.android.ide.eclipse.ddms,12.0.0.v201106281929-138431,"com.android.ide.eclipse.ddms.views.DeviceView",1416828735936
opened,view,com.android.ide.eclipse.ddms,12.0.0.v201106281929-138431,"com.android.ide.eclipse.ddms.views.EmulatorControlView",1416828736118
