what,kind,bundleId,bundleVersion,description,time
activated,workbench,org.eclipse.ui.workbench,3.5.1.M20090826-0800a,"",1416965553702
activated,view,com.android.ide.eclipse.ddms,12.0.0.v201106281929-138431,"com.android.ide.eclipse.ddms.views.LogCatView",1416965555222
activated,editor,org.eclipse.jdt.ui,3.5.1.r351_v20090821-0800,"org.eclipse.jdt.ui.CompilationUnitEditor",1416965579757
executed,command,org.eclipse.jdt.ui,3.5.1.r351_v20090821-0800,"org.eclipse.jdt.ui.edit.text.java.toggle.comment",1416965603516
executed,command,org.eclipse.ui,3.5.1.M20090902-1000,"org.eclipse.ui.file.save",1416965612062
deactivated,workbench,org.eclipse.ui.workbench,3.5.1.M20090826-0800a,"",1416965613310
activated,workbench,org.eclipse.ui.workbench,3.5.1.M20090826-0800a,"",1416965636725
executed,command,org.eclipse.ui,3.5.1.M20090902-1000,"org.eclipse.ui.file.save",1416965644993
deactivated,workbench,org.eclipse.ui.workbench,3.5.1.M20090826-0800a,"",1416965646590
activated,workbench,org.eclipse.ui.workbench,3.5.1.M20090826-0800a,"",1416965648709
executed,command,org.eclipse.ui,3.5.1.M20090902-1000,"org.eclipse.ui.edit.cut",1416965652888
deactivated,workbench,org.eclipse.ui.workbench,3.5.1.M20090826-0800a,"",1416965660580
activated,workbench,org.eclipse.ui.workbench,3.5.1.M20090826-0800a,"",1416965681572
executed,command,org.eclipse.ui,3.5.1.M20090902-1000,"org.eclipse.ui.edit.paste",1416965686871
executed,command,org.eclipse.ui,3.5.1.M20090902-1000,"org.eclipse.ui.file.save",1416965688032
executed,command,org.eclipse.ui,3.5.1.M20090902-1000,"org.eclipse.ui.file.save",1416965696852
activated,view,org.eclipse.jdt.ui,3.5.1.r351_v20090821-0800,"org.eclipse.jdt.ui.PackageExplorer",1416965700990
executed,command,,,"com.android.ide.eclipse.adt.debug.launching.LaunchShortcut.run",1416965702466
activated,view,com.android.ide.eclipse.ddms,12.0.0.v201106281929-138431,"com.android.ide.eclipse.ddms.views.LogCatView",1416965704524
deactivated,workbench,org.eclipse.ui.workbench,3.5.1.M20090826-0800a,"",1416965707826
activated,workbench,org.eclipse.ui.workbench,3.5.1.M20090826-0800a,"",1416965713693
deactivated,workbench,org.eclipse.ui.workbench,3.5.1.M20090826-0800a,"",1416965727850
deactivated,workbench,org.eclipse.ui.workbench,3.5.1.M20090826-0800a,"",1416965729235
activated,workbench,org.eclipse.ui.workbench,3.5.1.M20090826-0800a,"",1416965729429
deactivated,workbench,org.eclipse.ui.workbench,3.5.1.M20090826-0800a,"",1416965730289
