what,kind,bundleId,bundleVersion,description,time
executed,command,org.eclipse.ui,3.5.1.M20090902-1000,"org.eclipse.ui.edit.text.contentAssist.proposals",1418374733970
executed,command,org.eclipse.ui,3.5.1.M20090902-1000,"org.eclipse.ui.file.save",1418374743149
started,bundle,org.eclipse.jdt.debug.ui,3.4.1.v20090811_r351,"org.eclipse.jdt.debug.ui",1418374756173
activated,editor,org.eclipse.jdt.ui,3.5.1.r351_v20090821-0800,"org.eclipse.jdt.ui.CompilationUnitEditor",1418374756252
started,bundle,org.eclipse.jdt.junit,3.5.1.r351_v20090708-0800,"org.eclipse.jdt.junit",1418374801006
started,bundle,org.eclipse.mylyn.java.ui,3.2.2.v20090912-0400-e3x,"org.eclipse.mylyn.java.ui",1418374813710
started,bundle,org.eclipse.pde.api.tools,1.0.101.v20090714,"org.eclipse.pde.api.tools",1418374813887
started,bundle,org.eclipse.pde.api.tools.ui,1.0.101.v20090820,"org.eclipse.pde.api.tools.ui",1418374813889
executed,command,org.eclipse.ui,3.5.1.M20090902-1000,"org.eclipse.ui.edit.text.contentAssist.proposals",1418374814434
activated,editor,com.android.ide.eclipse.adt,12.0.0.v201106281929-138431,"com.android.ide.eclipse.editors.layout.LayoutEditor",1418374819678
activated,editor,org.eclipse.jdt.ui,3.5.1.r351_v20090821-0800,"org.eclipse.jdt.ui.CompilationUnitEditor",1418374828293
executed,command,org.eclipse.ui,3.5.1.M20090902-1000,"org.eclipse.ui.edit.text.contentAssist.proposals",1418374843436
executed,command,org.eclipse.ui,3.5.1.M20090902-1000,"org.eclipse.ui.edit.text.contentAssist.proposals",1418374856191
deactivated,workbench,org.eclipse.ui.workbench,3.5.1.M20090826-0800a,"",1418374864229
activated,workbench,org.eclipse.ui.workbench,3.5.1.M20090826-0800a,"",1418374864386
executed,command,org.eclipse.ui,3.5.1.M20090902-1000,"org.eclipse.ui.file.save",1418374865698
deactivated,workbench,org.eclipse.ui.workbench,3.5.1.M20090826-0800a,"",1418374869517
activated,workbench,org.eclipse.ui.workbench,3.5.1.M20090826-0800a,"",1418374878371
deactivated,workbench,org.eclipse.ui.workbench,3.5.1.M20090826-0800a,"",1418374934463
activated,workbench,org.eclipse.ui.workbench,3.5.1.M20090826-0800a,"",1418374936602
deactivated,workbench,org.eclipse.ui.workbench,3.5.1.M20090826-0800a,"",1418374953185
activated,workbench,org.eclipse.ui.workbench,3.5.1.M20090826-0800a,"",1418374966077
deactivated,workbench,org.eclipse.ui.workbench,3.5.1.M20090826-0800a,"",1418374979770
activated,workbench,org.eclipse.ui.workbench,3.5.1.M20090826-0800a,"",1418374979798
executed,command,org.eclipse.ui,3.5.1.M20090902-1000,"org.eclipse.ui.file.save",1418374982220
