what,kind,bundleId,bundleVersion,description,time
deactivated,workbench,org.eclipse.ui.workbench,3.5.1.M20090826-0800a,"",1416536849233
activated,workbench,org.eclipse.ui.workbench,3.5.1.M20090826-0800a,"",1416536854335
activated,editor,com.android.ide.eclipse.adt,12.0.0.v201106281929-138431,"com.android.ide.eclipse.editors.layout.LayoutEditor",1416536855105
deactivated,workbench,org.eclipse.ui.workbench,3.5.1.M20090826-0800a,"",1416537643378
activated,workbench,org.eclipse.ui.workbench,3.5.1.M20090826-0800a,"",1416537664115
deactivated,workbench,org.eclipse.ui.workbench,3.5.1.M20090826-0800a,"",1416537664747
activated,workbench,org.eclipse.ui.workbench,3.5.1.M20090826-0800a,"",1416537666860
executed,command,org.eclipse.ui,3.5.1.M20090902-1000,"org.eclipse.ui.edit.text.contentAssist.proposals",1416537679973
deactivated,workbench,org.eclipse.ui.workbench,3.5.1.M20090826-0800a,"",1416537682121
activated,workbench,org.eclipse.ui.workbench,3.5.1.M20090826-0800a,"",1416537682341
deactivated,workbench,org.eclipse.ui.workbench,3.5.1.M20090826-0800a,"",1416537726527
activated,workbench,org.eclipse.ui.workbench,3.5.1.M20090826-0800a,"",1416537741179
deactivated,workbench,org.eclipse.ui.workbench,3.5.1.M20090826-0800a,"",1416537764085
activated,workbench,org.eclipse.ui.workbench,3.5.1.M20090826-0800a,"",1416537781527
executed,command,org.eclipse.ui,3.5.1.M20090902-1000,"org.eclipse.ui.edit.text.contentAssist.proposals",1416537786050
executed,command,org.eclipse.ui,3.5.1.M20090902-1000,"org.eclipse.ui.edit.delete",1416537790148
executed,command,org.eclipse.ui,3.5.1.M20090902-1000,"org.eclipse.ui.file.save",1416537823353
deactivated,workbench,org.eclipse.ui.workbench,3.5.1.M20090826-0800a,"",1416537828729
activated,workbench,org.eclipse.ui.workbench,3.5.1.M20090826-0800a,"",1416537830444
executed,command,org.eclipse.ui,3.5.1.M20090902-1000,"org.eclipse.ui.file.save",1416537836479
executed,command,org.eclipse.ui,3.5.1.M20090902-1000,"org.eclipse.ui.file.save",1416537848333
executed,command,org.eclipse.ui,3.5.1.M20090902-1000,"org.eclipse.ui.edit.text.contentAssist.proposals",1416537867020
executed,command,org.eclipse.ui,3.5.1.M20090902-1000,"org.eclipse.ui.file.save",1416537874893
executed,command,org.eclipse.ui,3.5.1.M20090902-1000,"org.eclipse.ui.file.save",1416537906616
activated,view,org.eclipse.ui.console,3.4.0.v20090513,"org.eclipse.ui.console.ConsoleView",1416537906922
