what,kind,bundleId,bundleVersion,description,time
executed,command,org.eclipse.ui,3.5.1.M20090902-1000,"org.eclipse.ui.file.save",1416664351642
executed,command,org.eclipse.ui,3.5.1.M20090902-1000,"org.eclipse.ui.edit.copy",1416664353535
opened,view,org.eclipse.ui.ide,3.5.1.M20090826-0800,"org.eclipse.ui.views.ProblemView",1416664354455
deactivated,workbench,org.eclipse.ui.workbench,3.5.1.M20090826-0800a,"",1416664363744
activated,workbench,org.eclipse.ui.workbench,3.5.1.M20090826-0800a,"",1416664374880
deactivated,workbench,org.eclipse.ui.workbench,3.5.1.M20090826-0800a,"",1416664391517
activated,workbench,org.eclipse.ui.workbench,3.5.1.M20090826-0800a,"",1416664393594
deactivated,workbench,org.eclipse.ui.workbench,3.5.1.M20090826-0800a,"",1416664394134
activated,workbench,org.eclipse.ui.workbench,3.5.1.M20090826-0800a,"",1416664395321
executed,command,org.eclipse.ui,3.5.1.M20090902-1000,"org.eclipse.ui.edit.copy",1416664400933
executed,command,org.eclipse.ui.workbench.texteditor,3.5.0.v20090603,"org.eclipse.ui.edit.text.upperCase",1416664404854
executed,command,org.eclipse.ui,3.5.1.M20090902-1000,"org.eclipse.ui.edit.copy",1416664412589
executed,command,org.eclipse.ui,3.5.1.M20090902-1000,"org.eclipse.ui.edit.copy",1416664416111
executed,command,org.eclipse.ui.workbench.texteditor,3.5.0.v20090603,"org.eclipse.ui.edit.text.upperCase",1416664417247
executed,command,org.eclipse.ui,3.5.1.M20090902-1000,"org.eclipse.ui.file.save",1416664420223
deactivated,workbench,org.eclipse.ui.workbench,3.5.1.M20090826-0800a,"",1416664423120
activated,workbench,org.eclipse.ui.workbench,3.5.1.M20090826-0800a,"",1416664437159
deactivated,workbench,org.eclipse.ui.workbench,3.5.1.M20090826-0800a,"",1416664441135
activated,workbench,org.eclipse.ui.workbench,3.5.1.M20090826-0800a,"",1416664444102
executed,command,org.eclipse.ui,3.5.1.M20090902-1000,"org.eclipse.ui.edit.copy",1416664459685
deactivated,workbench,org.eclipse.ui.workbench,3.5.1.M20090826-0800a,"",1416664479746
activated,workbench,org.eclipse.ui.workbench,3.5.1.M20090826-0800a,"",1416664488850
deactivated,workbench,org.eclipse.ui.workbench,3.5.1.M20090826-0800a,"",1416664490327
activated,workbench,org.eclipse.ui.workbench,3.5.1.M20090826-0800a,"",1416664505671
executed,command,org.eclipse.ui,3.5.1.M20090902-1000,"org.eclipse.ui.edit.copy",1416664509328
