what,kind,bundleId,bundleVersion,description,time
deactivated,workbench,org.eclipse.ui.workbench,3.5.1.M20090826-0800a,"",1417443821498
activated,workbench,org.eclipse.ui.workbench,3.5.1.M20090826-0800a,"",1417443824051
executed,command,org.eclipse.ui,3.5.1.M20090902-1000,"org.eclipse.ui.edit.text.contentAssist.proposals",1417443826716
executed,command,org.eclipse.ui,3.5.1.M20090902-1000,"org.eclipse.ui.edit.text.contentAssist.proposals",1417443837933
deactivated,workbench,org.eclipse.ui.workbench,3.5.1.M20090826-0800a,"",1417443853137
activated,workbench,org.eclipse.ui.workbench,3.5.1.M20090826-0800a,"",1417443854521
executed,command,org.eclipse.ui,3.5.1.M20090902-1000,"org.eclipse.ui.file.save",1417443858185
executed,command,org.eclipse.ui,3.5.1.M20090902-1000,"org.eclipse.ui.file.save",1417443865202
deactivated,workbench,org.eclipse.ui.workbench,3.5.1.M20090826-0800a,"",1417443866763
activated,workbench,org.eclipse.ui.workbench,3.5.1.M20090826-0800a,"",1417443885427
deactivated,workbench,org.eclipse.ui.workbench,3.5.1.M20090826-0800a,"",1417443886092
activated,workbench,org.eclipse.ui.workbench,3.5.1.M20090826-0800a,"",1417443963478
deactivated,workbench,org.eclipse.ui.workbench,3.5.1.M20090826-0800a,"",1417443975971
activated,workbench,org.eclipse.ui.workbench,3.5.1.M20090826-0800a,"",1417443980744
deactivated,workbench,org.eclipse.ui.workbench,3.5.1.M20090826-0800a,"",1417443982861
activated,workbench,org.eclipse.ui.workbench,3.5.1.M20090826-0800a,"",1417443990680
executed,command,org.eclipse.ui,3.5.1.M20090902-1000,"org.eclipse.ui.file.save",1417444006156
deactivated,workbench,org.eclipse.ui.workbench,3.5.1.M20090826-0800a,"",1417444010189
deactivated,workbench,org.eclipse.ui.workbench,3.5.1.M20090826-0800a,"",1417444016995
activated,workbench,org.eclipse.ui.workbench,3.5.1.M20090826-0800a,"",1417444017247
executed,command,org.eclipse.ui,3.5.1.M20090902-1000,"org.eclipse.ui.edit.paste",1417444027620
executed,command,org.eclipse.ui,3.5.1.M20090902-1000,"org.eclipse.ui.edit.paste",1417444029702
executed,command,org.eclipse.ui,3.5.1.M20090902-1000,"org.eclipse.ui.edit.copy",1417444036490
executed,command,org.eclipse.ui,3.5.1.M20090902-1000,"org.eclipse.ui.edit.paste",1417444039943
deactivated,workbench,org.eclipse.ui.workbench,3.5.1.M20090826-0800a,"",1417444042391
