what,kind,bundleId,bundleVersion,description,time
activated,editor,org.eclipse.jdt.ui,3.5.1.r351_v20090821-0800,"org.eclipse.jdt.ui.CompilationUnitEditor",1416963189473
executed,command,org.eclipse.ui,3.5.1.M20090902-1000,"org.eclipse.ui.file.save",1416963190422
executed,command,org.eclipse.ui,3.5.1.M20090902-1000,"org.eclipse.ui.file.save",1416963201922
executed,command,org.eclipse.ui,3.5.1.M20090902-1000,"org.eclipse.ui.edit.cut",1416963210998
executed,command,org.eclipse.ui,3.5.1.M20090902-1000,"org.eclipse.ui.file.save",1416963213931
activated,editor,org.eclipse.jdt.ui,3.5.1.r351_v20090821-0800,"org.eclipse.jdt.ui.CompilationUnitEditor",1416963217923
executed,command,org.eclipse.ui,3.5.1.M20090902-1000,"org.eclipse.ui.edit.paste",1416963221703
executed,command,org.eclipse.ui,3.5.1.M20090902-1000,"org.eclipse.ui.file.save",1416963228042
executed,command,org.eclipse.ui,3.5.1.M20090902-1000,"org.eclipse.ui.edit.copy",1416963233091
deactivated,workbench,org.eclipse.ui.workbench,3.5.1.M20090826-0800a,"",1416963235454
activated,workbench,org.eclipse.ui.workbench,3.5.1.M20090826-0800a,"",1416963236442
executed,command,org.eclipse.ui,3.5.1.M20090902-1000,"org.eclipse.ui.edit.paste",1416963240213
executed,command,org.eclipse.ui,3.5.1.M20090902-1000,"org.eclipse.ui.file.save",1416963243977
executed,command,org.eclipse.ui,3.5.1.M20090902-1000,"org.eclipse.ui.file.save",1416963251462
executed,command,org.eclipse.ui,3.5.1.M20090902-1000,"org.eclipse.ui.file.save",1416963273444
deactivated,workbench,org.eclipse.ui.workbench,3.5.1.M20090826-0800a,"",1416963275061
activated,workbench,org.eclipse.ui.workbench,3.5.1.M20090826-0800a,"",1416963450358
deactivated,workbench,org.eclipse.ui.workbench,3.5.1.M20090826-0800a,"",1416963450898
activated,workbench,org.eclipse.ui.workbench,3.5.1.M20090826-0800a,"",1416963457209
deactivated,workbench,org.eclipse.ui.workbench,3.5.1.M20090826-0800a,"",1416963459294
activated,workbench,org.eclipse.ui.workbench,3.5.1.M20090826-0800a,"",1416963500146
deactivated,workbench,org.eclipse.ui.workbench,3.5.1.M20090826-0800a,"",1416963558721
activated,workbench,org.eclipse.ui.workbench,3.5.1.M20090826-0800a,"",1416963590180
executed,command,org.eclipse.ui,3.5.1.M20090902-1000,"org.eclipse.ui.file.save",1416963597704
executed,command,org.eclipse.ui,3.5.1.M20090902-1000,"org.eclipse.ui.edit.copy",1416963644824
