what,kind,bundleId,bundleVersion,description,time
executed,command,,,"com.android.ide.eclipse.adt.junit.launchShortcut.run",1416533778637
deactivated,workbench,org.eclipse.ui.workbench,3.5.1.M20090826-0800a,"",1416533780366
activated,workbench,org.eclipse.ui.workbench,3.5.1.M20090826-0800a,"",1416533785289
activated,view,org.eclipse.jdt.junit,3.5.1.r351_v20090708-0800,"org.eclipse.jdt.junit.ResultView",1416533787362
activated,editor,org.eclipse.jdt.ui,3.5.1.r351_v20090821-0800,"org.eclipse.jdt.ui.CompilationUnitEditor",1416533795125
deactivated,workbench,org.eclipse.ui.workbench,3.5.1.M20090826-0800a,"",1416533802321
activated,workbench,org.eclipse.ui.workbench,3.5.1.M20090826-0800a,"",1416533805435
deactivated,workbench,org.eclipse.ui.workbench,3.5.1.M20090826-0800a,"",1416533807612
activated,workbench,org.eclipse.ui.workbench,3.5.1.M20090826-0800a,"",1416533809271
deactivated,workbench,org.eclipse.ui.workbench,3.5.1.M20090826-0800a,"",1416533810116
activated,workbench,org.eclipse.ui.workbench,3.5.1.M20090826-0800a,"",1416533811812
executed,command,org.eclipse.ui,3.5.1.M20090902-1000,"org.eclipse.ui.file.save",1416533821368
deactivated,workbench,org.eclipse.ui.workbench,3.5.1.M20090826-0800a,"",1416533824568
deactivated,workbench,org.eclipse.ui.workbench,3.5.1.M20090826-0800a,"",1416533830240
activated,workbench,org.eclipse.ui.workbench,3.5.1.M20090826-0800a,"",1416533830515
activated,editor,org.eclipse.jdt.ui,3.5.1.r351_v20090821-0800,"org.eclipse.jdt.ui.CompilationUnitEditor",1416533834079
activated,view,org.eclipse.ui.views,3.4.1.M20090826-0800,"org.eclipse.ui.views.ContentOutline",1416533834912
executed,command,,,"com.android.ide.eclipse.adt.junit.launchShortcut.run",1416533837090
deactivated,workbench,org.eclipse.ui.workbench,3.5.1.M20090826-0800a,"",1416533844121
activated,workbench,org.eclipse.ui.workbench,3.5.1.M20090826-0800a,"",1416533889283
deactivated,workbench,org.eclipse.ui.workbench,3.5.1.M20090826-0800a,"",1416533892570
activated,workbench,org.eclipse.ui.workbench,3.5.1.M20090826-0800a,"",1416533893447
activated,editor,org.eclipse.jdt.ui,3.5.1.r351_v20090821-0800,"org.eclipse.jdt.ui.CompilationUnitEditor",1416533895637
deactivated,workbench,org.eclipse.ui.workbench,3.5.1.M20090826-0800a,"",1416533905182
activated,workbench,org.eclipse.ui.workbench,3.5.1.M20090826-0800a,"",1416533907989
