what,kind,bundleId,bundleVersion,description,time
activated,workbench,org.eclipse.ui.workbench,3.5.1.M20090826-0800a,"",1416924030551
deactivated,workbench,org.eclipse.ui.workbench,3.5.1.M20090826-0800a,"",1416924030670
activated,workbench,org.eclipse.ui.workbench,3.5.1.M20090826-0800a,"",1416924031290
deactivated,workbench,org.eclipse.ui.workbench,3.5.1.M20090826-0800a,"",1416924032403
activated,workbench,org.eclipse.ui.workbench,3.5.1.M20090826-0800a,"",1416924056749
deactivated,workbench,org.eclipse.ui.workbench,3.5.1.M20090826-0800a,"",1416924061461
activated,workbench,org.eclipse.ui.workbench,3.5.1.M20090826-0800a,"",1416924078580
executed,command,org.eclipse.ui,3.5.1.M20090902-1000,"org.eclipse.ui.edit.copy",1416924088977
executed,command,org.eclipse.ui,3.5.1.M20090902-1000,"org.eclipse.ui.edit.paste",1416924090140
executed,command,org.eclipse.ui,3.5.1.M20090902-1000,"org.eclipse.ui.edit.paste",1416924091348
deactivated,workbench,org.eclipse.ui.workbench,3.5.1.M20090826-0800a,"",1416924121158
activated,workbench,org.eclipse.ui.workbench,3.5.1.M20090826-0800a,"",1416924121305
executed,command,org.eclipse.ui,3.5.1.M20090902-1000,"org.eclipse.ui.file.save",1416924132561
executed,command,org.eclipse.ui,3.5.1.M20090902-1000,"org.eclipse.ui.edit.copy",1416924136713
executed,command,org.eclipse.ui,3.5.1.M20090902-1000,"org.eclipse.ui.edit.paste",1416924138450
executed,command,org.eclipse.ui,3.5.1.M20090902-1000,"org.eclipse.ui.file.save",1416924144851
opened,view,org.eclipse.ui.ide,3.5.1.M20090826-0800,"org.eclipse.ui.views.ProblemView",1416924147666
executed,command,org.eclipse.ui,3.5.1.M20090902-1000,"org.eclipse.ui.file.save",1416924151562
closed,editor,org.eclipse.jdt.ui,3.5.1.r351_v20090821-0800,"org.eclipse.jdt.ui.CompilationUnitEditor",1416924155176
activated,view,org.eclipse.jdt.ui,3.5.1.r351_v20090821-0800,"org.eclipse.jdt.ui.PackageExplorer",1416924158237
opened,editor,org.eclipse.jdt.ui,3.5.1.r351_v20090821-0800,"org.eclipse.jdt.ui.CompilationUnitEditor",1416924160845
activated,editor,org.eclipse.jdt.ui,3.5.1.r351_v20090821-0800,"org.eclipse.jdt.ui.CompilationUnitEditor",1416924160876
activated,editor,org.eclipse.jdt.ui,3.5.1.r351_v20090821-0800,"org.eclipse.jdt.ui.CompilationUnitEditor",1416924171249
executed,command,org.eclipse.ui,3.5.1.M20090902-1000,"org.eclipse.ui.file.save",1416924176902
activated,editor,org.eclipse.jdt.ui,3.5.1.r351_v20090821-0800,"org.eclipse.jdt.ui.CompilationUnitEditor",1416924177894
