what,kind,bundleId,bundleVersion,description,time
os,sysinfo,,,"win32",1417519931410
arch,sysinfo,,,"x86",1417519931410
ws,sysinfo,,,"win32",1417519931410
locale,sysinfo,,,"zh_CN",1417519931410
processors,sysinfo,,,"4",1417519931411
java.runtime.name,sysinfo,,,"Java(TM) SE Runtime Environment",1417519931411
java.runtime.version,sysinfo,,,"1.6.0_03-b05",1417519931411
java.specification.name,sysinfo,,,"Java Platform API Specification",1417519931411
java.specification.vendor,sysinfo,,,"Sun Microsystems Inc.",1417519931411
java.specification.version,sysinfo,,,"1.6",1417519931411
java.vendor,sysinfo,,,"Sun Microsystems Inc.",1417519931411
java.version,sysinfo,,,"1.6.0_03",1417519931411
java.vm.info,sysinfo,,,"mixed mode",1417519931411
java.vm.name,sysinfo,,,"Java HotSpot(TM) Client VM",1417519931411
java.vm.specification.name,sysinfo,,,"Java Virtual Machine Specification",1417519931411
java.vm.specification.vendor,sysinfo,,,"Sun Microsystems Inc.",1417519931411
java.vm.specification.version,sysinfo,,,"1.0",1417519931411
java.vm.vendor,sysinfo,,,"Sun Microsystems Inc.",1417519931411
java.vm.version,sysinfo,,,"1.6.0_03-b05",1417519931411
started,bundle,org.eclipse.mylyn.commons.net,3.2.0.v20090617-0100-e3x,"org.eclipse.mylyn.commons.net",1417519931583
started,bundle,org.eclipse.jst.common.project.facet.core,1.4.1.v200908111817,"org.eclipse.jst.common.project.facet.core",1417519933070
started,bundle,org.eclipse.mylyn.commons.ui,3.2.2.v20090912-0400-e3x,"org.eclipse.mylyn.commons.ui",1417519933233
started,bundle,org.eclipse.mylyn.bugzilla.core,3.2.2.v20090912-0400-e3x,"org.eclipse.mylyn.bugzilla.core",1417519934701
started,bundle,org.eclipse.mylyn.bugzilla.ui,3.2.2.v20090912-0400-e3x,"org.eclipse.mylyn.bugzilla.ui",1417519934946
started,bundle,org.eclipse.ui.forms,3.4.1.v20090714_35x,"org.eclipse.ui.forms",1417519935596
