<?xml version="1.0" encoding="UTF-8"?>
<session version="1.0">
<refactoring comment="将 1 个元素复制到 “drawable-mdpi”&#x0D;&#x0A;－ 原始项目：“UI Application”&#x0D;&#x0A;－ 目标元素：“drawable-mdpi”&#x0D;&#x0A;－ 原始元素：“sakura01.jpg”" description="复制文件" element1="res/drawable-mdpi/sakura01.jpg" files="1" flags="589830" folders="0" id="org.eclipse.jdt.ui.copy" policy="org.eclipse.jdt.ui.copyResources" stamp="1400157770199" target="/13.MyUI/res/drawable-mdpi" units="0" version="1.0"/>
</session>