<?xml version="1.0" encoding="UTF-8"?>
<session version="1.0">
<refactoring accessors="true" comment="Delete 2 elements from project &apos;NumberJump&apos;&#x0D;&#x0A;- Original project: &apos;NumberJump&apos;&#x0D;&#x0A;- Original elements:&#x0D;&#x0A;     NumberJump/src/com.github.premnirmal.textcounter.textcounter&#x0D;&#x0A;     NumberJump/src/com.github.premnirmal.textcounter.textcounter.formatters" description="Delete elements" element1="/src&lt;com.github.premnirmal.textcounter.textcounter.formatters" element2="/src&lt;com.github.premnirmal.textcounter.textcounter" element3="/src&lt;com.github.premnirmal.textcounter" element4="/src&lt;com.github.premnirmal" element5="/src&lt;com.github" element6="/src&lt;com" elements="6" flags="589830" id="org.eclipse.jdt.ui.delete" resources="0" stamp="1418646430814" subPackages="false" version="1.0"/>
</session>