what,kind,bundleId,bundleVersion,description,time
executed,command,org.eclipse.ui,3.5.1.M20090902-1000,"org.eclipse.ui.file.save",1417591149285
executed,command,org.eclipse.jdt.debug.ui,3.4.1.v20090811_r351,"org.eclipse.jdt.debug.ui.localJavaShortcut.run",1417591152958
opened,view,org.eclipse.ui.console,3.4.0.v20090513,"org.eclipse.ui.console.ConsoleView",1417591153699
started,bundle,org.eclipse.cdt.debug.mi.ui,6.0.0.201002161416,"org.eclipse.cdt.debug.mi.ui",1417591153881
started,bundle,org.eclipse.cdt.debug.mi.core,6.0.0.201002161416,"org.eclipse.cdt.debug.mi.core",1417591153933
activated,editor,org.eclipse.jdt.ui,3.5.1.r351_v20090821-0800,"org.eclipse.jdt.ui.CompilationUnitEditor",1417591174822
activated,editor,org.eclipse.jdt.ui,3.5.1.r351_v20090821-0800,"org.eclipse.jdt.ui.CompilationUnitEditor",1417591211246
activated,editor,org.eclipse.jdt.ui,3.5.1.r351_v20090821-0800,"org.eclipse.jdt.ui.CompilationUnitEditor",1417591225380
activated,editor,org.eclipse.jdt.ui,3.5.1.r351_v20090821-0800,"org.eclipse.jdt.ui.CompilationUnitEditor",1417591228677
executed,command,org.eclipse.ui,3.5.1.M20090902-1000,"org.eclipse.ui.file.save",1417591239821
executed,command,org.eclipse.ui,3.5.1.M20090902-1000,"org.eclipse.ui.file.save",1417591266366
executed,command,org.eclipse.jdt.debug.ui,3.4.1.v20090811_r351,"org.eclipse.jdt.debug.ui.localJavaShortcut.run",1417591272390
deactivated,workbench,org.eclipse.ui.workbench,3.5.1.M20090826-0800a,"",1417591324510
activated,workbench,org.eclipse.ui.workbench,3.5.1.M20090826-0800a,"",1417591325175
deactivated,workbench,org.eclipse.ui.workbench,3.5.1.M20090826-0800a,"",1417591355362
activated,workbench,org.eclipse.ui.workbench,3.5.1.M20090826-0800a,"",1417591372963
activated,view,org.eclipse.ui.console,3.4.0.v20090513,"org.eclipse.ui.console.ConsoleView",1417591375575
activated,editor,org.eclipse.jdt.ui,3.5.1.r351_v20090821-0800,"org.eclipse.jdt.ui.CompilationUnitEditor",1417591378342
deactivated,workbench,org.eclipse.ui.workbench,3.5.1.M20090826-0800a,"",1417591409181
deactivated,workbench,org.eclipse.ui.workbench,3.5.1.M20090826-0800a,"",1417591410092
activated,workbench,org.eclipse.ui.workbench,3.5.1.M20090826-0800a,"",1417591741416
activated,editor,org.eclipse.jdt.ui,3.5.1.r351_v20090821-0800,"org.eclipse.jdt.ui.CompilationUnitEditor",1417591744647
deactivated,workbench,org.eclipse.ui.workbench,3.5.1.M20090826-0800a,"",1417591762908
activated,workbench,org.eclipse.ui.workbench,3.5.1.M20090826-0800a,"",1417591768384
executed,command,org.eclipse.jdt.ui,3.5.1.r351_v20090821-0800,"org.eclipse.jdt.ui.edit.text.java.extract.method",1417591768397
