what,kind,bundleId,bundleVersion,description,time
java.vm.vendor,sysinfo,,,"Sun Microsystems Inc.",1417588775324
java.vm.version,sysinfo,,,"1.6.0_03-b05",1417588775324
deactivated,workbench,org.eclipse.ui.workbench,3.5.1.M20090826-0800a,"",1417588775349
started,bundle,org.eclipse.update.core,3.2.300.v20090525,"org.eclipse.update.core",1417588775462
started,bundle,org.eclipse.wst.ws.service.policy.ui,1.0.102.v200903070248,"org.eclipse.wst.ws.service.policy.ui",1417588775473
started,bundle,org.eclipse.mylyn.monitor.ui,3.2.2.v20090912-0400-e3x,"org.eclipse.mylyn.monitor.ui",1417588775691
started,bundle,org.eclipse.jsch.core,1.1.100.I20090430-0408,"org.eclipse.jsch.core",1417588776033
started,bundle,org.eclipse.team.cvs.core,3.3.200.I20090430-0408,"org.eclipse.team.cvs.core",1417588776060
started,bundle,org.eclipse.team.ui,3.5.0.I20090430-0408,"org.eclipse.team.ui",1417588776133
started,bundle,org.eclipse.team.cvs.ui,3.3.201.R35x_v20090826-0905,"org.eclipse.team.cvs.ui",1417588776345
activated,workbench,org.eclipse.ui.workbench,3.5.1.M20090826-0800a,"",1417588777409
activated,view,org.eclipse.ui.navigator.resources,3.4.1.M20090826-0800,"org.eclipse.ui.navigator.ProjectExplorer",1417588780717
activated,view,org.eclipse.ui.navigator.resources,3.4.1.M20090826-0800,"org.eclipse.ui.navigator.ProjectExplorer",1417588780756
closed,view,org.eclipse.ui,3.5.1.M20090902-1000,"org.eclipse.ui.internal.introview",1417588780799
deactivated,workbench,org.eclipse.ui.workbench,3.5.1.M20090826-0800a,"",1417588798710
started,bundle,org.eclipse.debug.core,3.5.0.v20090526-1600,"org.eclipse.debug.core",1417588801430
started,bundle,org.eclipse.jdt.launching,3.5.0.v20090527,"org.eclipse.jdt.launching",1417588801465
started,bundle,org.eclipse.jst.jee.ui,1.0.201.v200908270924,"org.eclipse.jst.jee.ui",1417588846545
started,bundle,org.eclipse.jst.servlet.ui,1.1.301.v200908101600,"org.eclipse.jst.servlet.ui",1417588846824
started,bundle,org.eclipse.jst.j2ee.navigator.ui,1.1.300.v200903120000,"org.eclipse.jst.j2ee.navigator.ui",1417588847269
started,bundle,org.eclipse.jdt.apt.core,3.3.201.R35x_v20090818-0235,"org.eclipse.jdt.apt.core",1417588848081
started,bundle,org.eclipse.jdt.apt.pluggable.core,1.0.201.R35x_v20090818-0225,"org.eclipse.jdt.apt.pluggable.core",1417588848140
activated,workbench,org.eclipse.ui.workbench,3.5.1.M20090826-0800a,"",1417588851896
started,bundle,org.eclipse.ui.views.log,1.0.100.v20090731,"org.eclipse.ui.views.log",1417588852365
started,bundle,org.eclipse.pde.ui,3.5.0.v20090821,"org.eclipse.pde.ui",1417588852461
