what,kind,bundleId,bundleVersion,description,time
activated,workbench,org.eclipse.ui.workbench,3.5.1.M20090826-0800a,"",1417589971171
activated,editor,org.eclipse.jdt.ui,3.5.1.r351_v20090821-0800,"org.eclipse.jdt.ui.CompilationUnitEditor",1417589973315
activated,editor,org.eclipse.jdt.ui,3.5.1.r351_v20090821-0800,"org.eclipse.jdt.ui.CompilationUnitEditor",1417589989644
deactivated,workbench,org.eclipse.ui.workbench,3.5.1.M20090826-0800a,"",1417589993489
activated,workbench,org.eclipse.ui.workbench,3.5.1.M20090826-0800a,"",1417589993644
deactivated,workbench,org.eclipse.ui.workbench,3.5.1.M20090826-0800a,"",1417590009771
activated,workbench,org.eclipse.ui.workbench,3.5.1.M20090826-0800a,"",1417590011371
deactivated,workbench,org.eclipse.ui.workbench,3.5.1.M20090826-0800a,"",1417590018122
activated,workbench,org.eclipse.ui.workbench,3.5.1.M20090826-0800a,"",1417590020265
activated,editor,org.eclipse.jdt.ui,3.5.1.r351_v20090821-0800,"org.eclipse.jdt.ui.CompilationUnitEditor",1417590025235
activated,editor,org.eclipse.jdt.ui,3.5.1.r351_v20090821-0800,"org.eclipse.jdt.ui.CompilationUnitEditor",1417590030573
activated,editor,org.eclipse.jdt.ui,3.5.1.r351_v20090821-0800,"org.eclipse.jdt.ui.CompilationUnitEditor",1417590032134
executed,command,org.eclipse.ui,3.5.1.M20090902-1000,"org.eclipse.ui.edit.copy",1417590034212
activated,editor,org.eclipse.jdt.ui,3.5.1.r351_v20090821-0800,"org.eclipse.jdt.ui.CompilationUnitEditor",1417590035137
executed,command,org.eclipse.ui,3.5.1.M20090902-1000,"org.eclipse.ui.edit.paste",1417590035969
deactivated,workbench,org.eclipse.ui.workbench,3.5.1.M20090826-0800a,"",1417590041452
activated,workbench,org.eclipse.ui.workbench,3.5.1.M20090826-0800a,"",1417590048452
activated,view,org.eclipse.ui.ide,3.5.1.M20090826-0800,"org.eclipse.ui.views.ProblemView",1417590058971
activated,editor,org.eclipse.jdt.ui,3.5.1.r351_v20090821-0800,"org.eclipse.jdt.ui.CompilationUnitEditor",1417590063932
executed,command,org.eclipse.ui,3.5.1.M20090902-1000,"org.eclipse.ui.edit.text.contentAssist.proposals",1417590077159
deactivated,workbench,org.eclipse.ui.workbench,3.5.1.M20090826-0800a,"",1417590080088
activated,workbench,org.eclipse.ui.workbench,3.5.1.M20090826-0800a,"",1417590081693
executed,command,org.eclipse.ui,3.5.1.M20090902-1000,"org.eclipse.ui.edit.text.contentAssist.proposals",1417590139969
executed,command,org.eclipse.ui,3.5.1.M20090902-1000,"org.eclipse.ui.edit.text.contentAssist.proposals",1417590140889
deactivated,workbench,org.eclipse.ui.workbench,3.5.1.M20090826-0800a,"",1417590146778
