what,kind,bundleId,bundleVersion,description,time
deactivated,workbench,org.eclipse.ui.workbench,3.5.1.M20090826-0800a,"",1417590451380
activated,workbench,org.eclipse.ui.workbench,3.5.1.M20090826-0800a,"",1417590452463
executed,command,org.eclipse.ui,3.5.1.M20090902-1000,"org.eclipse.ui.edit.copy",1417590455662
executed,command,org.eclipse.ui,3.5.1.M20090902-1000,"org.eclipse.ui.edit.paste",1417590458339
deactivated,workbench,org.eclipse.ui.workbench,3.5.1.M20090826-0800a,"",1417590461595
activated,workbench,org.eclipse.ui.workbench,3.5.1.M20090826-0800a,"",1417590465674
executed,command,org.eclipse.ui,3.5.1.M20090902-1000,"org.eclipse.ui.file.save",1417590469411
executed,command,org.eclipse.ui,3.5.1.M20090902-1000,"org.eclipse.ui.edit.copy",1417590475522
executed,command,org.eclipse.ui,3.5.1.M20090902-1000,"org.eclipse.ui.edit.paste",1417590476930
deactivated,workbench,org.eclipse.ui.workbench,3.5.1.M20090826-0800a,"",1417590500602
activated,workbench,org.eclipse.ui.workbench,3.5.1.M20090826-0800a,"",1417590503217
executed,command,org.eclipse.ui,3.5.1.M20090902-1000,"org.eclipse.ui.file.save",1417590511946
executed,command,org.eclipse.ui,3.5.1.M20090902-1000,"org.eclipse.ui.file.save",1417590515766
deactivated,workbench,org.eclipse.ui.workbench,3.5.1.M20090826-0800a,"",1417590518474
activated,workbench,org.eclipse.ui.workbench,3.5.1.M20090826-0800a,"",1417590522793
deactivated,workbench,org.eclipse.ui.workbench,3.5.1.M20090826-0800a,"",1417590541055
activated,workbench,org.eclipse.ui.workbench,3.5.1.M20090826-0800a,"",1417590548435
deactivated,workbench,org.eclipse.ui.workbench,3.5.1.M20090826-0800a,"",1417590561228
activated,workbench,org.eclipse.ui.workbench,3.5.1.M20090826-0800a,"",1417590567603
deactivated,workbench,org.eclipse.ui.workbench,3.5.1.M20090826-0800a,"",1417590574420
activated,workbench,org.eclipse.ui.workbench,3.5.1.M20090826-0800a,"",1417590575447
deactivated,workbench,org.eclipse.ui.workbench,3.5.1.M20090826-0800a,"",1417590609172
activated,workbench,org.eclipse.ui.workbench,3.5.1.M20090826-0800a,"",1417590611521
deactivated,workbench,org.eclipse.ui.workbench,3.5.1.M20090826-0800a,"",1417590618482
activated,workbench,org.eclipse.ui.workbench,3.5.1.M20090826-0800a,"",1417590621568
